Code/Matlab/Miscellaneous_Analysis/Control_Methods_Testing/Passive_Filter_WhiteNoise_Data/NewFile5.csv

X,CH1,CH2,Start,Increment,
Sequence,Volt,Volt,-9.200000e-03,5.000000e-05
0,7.60e+00,-4.80e-02,
1,-8.20e+00,2.56e-01,
2,8.80e+00,2.64e-01,
3,-8.60e+00,-8.00e-02,
4,-8.00e+00,-6.00e-02,
5,8.40e+00,2.80e-01,
6,-8.20e+00,-7.20e-02,
7,8.60e+00,2.76e-01,
8,-8.20e+00,-7.20e-02,
9,8.60e+00,3.00e-01,
10,-8.20e+00,2.72e-01,
11,8.40e+00,-6.80e-02,
12,8.80e+00,-7.20e-02,
13,-8.40e+00,2.52e-01,
14,8.80e+00,2.76e-01,
15,-8.00e+00,-7.60e-02,
16,8.60e+00,-7.60e-02,
17,-9.20e+00,2.64e-01,
18,-8.00e+00,-6.80e-02,
19,9.00e+00,2.72e-01,
20,-7.80e+00,2.76e-01,
21,8.40e+00,-7.60e-02,
22,-8.00e+00,2.48e-01,
23,9.20e+00,-7.20e-02,
24,-7.80e+00,-7.20e-02,
25,8.20e+00,2.76e-01,
26,8.00e+00,-7.60e-02,
27,-8.60e+00,2.52e-01,
28,-7.80e+00,2.64e-01,
29,9.00e+00,-7.60e-02,
30,8.80e+00,2.84e-01,
31,-8.20e+00,-8.80e-02,
32,-8.40e+00,-6.40e-02,
33,8.80e+00,2.84e-01,
34,8.60e+00,-7.20e-02,
35,-8.40e+00,2.68e-01,
36,-8.00e+00,-6.00e-02,
37,8.60e+00,2.68e-01,
38,-8.00e+00,2.92e-01,
39,8.40e+00,-6.80e-02,
40,8.80e+00,-5.60e-02,
41,-8.60e+00,2.64e-01,
42,8.00e+00,2.68e-01,
43,-8.20e+00,-8.40e-02,
44,8.80e+00,-6.00e-02,
45,-9.00e+00,2.72e-01,
46,-8.00e+00,-5.20e-02,
47,8.40e+00,2.88e-01,
48,8.80e+00,-7.20e-02,
49,-8.60e+00,2.92e-01,
50,-8.00e+00,-8.00e-02,
51,8.40e+00,2.96e-01,
52,-8.20e+00,2.60e-01,
53,8.80e+00,-7.60e-02,
54,-9.20e+00,-8.80e-02,
55,8.80e+00,2.76e-01,
56,8.80e+00,-7.20e-02,
57,-8.00e+00,3.00e-01,
58,8.40e+00,-8.80e-02,
59,-8.80e+00,2.60e-01,
60,-7.60e+00,-8.00e-02,
61,9.00e+00,2.68e-01,
62,8.20e+00,2.88e-01,
63,-8.00e+00,-8.80e-02,
64,-8.20e+00,2.60e-01,
65,9.20e+00,-6.40e-02,
66,-7.80e+00,-6.40e-02,
67,8.80e+00,2.92e-01,
68,-8.60e+00,2.64e-01,
69,9.00e+00,-1.04e-01,
70,8.40e+00,2.96e-01,
71,-7.40e+00,-6.40e-02,
72,8.80e+00,2.68e-01,
73,-8.00e+00,-1.00e-01,
74,-8.20e+00,2.96e-01,
75,8.80e+00,-5.20e-02,
76,8.60e+00,2.96e-01,
77,-8.40e+00,-7.60e-02,
78,-7.80e+00,2.76e-01,
79,8.80e+00,-6.40e-02,
80,-8.00e+00,2.80e-01,
81,8.80e+00,-7.20e-02,
82,-8.60e+00,-6.00e-02,
83,8.20e+00,2.72e-01,
84,-8.40e+00,2.56e-01,
85,8.00e+00,-7.60e-02,
86,8.80e+00,-6.00e-02,
87,-8.80e+00,2.72e-01,
88,8.20e+00,-6.80e-02,
89,-8.20e+00,2.80e-01,
90,8.80e+00,-6.80e-02,
91,-8.60e+00,2.80e-01,
92,-8.00e+00,2.76e-01,
93,8.40e+00,-6.40e-02,
94,-8.20e+00,2.68e-01,
95,8.80e+00,-7.20e-02,
96,-8.60e+00,-6.80e-02,
97,8.60e+00,2.84e-01,
98,-8.00e+00,2.88e-01,
99,8.20e+00,-8.40e-02,
100,8.40e+00,-7.60e-02,
101,-8.20e+00,2.64e-01,
102,-8.00e+00,-6.80e-02,
103,9.00e+00,2.96e-01,
104,8.40e+00,2.60e-01,
105,-8.00e+00,-1.12e-01,
106,-8.40e+00,2.68e-01,
107,9.20e+00,-6.80e-02,
108,-7.60e+00,2.68e-01,
109,8.40e+00,-8.00e-02,
110,-8.20e+00,-1.08e-01,
111,9.00e+00,2.52e-01,
112,-7.40e+00,2.84e-01,
113,8.40e+00,-6.40e-02,
114,8.40e+00,2.76e-01,
115,-8.00e+00,-1.12e-01,
116,-8.40e+00,2.92e-01,
117,9.00e+00,-6.40e-02,
118,8.40e+00,2.80e-01,
119,-8.20e+00,-7.20e-02,
120,-7.80e+00,-6.00e-02,
121,8.20e+00,2.88e-01,
122,8.80e+00,-6.80e-02,
123,-8.40e+00,2.68e-01,
124,-8.00e+00,-7.20e-02,
125,8.20e+00,2.72e-01,
126,-8.20e+00,2.68e-01,
127,8.40e+00,-8.40e-02,
128,8.80e+00,-7.20e-02,
129,-8.80e+00,2.72e-01,
130,8.20e+00,-6.00e-02,
131,-8.20e+00,2.92e-01,
132,8.80e+00,-6.80e-02,
133,-8.80e+00,2.68e-01,
134,-7.80e+00,-6.80e-02,
135,8.20e+00,2.80e-01,
136,8.80e+00,2.68e-01,
137,-9.20e+00,-8.00e-02,
138,-7.80e+00,-8.40e-02,
139,8.80e+00,2.96e-01,
140,-8.00e+00,2.84e-01,
141,8.40e+00,-6.80e-02,
142,-8.00e+00,-8.00e-02,
143,8.80e+00,2.64e-01,
144,9.00e+00,-8.00e-02,
145,-7.80e+00,2.76e-01,
146,8.20e+00,2.52e-01,
147,-8.20e+00,-8.00e-02,
148,-7.60e+00,-6.00e-02,
149,9.00e+00,2.56e-01,
150,8.80e+00,2.88e-01,
151,-8.80e+00,-1.08e-01,
152,-7.80e+00,-6.00e-02,
153,9.00e+00,2.60e-01,
154,-7.40e+00,2.96e-01,
155,8.60e+00,-6.80e-02,
156,-8.20e+00,2.68e-01,
157,9.00e+00,-8.40e-02,
158,8.20e+00,3.00e-01,
159,-7.80e+00,-5.20e-02,
160,8.60e+00,2.68e-01,
161,-8.40e+00,-7.60e-02,
162,8.40e+00,-6.00e-02,
163,-8.00e+00,2.84e-01,
164,8.60e+00,-6.40e-02,
165,-8.60e+00,2.68e-01,
166,-8.20e+00,-6.00e-02,
167,8.20e+00,2.68e-01,
168,-8.20e+00,2.56e-01,
169,8.80e+00,-8.00e-02,
170,-8.60e+00,2.68e-01,
171,8.00e+00,-5.60e-02,
172,7.80e+00,2.72e-01,
173,-8.20e+00,-7.20e-02,
174,8.80e+00,-6.40e-02,
175,-8.80e+00,2.68e-01,
176,8.40e+00,-5.60e-02,
177,-8.20e+00,2.88e-01,
178,8.80e+00,2.68e-01,
179,-9.00e+00,-6.80e-02,
180,-8.00e+00,-7.60e-02,
181,8.80e+00,2.84e-01,
182,-8.00e+00,2.76e-01,
183,8.60e+00,-6.40e-02,
184,-8.20e+00,-5.60e-02,
185,9.00e+00,2.84e-01,
186,-7.80e+00,2.88e-01,
187,8.20e+00,-7.20e-02,
188,8.60e+00,2.48e-01,
189,-9.00e+00,-9.60e-02,
190,-7.60e+00,-6.80e-02,
191,8.80e+00,2.76e-01,
192,8.60e+00,2.88e-01,
193,-8.20e+00,-1.00e-01,
194,-7.60e+00,-6.00e-02,
195,9.00e+00,2.84e-01,
196,8.20e+00,2.88e-01,
197,-7.80e+00,-7.60e-02,
198,-8.60e+00,-7.60e-02,
199,9.00e+00,2.64e-01,
200,7.80e+00,2.92e-01,
201,-7.80e+00,-6.80e-02,
202,8.60e+00,-6.00e-02,
203,-8.20e+00,2.64e-01,
204,-8.20e+00,2.72e-01,
205,8.40e+00,-8.00e-02,
206,8.80e+00,2.60e-01,
207,-8.60e+00,-6.00e-02,
208,-8.20e+00,2.76e-01,
209,8.20e+00,-4.80e-02,
210,8.80e+00,2.76e-01,
211,-8.80e+00,-7.60e-02,
212,-8.60e+00,-6.40e-02,
213,8.20e+00,2.60e-01,
214,-8.20e+00,2.68e-01,
215,8.40e+00,-6.40e-02,
216,8.80e+00,-5.60e-02,
217,-9.20e+00,2.72e-01,
218,8.40e+00,-6.40e-02,
219,-8.20e+00,3.04e-01,
220,8.80e+00,2.68e-01,
221,-8.40e+00,-8.40e-02,
222,-7.80e+00,-8.00e-02,
223,8.60e+00,3.04e-01,
224,-8.00e+00,2.88e-01,
225,8.60e+00,-7.60e-02,
226,-8.20e+00,-8.00e-02,
227,9.00e+00,2.88e-01,
228,-7.80e+00,2.68e-01,
229,8.20e+00,-6.40e-02,
230,-8.80e+00,-1.04e-01,
231,8.40e+00,2.60e-01,
232,9.00e+00,-7.60e-02,
233,-7.60e+00,2.80e-01,
234,-7.80e+00,2.60e-01,
235,8.00e+00,-1.08e-01,
236,-8.20e+00,3.00e-01,
237,9.20e+00,-6.80e-02,
238,-7.80e+00,2.96e-01,
239,8.40e+00,-9.20e-02,
240,-8.40e+00,2.68e-01,
241,8.80e+00,-6.40e-02,
242,-7.60e+00,2.96e-01,
243,8.80e+00,-5.60e-02,
244,-8.20e+00,-8.40e-02,
245,8.60e+00,2.72e-01,
246,8.40e+00,2.84e-01,
247,-8.00e+00,-6.40e-02,
248,8.60e+00,2.80e-01,
249,-8.60e+00,-6.40e-02,
250,8.40e+00,2.72e-01,
251,-8.20e+00,-5.20e-02,
252,8.80e+00,-7.20e-02,
253,-8.60e+00,2.56e-01,
254,-8.00e+00,-6.40e-02,
255,8.00e+00,2.84e-01,
256,-8.40e+00,2.64e-01,
257,8.80e+00,-6.80e-02,
258,-8.80e+00,2.76e-01,
259,8.40e+00,-7.60e-02,
260,-8.20e+00,2.88e-01,
261,8.00e+00,-7.20e-02,
262,8.80e+00,-6.40e-02,
263,-8.40e+00,2.68e-01,
264,8.80e+00,-6.80e-02,
265,-8.20e+00,2.92e-01,
266,8.60e+00,2.68e-01,
267,-8.00e+00,-7.20e-02,
268,-8.00e+00,2.88e-01,
269,9.00e+00,-7.20e-02,
270,-7.80e+00,2.72e-01,
271,8.60e+00,-7.60e-02,
272,-9.00e+00,-1.00e-01,
273,9.00e+00,2.76e-01,
274,-7.60e+00,2.88e-01,
275,8.40e+00,-7.60e-02,
276,7.80e+00,2.56e-01,
277,-8.40e+00,-1.20e-01,
278,-7.80e+00,2.68e-01,
279,9.20e+00,-7.20e-02,
280,8.60e+00,2.88e-01,
281,-8.00e+00,-1.04e-01,
282,-8.40e+00,-6.00e-02,
283,8.80e+00,3.00e-01,
284,-7.60e+00,2.64e-01,
285,8.80e+00,-6.40e-02,
286,-8.20e+00,2.76e-01,
287,8.20e+00,-7.20e-02,
288,-8.00e+00,2.80e-01,
289,8.20e+00,-8.80e-02,
290,8.40e+00,2.72e-01,
291,-8.40e+00,-7.60e-02,
292,8.40e+00,2.84e-01,
293,-8.20e+00,-7.60e-02,
294,8.80e+00,2.52e-01,
295,-8.80e+00,-6.00e-02,
296,-8.00e+00,2.68e-01,
297,8.40e+00,-6.40e-02,
298,-8.20e+00,-8.00e-02,
299,8.80e+00,2.64e-01,
300,-9.20e+00,-6.40e-02,
301,8.60e+00,2.96e-01,
302,-8.40e+00,2.76e-01,
303,8.40e+00,-7.20e-02,
304,8.80e+00,2.64e-01,
305,-8.60e+00,-6.00e-02,
306,8.80e+00,-8.00e-02,
307,-8.00e+00,2.96e-01,
308,8.60e+00,-8.00e-02,
309,-9.20e+00,2.52e-01,
310,-7.60e+00,-7.60e-02,
311,9.00e+00,2.84e-01,
312,8.40e+00,2.64e-01,
313,-8.80e+00,-7.20e-02,
314,-7.80e+00,-1.00e-01,
315,9.20e+00,2.56e-01,
316,8.20e+00,-6.00e-02,
317,-7.60e+00,2.84e-01,
318,8.00e+00,2.56e-01,
319,-8.00e+00,-1.04e-01,
320,-7.80e+00,2.96e-01,
321,9.20e+00,-6.80e-02,
322,8.80e+00,2.88e-01,
323,-8.20e+00,-1.04e-01,
324,-8.40e+00,-6.00e-02,
325,8.80e+00,2.88e-01,
326,8.80e+00,-7.20e-02,
327,-8.00e+00,2.80e-01,
328,-8.20e+00,-6.40e-02,
329,8.80e+00,2.64e-01,
330,-7.80e+00,3.04e-01,
331,8.60e+00,-6.40e-02,
332,-8.40e+00,2.68e-01,
333,8.40e+00,-5.60e-02,
334,8.60e+00,2.72e-01,
335,-8.00e+00,-8.00e-02,
336,8.80e+00,2.64e-01,
337,-9.00e+00,-6.80e-02,
338,8.40e+00,2.72e-01,
339,-8.20e+00,-4.80e-02,
340,8.80e+00,2.64e-01,
341,-8.80e+00,-6.80e-02,
342,-8.20e+00,-7.20e-02,
343,8.40e+00,2.84e-01,
344,-8.20e+00,2.84e-01,
345,8.80e+00,-6.80e-02,
346,-8.40e+00,-8.00e-02,
347,8.80e+00,2.64e-01,
348,7.60e+00,2.88e-01,
349,-8.20e+00,-6.00e-02,
350,8.60e+00,-7.60e-02,
351,-9.00e+00,2.64e-01,
352,9.00e+00,2.84e-01,
353,-7.80e+00,-7.60e-02,
354,8.20e+00,2.80e-01,
355,-8.00e+00,-7.60e-02,
356,-8.00e+00,2.72e-01,
357,9.00e+00,-6.00e-02,
358,8.20e+00,2.80e-01,
359,-7.80e+00,-7.60e-02,
360,-8.00e+00,2.48e-01,
361,9.00e+00,-1.12e-01,
362,-7.80e+00,-6.80e-02,
363,8.60e+00,2.88e-01,
364,8.80e+00,2.52e-01,
365,-8.00e+00,-1.08e-01,
366,-8.20e+00,2.96e-01,
367,8.80e+00,-7.20e-02,
368,8.20e+00,2.92e-01,
369,-8.20e+00,-8.80e-02,
370,-8.40e+00,-6.00e-02,
371,8.80e+00,2.76e-01,
372,-7.80e+00,2.84e-01,
373,8.60e+00,-7.20e-02,
374,-8.40e+00,-6.00e-02,
375,8.20e+00,2.68e-01,
376,-8.20e+00,2.56e-01,
377,8.60e+00,-8.40e-02,
378,8.80e+00,-6.00e-02,
379,-8.80e+00,2.64e-01,
380,8.20e+00,-6.00e-02,
381,-8.20e+00,2.68e-01,
382,8.80e+00,-8.40e-02,
383,-8.60e+00,2.72e-01,
384,-8.00e+00,-6.80e-02,
385,8.40e+00,2.96e-01,
386,-8.20e+00,2.68e-01,
387,8.60e+00,-6.40e-02,
388,-9.00e+00,-7.60e-02,
389,8.40e+00,2.96e-01,
390,-8.40e+00,2.68e-01,
391,8.40e+00,-7.20e-02,
392,8.40e+00,-8.00e-02,
393,-9.20e+00,2.60e-01,
394,9.00e+00,-8.00e-02,
395,-8.00e+00,3.00e-01,
396,8.40e+00,2.60e-01,
397,-8.00e+00,-8.40e-02,
398,-8.40e+00,2.60e-01,
399,9.20e+00,-7.20e-02,
400,8.20e+00,2.72e-01,
401,-8.60e+00,-6.80e-02,
402,-8.20e+00,-9.20e-02,
403,9.00e+00,2.60e-01,
404,-7.20e+00,2.72e-01,
405,8.60e+00,-7.20e-02,
406,8.80e+00,2.76e-01,
407,-8.60e+00,-1.00e-01,
408,-8.40e+00,2.92e-01,
409,8.60e+00,-1.08e-01,
410,8.20e+00,2.72e-01,
411,-8.20e+00,-6.80e-02,
412,-8.00e+00,-6.40e-02,
413,8.80e+00,2.96e-01,
414,8.60e+00,-6.40e-02,
415,-8.40e+00,2.80e-01,
416,8.20e+00,-6.80e-02,
417,-8.00e+00,2.76e-01,
418,-8.00e+00,2.84e-01,
419,8.80e+00,-8.00e-02,
420,-9.00e+00,-6.40e-02,
421,8.00e+00,2.72e-01,
422,8.20e+00,2.64e-01,
423,-8.40e+00,-6.40e-02,
424,8.80e+00,-6.40e-02,
425,-8.60e+00,2.60e-01,
426,-7.80e+00,-6.40e-02,
427,8.20e+00,2.76e-01,
428,8.80e+00,2.68e-01,
429,-9.20e+00,-8.00e-02,
430,-7.80e+00,-6.40e-02,
431,8.60e+00,3.00e-01,
432,-8.20e+00,2.68e-01,
433,8.80e+00,-8.40e-02,
434,-8.40e+00,-8.00e-02,
435,9.00e+00,2.76e-01,
436,-8.00e+00,-7.60e-02,
437,8.40e+00,2.88e-01,
438,8.40e+00,-8.40e-02,
439,-8.20e+00,2.64e-01,
440,9.00e+00,2.76e-01,
441,-7.80e+00,-5.60e-02,
442,8.60e+00,2.76e-01,
443,-8.80e+00,-1.12e-01,
444,-8.20e+00,-6.40e-02,
445,9.00e+00,2.60e-01,
446,-7.40e+00,2.96e-01,
447,8.60e+00,-8.40e-02,
448,-8.20e+00,2.68e-01,
449,9.00e+00,-9.20e-02,
450,8.20e+00,-6.00e-02,
451,-7.80e+00,3.00e-01,
452,8.40e+00,2.72e-01,
453,-8.40e+00,-1.04e-01,
454,9.00e+00,-6.80e-02,
455,-7.80e+00,2.80e-01,
456,8.60e+00,2.68e-01,
457,-8.40e+00,-6.00e-02,
458,-8.20e+00,-5.60e-02,
459,8.00e+00,2.64e-01,
460,-8.00e+00,2.64e-01,
461,8.80e+00,-9.20e-02,
462,-8.80e+00,-6.80e-02,
463,8.00e+00,2.72e-01,
464,-8.20e+00,-7.60e-02,
465,7.80e+00,2.72e-01,
466,8.80e+00,-6.00e-02,
467,-8.80e+00,2.80e-01,
468,8.20e+00,-6.00e-02,
469,-8.20e+00,2.76e-01,
470,8.80e+00,2.60e-01,
471,-9.20e+00,-6.80e-02,
472,-7.80e+00,-6.80e-02,
473,8.60e+00,2.96e-01,
474,-8.20e+00,2.76e-01,
475,8.80e+00,-6.80e-02,
476,-8.40e+00,-8.40e-02,
477,8.80e+00,3.00e-01,
478,-8.00e+00,2.84e-01,
479,8.20e+00,-6.00e-02,
480,8.40e+00,2.52e-01,
481,-8.40e+00,-9.60e-02,
482,9.00e+00,-7.60e-02,
483,-7.80e+00,2.76e-01,
484,8.20e+00,2.44e-01,
485,-8.40e+00,-1.08e-01,
486,-8.00e+00,-6.00e-02,
487,9.00e+00,2.60e-01,
488,8.60e+00,-6.80e-02,
489,-8.00e+00,2.76e-01,
490,-8.60e+00,-1.12e-01,
491,9.00e+00,2.64e-01,
492,8.00e+00,3.00e-01,
493,-7.80e+00,-6.80e-02,
494,8.20e+00,2.68e-01,
495,-8.20e+00,-6.80e-02,
496,8.40e+00,2.84e-01,
497,-7.80e+00,-7.60e-02,
498,8.60e+00,2.84e-01,
499,-8.20e+00,-6.40e-02,
500,-8.20e+00,-4.80e-02,
501,8.20e+00,2.84e-01,
502,8.80e+00,-7.60e-02,
503,-8.60e+00,2.64e-01,
504,-8.00e+00,-5.60e-02,
505,8.40e+00,2.68e-01,
506,-8.20e+00,2.64e-01,
507,8.60e+00,-6.80e-02,
508,8.80e+00,2.68e-01,
509,-9.20e+00,-6.00e-02,
510,8.20e+00,2.84e-01,
511,-8.20e+00,-5.20e-02,
512,8.80e+00,-7.20e-02,
513,-9.20e+00,2.72e-01,
514,-8.00e+00,-7.20e-02,
515,8.60e+00,2.88e-01,
516,-8.40e+00,2.72e-01,
517,8.80e+00,-7.20e-02,
518,-8.20e+00,-7.20e-02,
519,9.00e+00,2.80e-01,
520,-8.00e+00,2.68e-01,
521,8.40e+00,-7.20e-02,
522,-9.00e+00,2.76e-01,
523,9.00e+00,-8.40e-02,
524,-7.60e+00,-6.00e-02,
525,8.40e+00,2.72e-01,
526,8.60e+00,2.48e-01,
527,-8.80e+00,-1.04e-01,
528,9.20e+00,2.88e-01,
529,-7.60e+00,-5.60e-02,
530,8.40e+00,2.56e-01,
531,-7.80e+00,-1.08e-01,
532,-8.40e+00,-6.40e-02,
533,9.00e+00,2.52e-01,
534,-7.80e+00,2.88e-01,
535,8.80e+00,-6.00e-02,
536,-8.00e+00,-1.00e-01,
537,8.80e+00,2.64e-01,
538,-7.80e+00,2.92e-01,
539,8.60e+00,-6.80e-02,
540,8.60e+00,2.68e-01,
541,-8.40e+00,-5.20e-02,
542,-8.00e+00,-4.80e-02,
543,8.80e+00,2.80e-01,
544,8.80e+00,2.56e-01,
545,-8.40e+00,-7.60e-02,
546,-8.00e+00,-6.00e-02,
547,8.00e+00,2.76e-01,
548,-8.20e+00,2.72e-01,
549,8.80e+00,-7.60e-02,
550,-9.00e+00,2.72e-01,
551,8.20e+00,-6.80e-02,
552,7.80e+00,2.80e-01,
553,-8.20e+00,-7.20e-02,
554,8.80e+00,-6.40e-02,
555,-8.40e+00,2.76e-01,
556,8.60e+00,-7.20e-02,
557,-8.20e+00,3.00e-01,
558,8.80e+00,2.80e-01,
559,-8.40e+00,-7.60e-02,
560,-7.80e+00,2.80e-01,
561,8.60e+00,-8.00e-02,
562,-8.00e+00,2.72e-01,
563,8.40e+00,-6.80e-02,
564,-9.00e+00,-8.40e-02,
565,9.00e+00,2.80e-01,
566,-7.60e+00,2.80e-01,
567,7.60e+00,-7.60e-02,
568,8.00e+00,2.56e-01,
569,-8.00e+00,-1.00e-01,
570,-8.00e+00,-7.20e-02,
571,9.20e+00,2.76e-01,
572,8.20e+00,2.72e-01,
573,-7.80e+00,-1.12e-01,
574,-8.60e+00,3.04e-01,
575,9.00e+00,-7.20e-02,
576,-7.40e+00,2.60e-01,
577,8.60e+00,-6.00e-02,
578,-8.20e+00,2.76e-01,
579,8.60e+00,-8.80e-02,
580,-7.60e+00,2.88e-01,
581,8.60e+00,-7.20e-02,
582,8.60e+00,2.76e-01,
583,-8.20e+00,-6.80e-02,
584,-8.20e+00,2.88e-01,
585,8.40e+00,-7.20e-02,
586,8.80e+00,-4.80e-02,
587,-8.40e+00,2.64e-01,
588,-8.00e+00,2.64e-01,
589,8.40e+00,-5.20e-02,
590,8.80e+00,2.64e-01,
591,-9.20e+00,-6.80e-02,
592,-8.00e+00,-6.40e-02,
593,8.40e+00,2.92e-01,
594,-8.20e+00,2.76e-01,
595,8.60e+00,-7.20e-02,
596,8.80e+00,-7.60e-02,
597,-8.40e+00,2.76e-01,
598,8.60e+00,-7.20e-02,
599,-8.20e+00,2.96e-01,
600,8.80e+00,-8.40e-02,
601,-8.40e+00,2.72e-01,
602,-7.80e+00,-6.40e-02,
603,9.00e+00,3.00e-01,
604,8.60e+00,2.72e-01,
605,-9.00e+00,-9.20e-02,
606,-7.60e+00,-8.40e-02,
607,9.00e+00,2.80e-01,
608,-7.80e+00,2.88e-01,
609,8.60e+00,-6.40e-02,
610,-8.20e+00,-9.20e-02,
611,8.80e+00,2.56e-01,
612,9.00e+00,-6.40e-02,
613,-7.80e+00,3.00e-01,
614,8.20e+00,2.68e-01,
615,-8.40e+00,-1.04e-01,
616,-7.80e+00,-6.40e-02,
617,9.00e+00,2.72e-01,
618,8.60e+00,2.96e-01,
619,-8.00e+00,-1.04e-01,
620,-8.20e+00,-5.60e-02,
621,8.80e+00,2.64e-01,
622,-7.80e+00,2.96e-01,
623,8.40e+00,-6.40e-02,
624,-8.20e+00,2.76e-01,
625,8.80e+00,-7.60e-02,
626,8.20e+00,2.60e-01,
627,-8.00e+00,-8.00e-02,
628,8.80e+00,2.68e-01,
629,-8.60e+00,-6.40e-02,
630,-8.20e+00,2.76e-01,
631,8.40e+00,-4.40e-02,
632,8.80e+00,2.56e-01,
633,-8.60e+00,-8.00e-02,
634,-8.40e+00,-6.80e-02,
635,8.40e+00,2.80e-01,
636,-8.20e+00,2.76e-01,
637,8.60e+00,-7.20e-02,
638,-8.40e+00,-5.60e-02,
639,8.40e+00,2.80e-01,
640,-8.20e+00,3.12e-01,
641,7.80e+00,-6.00e-02,
642,8.80e+00,-7.20e-02,
643,-9.20e+00,2.72e-01,
644,8.80e+00,2.84e-01,
645,-8.00e+00,-8.00e-02,
646,8.60e+00,2.64e-01,
647,-9.20e+00,-7.20e-02,
648,-8.00e+00,-6.80e-02,
649,9.00e+00,2.84e-01,
650,-7.80e+00,2.76e-01,
651,8.60e+00,-7.60e-02,
652,-8.60e+00,-1.12e-01,
653,9.20e+00,2.52e-01,
654,8.00e+00,-6.80e-02,
655,-7.80e+00,2.68e-01,
656,8.60e+00,-1.00e-01,
657,-8.40e+00,2.40e-01,
658,-8.20e+00,2.88e-01,
659,9.00e+00,-7.60e-02,
660,8.80e+00,2.96e-01,
661,-8.00e+00,-9.20e-02,
662,-8.60e+00,-6.00e-02,
663,8.80e+00,2.76e-01,
664,-7.80e+00,2.92e-01,
665,8.60e+00,-6.40e-02,
666,-8.20e+00,-6.00e-02,
667,8.60e+00,2.72e-01,
668,-8.00e+00,2.92e-01,
669,8.00e+00,-6.80e-02,
670,8.80e+00,-6.00e-02,
671,-8.40e+00,2.68e-01,
672,8.20e+00,2.60e-01,
673,-8.40e+00,-8.00e-02,
674,8.80e+00,2.60e-01,
675,-8.60e+00,-6.40e-02,
676,-8.00e+00,-5.20e-02,
677,8.40e+00,2.80e-01,
678,8.60e+00,2.68e-01,
679,-8.60e+00,-7.20e-02,
680,-7.80e+00,-6.80e-02,
681,8.40e+00,2.96e-01,
682,-8.20e+00,2.64e-01,
683,8.40e+00,-7.60e-02,
684,8.80e+00,-8.80e-02,
685,-9.20e+00,2.76e-01,
686,8.80e+00,-7.60e-02,
687,-8.00e+00,2.88e-01,
688,8.60e+00,2.60e-01,
689,-8.00e+00,-8.40e-02,
690,-7.60e+00,2.72e-01,
691,9.20e+00,-7.60e-02,
692,8.20e+00,2.60e-01,
693,-8.00e+00,-8.40e-02,
694,-8.20e+00,-7.20e-02,
695,9.00e+00,2.56e-01,
696,-7.80e+00,-6.80e-02,
697,8.60e+00,2.92e-01,
698,-8.60e+00,2.48e-01,
699,8.00e+00,-1.04e-01,
700,8.80e+00,2.96e-01,
701,-7.40e+00,-7.20e-02,
702,8.20e+00,2.68e-01,
703,-7.80e+00,-8.40e-02,
704,-8.20e+00,-6.00e-02,
705,8.80e+00,3.00e-01,
706,8.60e+00,2.88e-01,
707,-8.20e+00,-7.60e-02,
708,-8.20e+00,2.68e-01,
709,8.40e+00,-6.00e-02,
710,-8.00e+00,2.84e-01,
711,8.80e+00,-6.80e-02,
712,-8.60e+00,-6.40e-02,
713,8.20e+00,2.76e-01,
714,-8.20e+00,2.56e-01,
715,8.20e+00,-8.00e-02,
716,8.80e+00,2.60e-01,
717,-8.80e+00,-5.20e-02,
718,7.80e+00,2.76e-01,
719,-8.20e+00,-6.80e-02,
720,8.80e+00,-6.80e-02,
721,-8.40e+00,2.68e-01,
722,-8.00e+00,-6.00e-02,
723,8.60e+00,2.88e-01,
724,-8.40e+00,2.72e-01,
725,8.80e+00,-7.20e-02,
726,-9.00e+00,2.76e-01,
727,8.80e+00,-7.60e-02,
728,-8.00e+00,-6.80e-02,
729,8.20e+00,2.96e-01,
730,8.40e+00,-8.00e-02,
731,-8.20e+00,2.64e-01,
732,9.00e+00,-7.20e-02,
733,-7.80e+00,2.92e-01,
734,8.40e+00,2.68e-01,
735,-9.00e+00,-1.00e-01,
736,-8.60e+00,-8.80e-02,
737,9.00e+00,2.68e-01,
738,-7.60e+00,2.68e-01,
739,8.40e+00,-7.60e-02,
740,-8.20e+00,2.60e-01,
741,9.00e+00,-7.60e-02,
742,8.40e+00,-6.80e-02,
743,-7.60e+00,2.92e-01,
744,8.40e+00,2.68e-01,
745,-8.40e+00,-1.08e-01,
746,-8.00e+00,2.96e-01,
747,9.00e+00,-6.40e-02,
748,8.60e+00,2.72e-01,
749,-8.20e+00,-6.40e-02,
750,-8.00e+00,-6.00e-02,
751,8.20e+00,2.64e-01,
752,-8.00e+00,2.80e-01,
753,8.80e+00,-9.20e-02,
754,-8.40e+00,-6.80e-02,
755,8.40e+00,2.76e-01,
756,-8.40e+00,2.80e-01,
757,8.40e+00,-8.00e-02,
758,8.80e+00,-6.40e-02,
759,-8.60e+00,2.64e-01,
760,8.00e+00,2.76e-01,
761,-8.20e+00,-6.40e-02,
762,8.80e+00,2.56e-01,
763,-9.20e+00,-6.40e-02,
764,-7.80e+00,-6.80e-02,
765,8.20e+00,3.00e-01,
766,8.80e+00,2.76e-01,
767,-8.40e+00,-8.00e-02,
768,-9.20e+00,-8.40e-02,
769,8.80e+00,3.08e-01,
770,-8.00e+00,2.88e-01,
771,8.20e+00,-6.80e-02,
772,8.60e+00,2.64e-01,
773,-8.20e+00,-7.60e-02,
774,9.00e+00,2.76e-01,
775,-7.80e+00,-7.60e-02,
776,8.00e+00,2.52e-01,
777,-8.80e+00,-1.08e-01,
778,-7.80e+00,-5.60e-02,
779,9.00e+00,2.64e-01,
780,8.80e+00,2.64e-01,
781,-7.60e+00,-8.80e-02,
782,-8.40e+00,-1.08e-01,
783,9.20e+00,2.48e-01,
784,8.20e+00,3.00e-01,
785,-7.80e+00,-7.20e-02,
786,8.00e+00,2.76e-01,
787,-8.20e+00,-9.20e-02,
788,9.00e+00,-6.80e-02,
789,-7.80e+00,3.00e-01,
790,8.80e+00,2.96e-01,
791,-8.20e+00,-8.40e-02,
792,-8.20e+00,-6.40e-02,
793,8.60e+00,2.88e-01,
794,8.80e+00,-7.20e-02,
795,-8.60e+00,2.76e-01,
796,-8.20e+00,-6.40e-02,
797,8.60e+00,2.72e-01,
798,-8.20e+00,-7.20e-02,
799,8.80e+00,2.60e-01,
800,-8.60e+00,-5.60e-02,
801,8.20e+00,2.60e-01,
802,8.00e+00,2.72e-01,
803,-8.20e+00,-6.40e-02,
804,8.80e+00,-6.80e-02,
805,-9.00e+00,2.68e-01,
806,8.40e+00,-7.20e-02,
807,-8.20e+00,2.84e-01,
808,8.80e+00,2.76e-01,
809,-8.40e+00,-6.80e-02,
810,-8.00e+00,-7.60e-02,
811,8.80e+00,2.92e-01,
812,-8.00e+00,2.68e-01,
813,8.60e+00,-6.40e-02,
814,-8.20e+00,-8.00e-02,
815,9.00e+00,2.76e-01,
816,-8.00e+00,2.76e-01,
817,8.20e+00,-7.20e-02,
818,8.60e+00,-8.00e-02,
819,-8.80e+00,2.56e-01,
820,-8.00e+00,-6.40e-02,
821,9.00e+00,2.72e-01,
822,7.80e+00,2.84e-01,
823,-8.00e+00,-7.60e-02,
824,-8.00e+00,-6.00e-02,
825,9.00e+00,2.52e-01,
826,8.20e+00,2.88e-01,
827,-7.80e+00,-7.60e-02,
828,-8.40e+00,-1.08e-01,
829,8.80e+00,2.56e-01,
830,-7.60e+00,2.68e-01,
831,8.40e+00,-6.80e-02,
832,8.40e+00,2.64e-01,
833,-8.20e+00,-6.80e-02,
