Code/Matlab/Miscellaneous_Analysis/BPA_OL_Bode_Analysis/Open_Loop_Frequency_Response_Signals_2/NewFile16.csv

X,CH3,CH4,Start,Increment,
Sequence,Volt,Volt,-2.995000e+00,5.000000e-03
0,4.40e-01,2.40e-01,
1,5.20e-01,7.60e-01,
2,3.60e-01,6.40e-01,
3,4.80e-01,2.80e-01,
4,3.20e-01,2.40e-01,
5,4.80e-01,9.60e-01,
6,4.00e-01,6.40e-01,
7,3.20e-01,2.80e-01,
8,3.20e-01,2.80e-01,
9,4.00e-01,5.20e-01,
10,4.00e-01,2.80e-01,
11,3.20e-01,2.00e-01,
12,4.00e-01,2.00e-01,
13,2.80e-01,6.40e-01,
14,4.00e-01,2.00e-01,
15,3.20e-01,5.60e-01,
16,3.20e-01,8.40e-01,
17,4.80e-01,3.20e-01,
18,3.60e-01,2.00e-01,
19,5.20e-01,7.60e-01,
20,4.00e-01,1.00e+00,
21,5.60e-01,4.00e-01,
22,4.80e-01,2.40e-01,
23,6.00e-01,1.00e+00,
24,4.80e-01,1.12e+00,
25,6.80e-01,4.00e-01,
26,6.00e-01,3.20e-01,
27,7.60e-01,1.12e+00,
28,6.80e-01,8.40e-01,
29,8.00e-01,3.60e-01,
30,7.20e-01,3.20e-01,
31,9.60e-01,1.20e+00,
32,8.40e-01,7.20e-01,
33,1.04e+00,3.60e-01,
34,9.60e-01,3.20e-01,
35,1.12e+00,1.56e+00,
36,1.04e+00,5.60e-01,
37,1.28e+00,1.20e+00,
38,1.20e+00,1.28e+00,
39,1.40e+00,2.20e+00,
40,1.32e+00,1.00e+00,
41,1.52e+00,1.64e+00,
42,1.44e+00,1.84e+00,
43,1.64e+00,8.80e-01,
44,1.56e+00,6.80e-01,
45,1.76e+00,1.80e+00,
46,1.72e+00,2.32e+00,
47,1.96e+00,1.40e+00,
48,1.88e+00,1.16e+00,
49,2.08e+00,2.52e+00,
50,2.00e+00,2.64e+00,
51,2.24e+00,1.40e+00,
52,2.16e+00,1.28e+00,
53,2.36e+00,2.68e+00,
54,2.32e+00,2.76e+00,
55,2.56e+00,1.40e+00,
56,2.44e+00,1.52e+00,
57,2.68e+00,2.80e+00,
58,2.56e+00,2.80e+00,
59,2.84e+00,1.44e+00,
60,2.76e+00,2.28e+00,
61,2.96e+00,2.88e+00,
62,2.88e+00,2.68e+00,
63,3.12e+00,1.60e+00,
64,3.04e+00,2.40e+00,
65,3.28e+00,3.00e+00,
66,3.24e+00,1.84e+00,
67,3.44e+00,2.88e+00,
68,3.36e+00,3.08e+00,
69,3.56e+00,2.28e+00,
70,3.48e+00,2.00e+00,
71,3.68e+00,3.04e+00,
72,3.60e+00,3.12e+00,
73,3.88e+00,2.16e+00,
74,3.76e+00,2.08e+00,
75,3.96e+00,3.12e+00,
76,3.88e+00,3.16e+00,
77,4.08e+00,2.32e+00,
78,3.96e+00,2.88e+00,
79,4.16e+00,3.24e+00,
80,4.08e+00,3.28e+00,
81,4.28e+00,2.44e+00,
82,4.20e+00,3.04e+00,
83,4.40e+00,3.28e+00,
84,4.32e+00,3.28e+00,
85,4.48e+00,2.64e+00,
86,4.36e+00,3.20e+00,
87,4.56e+00,3.36e+00,
88,4.48e+00,2.68e+00,
89,4.64e+00,3.36e+00,
90,4.56e+00,3.24e+00,
91,4.68e+00,3.40e+00,
92,4.60e+00,2.96e+00,
93,4.76e+00,3.48e+00,
94,4.68e+00,3.48e+00,
95,4.76e+00,2.84e+00,
96,4.80e+00,2.80e+00,
97,4.72e+00,3.48e+00,
98,4.72e+00,3.04e+00,
99,4.84e+00,3.52e+00,
100,4.72e+00,3.52e+00,
101,4.88e+00,3.36e+00,
102,4.88e+00,3.52e+00,
103,4.72e+00,3.32e+00,
104,4.88e+00,3.52e+00,
105,4.72e+00,3.44e+00,
106,4.72e+00,3.04e+00,
107,4.84e+00,3.60e+00,
108,4.84e+00,3.40e+00,
109,4.68e+00,3.60e+00,
110,4.68e+00,3.40e+00,
111,4.80e+00,3.60e+00,
112,4.76e+00,3.48e+00,
113,4.60e+00,3.60e+00,
114,4.72e+00,2.76e+00,
115,4.56e+00,3.60e+00,
116,4.64e+00,3.60e+00,
117,4.48e+00,3.20e+00,
118,4.56e+00,3.12e+00,
119,4.44e+00,3.64e+00,
120,4.52e+00,3.60e+00,
121,4.32e+00,2.72e+00,
122,4.40e+00,2.88e+00,
123,4.24e+00,3.60e+00,
124,4.32e+00,3.60e+00,
125,4.12e+00,2.76e+00,
126,4.24e+00,3.40e+00,
127,4.00e+00,3.60e+00,
128,4.12e+00,3.60e+00,
129,3.88e+00,2.64e+00,
130,4.00e+00,3.36e+00,
131,3.76e+00,3.60e+00,
132,3.88e+00,3.52e+00,
133,3.64e+00,2.56e+00,
134,3.72e+00,3.60e+00,
135,3.52e+00,2.80e+00,
136,3.60e+00,2.32e+00,
137,3.36e+00,3.40e+00,
138,3.44e+00,3.48e+00,
139,3.24e+00,2.52e+00,
140,3.32e+00,2.20e+00,
141,3.12e+00,3.36e+00,
142,3.16e+00,3.40e+00,
143,2.92e+00,2.32e+00,
144,3.00e+00,2.12e+00,
145,2.80e+00,3.36e+00,
146,2.84e+00,3.32e+00,
147,2.64e+00,1.96e+00,
148,2.72e+00,2.08e+00,
149,2.52e+00,3.24e+00,
150,2.56e+00,2.92e+00,
151,2.32e+00,1.80e+00,
152,2.44e+00,3.04e+00,
153,2.16e+00,2.20e+00,
154,2.24e+00,1.56e+00,
155,2.04e+00,2.48e+00,
156,2.12e+00,2.80e+00,
157,1.88e+00,1.84e+00,
158,1.96e+00,1.40e+00,
159,1.76e+00,2.36e+00,
160,1.84e+00,2.68e+00,
161,1.64e+00,1.48e+00,
162,1.72e+00,1.28e+00,
163,1.48e+00,2.36e+00,
164,1.52e+00,2.44e+00,
165,1.32e+00,1.28e+00,
166,1.40e+00,1.08e+00,
167,1.20e+00,1.92e+00,
168,1.28e+00,1.44e+00,
169,1.08e+00,8.40e-01,
170,1.16e+00,8.00e-01,
171,9.60e-01,1.72e+00,
172,1.08e+00,1.16e+00,
173,8.80e-01,6.80e-01,
174,9.20e-01,8.80e-01,
175,8.00e-01,1.68e+00,
176,8.80e-01,1.00e+00,
177,6.80e-01,6.40e-01,
178,6.00e-01,1.04e+00,
179,7.60e-01,5.20e-01,
180,7.20e-01,3.60e-01,
181,5.60e-01,8.80e-01,
182,6.40e-01,8.80e-01,
183,4.40e-01,4.00e-01,
184,6.00e-01,3.20e-01,
185,4.40e-01,1.00e+00,
186,5.20e-01,9.60e-01,
187,3.60e-01,4.00e-01,
188,4.80e-01,3.20e-01,
189,3.20e-01,6.00e-01,
190,4.40e-01,4.00e-01,
191,3.20e-01,2.00e-01,
192,4.00e-01,2.00e-01,
193,2.40e-01,6.40e-01,
194,4.00e-01,4.00e-01,
195,3.20e-01,2.00e-01,
196,3.20e-01,2.00e-01,
197,4.00e-01,9.60e-01,
198,4.00e-01,5.20e-01,
199,3.20e-01,2.40e-01,
200,3.20e-01,5.20e-01,
201,4.80e-01,2.00e-01,
202,3.60e-01,2.00e-01,
203,5.20e-01,6.40e-01,
204,3.60e-01,7.20e-01,
205,5.20e-01,2.40e-01,
206,4.40e-01,2.00e-01,
207,6.00e-01,8.80e-01,
208,4.80e-01,9.20e-01,
209,6.40e-01,3.20e-01,
210,5.60e-01,2.40e-01,
211,7.60e-01,1.08e+00,
212,6.80e-01,8.80e-01,
213,8.00e-01,3.20e-01,
214,7.20e-01,3.20e-01,
215,8.80e-01,1.20e+00,
216,8.00e-01,7.60e-01,
217,1.00e+00,3.60e-01,
218,9.20e-01,4.40e-01,
219,1.12e+00,1.92e+00,
220,1.04e+00,1.52e+00,
221,1.24e+00,7.60e-01,
222,1.16e+00,1.68e+00,
223,1.36e+00,8.80e-01,
224,1.28e+00,5.60e-01,
225,1.48e+00,1.44e+00,
226,1.40e+00,2.08e+00,
227,1.60e+00,1.20e+00,
228,1.52e+00,9.20e-01,
229,1.76e+00,2.08e+00,
230,1.68e+00,2.32e+00,
231,1.88e+00,1.24e+00,
232,1.80e+00,9.60e-01,
233,2.00e+00,2.36e+00,
234,1.96e+00,2.52e+00,
235,2.20e+00,1.32e+00,
236,2.12e+00,1.20e+00,
237,2.32e+00,2.64e+00,
238,2.24e+00,2.68e+00,
239,2.48e+00,1.36e+00,
240,2.40e+00,1.52e+00,
241,2.60e+00,2.80e+00,
242,2.56e+00,2.68e+00,
243,2.80e+00,1.48e+00,
244,2.68e+00,2.32e+00,
245,2.92e+00,2.88e+00,
246,2.88e+00,2.60e+00,
247,3.08e+00,1.56e+00,
248,3.00e+00,2.96e+00,
249,3.20e+00,2.24e+00,
250,3.16e+00,1.72e+00,
251,3.40e+00,2.72e+00,
252,3.28e+00,3.04e+00,
253,3.52e+00,2.12e+00,
254,3.40e+00,1.88e+00,
255,3.64e+00,3.00e+00,
256,3.60e+00,3.12e+00,
257,3.80e+00,2.12e+00,
258,3.72e+00,2.00e+00,
259,3.92e+00,3.12e+00,
260,3.84e+00,3.16e+00,
261,4.04e+00,2.28e+00,
262,3.96e+00,2.92e+00,
263,4.16e+00,3.24e+00,
264,4.08e+00,3.24e+00,
265,4.28e+00,2.44e+00,
266,4.20e+00,3.04e+00,
267,4.36e+00,3.28e+00,
268,4.24e+00,3.28e+00,
269,4.48e+00,2.48e+00,
270,4.36e+00,3.08e+00,
271,4.52e+00,3.36e+00,
272,4.44e+00,2.72e+00,
273,4.60e+00,3.40e+00,
274,4.52e+00,3.24e+00,
275,4.72e+00,3.40e+00,
276,4.56e+00,3.08e+00,
277,4.72e+00,3.48e+00,
278,4.60e+00,3.48e+00,
279,4.76e+00,2.76e+00,
280,4.68e+00,2.84e+00,
281,4.80e+00,3.48e+00,
282,4.80e+00,3.48e+00,
283,4.72e+00,3.08e+00,
284,4.68e+00,3.56e+00,
285,4.88e+00,3.40e+00,
286,4.72e+00,2.84e+00,
287,4.88e+00,3.56e+00,
288,4.72e+00,3.52e+00,
289,4.88e+00,3.40e+00,
290,4.72e+00,3.20e+00,
291,4.88e+00,3.60e+00,
292,4.72e+00,3.44e+00,
293,4.80e+00,3.60e+00,
294,4.80e+00,2.96e+00,
295,4.68e+00,3.64e+00,
296,4.76e+00,3.44e+00,
297,4.60e+00,3.60e+00,
298,4.60e+00,3.40e+00,
299,4.72e+00,3.60e+00,
300,4.64e+00,3.60e+00,
301,4.48e+00,2.88e+00,
302,4.56e+00,2.84e+00,
303,4.44e+00,3.64e+00,
304,4.52e+00,3.64e+00,
305,4.36e+00,2.84e+00,
306,4.44e+00,3.40e+00,
307,4.24e+00,3.64e+00,
308,4.36e+00,2.84e+00,
309,4.20e+00,3.64e+00,
310,4.24e+00,3.44e+00,
311,4.08e+00,3.64e+00,
312,4.16e+00,3.60e+00,
313,3.96e+00,2.68e+00,
314,4.04e+00,3.40e+00,
315,3.84e+00,3.60e+00,
316,3.92e+00,3.52e+00,
317,3.72e+00,2.56e+00,
318,3.80e+00,3.60e+00,
319,3.56e+00,3.20e+00,
320,3.64e+00,2.56e+00,
321,3.40e+00,3.48e+00,
322,3.52e+00,3.52e+00,
323,3.28e+00,2.60e+00,
324,3.36e+00,2.32e+00,
325,3.20e+00,3.44e+00,
326,3.20e+00,3.44e+00,
327,3.00e+00,2.20e+00,
328,3.08e+00,2.04e+00,
329,2.88e+00,3.36e+00,
330,2.92e+00,3.36e+00,
331,2.68e+00,1.96e+00,
332,2.80e+00,2.12e+00,
333,2.56e+00,3.28e+00,
334,2.60e+00,3.28e+00,
335,2.40e+00,1.88e+00,
336,2.48e+00,3.16e+00,
337,2.24e+00,2.32e+00,
338,2.32e+00,1.72e+00,
339,2.12e+00,2.68e+00,
340,2.20e+00,2.92e+00,
341,1.92e+00,1.96e+00,
342,2.00e+00,1.48e+00,
343,1.80e+00,2.48e+00,
344,1.88e+00,2.68e+00,
345,1.68e+00,1.52e+00,
346,1.76e+00,1.28e+00,
347,1.44e+00,2.44e+00,
348,1.60e+00,2.48e+00,
349,1.40e+00,1.28e+00,
350,1.48e+00,1.08e+00,
351,1.28e+00,2.28e+00,
352,1.36e+00,1.84e+00,
353,1.16e+00,1.00e+00,
354,1.24e+00,1.56e+00,
355,1.04e+00,9.60e-01,
356,1.12e+00,1.08e+00,
357,9.20e-01,6.80e-01,
358,1.00e+00,8.00e-01,
359,8.00e-01,1.40e+00,
360,8.80e-01,5.60e-01,
361,7.20e-01,1.20e+00,
362,8.00e-01,1.32e+00,
363,6.80e-01,6.80e-01,
364,7.60e-01,5.20e-01,
365,5.60e-01,7.60e-01,
366,6.40e-01,7.20e-01,
367,4.80e-01,3.60e-01,
368,5.60e-01,3.20e-01,
369,4.40e-01,7.60e-01,
370,5.20e-01,5.60e-01,
371,3.60e-01,2.80e-01,
372,3.60e-01,2.40e-01,
373,4.80e-01,8.80e-01,
374,4.80e-01,5.20e-01,
375,3.20e-01,2.40e-01,
376,3.20e-01,2.80e-01,
377,4.00e-01,4.80e-01,
378,3.20e-01,2.80e-01,
379,4.00e-01,2.00e-01,
380,4.00e-01,2.00e-01,
381,2.40e-01,6.40e-01,
382,4.00e-01,2.00e-01,
383,3.20e-01,6.40e-01,
384,3.20e-01,9.60e-01,
385,4.40e-01,4.00e-01,
386,3.20e-01,2.40e-01,
387,4.80e-01,5.20e-01,
388,3.60e-01,4.00e-01,
389,5.20e-01,2.00e-01,
390,4.40e-01,1.60e-01,
391,5.60e-01,6.80e-01,
392,4.80e-01,6.00e-01,
393,6.40e-01,2.00e-01,
394,5.60e-01,2.00e-01,
395,7.20e-01,8.80e-01,
396,6.00e-01,6.00e-01,
397,7.60e-01,2.40e-01,
398,6.80e-01,2.40e-01,
399,8.80e-01,1.00e+00,
400,8.00e-01,6.00e-01,
401,9.60e-01,2.80e-01,
402,8.80e-01,2.80e-01,
403,1.04e+00,1.52e+00,
404,1.00e+00,5.60e-01,
405,1.16e+00,1.24e+00,
406,1.08e+00,1.80e+00,
407,1.28e+00,1.08e+00,
408,1.20e+00,6.80e-01,
409,1.40e+00,1.56e+00,
410,1.32e+00,2.28e+00,
411,1.52e+00,1.36e+00,
412,1.44e+00,1.04e+00,
413,1.72e+00,2.20e+00,
414,1.64e+00,2.40e+00,
415,1.84e+00,1.24e+00,
416,1.76e+00,1.04e+00,
417,1.96e+00,2.44e+00,
418,1.92e+00,2.56e+00,
419,2.12e+00,1.28e+00,
420,2.04e+00,1.24e+00,
421,2.24e+00,2.68e+00,
422,2.20e+00,2.68e+00,
423,2.44e+00,1.40e+00,
424,2.32e+00,1.84e+00,
425,2.56e+00,2.76e+00,
426,2.52e+00,2.68e+00,
427,2.72e+00,1.48e+00,
428,2.64e+00,2.32e+00,
429,2.92e+00,2.88e+00,
430,2.80e+00,1.60e+00,
431,3.04e+00,2.56e+00,
432,2.96e+00,3.00e+00,
433,3.20e+00,2.20e+00,
434,3.12e+00,1.72e+00,
435,3.32e+00,2.80e+00,
436,3.24e+00,3.04e+00,
437,3.44e+00,2.12e+00,
438,3.40e+00,1.88e+00,
439,3.60e+00,3.00e+00,
440,3.52e+00,3.12e+00,
441,3.76e+00,2.12e+00,
442,3.64e+00,2.00e+00,
443,3.88e+00,3.12e+00,
444,3.76e+00,3.16e+00,
445,4.00e+00,2.28e+00,
446,3.88e+00,2.88e+00,
447,4.12e+00,3.24e+00,
448,4.00e+00,3.24e+00,
449,4.24e+00,2.44e+00,
450,4.12e+00,3.04e+00,
451,4.32e+00,3.28e+00,
452,4.24e+00,3.28e+00,
453,4.40e+00,2.48e+00,
454,4.32e+00,3.16e+00,
455,4.52e+00,3.36e+00,
456,4.44e+00,2.72e+00,
457,4.60e+00,3.40e+00,
458,4.48e+00,3.40e+00,
459,4.64e+00,3.24e+00,
460,4.56e+00,3.00e+00,
461,4.72e+00,3.48e+00,
462,4.60e+00,3.48e+00,
463,4.76e+00,2.80e+00,
464,4.68e+00,2.88e+00,
465,4.80e+00,3.48e+00,
466,4.84e+00,3.48e+00,
467,4.72e+00,3.12e+00,
468,4.80e+00,3.52e+00,
469,4.72e+00,3.36e+00,
470,4.88e+00,2.92e+00,
471,4.72e+00,3.60e+00,
472,4.88e+00,3.40e+00,
473,4.72e+00,3.60e+00,
474,4.72e+00,3.36e+00,
475,4.88e+00,3.60e+00,
476,4.72e+00,3.48e+00,
477,4.80e+00,3.60e+00,
478,4.72e+00,2.96e+00,
479,4.84e+00,3.64e+00,
480,4.76e+00,3.60e+00,
481,4.68e+00,3.48e+00,
482,4.76e+00,3.36e+00,
483,4.60e+00,3.64e+00,
484,4.72e+00,3.64e+00,
485,4.56e+00,2.84e+00,
486,4.64e+00,2.84e+00,
487,4.48e+00,3.64e+00,
488,4.56e+00,3.24e+00,
489,4.36e+00,3.64e+00,
490,4.48e+00,3.64e+00,
491,4.24e+00,3.48e+00,
492,4.40e+00,3.64e+00,
493,4.20e+00,2.60e+00,
494,4.28e+00,3.36e+00,
495,4.08e+00,3.60e+00,
496,4.16e+00,3.56e+00,
497,3.96e+00,2.76e+00,
498,4.04e+00,3.44e+00,
499,3.84e+00,3.64e+00,
500,3.92e+00,2.60e+00,
501,3.76e+00,3.52e+00,
502,3.80e+00,3.60e+00,
503,3.64e+00,3.12e+00,
504,3.68e+00,2.60e+00,
505,3.48e+00,3.48e+00,
506,3.56e+00,3.52e+00,
507,3.36e+00,2.60e+00,
508,3.44e+00,2.28e+00,
509,3.20e+00,3.40e+00,
510,3.28e+00,3.48e+00,
511,3.04e+00,2.24e+00,
512,3.16e+00,2.20e+00,
513,2.88e+00,3.40e+00,
514,2.96e+00,3.40e+00,
515,2.76e+00,2.04e+00,
516,2.84e+00,2.68e+00,
517,2.56e+00,3.36e+00,
518,2.68e+00,3.24e+00,
519,2.48e+00,1.92e+00,
520,2.56e+00,3.24e+00,
521,2.28e+00,2.28e+00,
522,2.36e+00,1.68e+00,
523,2.16e+00,2.76e+00,
524,2.24e+00,3.00e+00,
525,2.00e+00,1.92e+00,
526,2.08e+00,1.52e+00,
527,1.88e+00,2.60e+00,
528,1.96e+00,2.80e+00,
529,1.68e+00,1.60e+00,
530,1.76e+00,1.36e+00,
531,1.56e+00,2.52e+00,
532,1.64e+00,2.52e+00,
533,1.44e+00,1.32e+00,
534,1.52e+00,1.16e+00,
535,1.32e+00,1.92e+00,
536,1.36e+00,1.44e+00,
537,1.20e+00,8.80e-01,
538,1.28e+00,8.40e-01,
539,1.08e+00,1.72e+00,
540,1.12e+00,1.20e+00,
541,9.60e-01,7.20e-01,
542,1.04e+00,1.68e+00,
543,8.40e-01,1.00e+00,
544,9.60e-01,1.00e+00,
545,7.20e-01,6.00e-01,
546,8.00e-01,1.00e+00,
547,6.80e-01,5.20e-01,
548,7.60e-01,3.60e-01,
549,6.00e-01,9.60e-01,
550,6.80e-01,1.00e+00,
551,5.60e-01,4.40e-01,
552,6.40e-01,3.60e-01,
553,4.80e-01,1.08e+00,
554,4.40e-01,9.20e-01,
555,5.20e-01,4.00e-01,
556,5.20e-01,3.20e-01,
557,3.60e-01,6.00e-01,
558,4.80e-01,4.00e-01,
559,3.20e-01,2.00e-01,
560,3.20e-01,2.00e-01,
561,4.00e-01,7.20e-01,
562,3.20e-01,4.40e-01,
563,4.00e-01,2.00e-01,
564,4.00e-01,4.00e-01,
565,3.20e-01,2.00e-01,
566,4.00e-01,1.60e-01,
567,3.20e-01,5.20e-01,
568,4.00e-01,6.40e-01,
569,3.20e-01,2.80e-01,
570,3.20e-01,2.00e-01,
571,4.80e-01,7.60e-01,
572,3.60e-01,9.60e-01,
573,4.80e-01,3.20e-01,
574,5.20e-01,2.40e-01,
575,4.40e-01,1.08e+00,
576,4.40e-01,1.00e+00,
577,6.00e-01,3.20e-01,
578,4.80e-01,3.20e-01,
579,6.80e-01,1.12e+00,
580,6.00e-01,7.60e-01,
581,7.60e-01,3.20e-01,
582,6.40e-01,2.80e-01,
583,8.40e-01,1.20e+00,
584,7.20e-01,7.60e-01,
585,9.60e-01,4.00e-01,
586,8.40e-01,1.24e+00,
587,1.00e+00,6.00e-01,
588,9.60e-01,4.00e-01,
589,1.12e+00,9.60e-01,
590,1.08e+00,1.04e+00,
591,1.24e+00,1.80e+00,
592,1.20e+00,7.60e-01,
593,1.36e+00,1.68e+00,
594,1.32e+00,2.04e+00,
595,1.52e+00,1.04e+00,
596,1.44e+00,8.00e-01,
597,1.64e+00,2.12e+00,
598,1.56e+00,2.44e+00,
599,1.76e+00,1.32e+00,
600,1.68e+00,1.12e+00,
601,1.92e+00,2.52e+00,
602,1.88e+00,2.56e+00,
603,2.08e+00,1.28e+00,
604,2.00e+00,1.20e+00,
605,2.20e+00,2.68e+00,
606,2.16e+00,2.64e+00,
607,2.36e+00,1.32e+00,
608,2.28e+00,2.00e+00,
609,2.52e+00,2.76e+00,
610,2.48e+00,2.64e+00,
611,2.68e+00,1.48e+00,
612,2.56e+00,2.32e+00,
613,2.84e+00,2.88e+00,
614,2.72e+00,1.64e+00,
615,2.96e+00,2.56e+00,
616,2.88e+00,2.96e+00,
617,3.16e+00,2.12e+00,
618,3.08e+00,1.68e+00,
619,3.28e+00,2.88e+00,
620,3.20e+00,3.04e+00,
621,3.44e+00,2.12e+00,
622,3.36e+00,1.92e+00,
623,3.56e+00,3.04e+00,
624,3.48e+00,3.12e+00,
625,3.68e+00,2.08e+00,
626,3.60e+00,2.04e+00,
627,3.80e+00,3.12e+00,
628,3.76e+00,3.16e+00,
629,3.92e+00,2.36e+00,
630,3.88e+00,2.96e+00,
631,4.04e+00,3.28e+00,
632,3.96e+00,3.28e+00,
633,4.16e+00,2.44e+00,
634,4.12e+00,3.08e+00,
635,4.28e+00,3.28e+00,
636,4.20e+00,3.28e+00,
637,4.40e+00,2.48e+00,
638,4.32e+00,3.16e+00,
639,4.48e+00,3.36e+00,
640,4.36e+00,2.72e+00,
641,4.52e+00,3.40e+00,
642,4.48e+00,3.40e+00,
643,4.64e+00,3.24e+00,
644,4.56e+00,2.96e+00,
645,4.72e+00,3.44e+00,
646,4.60e+00,3.48e+00,
647,4.76e+00,2.72e+00,
648,4.76e+00,2.80e+00,
649,4.68e+00,3.48e+00,
650,4.68e+00,3.12e+00,
651,4.84e+00,3.52e+00,
652,4.80e+00,3.36e+00,
653,4.72e+00,3.52e+00,
654,4.72e+00,2.84e+00,
655,4.88e+00,3.56e+00,
656,4.88e+00,3.52e+00,
657,4.72e+00,3.40e+00,
658,4.88e+00,3.28e+00,
659,4.72e+00,3.60e+00,
660,4.72e+00,3.44e+00,
661,4.84e+00,3.60e+00,
662,4.72e+00,2.96e+00,
663,4.84e+00,3.64e+00,
664,4.80e+00,3.48e+00,
665,4.68e+00,3.60e+00,
666,4.76e+00,3.32e+00,
667,4.56e+00,3.60e+00,
668,4.72e+00,3.60e+00,
669,4.56e+00,2.80e+00,
670,4.64e+00,2.76e+00,
671,4.48e+00,3.60e+00,
672,4.60e+00,3.16e+00,
673,4.44e+00,3.64e+00,
674,4.52e+00,3.64e+00,
675,4.32e+00,3.48e+00,
676,4.40e+00,3.64e+00,
677,4.24e+00,2.76e+00,
678,4.32e+00,3.44e+00,
679,4.12e+00,3.64e+00,
680,4.20e+00,3.60e+00,
681,4.00e+00,2.84e+00,
682,4.12e+00,3.60e+00,
683,3.88e+00,3.44e+00,
684,4.00e+00,2.72e+00,
685,3.76e+00,3.56e+00,
686,3.88e+00,3.56e+00,
687,3.68e+00,2.96e+00,
688,3.76e+00,2.64e+00,
689,3.52e+00,3.48e+00,
690,3.60e+00,3.52e+00,
691,3.40e+00,2.60e+00,
692,3.48e+00,2.32e+00,
693,3.24e+00,3.48e+00,
694,3.32e+00,3.48e+00,
695,3.12e+00,2.24e+00,
696,3.20e+00,2.20e+00,
697,2.96e+00,3.40e+00,
698,3.04e+00,3.40e+00,
699,2.80e+00,2.04e+00,
700,2.88e+00,2.88e+00,
701,2.64e+00,3.36e+00,
702,2.72e+00,3.16e+00,
703,2.52e+00,1.96e+00,
704,2.60e+00,3.24e+00,
705,2.36e+00,2.32e+00,
706,2.44e+00,1.76e+00,
707,2.20e+00,2.80e+00,
708,2.32e+00,3.04e+00,
709,2.04e+00,1.96e+00,
710,2.12e+00,1.52e+00,
711,1.92e+00,2.68e+00,
712,2.00e+00,2.80e+00,
713,1.76e+00,1.60e+00,
714,1.84e+00,1.36e+00,
715,1.64e+00,2.56e+00,
716,1.72e+00,2.56e+00,
717,1.52e+00,1.28e+00,
718,1.60e+00,1.24e+00,
719,1.32e+00,2.40e+00,
720,1.40e+00,1.92e+00,
721,1.20e+00,1.12e+00,
722,1.28e+00,1.04e+00,
723,1.08e+00,1.72e+00,
724,1.16e+00,1.12e+00,
725,1.04e+00,7.60e-01,
726,1.04e+00,1.60e+00,
727,9.20e-01,9.20e-01,
728,9.60e-01,6.00e-01,
729,8.00e-01,1.32e+00,
730,8.80e-01,1.60e+00,
731,6.80e-01,8.00e-01,
732,8.00e-01,6.00e-01,
733,6.00e-01,9.60e-01,
734,7.20e-01,8.40e-01,
735,5.60e-01,4.40e-01,
736,6.40e-01,3.60e-01,
737,4.80e-01,8.00e-01,
738,5.60e-01,6.00e-01,
739,4.40e-01,3.20e-01,
740,5.20e-01,2.80e-01,
741,3.60e-01,8.40e-01,
742,4.80e-01,5.20e-01,
743,3.60e-01,2.80e-01,
744,4.00e-01,2.80e-01,
745,3.20e-01,4.00e-01,
746,4.00e-01,2.80e-01,
747,3.20e-01,2.00e-01,
748,4.00e-01,6.40e-01,
749,3.20e-01,2.40e-01,
750,4.00e-01,2.00e-01,
751,3.20e-01,6.80e-01,
752,3.20e-01,9.60e-01,
753,4.00e-01,3.60e-01,
754,3.20e-01,2.40e-01,
755,4.40e-01,5.20e-01,
756,3.20e-01,4.00e-01,
757,4.80e-01,2.00e-01,
758,3.60e-01,2.00e-01,
759,5.20e-01,7.60e-01,
760,4.40e-01,6.40e-01,
761,6.00e-01,2.80e-01,
762,4.80e-01,2.00e-01,
763,6.40e-01,1.00e+00,
764,5.60e-01,6.80e-01,
765,6.80e-01,2.40e-01,
766,6.00e-01,2.80e-01,
767,8.40e-01,1.20e+00,
768,7.20e-01,6.80e-01,
769,8.80e-01,3.20e-01,
770,8.00e-01,1.24e+00,
771,1.00e+00,6.40e-01,
772,9.20e-01,4.00e-01,
773,1.12e+00,1.08e+00,
774,1.04e+00,1.80e+00,
775,1.24e+00,1.04e+00,
776,1.16e+00,7.20e-01,
777,1.36e+00,1.72e+00,
778,1.28e+00,2.04e+00,
779,1.48e+00,1.04e+00,
780,1.40e+00,8.00e-01,
781,1.60e+00,1.96e+00,
782,1.52e+00,1.96e+00,
783,1.72e+00,9.20e-01,
784,1.60e+00,8.00e-01,
785,1.88e+00,2.28e+00,
786,1.80e+00,2.40e+00,
787,2.00e+00,1.12e+00,
788,1.96e+00,1.12e+00,
789,2.12e+00,2.64e+00,
790,2.12e+00,2.60e+00,
791,2.32e+00,1.36e+00,
792,2.24e+00,2.00e+00,
793,2.48e+00,2.80e+00,
794,2.40e+00,2.36e+00,
795,2.60e+00,1.40e+00,
796,2.52e+00,2.24e+00,
797,2.80e+00,2.88e+00,
798,2.68e+00,1.60e+00,
799,2.92e+00,2.52e+00,
800,2.80e+00,2.96e+00,
801,3.08e+00,2.08e+00,
802,3.00e+00,1.72e+00,
803,3.20e+00,2.84e+00,
804,3.12e+00,3.00e+00,
805,3.36e+00,2.00e+00,
806,3.28e+00,1.76e+00,
807,3.52e+00,3.00e+00,
808,3.40e+00,3.04e+00,
809,3.64e+00,1.96e+00,
810,3.52e+00,1.96e+00,
811,3.76e+00,3.08e+00,
812,3.72e+00,3.16e+00,
813,3.92e+00,2.24e+00,
814,3.84e+00,2.88e+00,
815,4.04e+00,3.24e+00,
816,3.96e+00,3.24e+00,
817,4.12e+00,2.44e+00,
818,4.04e+00,3.04e+00,
819,4.20e+00,3.28e+00,
820,4.12e+00,3.24e+00,
821,4.36e+00,2.48e+00,
822,4.24e+00,3.16e+00,
823,4.48e+00,3.36e+00,
824,4.36e+00,2.52e+00,
825,4.52e+00,3.28e+00,
826,4.44e+00,3.40e+00,
827,4.60e+00,2.84e+00,
828,4.48e+00,2.76e+00,
829,4.64e+00,3.40e+00,
830,4.60e+00,3.40e+00,
831,4.72e+00,3.12e+00,
832,4.60e+00,3.32e+00,
833,4.76e+00,3.48e+00,
834,4.68e+00,2.84e+00,
835,4.84e+00,3.52e+00,
836,4.80e+00,3.52e+00,
837,4.72e+00,3.32e+00,
838,4.72e+00,3.20e+00,
839,4.84e+00,3.52e+00,
840,4.88e+00,3.52e+00,
841,4.72e+00,3.44e+00,
842,4.88e+00,2.92e+00,
843,4.72e+00,3.60e+00,
844,4.88e+00,3.36e+00,
845,4.72e+00,3.60e+00,
846,4.72e+00,3.32e+00,
847,4.80e+00,3.60e+00,
848,4.80e+00,3.60e+00,
849,4.68e+00,2.92e+00,
850,4.68e+00,2.80e+00,
851,4.76e+00,3.60e+00,
852,4.68e+00,3.60e+00,
853,4.60e+00,3.12e+00,
854,4.68e+00,3.40e+00,
855,4.56e+00,3.64e+00,
856,4.64e+00,3.64e+00,
857,4.44e+00,3.04e+00,
858,4.52e+00,3.68e+00,
859,4.36e+00,3.52e+00,
860,4.44e+00,3.64e+00,
861,4.24e+00,2.96e+00,
862,4.36e+00,3.44e+00,
863,4.20e+00,3.64e+00,
864,4.28e+00,2.84e+00,
865,4.08e+00,3.64e+00,
866,4.16e+00,3.64e+00,
867,3.96e+00,3.44e+00,
868,4.04e+00,2.64e+00,
869,3.84e+00,3.60e+00,
870,3.92e+00,3.60e+00,
