Code/Open_Loop_Bode_Data/Open_Loop_Frequency_Response_Signals_2/NewFile28.csv

X,CH3,CH4,Start,Increment,
Sequence,Volt,Volt,-3.000000e-01,5.000000e-04
0,4.80e-01,8.40e-01,
1,6.00e-01,7.20e-01,
2,4.80e-01,7.20e-01,
3,6.40e-01,8.40e-01,
4,5.60e-01,7.60e-01,
5,7.20e-01,6.80e-01,
6,6.00e-01,7.60e-01,
7,7.60e-01,6.80e-01,
8,6.80e-01,7.60e-01,
9,8.40e-01,6.80e-01,
10,6.80e-01,7.60e-01,
11,8.80e-01,6.40e-01,
12,8.00e-01,7.20e-01,
13,9.20e-01,6.00e-01,
14,8.40e-01,6.80e-01,
15,1.00e+00,8.40e-01,
16,9.20e-01,7.20e-01,
17,1.08e+00,8.80e-01,
18,9.60e-01,8.00e-01,
19,1.12e+00,8.80e-01,
20,1.08e+00,8.80e-01,
21,1.24e+00,6.80e-01,
22,1.16e+00,8.40e-01,
23,1.28e+00,6.80e-01,
24,1.20e+00,7.20e-01,
25,1.36e+00,6.80e-01,
26,1.32e+00,7.20e-01,
27,1.48e+00,6.00e-01,
28,1.36e+00,6.00e-01,
29,1.60e+00,7.20e-01,
30,1.48e+00,7.20e-01,
31,1.64e+00,6.00e-01,
32,1.56e+00,7.20e-01,
33,1.76e+00,5.60e-01,
34,1.68e+00,6.40e-01,
35,1.84e+00,5.60e-01,
36,1.76e+00,6.00e-01,
37,1.96e+00,5.20e-01,
38,1.84e+00,6.00e-01,
39,2.00e+00,4.80e-01,
40,1.92e+00,6.00e-01,
41,2.12e+00,4.40e-01,
42,2.04e+00,5.60e-01,
43,2.24e+00,4.40e-01,
44,2.16e+00,5.20e-01,
45,2.36e+00,4.40e-01,
46,2.28e+00,5.20e-01,
47,2.44e+00,4.40e-01,
48,2.32e+00,5.20e-01,
49,2.56e+00,4.40e-01,
50,2.44e+00,4.40e-01,
51,2.60e+00,5.60e-01,
52,2.56e+00,5.20e-01,
53,2.72e+00,1.08e+00,
54,2.64e+00,1.00e+00,
55,2.84e+00,1.32e+00,
56,2.76e+00,1.20e+00,
57,2.96e+00,1.44e+00,
58,2.88e+00,1.32e+00,
59,3.04e+00,1.56e+00,
60,2.92e+00,1.52e+00,
61,3.16e+00,1.80e+00,
62,3.04e+00,1.76e+00,
63,3.28e+00,1.92e+00,
64,3.16e+00,1.84e+00,
65,3.32e+00,2.04e+00,
66,3.24e+00,1.96e+00,
67,3.44e+00,2.16e+00,
68,3.36e+00,2.08e+00,
69,3.52e+00,2.28e+00,
70,3.48e+00,2.20e+00,
71,3.64e+00,2.32e+00,
72,3.52e+00,2.32e+00,
73,3.68e+00,2.24e+00,
74,3.64e+00,2.28e+00,
75,3.80e+00,2.04e+00,
76,3.68e+00,2.08e+00,
77,3.88e+00,1.68e+00,
78,3.80e+00,1.72e+00,
79,4.00e+00,1.52e+00,
80,3.88e+00,1.56e+00,
81,4.04e+00,1.40e+00,
82,3.96e+00,1.48e+00,
83,4.16e+00,1.32e+00,
84,4.08e+00,1.28e+00,
85,4.24e+00,1.44e+00,
86,4.12e+00,1.40e+00,
87,4.28e+00,2.00e+00,
88,4.20e+00,1.88e+00,
89,4.36e+00,2.16e+00,
90,4.24e+00,2.04e+00,
91,4.40e+00,2.20e+00,
92,4.32e+00,2.12e+00,
93,4.48e+00,2.28e+00,
94,4.36e+00,2.24e+00,
95,4.52e+00,2.44e+00,
96,4.44e+00,2.40e+00,
97,4.60e+00,2.56e+00,
98,4.48e+00,2.52e+00,
99,4.64e+00,2.64e+00,
100,4.64e+00,2.68e+00,
101,4.52e+00,2.48e+00,
102,4.60e+00,2.60e+00,
103,4.72e+00,2.76e+00,
104,4.56e+00,2.68e+00,
105,4.76e+00,2.84e+00,
106,4.76e+00,2.76e+00,
107,4.68e+00,2.88e+00,
108,4.68e+00,2.88e+00,
109,4.80e+00,2.76e+00,
110,4.68e+00,2.84e+00,
111,4.84e+00,2.92e+00,
112,4.72e+00,2.96e+00,
113,4.84e+00,2.84e+00,
114,4.72e+00,2.92e+00,
115,4.88e+00,2.84e+00,
116,4.72e+00,2.92e+00,
117,4.88e+00,2.84e+00,
118,4.88e+00,2.84e+00,
119,4.72e+00,3.00e+00,
120,4.88e+00,2.88e+00,
121,4.80e+00,3.04e+00,
122,4.88e+00,3.12e+00,
123,4.72e+00,2.96e+00,
124,4.84e+00,3.12e+00,
125,4.72e+00,3.00e+00,
126,4.72e+00,3.12e+00,
127,4.84e+00,3.00e+00,
128,4.84e+00,3.16e+00,
129,4.68e+00,3.04e+00,
130,4.84e+00,3.08e+00,
131,4.68e+00,3.16e+00,
132,4.68e+00,3.20e+00,
133,4.76e+00,3.08e+00,
134,4.76e+00,3.24e+00,
135,4.60e+00,3.08e+00,
136,4.72e+00,3.24e+00,
137,4.56e+00,3.08e+00,
138,4.68e+00,3.24e+00,
139,4.56e+00,3.12e+00,
140,4.64e+00,3.24e+00,
141,4.48e+00,3.12e+00,
142,4.60e+00,3.20e+00,
143,4.44e+00,3.28e+00,
144,4.52e+00,3.20e+00,
145,4.36e+00,3.24e+00,
146,4.48e+00,3.28e+00,
147,4.32e+00,3.16e+00,
148,4.40e+00,3.28e+00,
149,4.24e+00,3.16e+00,
150,4.36e+00,3.24e+00,
151,4.20e+00,3.12e+00,
152,4.28e+00,3.16e+00,
153,4.12e+00,2.96e+00,
154,4.24e+00,3.04e+00,
155,4.08e+00,2.96e+00,
156,4.16e+00,2.96e+00,
157,4.00e+00,3.12e+00,
158,4.04e+00,3.08e+00,
159,3.88e+00,3.24e+00,
160,4.00e+00,3.20e+00,
161,3.84e+00,3.24e+00,
162,3.92e+00,3.24e+00,
163,3.72e+00,3.12e+00,
164,3.80e+00,3.12e+00,
165,3.64e+00,3.24e+00,
166,3.76e+00,3.24e+00,
167,3.52e+00,3.12e+00,
168,3.68e+00,3.24e+00,
169,3.48e+00,3.12e+00,
170,3.56e+00,3.20e+00,
171,3.36e+00,3.28e+00,
172,3.44e+00,3.28e+00,
173,3.28e+00,3.20e+00,
174,3.40e+00,3.28e+00,
175,3.16e+00,3.20e+00,
176,3.28e+00,3.28e+00,
177,3.08e+00,3.24e+00,
178,3.16e+00,3.24e+00,
179,3.00e+00,3.36e+00,
180,3.08e+00,3.36e+00,
181,2.84e+00,3.24e+00,
182,2.96e+00,3.36e+00,
183,2.76e+00,3.20e+00,
184,2.84e+00,3.36e+00,
185,2.68e+00,3.20e+00,
186,2.80e+00,3.24e+00,
187,2.56e+00,2.84e+00,
188,2.68e+00,2.88e+00,
189,2.44e+00,2.52e+00,
190,2.56e+00,2.56e+00,
191,2.40e+00,2.44e+00,
192,2.44e+00,2.52e+00,
193,2.28e+00,2.40e+00,
194,2.36e+00,2.44e+00,
195,2.16e+00,3.12e+00,
196,2.24e+00,3.00e+00,
197,2.08e+00,3.16e+00,
198,2.12e+00,3.08e+00,
199,1.96e+00,3.24e+00,
200,2.08e+00,3.08e+00,
201,1.84e+00,3.24e+00,
202,1.96e+00,3.08e+00,
203,1.80e+00,3.24e+00,
204,1.88e+00,3.24e+00,
205,1.68e+00,3.12e+00,
206,1.76e+00,3.24e+00,
207,1.56e+00,3.12e+00,
208,1.64e+00,3.24e+00,
209,1.48e+00,3.16e+00,
210,1.60e+00,3.24e+00,
211,1.40e+00,3.12e+00,
212,1.48e+00,3.24e+00,
213,1.28e+00,3.00e+00,
214,1.40e+00,3.04e+00,
215,1.28e+00,2.52e+00,
216,1.32e+00,2.56e+00,
217,1.16e+00,2.36e+00,
218,1.24e+00,2.44e+00,
219,1.08e+00,2.28e+00,
220,1.20e+00,2.40e+00,
221,9.60e-01,2.24e+00,
222,1.08e+00,2.28e+00,
223,9.20e-01,2.04e+00,
224,1.00e+00,2.12e+00,
225,8.40e-01,1.92e+00,
226,9.60e-01,1.96e+00,
227,8.00e-01,1.88e+00,
228,8.80e-01,1.92e+00,
229,7.20e-01,1.80e+00,
230,8.40e-01,1.84e+00,
231,6.80e-01,1.68e+00,
232,7.60e-01,1.80e+00,
233,6.00e-01,1.64e+00,
234,7.20e-01,1.68e+00,
235,5.60e-01,1.56e+00,
236,6.40e-01,1.64e+00,
237,5.20e-01,1.48e+00,
238,4.80e-01,1.56e+00,
239,6.00e-01,1.44e+00,
240,6.00e-01,1.48e+00,
241,4.40e-01,1.40e+00,
242,4.40e-01,1.44e+00,
243,5.20e-01,1.32e+00,
244,5.20e-01,1.44e+00,
245,3.60e-01,1.28e+00,
246,3.60e-01,1.36e+00,
247,4.80e-01,1.24e+00,
248,4.80e-01,1.32e+00,
249,3.20e-01,1.16e+00,
250,3.20e-01,1.24e+00,
251,4.40e-01,1.16e+00,
252,4.00e-01,1.24e+00,
253,3.20e-01,1.08e+00,
254,4.00e-01,1.20e+00,
255,2.80e-01,1.08e+00,
256,4.00e-01,1.12e+00,
257,2.80e-01,1.04e+00,
258,4.00e-01,1.12e+00,
259,2.40e-01,1.04e+00,
260,4.00e-01,1.08e+00,
261,3.20e-01,9.60e-01,
262,4.00e-01,9.60e-01,
263,3.20e-01,1.04e+00,
264,2.80e-01,1.00e+00,
265,4.40e-01,8.80e-01,
266,4.80e-01,1.00e+00,
267,3.20e-01,9.20e-01,
268,4.80e-01,8.40e-01,
269,3.20e-01,1.00e+00,
270,3.60e-01,9.60e-01,
271,5.20e-01,8.40e-01,
272,4.40e-01,9.60e-01,
273,5.20e-01,7.60e-01,
274,4.40e-01,8.80e-01,
275,6.00e-01,8.00e-01,
276,4.80e-01,8.80e-01,
277,6.40e-01,8.00e-01,
278,5.60e-01,7.20e-01,
279,6.80e-01,8.80e-01,
280,7.20e-01,8.40e-01,
281,6.00e-01,7.20e-01,
282,6.80e-01,8.40e-01,
283,7.60e-01,7.20e-01,
284,6.80e-01,8.00e-01,
285,8.40e-01,6.80e-01,
286,8.80e-01,6.80e-01,
287,7.20e-01,8.00e-01,
288,8.40e-01,6.80e-01,
289,1.00e+00,7.60e-01,
290,9.20e-01,7.20e-01,
291,1.04e+00,6.40e-01,
292,9.60e-01,7.20e-01,
293,1.12e+00,6.00e-01,
294,1.04e+00,7.20e-01,
295,1.16e+00,5.60e-01,
296,1.08e+00,6.80e-01,
297,1.32e+00,6.00e-01,
298,1.20e+00,6.40e-01,
299,1.36e+00,6.00e-01,
300,1.28e+00,6.40e-01,
301,1.40e+00,5.60e-01,
302,1.40e+00,5.60e-01,
303,1.52e+00,6.40e-01,
304,1.44e+00,6.40e-01,
305,1.60e+00,5.20e-01,
306,1.56e+00,5.60e-01,
307,1.72e+00,6.00e-01,
308,1.64e+00,5.60e-01,
309,1.80e+00,7.20e-01,
310,1.72e+00,6.80e-01,
311,1.88e+00,1.20e+00,
312,1.80e+00,1.12e+00,
313,2.00e+00,1.32e+00,
314,1.92e+00,1.20e+00,
315,2.12e+00,1.44e+00,
316,2.04e+00,1.28e+00,
317,2.20e+00,1.44e+00,
318,2.08e+00,1.40e+00,
319,2.32e+00,1.56e+00,
320,2.20e+00,1.48e+00,
321,2.36e+00,1.20e+00,
322,2.32e+00,1.24e+00,
323,2.48e+00,1.04e+00,
324,2.40e+00,1.08e+00,
325,2.60e+00,9.60e-01,
326,2.48e+00,1.08e+00,
327,2.72e+00,9.20e-01,
328,2.64e+00,1.00e+00,
329,2.84e+00,8.40e-01,
330,2.68e+00,9.60e-01,
331,2.92e+00,8.00e-01,
332,2.80e+00,8.40e-01,
333,3.04e+00,7.20e-01,
334,2.88e+00,7.20e-01,
335,3.16e+00,8.40e-01,
336,3.04e+00,7.60e-01,
337,3.20e+00,6.80e-01,
338,3.12e+00,7.60e-01,
339,3.32e+00,6.00e-01,
340,3.24e+00,6.00e-01,
341,3.40e+00,7.20e-01,
342,3.32e+00,5.60e-01,
343,3.52e+00,6.80e-01,
344,3.40e+00,6.00e-01,
345,3.56e+00,8.80e-01,
346,3.52e+00,8.80e-01,
347,3.68e+00,1.36e+00,
348,3.60e+00,1.36e+00,
349,3.76e+00,1.48e+00,
350,3.68e+00,1.44e+00,
351,3.88e+00,1.60e+00,
352,3.76e+00,1.52e+00,
353,3.92e+00,1.80e+00,
354,3.84e+00,1.76e+00,
355,4.04e+00,1.96e+00,
356,3.96e+00,1.92e+00,
357,4.12e+00,2.08e+00,
358,4.00e+00,2.00e+00,
359,4.16e+00,2.16e+00,
360,4.08e+00,2.12e+00,
361,4.28e+00,2.28e+00,
362,4.16e+00,2.16e+00,
363,4.36e+00,2.40e+00,
364,4.24e+00,2.28e+00,
365,4.40e+00,2.44e+00,
366,4.32e+00,2.40e+00,
367,4.44e+00,2.52e+00,
368,4.36e+00,2.48e+00,
369,4.52e+00,2.64e+00,
370,4.44e+00,2.64e+00,
371,4.60e+00,2.52e+00,
372,4.44e+00,2.60e+00,
373,4.64e+00,2.48e+00,
374,4.64e+00,2.56e+00,
375,4.44e+00,2.44e+00,
376,4.56e+00,2.52e+00,
377,4.72e+00,2.68e+00,
378,4.60e+00,2.60e+00,
379,4.72e+00,2.80e+00,
380,4.60e+00,2.76e+00,
381,4.76e+00,2.88e+00,
382,4.68e+00,2.76e+00,
383,4.80e+00,2.88e+00,
384,4.64e+00,2.76e+00,
385,4.84e+00,2.92e+00,
386,4.68e+00,2.80e+00,
387,4.84e+00,3.00e+00,
388,4.84e+00,2.88e+00,
389,4.72e+00,3.00e+00,
390,4.72e+00,2.96e+00,
391,4.88e+00,3.04e+00,
392,4.88e+00,2.96e+00,
393,4.76e+00,3.12e+00,
394,4.88e+00,3.04e+00,
395,4.72e+00,3.00e+00,
396,4.88e+00,3.00e+00,
397,4.76e+00,3.12e+00,
398,4.72e+00,3.00e+00,
399,4.88e+00,3.16e+00,
400,4.72e+00,3.08e+00,
401,4.84e+00,3.16e+00,
402,4.72e+00,3.08e+00,
403,4.84e+00,3.16e+00,
404,4.80e+00,3.08e+00,
405,4.68e+00,3.16e+00,
406,4.68e+00,3.12e+00,
407,4.76e+00,3.00e+00,
408,4.76e+00,3.12e+00,
409,4.60e+00,2.84e+00,
410,4.76e+00,2.88e+00,
411,4.56e+00,2.64e+00,
412,4.72e+00,2.64e+00,
413,4.56e+00,2.80e+00,
414,4.64e+00,2.76e+00,
415,4.48e+00,3.12e+00,
416,4.44e+00,2.96e+00,
417,4.60e+00,3.20e+00,
418,4.52e+00,3.16e+00,
419,4.44e+00,3.00e+00,
420,4.52e+00,3.12e+00,
421,4.36e+00,3.00e+00,
422,4.48e+00,3.00e+00,
423,4.28e+00,3.16e+00,
424,4.40e+00,3.08e+00,
425,4.12e+00,3.20e+00,
426,4.32e+00,3.12e+00,
427,4.12e+00,3.24e+00,
428,4.24e+00,3.12e+00,
429,4.08e+00,3.24e+00,
430,4.16e+00,3.12e+00,
431,4.00e+00,3.28e+00,
432,4.12e+00,3.28e+00,
433,3.96e+00,3.16e+00,
434,4.04e+00,3.20e+00,
435,3.84e+00,3.28e+00,
436,3.92e+00,3.20e+00,
437,3.76e+00,3.28e+00,
438,3.88e+00,3.28e+00,
439,3.64e+00,3.20e+00,
440,3.76e+00,3.28e+00,
441,3.60e+00,3.20e+00,
442,3.68e+00,3.20e+00,
443,3.52e+00,3.28e+00,
444,3.64e+00,3.28e+00,
445,3.40e+00,3.12e+00,
446,3.52e+00,3.24e+00,
447,3.32e+00,2.92e+00,
448,3.40e+00,2.88e+00,
449,3.24e+00,3.04e+00,
450,3.32e+00,2.96e+00,
451,3.12e+00,3.16e+00,
452,3.20e+00,3.12e+00,
453,2.92e+00,3.28e+00,
454,3.08e+00,3.28e+00,
455,2.92e+00,3.20e+00,
456,3.04e+00,3.28e+00,
457,2.80e+00,3.20e+00,
458,2.92e+00,3.28e+00,
459,2.68e+00,3.12e+00,
460,2.80e+00,3.20e+00,
461,2.64e+00,3.28e+00,
462,2.68e+00,3.20e+00,
463,2.52e+00,3.28e+00,
464,2.60e+00,3.32e+00,
465,2.40e+00,3.20e+00,
466,2.48e+00,3.28e+00,
467,2.32e+00,3.24e+00,
468,2.36e+00,3.24e+00,
469,2.20e+00,3.32e+00,
470,2.32e+00,3.36e+00,
471,2.08e+00,3.20e+00,
472,2.20e+00,3.36e+00,
473,2.00e+00,3.20e+00,
474,2.08e+00,3.28e+00,
475,1.88e+00,3.08e+00,
476,2.00e+00,3.16e+00,
477,1.80e+00,2.60e+00,
478,1.88e+00,2.64e+00,
479,1.72e+00,2.48e+00,
480,1.76e+00,2.40e+00,
481,1.64e+00,2.52e+00,
482,1.72e+00,2.48e+00,
483,1.56e+00,2.28e+00,
484,1.64e+00,2.36e+00,
485,1.44e+00,2.12e+00,
486,1.52e+00,2.16e+00,
487,1.36e+00,2.00e+00,
488,1.40e+00,2.00e+00,
489,1.28e+00,2.08e+00,
490,1.36e+00,2.04e+00,
491,1.20e+00,2.64e+00,
492,1.28e+00,2.64e+00,
493,1.08e+00,2.48e+00,
494,1.20e+00,2.56e+00,
495,1.04e+00,2.40e+00,
496,1.12e+00,2.52e+00,
497,9.60e-01,2.24e+00,
498,1.04e+00,2.28e+00,
499,9.20e-01,2.12e+00,
500,9.60e-01,2.20e+00,
501,8.40e-01,2.00e+00,
502,8.80e-01,2.08e+00,
503,7.20e-01,1.88e+00,
504,8.40e-01,1.96e+00,
505,6.80e-01,1.76e+00,
506,6.80e-01,1.84e+00,
507,7.60e-01,1.68e+00,
508,6.00e-01,1.72e+00,
509,7.20e-01,1.64e+00,
510,7.20e-01,1.68e+00,
511,5.60e-01,1.56e+00,
512,6.40e-01,1.60e+00,
513,4.40e-01,1.44e+00,
514,6.00e-01,1.56e+00,
515,4.40e-01,1.40e+00,
516,4.40e-01,1.48e+00,
517,5.60e-01,1.36e+00,
518,5.20e-01,1.44e+00,
519,3.60e-01,1.28e+00,
520,3.60e-01,1.36e+00,
521,4.80e-01,1.24e+00,
522,4.80e-01,1.32e+00,
523,3.20e-01,1.16e+00,
524,3.20e-01,1.24e+00,
525,4.80e-01,1.16e+00,
526,3.20e-01,1.24e+00,
527,4.00e-01,1.12e+00,
528,3.20e-01,1.20e+00,
529,4.00e-01,1.08e+00,
530,4.00e-01,1.20e+00,
531,2.80e-01,1.04e+00,
532,4.00e-01,1.12e+00,
533,3.20e-01,1.04e+00,
534,3.20e-01,1.08e+00,
535,4.00e-01,9.60e-01,
536,4.00e-01,1.08e+00,
537,3.20e-01,9.20e-01,
538,3.20e-01,1.00e+00,
539,4.00e-01,9.20e-01,
540,3.20e-01,1.00e+00,
541,4.80e-01,8.80e-01,
542,3.60e-01,9.60e-01,
543,4.80e-01,8.40e-01,
544,3.60e-01,8.80e-01,
545,5.20e-01,8.40e-01,
546,5.20e-01,8.00e-01,
547,4.00e-01,9.20e-01,
548,4.40e-01,8.80e-01,
549,6.00e-01,8.00e-01,
550,4.80e-01,7.60e-01,
551,6.40e-01,8.80e-01,
552,4.80e-01,8.40e-01,
553,6.80e-01,7.20e-01,
554,5.60e-01,8.40e-01,
555,7.20e-01,7.20e-01,
556,6.00e-01,6.80e-01,
557,7.60e-01,8.00e-01,
558,6.40e-01,7.60e-01,
559,8.40e-01,6.80e-01,
560,7.20e-01,6.80e-01,
561,8.80e-01,7.60e-01,
562,8.00e-01,6.80e-01,
563,9.60e-01,7.20e-01,
564,8.40e-01,7.20e-01,
565,1.00e+00,6.00e-01,
566,9.20e-01,6.80e-01,
567,1.08e+00,8.40e-01,
568,1.04e+00,8.00e-01,
569,1.16e+00,8.80e-01,
570,1.08e+00,8.80e-01,
571,1.24e+00,7.60e-01,
572,1.16e+00,8.40e-01,
573,1.36e+00,7.20e-01,
574,1.28e+00,6.80e-01,
575,1.40e+00,7.60e-01,
576,1.32e+00,7.60e-01,
577,1.48e+00,5.60e-01,
578,1.40e+00,6.00e-01,
579,1.60e+00,7.20e-01,
580,1.52e+00,6.00e-01,
581,1.72e+00,7.20e-01,
582,1.60e+00,6.40e-01,
583,1.76e+00,5.60e-01,
584,1.68e+00,6.40e-01,
585,1.88e+00,5.20e-01,
586,1.80e+00,5.60e-01,
587,1.96e+00,6.00e-01,
588,1.84e+00,6.00e-01,
589,2.08e+00,4.80e-01,
590,1.96e+00,6.00e-01,
591,2.16e+00,4.80e-01,
592,2.08e+00,6.00e-01,
593,2.24e+00,4.80e-01,
594,2.16e+00,5.20e-01,
595,2.36e+00,4.80e-01,
596,2.28e+00,5.20e-01,
597,2.48e+00,4.40e-01,
598,2.40e+00,5.20e-01,
599,2.56e+00,4.40e-01,
600,2.48e+00,5.20e-01,
601,2.68e+00,4.40e-01,
602,2.56e+00,4.40e-01,
603,2.80e+00,7.60e-01,
604,2.68e+00,7.60e-01,
605,2.84e+00,1.24e+00,
606,2.80e+00,1.20e+00,
607,2.96e+00,1.36e+00,
608,2.88e+00,1.32e+00,
609,3.08e+00,1.48e+00,
610,3.00e+00,1.40e+00,
611,3.16e+00,1.68e+00,
612,3.12e+00,1.64e+00,
613,3.28e+00,1.84e+00,
614,3.16e+00,1.76e+00,
615,3.40e+00,1.96e+00,
616,3.28e+00,1.92e+00,
617,3.44e+00,2.08e+00,
618,3.36e+00,2.00e+00,
619,3.56e+00,2.24e+00,
620,3.48e+00,2.12e+00,
621,3.64e+00,2.32e+00,
622,3.52e+00,2.24e+00,
623,3.76e+00,2.40e+00,
624,3.64e+00,2.40e+00,
625,3.80e+00,2.28e+00,
626,3.76e+00,2.40e+00,
627,3.92e+00,2.24e+00,
628,3.84e+00,2.32e+00,
629,4.00e+00,1.88e+00,
630,3.88e+00,1.92e+00,
631,4.08e+00,1.64e+00,
632,4.00e+00,1.72e+00,
633,4.16e+00,1.56e+00,
634,4.08e+00,1.52e+00,
635,4.24e+00,1.68e+00,
636,4.12e+00,1.64e+00,
637,4.28e+00,2.20e+00,
638,4.20e+00,2.08e+00,
639,4.36e+00,2.32e+00,
640,4.24e+00,2.24e+00,
641,4.40e+00,2.32e+00,
642,4.32e+00,2.28e+00,
643,4.48e+00,2.44e+00,
644,4.36e+00,2.36e+00,
645,4.52e+00,2.56e+00,
646,4.44e+00,2.52e+00,
647,4.60e+00,2.68e+00,
648,4.48e+00,2.60e+00,
649,4.64e+00,2.76e+00,
650,4.56e+00,2.64e+00,
651,4.68e+00,2.76e+00,
652,4.72e+00,2.80e+00,
653,4.56e+00,2.64e+00,
654,4.60e+00,2.72e+00,
655,4.76e+00,2.88e+00,
656,4.76e+00,2.84e+00,
657,4.68e+00,2.92e+00,
658,4.68e+00,2.92e+00,
659,4.84e+00,2.84e+00,
660,4.84e+00,3.00e+00,
661,4.72e+00,2.88e+00,
662,4.72e+00,3.00e+00,
663,4.84e+00,2.96e+00,
664,4.72e+00,2.96e+00,
665,4.88e+00,3.04e+00,
666,4.72e+00,3.04e+00,
667,4.88e+00,2.88e+00,
668,4.88e+00,3.00e+00,
669,4.72e+00,2.88e+00,
670,4.88e+00,2.96e+00,
671,4.76e+00,3.04e+00,
672,4.88e+00,3.00e+00,
673,4.72e+00,3.16e+00,
674,4.72e+00,3.16e+00,
675,4.88e+00,3.00e+00,
676,4.72e+00,3.08e+00,
677,4.84e+00,3.16e+00,
678,4.72e+00,3.08e+00,
679,4.84e+00,3.16e+00,
680,4.80e+00,3.08e+00,
681,4.64e+00,3.20e+00,
682,4.68e+00,3.24e+00,
683,4.76e+00,3.12e+00,
684,4.76e+00,3.24e+00,
685,4.60e+00,3.12e+00,
686,4.72e+00,3.24e+00,
687,4.56e+00,3.12e+00,
688,4.64e+00,3.20e+00,
689,4.56e+00,3.24e+00,
690,4.64e+00,3.20e+00,
691,4.48e+00,3.28e+00,
692,4.60e+00,3.20e+00,
693,4.44e+00,3.28e+00,
694,4.52e+00,3.28e+00,
695,4.36e+00,3.20e+00,
696,4.48e+00,3.20e+00,
697,4.32e+00,3.28e+00,
698,4.40e+00,3.20e+00,
699,4.24e+00,3.28e+00,
700,4.36e+00,3.28e+00,
701,4.16e+00,3.16e+00,
702,4.28e+00,3.24e+00,
703,4.12e+00,3.08e+00,
704,4.24e+00,3.16e+00,
705,4.08e+00,3.00e+00,
706,4.12e+00,3.00e+00,
707,3.96e+00,3.12e+00,
708,4.04e+00,3.00e+00,
709,3.88e+00,3.24e+00,
710,4.00e+00,3.12e+00,
711,3.80e+00,3.28e+00,
712,3.88e+00,3.28e+00,
713,3.72e+00,3.16e+00,
714,3.80e+00,3.28e+00,
715,3.60e+00,3.16e+00,
716,3.76e+00,3.24e+00,
717,3.52e+00,3.12e+00,
718,3.64e+00,3.28e+00,
719,3.40e+00,3.16e+00,
720,3.52e+00,3.20e+00,
721,3.36e+00,3.28e+00,
722,3.44e+00,3.28e+00,
723,3.24e+00,3.20e+00,
724,3.32e+00,3.28e+00,
725,3.16e+00,3.20e+00,
726,3.28e+00,3.20e+00,
727,3.04e+00,3.36e+00,
728,3.16e+00,3.36e+00,
729,2.92e+00,3.24e+00,
730,3.04e+00,3.24e+00,
731,2.88e+00,3.36e+00,
732,2.96e+00,3.36e+00,
733,2.76e+00,3.24e+00,
734,2.84e+00,3.36e+00,
735,2.64e+00,3.24e+00,
736,2.72e+00,3.28e+00,
737,2.56e+00,3.12e+00,
738,2.60e+00,3.16e+00,
739,2.44e+00,2.72e+00,
740,2.56e+00,2.72e+00,
741,2.32e+00,2.52e+00,
742,2.44e+00,2.56e+00,
743,2.28e+00,2.48e+00,
744,2.32e+00,2.48e+00,
745,2.16e+00,2.76e+00,
746,2.24e+00,2.72e+00,
747,2.04e+00,3.16e+00,
748,2.12e+00,3.08e+00,
749,1.92e+00,3.24e+00,
750,2.00e+00,3.24e+00,
751,1.84e+00,3.12e+00,
752,1.96e+00,3.12e+00,
753,1.76e+00,3.24e+00,
754,1.84e+00,3.12e+00,
755,1.68e+00,3.28e+00,
756,1.76e+00,3.16e+00,
757,1.56e+00,3.28e+00,
758,1.64e+00,3.28e+00,
759,1.44e+00,3.16e+00,
760,1.52e+00,3.28e+00,
761,1.40e+00,3.20e+00,
762,1.48e+00,3.20e+00,
763,1.32e+00,3.28e+00,
764,1.36e+00,3.20e+00,
765,1.20e+00,2.84e+00,
766,1.28e+00,2.88e+00,
767,1.16e+00,2.48e+00,
768,1.24e+00,2.52e+00,
769,1.04e+00,2.36e+00,
770,1.12e+00,2.48e+00,
771,9.60e-01,2.28e+00,
772,1.08e+00,2.40e+00,
773,9.20e-01,2.16e+00,
774,1.00e+00,2.28e+00,
775,8.40e-01,2.04e+00,
776,9.60e-01,2.08e+00,
777,8.00e-01,1.92e+00,
778,8.80e-01,2.00e+00,
779,7.20e-01,1.88e+00,
780,8.40e-01,1.92e+00,
781,6.80e-01,1.80e+00,
782,7.60e-01,1.84e+00,
783,6.00e-01,1.68e+00,
784,7.20e-01,1.64e+00,
785,5.60e-01,1.80e+00,
786,6.40e-01,1.68e+00,
787,4.80e-01,1.56e+00,
788,4.80e-01,1.60e+00,
789,6.00e-01,1.52e+00,
790,6.00e-01,1.56e+00,
791,4.40e-01,1.40e+00,
792,5.20e-01,1.48e+00,
793,4.40e-01,1.40e+00,
794,3.60e-01,1.44e+00,
795,4.80e-01,1.32e+00,
796,3.60e-01,1.44e+00,
797,4.80e-01,1.28e+00,
798,4.40e-01,1.36e+00,
799,3.20e-01,1.20e+00,
800,4.00e-01,1.32e+00,
801,3.20e-01,1.16e+00,
802,4.00e-01,1.32e+00,
803,2.80e-01,1.12e+00,
804,4.00e-01,1.20e+00,
805,3.20e-01,1.08e+00,
806,4.00e-01,1.08e+00,
807,2.80e-01,1.20e+00,
808,4.00e-01,1.20e+00,
809,2.40e-01,1.04e+00,
810,4.00e-01,1.12e+00,
811,3.20e-01,1.04e+00,
812,3.20e-01,1.08e+00,
813,4.00e-01,9.60e-01,
814,3.20e-01,1.08e+00,
815,4.40e-01,9.60e-01,
816,3.60e-01,1.00e+00,
817,4.80e-01,9.20e-01,
818,3.60e-01,1.00e+00,
819,4.80e-01,8.80e-01,
820,3.60e-01,9.60e-01,
821,5.20e-01,8.40e-01,
822,5.20e-01,9.60e-01,
823,3.60e-01,8.00e-01,
824,4.80e-01,8.80e-01,
825,6.00e-01,8.00e-01,
826,4.80e-01,8.80e-01,
827,6.40e-01,8.00e-01,
828,5.60e-01,8.00e-01,
829,7.20e-01,8.40e-01,
830,6.00e-01,8.80e-01,
831,7.60e-01,7.20e-01,
832,6.80e-01,7.20e-01,
833,8.00e-01,8.40e-01,
834,8.40e-01,7.60e-01,
835,7.20e-01,7.20e-01,
836,8.00e-01,7.60e-01,
837,9.60e-01,6.80e-01,
838,8.40e-01,6.80e-01,
839,1.00e+00,7.60e-01,
840,9.20e-01,7.60e-01,
841,1.08e+00,6.80e-01,
842,9.60e-01,7.20e-01,
843,1.12e+00,6.40e-01,
844,1.04e+00,7.20e-01,
845,1.24e+00,6.00e-01,
846,1.16e+00,7.20e-01,
847,1.28e+00,5.60e-01,
848,1.20e+00,7.20e-01,
849,1.36e+00,6.00e-01,
850,1.28e+00,6.80e-01,
851,1.48e+00,5.60e-01,
852,1.40e+00,6.40e-01,
853,1.52e+00,5.60e-01,
854,1.44e+00,5.60e-01,
855,1.64e+00,7.20e-01,
856,1.56e+00,6.40e-01,
857,1.72e+00,5.20e-01,
858,1.64e+00,5.60e-01,
859,1.84e+00,6.40e-01,
860,1.72e+00,5.60e-01,
861,1.96e+00,9.20e-01,
862,1.84e+00,9.20e-01,
863,2.00e+00,1.24e+00,
864,1.92e+00,1.16e+00,
865,2.12e+00,1.32e+00,
866,2.04e+00,1.28e+00,
867,2.24e+00,1.40e+00,
868,2.16e+00,1.32e+00,
869,2.32e+00,1.48e+00,
870,2.20e+00,1.48e+00,
