Code/Open_Loop_Bode_Data/Open_Loop_Frequency_Response_Signals_2/NewFile15.csv

X,CH3,CH4,Start,Increment,
Sequence,Volt,Volt,-2.995000e+00,5.000000e-03
0,1.60e+00,1.08e+00,
1,1.40e+00,2.28e+00,
2,1.52e+00,1.68e+00,
3,1.32e+00,1.00e+00,
4,1.40e+00,1.16e+00,
5,1.20e+00,2.08e+00,
6,1.28e+00,9.20e-01,
7,1.08e+00,1.60e+00,
8,1.16e+00,1.96e+00,
9,1.04e+00,1.08e+00,
10,1.12e+00,8.00e-01,
11,9.20e-01,1.28e+00,
12,1.00e+00,1.24e+00,
13,8.40e-01,6.00e-01,
14,9.20e-01,5.20e-01,
15,7.60e-01,1.20e+00,
16,8.40e-01,1.16e+00,
17,6.80e-01,5.20e-01,
18,7.60e-01,4.40e-01,
19,6.00e-01,1.28e+00,
20,7.20e-01,1.04e+00,
21,4.80e-01,4.80e-01,
22,6.40e-01,4.40e-01,
23,4.80e-01,8.40e-01,
24,6.00e-01,5.20e-01,
25,4.40e-01,2.80e-01,
26,5.20e-01,2.80e-01,
27,4.00e-01,8.40e-01,
28,3.60e-01,2.80e-01,
29,4.80e-01,7.60e-01,
30,4.80e-01,1.00e+00,
31,3.20e-01,4.40e-01,
32,3.20e-01,3.20e-01,
33,4.40e-01,5.20e-01,
34,4.00e-01,4.80e-01,
35,3.20e-01,2.00e-01,
36,3.20e-01,2.00e-01,
37,4.00e-01,6.40e-01,
38,4.00e-01,4.80e-01,
39,2.80e-01,2.00e-01,
40,3.20e-01,1.60e-01,
41,4.00e-01,8.40e-01,
42,4.00e-01,6.40e-01,
43,3.20e-01,2.40e-01,
44,2.40e-01,2.00e-01,
45,4.80e-01,4.80e-01,
46,4.80e-01,2.40e-01,
47,3.60e-01,1.60e-01,
48,3.60e-01,1.60e-01,
49,5.20e-01,7.20e-01,
50,4.40e-01,2.00e-01,
51,6.00e-01,6.00e-01,
52,4.80e-01,9.60e-01,
53,6.00e-01,4.00e-01,
54,4.80e-01,2.40e-01,
55,7.20e-01,8.40e-01,
56,6.00e-01,1.12e+00,
57,7.60e-01,4.40e-01,
58,6.80e-01,3.20e-01,
59,8.40e-01,1.04e+00,
60,7.20e-01,1.24e+00,
61,8.80e-01,4.40e-01,
62,8.00e-01,4.00e-01,
63,1.00e+00,1.32e+00,
64,9.20e-01,1.24e+00,
65,1.08e+00,4.80e-01,
66,9.60e-01,4.40e-01,
67,1.16e+00,1.96e+00,
68,1.04e+00,2.04e+00,
69,1.28e+00,8.40e-01,
70,1.16e+00,1.04e+00,
71,1.36e+00,1.76e+00,
72,1.28e+00,6.40e-01,
73,1.48e+00,1.24e+00,
74,1.40e+00,1.20e+00,
75,1.60e+00,2.08e+00,
76,1.52e+00,9.20e-01,
77,1.72e+00,1.84e+00,
78,1.64e+00,2.44e+00,
79,1.84e+00,1.56e+00,
80,1.76e+00,1.20e+00,
81,1.96e+00,2.40e+00,
82,1.84e+00,2.56e+00,
83,2.08e+00,1.44e+00,
84,2.00e+00,1.16e+00,
85,2.20e+00,2.52e+00,
86,2.12e+00,2.64e+00,
87,2.32e+00,1.40e+00,
88,2.28e+00,1.32e+00,
89,2.48e+00,2.68e+00,
90,2.40e+00,2.72e+00,
91,2.60e+00,1.40e+00,
92,2.52e+00,1.52e+00,
93,2.72e+00,2.88e+00,
94,2.64e+00,2.88e+00,
95,2.84e+00,1.56e+00,
96,2.76e+00,2.40e+00,
97,2.96e+00,3.00e+00,
98,2.88e+00,2.80e+00,
99,3.12e+00,1.72e+00,
100,2.96e+00,3.00e+00,
101,3.24e+00,2.36e+00,
102,3.16e+00,1.80e+00,
103,3.40e+00,2.80e+00,
104,3.28e+00,3.04e+00,
105,3.52e+00,2.24e+00,
106,3.40e+00,1.92e+00,
107,3.60e+00,3.04e+00,
108,3.52e+00,3.16e+00,
109,3.76e+00,2.16e+00,
110,3.64e+00,2.04e+00,
111,3.80e+00,3.12e+00,
112,3.72e+00,3.16e+00,
113,3.92e+00,2.36e+00,
114,3.84e+00,2.96e+00,
115,4.04e+00,3.24e+00,
116,3.96e+00,3.28e+00,
117,4.16e+00,2.48e+00,
118,4.00e+00,3.08e+00,
119,4.24e+00,3.36e+00,
120,4.12e+00,3.28e+00,
121,4.28e+00,2.56e+00,
122,4.20e+00,3.12e+00,
123,4.40e+00,3.36e+00,
124,4.32e+00,2.52e+00,
125,4.48e+00,3.32e+00,
126,4.36e+00,3.20e+00,
127,4.52e+00,3.40e+00,
128,4.44e+00,2.84e+00,
129,4.60e+00,3.40e+00,
130,4.56e+00,3.48e+00,
131,4.64e+00,2.76e+00,
132,4.56e+00,2.84e+00,
133,4.72e+00,3.48e+00,
134,4.60e+00,3.48e+00,
135,4.76e+00,3.00e+00,
136,4.76e+00,3.52e+00,
137,4.64e+00,3.40e+00,
138,4.68e+00,3.52e+00,
139,4.84e+00,2.84e+00,
140,4.84e+00,3.52e+00,
141,4.72e+00,3.32e+00,
142,4.72e+00,3.16e+00,
143,4.88e+00,3.60e+00,
144,4.80e+00,3.40e+00,
145,4.88e+00,3.60e+00,
146,4.72e+00,2.96e+00,
147,4.88e+00,3.64e+00,
148,4.88e+00,3.44e+00,
149,4.72e+00,3.60e+00,
150,4.72e+00,3.32e+00,
151,4.80e+00,3.60e+00,
152,4.68e+00,3.64e+00,
153,4.84e+00,2.84e+00,
154,4.80e+00,2.80e+00,
155,4.68e+00,3.56e+00,
156,4.68e+00,3.60e+00,
157,4.76e+00,3.12e+00,
158,4.60e+00,3.64e+00,
159,4.72e+00,3.52e+00,
160,4.68e+00,3.04e+00,
161,4.52e+00,3.72e+00,
162,4.64e+00,3.64e+00,
163,4.48e+00,3.48e+00,
164,4.60e+00,3.64e+00,
165,4.44e+00,2.96e+00,
166,4.52e+00,3.44e+00,
167,4.32e+00,3.64e+00,
168,4.40e+00,2.92e+00,
169,4.24e+00,3.64e+00,
170,4.36e+00,3.44e+00,
171,4.20e+00,3.64e+00,
172,4.28e+00,2.88e+00,
173,4.08e+00,3.64e+00,
174,4.16e+00,3.64e+00,
175,4.00e+00,2.92e+00,
176,4.08e+00,2.80e+00,
177,3.88e+00,3.60e+00,
178,4.00e+00,3.64e+00,
179,3.76e+00,2.68e+00,
180,3.88e+00,2.68e+00,
181,3.68e+00,3.60e+00,
182,3.76e+00,3.60e+00,
183,3.60e+00,2.36e+00,
184,3.68e+00,3.08e+00,
185,3.48e+00,3.52e+00,
186,3.56e+00,3.52e+00,
187,3.36e+00,2.24e+00,
188,3.44e+00,3.20e+00,
189,3.24e+00,3.48e+00,
190,3.28e+00,3.32e+00,
191,3.12e+00,2.20e+00,
192,3.16e+00,3.40e+00,
193,2.96e+00,2.56e+00,
194,3.04e+00,2.04e+00,
195,2.84e+00,3.16e+00,
196,2.92e+00,3.36e+00,
197,2.72e+00,2.36e+00,
198,2.80e+00,1.88e+00,
199,2.56e+00,3.20e+00,
200,2.68e+00,3.24e+00,
201,2.44e+00,1.92e+00,
202,2.56e+00,1.76e+00,
203,2.32e+00,3.04e+00,
204,2.36e+00,3.04e+00,
205,2.24e+00,1.56e+00,
206,2.24e+00,1.60e+00,
207,2.04e+00,2.84e+00,
208,2.12e+00,2.24e+00,
209,1.92e+00,1.40e+00,
210,2.00e+00,2.64e+00,
211,1.80e+00,1.84e+00,
212,1.88e+00,1.24e+00,
213,1.68e+00,2.16e+00,
214,1.76e+00,2.44e+00,
215,1.56e+00,1.60e+00,
216,1.64e+00,1.08e+00,
217,1.44e+00,2.04e+00,
218,1.52e+00,2.28e+00,
219,1.32e+00,1.28e+00,
220,1.40e+00,1.04e+00,
221,1.28e+00,2.00e+00,
222,1.28e+00,2.16e+00,
223,1.16e+00,1.12e+00,
224,1.24e+00,9.20e-01,
225,1.04e+00,1.52e+00,
226,1.12e+00,1.20e+00,
227,9.60e-01,6.80e-01,
228,1.00e+00,6.40e-01,
229,8.40e-01,1.44e+00,
230,9.60e-01,9.60e-01,
231,8.00e-01,5.60e-01,
232,8.40e-01,6.00e-01,
233,6.80e-01,1.36e+00,
234,7.60e-01,8.80e-01,
235,6.00e-01,5.20e-01,
236,7.20e-01,8.40e-01,
237,5.60e-01,4.40e-01,
238,6.40e-01,3.20e-01,
239,4.80e-01,7.60e-01,
240,6.00e-01,8.80e-01,
241,4.40e-01,4.00e-01,
242,4.40e-01,2.80e-01,
243,5.20e-01,1.04e+00,
244,4.80e-01,1.12e+00,
245,3.60e-01,4.00e-01,
246,4.80e-01,3.20e-01,
247,3.20e-01,5.60e-01,
248,3.20e-01,4.00e-01,
249,4.40e-01,2.00e-01,
250,4.00e-01,2.00e-01,
251,3.20e-01,7.20e-01,
252,4.00e-01,4.00e-01,
253,2.40e-01,2.00e-01,
254,4.00e-01,2.00e-01,
255,3.20e-01,9.20e-01,
256,4.00e-01,4.40e-01,
257,3.20e-01,2.80e-01,
258,4.00e-01,4.40e-01,
259,3.20e-01,2.00e-01,
260,3.20e-01,1.20e-01,
261,4.40e-01,6.00e-01,
262,4.80e-01,6.80e-01,
263,3.60e-01,2.00e-01,
264,3.20e-01,1.60e-01,
265,5.20e-01,8.80e-01,
266,4.40e-01,9.20e-01,
267,6.00e-01,3.20e-01,
268,6.00e-01,2.40e-01,
269,4.80e-01,1.08e+00,
270,4.80e-01,8.80e-01,
271,6.40e-01,3.20e-01,
272,6.00e-01,3.20e-01,
273,7.20e-01,1.12e+00,
274,6.80e-01,6.80e-01,
275,8.00e-01,3.20e-01,
276,6.80e-01,3.20e-01,
277,8.80e-01,1.16e+00,
278,8.00e-01,3.20e-01,
279,9.60e-01,8.40e-01,
280,9.20e-01,1.20e+00,
281,1.04e+00,5.60e-01,
282,9.60e-01,4.00e-01,
283,1.12e+00,1.08e+00,
284,1.08e+00,1.72e+00,
285,1.24e+00,1.00e+00,
286,1.16e+00,6.80e-01,
287,1.36e+00,1.76e+00,
288,1.28e+00,1.96e+00,
289,1.44e+00,9.60e-01,
290,1.32e+00,8.00e-01,
291,1.60e+00,1.92e+00,
292,1.52e+00,1.92e+00,
293,1.64e+00,8.00e-01,
294,1.60e+00,7.60e-01,
295,1.76e+00,2.28e+00,
296,1.76e+00,2.32e+00,
297,1.96e+00,1.12e+00,
298,1.88e+00,1.12e+00,
299,2.08e+00,2.56e+00,
300,2.00e+00,2.56e+00,
301,2.16e+00,1.28e+00,
302,2.12e+00,2.12e+00,
303,2.32e+00,2.72e+00,
304,2.24e+00,1.40e+00,
305,2.44e+00,2.32e+00,
306,2.36e+00,2.80e+00,
307,2.56e+00,1.96e+00,
308,2.48e+00,1.48e+00,
309,2.68e+00,2.52e+00,
310,2.64e+00,2.84e+00,
311,2.84e+00,1.88e+00,
312,2.76e+00,1.52e+00,
313,2.96e+00,2.76e+00,
314,2.88e+00,2.92e+00,
315,3.08e+00,1.88e+00,
316,3.00e+00,1.64e+00,
317,3.20e+00,2.92e+00,
318,3.12e+00,3.00e+00,
319,3.32e+00,1.72e+00,
320,3.24e+00,1.72e+00,
321,3.44e+00,3.04e+00,
322,3.36e+00,3.04e+00,
323,3.56e+00,1.96e+00,
324,3.40e+00,2.72e+00,
325,3.68e+00,3.12e+00,
326,3.60e+00,3.12e+00,
327,3.80e+00,2.08e+00,
328,3.72e+00,2.80e+00,
329,3.92e+00,3.16e+00,
330,3.80e+00,3.16e+00,
331,4.04e+00,2.36e+00,
332,3.96e+00,3.12e+00,
333,4.12e+00,3.28e+00,
334,4.00e+00,2.52e+00,
335,4.24e+00,3.28e+00,
336,4.12e+00,3.36e+00,
337,4.28e+00,2.56e+00,
338,4.20e+00,2.56e+00,
339,4.40e+00,3.32e+00,
340,4.32e+00,3.36e+00,
341,4.48e+00,2.60e+00,
342,4.36e+00,3.00e+00,
343,4.52e+00,3.40e+00,
344,4.44e+00,2.84e+00,
345,4.56e+00,3.48e+00,
346,4.48e+00,3.32e+00,
347,4.64e+00,3.48e+00,
348,4.56e+00,2.76e+00,
349,4.72e+00,3.52e+00,
350,4.60e+00,3.32e+00,
351,4.76e+00,3.48e+00,
352,4.76e+00,3.08e+00,
353,4.68e+00,3.52e+00,
354,4.68e+00,3.36e+00,
355,4.80e+00,3.52e+00,
356,4.84e+00,2.88e+00,
357,4.68e+00,3.60e+00,
358,4.72e+00,3.52e+00,
359,4.88e+00,3.44e+00,
360,4.88e+00,3.32e+00,
361,4.72e+00,3.60e+00,
362,4.88e+00,3.60e+00,
363,4.68e+00,3.04e+00,
364,4.88e+00,3.64e+00,
365,4.72e+00,3.44e+00,
366,4.72e+00,3.60e+00,
367,4.84e+00,2.88e+00,
368,4.72e+00,3.60e+00,
369,4.84e+00,3.44e+00,
370,4.84e+00,3.32e+00,
371,4.68e+00,3.64e+00,
372,4.68e+00,3.64e+00,
373,4.76e+00,3.52e+00,
374,4.76e+00,3.60e+00,
375,4.60e+00,2.80e+00,
376,4.72e+00,3.44e+00,
377,4.56e+00,3.64e+00,
378,4.72e+00,3.20e+00,
379,4.48e+00,3.64e+00,
380,4.60e+00,3.64e+00,
381,4.44e+00,2.96e+00,
382,4.52e+00,2.84e+00,
383,4.36e+00,3.64e+00,
384,4.48e+00,3.64e+00,
385,4.32e+00,2.92e+00,
386,4.36e+00,2.88e+00,
387,4.20e+00,3.64e+00,
388,4.28e+00,3.64e+00,
389,4.12e+00,2.92e+00,
390,4.24e+00,3.64e+00,
391,4.00e+00,3.44e+00,
392,4.12e+00,3.64e+00,
393,3.96e+00,2.76e+00,
394,3.96e+00,3.60e+00,
395,3.84e+00,3.44e+00,
396,3.92e+00,3.60e+00,
397,3.72e+00,2.68e+00,
398,3.80e+00,3.60e+00,
399,3.60e+00,3.00e+00,
400,3.68e+00,2.36e+00,
401,3.48e+00,3.44e+00,
402,3.56e+00,3.52e+00,
403,3.36e+00,2.60e+00,
404,3.44e+00,2.24e+00,
405,3.24e+00,3.40e+00,
406,3.32e+00,3.48e+00,
407,3.12e+00,2.44e+00,
408,3.20e+00,2.16e+00,
409,3.00e+00,3.40e+00,
410,3.08e+00,3.40e+00,
411,2.88e+00,2.00e+00,
412,2.96e+00,2.08e+00,
413,2.76e+00,3.28e+00,
414,2.84e+00,3.36e+00,
415,2.60e+00,1.92e+00,
416,2.68e+00,3.24e+00,
417,2.48e+00,2.60e+00,
418,2.56e+00,1.76e+00,
419,2.36e+00,2.76e+00,
420,2.44e+00,3.08e+00,
421,2.20e+00,2.12e+00,
422,2.28e+00,1.56e+00,
423,2.12e+00,2.56e+00,
424,2.20e+00,2.84e+00,
425,1.96e+00,1.76e+00,
426,2.04e+00,1.40e+00,
427,1.80e+00,2.64e+00,
428,1.92e+00,2.68e+00,
429,1.76e+00,1.48e+00,
430,1.76e+00,1.28e+00,
431,1.64e+00,2.52e+00,
432,1.72e+00,2.48e+00,
433,1.52e+00,1.20e+00,
434,1.60e+00,1.16e+00,
435,1.40e+00,2.36e+00,
436,1.48e+00,2.00e+00,
437,1.28e+00,1.12e+00,
438,1.36e+00,1.24e+00,
439,1.16e+00,1.88e+00,
440,1.24e+00,8.00e-01,
441,1.08e+00,1.44e+00,
442,1.12e+00,1.72e+00,
443,9.60e-01,1.00e+00,
444,1.04e+00,6.80e-01,
445,8.80e-01,1.44e+00,
446,9.60e-01,1.68e+00,
447,8.00e-01,8.40e-01,
448,8.80e-01,6.40e-01,
449,7.20e-01,1.00e+00,
450,8.00e-01,8.80e-01,
451,6.80e-01,4.40e-01,
452,7.20e-01,3.60e-01,
453,5.60e-01,9.60e-01,
454,6.40e-01,7.60e-01,
455,4.80e-01,3.20e-01,
456,4.80e-01,3.20e-01,
457,6.00e-01,1.12e+00,
458,5.20e-01,7.20e-01,
459,3.60e-01,4.00e-01,
460,5.20e-01,3.20e-01,
461,3.60e-01,6.00e-01,
462,4.40e-01,3.60e-01,
463,3.20e-01,2.00e-01,
464,4.80e-01,7.20e-01,
465,3.20e-01,2.80e-01,
466,3.20e-01,2.00e-01,
467,4.00e-01,7.20e-01,
468,4.00e-01,8.80e-01,
469,2.40e-01,3.20e-01,
470,4.00e-01,2.40e-01,
471,3.20e-01,4.80e-01,
472,4.00e-01,4.00e-01,
473,2.40e-01,2.00e-01,
474,4.00e-01,2.00e-01,
475,2.80e-01,7.20e-01,
476,3.20e-01,5.20e-01,
477,4.40e-01,2.00e-01,
478,3.60e-01,2.00e-01,
479,4.80e-01,9.60e-01,
480,3.20e-01,5.60e-01,
481,4.80e-01,2.80e-01,
482,4.00e-01,2.80e-01,
483,5.20e-01,1.08e+00,
484,4.40e-01,6.40e-01,
485,6.00e-01,3.20e-01,
486,4.80e-01,1.12e+00,
487,6.40e-01,5.20e-01,
488,5.60e-01,3.20e-01,
489,7.20e-01,8.80e-01,
490,6.00e-01,1.20e+00,
491,7.60e-01,5.20e-01,
492,6.80e-01,3.60e-01,
493,8.40e-01,1.08e+00,
494,7.20e-01,1.28e+00,
495,9.20e-01,5.20e-01,
496,8.40e-01,4.40e-01,
497,1.00e+00,1.32e+00,
498,9.60e-01,1.20e+00,
499,1.12e+00,4.40e-01,
500,1.04e+00,4.00e-01,
501,1.24e+00,1.68e+00,
502,1.16e+00,1.72e+00,
503,1.28e+00,6.80e-01,
504,1.28e+00,6.80e-01,
505,1.40e+00,1.92e+00,
506,1.32e+00,1.36e+00,
507,1.52e+00,7.60e-01,
508,1.44e+00,1.32e+00,
509,1.64e+00,2.40e+00,
510,1.56e+00,1.96e+00,
511,1.76e+00,1.12e+00,
512,1.68e+00,2.52e+00,
513,1.88e+00,1.64e+00,
514,1.80e+00,1.16e+00,
515,2.00e+00,2.08e+00,
516,1.92e+00,2.32e+00,
517,2.12e+00,1.28e+00,
518,2.04e+00,1.04e+00,
519,2.24e+00,2.32e+00,
520,2.16e+00,2.64e+00,
521,2.36e+00,1.56e+00,
522,2.32e+00,1.36e+00,
523,2.56e+00,2.68e+00,
524,2.44e+00,2.72e+00,
525,2.68e+00,1.40e+00,
526,2.56e+00,1.44e+00,
527,2.80e+00,2.84e+00,
528,2.72e+00,2.88e+00,
529,2.92e+00,1.60e+00,
530,2.80e+00,2.36e+00,
531,3.04e+00,3.00e+00,
532,2.96e+00,2.88e+00,
533,3.16e+00,1.72e+00,
534,3.12e+00,2.52e+00,
535,3.28e+00,3.00e+00,
536,3.16e+00,1.76e+00,
537,3.44e+00,2.68e+00,
538,3.36e+00,3.04e+00,
539,3.56e+00,2.28e+00,
540,3.40e+00,1.96e+00,
541,3.64e+00,3.00e+00,
542,3.60e+00,3.16e+00,
543,3.76e+00,2.28e+00,
544,3.72e+00,2.08e+00,
545,3.84e+00,3.12e+00,
546,3.80e+00,3.16e+00,
547,4.00e+00,2.36e+00,
548,3.88e+00,2.56e+00,
549,4.08e+00,3.24e+00,
550,4.00e+00,3.28e+00,
551,4.16e+00,2.48e+00,
552,4.08e+00,3.08e+00,
553,4.28e+00,3.36e+00,
554,4.20e+00,3.36e+00,
555,4.32e+00,2.56e+00,
556,4.24e+00,3.16e+00,
557,4.44e+00,3.36e+00,
558,4.36e+00,2.56e+00,
559,4.52e+00,3.36e+00,
560,4.44e+00,3.20e+00,
561,4.60e+00,3.40e+00,
562,4.48e+00,2.84e+00,
563,4.64e+00,3.48e+00,
564,4.56e+00,3.48e+00,
565,4.72e+00,2.84e+00,
566,4.60e+00,2.80e+00,
567,4.76e+00,3.48e+00,
568,4.68e+00,3.48e+00,
569,4.76e+00,3.12e+00,
570,4.68e+00,3.52e+00,
571,4.80e+00,3.32e+00,
572,4.72e+00,2.88e+00,
573,4.84e+00,3.56e+00,
574,4.80e+00,3.52e+00,
575,4.72e+00,3.36e+00,
576,4.72e+00,3.28e+00,
577,4.88e+00,3.60e+00,
578,4.80e+00,3.44e+00,
579,4.88e+00,3.60e+00,
580,4.88e+00,3.00e+00,
581,4.72e+00,3.64e+00,
582,4.88e+00,3.44e+00,
583,4.72e+00,3.60e+00,
584,4.88e+00,3.60e+00,
585,4.72e+00,3.44e+00,
586,4.80e+00,3.60e+00,
587,4.68e+00,3.08e+00,
588,4.68e+00,2.84e+00,
589,4.76e+00,3.60e+00,
590,4.76e+00,3.60e+00,
591,4.60e+00,3.44e+00,
592,4.72e+00,3.52e+00,
593,4.56e+00,3.64e+00,
594,4.56e+00,3.64e+00,
595,4.64e+00,2.84e+00,
596,4.56e+00,3.64e+00,
597,4.44e+00,3.44e+00,
598,4.52e+00,3.64e+00,
599,4.36e+00,2.88e+00,
600,4.48e+00,3.64e+00,
601,4.32e+00,3.44e+00,
602,4.40e+00,3.64e+00,
603,4.24e+00,2.84e+00,
604,4.32e+00,3.64e+00,
605,4.12e+00,3.44e+00,
606,4.24e+00,2.88e+00,
607,4.08e+00,3.64e+00,
608,4.16e+00,3.64e+00,
609,3.96e+00,3.00e+00,
610,4.04e+00,2.80e+00,
611,3.84e+00,3.64e+00,
612,3.92e+00,3.64e+00,
613,3.76e+00,2.72e+00,
614,3.80e+00,2.68e+00,
615,3.60e+00,3.60e+00,
616,3.68e+00,3.56e+00,
617,3.52e+00,2.36e+00,
618,3.64e+00,2.44e+00,
619,3.40e+00,3.52e+00,
620,3.52e+00,3.52e+00,
621,3.32e+00,2.24e+00,
622,3.36e+00,3.12e+00,
623,3.16e+00,3.48e+00,
624,3.20e+00,3.48e+00,
625,3.08e+00,2.20e+00,
626,3.08e+00,3.40e+00,
627,2.88e+00,2.68e+00,
628,2.96e+00,2.08e+00,
629,2.76e+00,3.12e+00,
630,2.84e+00,3.36e+00,
631,2.64e+00,2.40e+00,
632,2.72e+00,1.96e+00,
633,2.52e+00,3.16e+00,
634,2.60e+00,3.24e+00,
635,2.40e+00,1.96e+00,
636,2.48e+00,1.76e+00,
637,2.28e+00,3.04e+00,
638,2.32e+00,3.04e+00,
639,2.12e+00,1.64e+00,
640,2.20e+00,1.52e+00,
641,1.96e+00,2.80e+00,
642,2.08e+00,2.40e+00,
643,1.88e+00,1.40e+00,
644,1.96e+00,1.48e+00,
645,1.76e+00,2.64e+00,
646,1.84e+00,1.28e+00,
647,1.64e+00,2.00e+00,
648,1.72e+00,2.44e+00,
649,1.52e+00,1.60e+00,
650,1.60e+00,1.12e+00,
651,1.40e+00,1.96e+00,
652,1.48e+00,2.28e+00,
653,1.28e+00,1.28e+00,
654,1.36e+00,1.00e+00,
655,1.20e+00,1.84e+00,
656,1.28e+00,2.08e+00,
657,1.08e+00,1.04e+00,
658,1.16e+00,8.80e-01,
659,9.60e-01,1.36e+00,
660,1.08e+00,1.12e+00,
661,9.20e-01,6.40e-01,
662,1.00e+00,5.60e-01,
663,8.00e-01,1.32e+00,
664,8.80e-01,9.20e-01,
665,7.20e-01,5.20e-01,
666,8.40e-01,5.60e-01,
667,6.80e-01,1.36e+00,
668,7.60e-01,8.40e-01,
669,5.60e-01,5.20e-01,
670,5.60e-01,7.60e-01,
671,6.80e-01,4.40e-01,
672,6.00e-01,2.80e-01,
673,4.80e-01,7.60e-01,
674,6.00e-01,8.00e-01,
675,4.40e-01,3.20e-01,
676,5.20e-01,2.40e-01,
677,3.60e-01,9.60e-01,
678,3.60e-01,1.00e+00,
679,4.80e-01,4.00e-01,
680,4.80e-01,3.20e-01,
681,3.20e-01,5.20e-01,
682,3.20e-01,4.00e-01,
683,4.00e-01,2.00e-01,
684,4.00e-01,2.00e-01,
685,3.20e-01,7.60e-01,
686,4.00e-01,4.40e-01,
687,2.40e-01,2.00e-01,
688,4.00e-01,2.00e-01,
689,2.40e-01,4.80e-01,
690,3.20e-01,2.80e-01,
691,4.00e-01,1.60e-01,
692,4.00e-01,6.40e-01,
693,2.40e-01,2.40e-01,
694,3.20e-01,2.00e-01,
695,4.40e-01,6.80e-01,
696,3.60e-01,9.60e-01,
697,4.80e-01,3.60e-01,
698,3.60e-01,2.40e-01,
699,5.20e-01,8.80e-01,
700,4.40e-01,1.12e+00,
701,6.00e-01,4.00e-01,
702,4.80e-01,3.20e-01,
703,6.40e-01,1.20e+00,
704,5.60e-01,1.20e+00,
705,7.20e-01,4.00e-01,
706,6.00e-01,4.00e-01,
707,7.60e-01,1.24e+00,
708,6.80e-01,8.80e-01,
709,8.40e-01,4.00e-01,
710,7.20e-01,3.60e-01,
711,9.20e-01,1.32e+00,
712,8.40e-01,7.60e-01,
713,1.00e+00,4.00e-01,
714,9.20e-01,1.36e+00,
715,1.04e+00,6.80e-01,
716,1.04e+00,4.40e-01,
717,1.16e+00,1.08e+00,
718,1.12e+00,1.72e+00,
719,1.28e+00,1.00e+00,
720,1.20e+00,6.80e-01,
721,1.40e+00,1.56e+00,
722,1.32e+00,1.84e+00,
723,1.52e+00,8.80e-01,
724,1.44e+00,6.80e-01,
725,1.60e+00,2.04e+00,
726,1.56e+00,2.28e+00,
727,1.72e+00,1.16e+00,
728,1.68e+00,1.04e+00,
729,1.84e+00,2.44e+00,
730,1.80e+00,2.44e+00,
731,1.96e+00,1.16e+00,
732,1.92e+00,1.16e+00,
733,2.12e+00,2.64e+00,
734,2.04e+00,2.60e+00,
735,2.24e+00,1.28e+00,
736,2.16e+00,2.00e+00,
737,2.36e+00,2.68e+00,
738,2.28e+00,2.32e+00,
739,2.48e+00,1.40e+00,
740,2.40e+00,2.80e+00,
741,2.60e+00,2.00e+00,
742,2.52e+00,1.44e+00,
743,2.72e+00,2.48e+00,
744,2.68e+00,2.88e+00,
745,2.84e+00,2.00e+00,
746,2.84e+00,1.64e+00,
747,3.04e+00,2.80e+00,
748,2.92e+00,3.00e+00,
749,3.16e+00,1.96e+00,
750,3.04e+00,1.72e+00,
751,3.28e+00,2.92e+00,
752,3.16e+00,3.04e+00,
753,3.40e+00,1.84e+00,
754,3.32e+00,1.76e+00,
755,3.52e+00,3.04e+00,
756,3.40e+00,3.08e+00,
757,3.64e+00,1.92e+00,
758,3.52e+00,2.68e+00,
759,3.76e+00,3.16e+00,
760,3.64e+00,3.12e+00,
761,3.88e+00,2.04e+00,
762,3.76e+00,2.84e+00,
763,3.92e+00,3.20e+00,
764,3.88e+00,3.16e+00,
765,4.04e+00,2.36e+00,
766,3.96e+00,3.28e+00,
767,4.16e+00,3.08e+00,
768,4.08e+00,2.48e+00,
769,4.24e+00,3.24e+00,
770,4.20e+00,3.32e+00,
771,4.32e+00,2.64e+00,
772,4.24e+00,2.56e+00,
773,4.40e+00,3.28e+00,
774,4.32e+00,3.36e+00,
775,4.52e+00,2.60e+00,
776,4.44e+00,2.68e+00,
777,4.56e+00,3.36e+00,
778,4.44e+00,2.84e+00,
779,4.64e+00,3.44e+00,
780,4.56e+00,3.32e+00,
781,4.68e+00,3.48e+00,
782,4.60e+00,2.76e+00,
783,4.72e+00,3.48e+00,
784,4.76e+00,3.32e+00,
785,4.64e+00,3.48e+00,
786,4.68e+00,3.16e+00,
787,4.80e+00,3.52e+00,
788,4.72e+00,3.36e+00,
789,4.84e+00,3.52e+00,
790,4.72e+00,2.96e+00,
791,4.88e+00,3.60e+00,
792,4.72e+00,3.52e+00,
793,4.88e+00,3.40e+00,
794,4.88e+00,3.32e+00,
795,4.72e+00,3.60e+00,
796,4.88e+00,3.60e+00,
797,4.72e+00,2.80e+00,
798,4.88e+00,2.72e+00,
799,4.72e+00,3.52e+00,
800,4.80e+00,3.00e+00,
801,4.72e+00,3.56e+00,
802,4.84e+00,3.60e+00,
803,4.68e+00,3.44e+00,
804,4.80e+00,3.64e+00,
805,4.68e+00,3.40e+00,
806,4.76e+00,3.56e+00,
807,4.60e+00,3.68e+00,
808,4.72e+00,2.84e+00,
809,4.56e+00,3.64e+00,
810,4.72e+00,3.44e+00,
811,4.48e+00,3.64e+00,
812,4.64e+00,3.20e+00,
813,4.48e+00,3.64e+00,
814,4.60e+00,3.64e+00,
815,4.44e+00,3.12e+00,
816,4.48e+00,2.84e+00,
817,4.32e+00,3.64e+00,
818,4.40e+00,3.64e+00,
819,4.24e+00,2.92e+00,
820,4.36e+00,2.88e+00,
821,4.20e+00,3.64e+00,
822,4.24e+00,3.60e+00,
823,4.08e+00,2.76e+00,
824,4.16e+00,3.44e+00,
825,3.96e+00,3.60e+00,
826,4.04e+00,3.60e+00,
827,3.84e+00,2.64e+00,
828,3.96e+00,3.40e+00,
829,3.76e+00,3.60e+00,
830,3.88e+00,3.60e+00,
831,3.64e+00,2.60e+00,
832,3.76e+00,3.52e+00,
833,3.52e+00,3.20e+00,
834,3.64e+00,2.32e+00,
835,3.44e+00,3.36e+00,
836,3.52e+00,3.48e+00,
837,3.28e+00,2.60e+00,
838,3.40e+00,2.24e+00,
839,3.20e+00,3.40e+00,
840,3.28e+00,3.48e+00,
841,3.04e+00,2.44e+00,
842,3.16e+00,2.12e+00,
843,2.92e+00,3.36e+00,
844,3.04e+00,3.36e+00,
845,2.80e+00,2.00e+00,
846,2.88e+00,2.00e+00,
847,2.68e+00,3.28e+00,
848,2.72e+00,3.24e+00,
849,2.52e+00,1.92e+00,
850,2.60e+00,3.16e+00,
851,2.40e+00,2.56e+00,
852,2.48e+00,1.72e+00,
853,2.24e+00,2.60e+00,
854,2.36e+00,3.00e+00,
855,2.16e+00,2.08e+00,
856,2.24e+00,1.44e+00,
857,2.04e+00,2.56e+00,
858,2.12e+00,2.92e+00,
859,1.92e+00,2.08e+00,
860,2.00e+00,1.64e+00,
861,1.80e+00,2.68e+00,
862,1.88e+00,2.68e+00,
863,1.68e+00,1.40e+00,
864,1.72e+00,1.16e+00,
865,1.56e+00,2.40e+00,
866,1.64e+00,2.40e+00,
867,1.44e+00,1.16e+00,
868,1.48e+00,1.12e+00,
869,1.32e+00,2.28e+00,
870,1.40e+00,1.92e+00,
