Code/Open_Loop_Bode_Data/Open_Loop_Frequency_Response_Signals_2/NewFile29.csv

X,CH3,CH4,Start,Increment,
Sequence,Volt,Volt,-3.000000e-01,5.000000e-04
0,2.80e+00,4.80e-01,
1,2.96e+00,6.00e-01,
2,2.92e+00,4.80e-01,
3,3.08e+00,1.00e+00,
4,3.04e+00,9.60e-01,
5,3.20e+00,1.36e+00,
6,3.16e+00,1.28e+00,
7,3.32e+00,1.48e+00,
8,3.24e+00,1.36e+00,
9,3.44e+00,1.56e+00,
10,3.36e+00,1.52e+00,
11,3.56e+00,1.80e+00,
12,3.48e+00,1.76e+00,
13,3.68e+00,1.96e+00,
14,3.60e+00,1.88e+00,
15,3.76e+00,2.08e+00,
16,3.72e+00,2.00e+00,
17,3.88e+00,2.16e+00,
18,3.76e+00,2.12e+00,
19,4.00e+00,2.28e+00,
20,3.88e+00,2.24e+00,
21,4.04e+00,2.32e+00,
22,3.96e+00,2.28e+00,
23,4.16e+00,2.40e+00,
24,4.08e+00,2.40e+00,
25,4.24e+00,2.28e+00,
26,4.12e+00,2.32e+00,
27,4.36e+00,1.92e+00,
28,4.24e+00,1.96e+00,
29,4.40e+00,1.64e+00,
30,4.32e+00,1.72e+00,
31,4.48e+00,1.52e+00,
32,4.36e+00,1.56e+00,
33,4.52e+00,1.44e+00,
34,4.44e+00,1.44e+00,
35,4.60e+00,1.72e+00,
36,4.48e+00,1.64e+00,
37,4.64e+00,2.16e+00,
38,4.56e+00,2.04e+00,
39,4.72e+00,2.28e+00,
40,4.72e+00,2.16e+00,
41,4.56e+00,2.32e+00,
42,4.76e+00,2.24e+00,
43,4.64e+00,2.40e+00,
44,4.68e+00,2.36e+00,
45,4.84e+00,2.56e+00,
46,4.72e+00,2.52e+00,
47,4.84e+00,2.68e+00,
48,4.84e+00,2.60e+00,
49,4.72e+00,2.72e+00,
50,4.72e+00,2.64e+00,
51,4.88e+00,2.76e+00,
52,4.72e+00,2.72e+00,
53,4.88e+00,2.84e+00,
54,4.88e+00,2.76e+00,
55,4.72e+00,2.88e+00,
56,4.72e+00,2.92e+00,
57,4.88e+00,2.80e+00,
58,4.68e+00,2.84e+00,
59,4.84e+00,3.00e+00,
60,4.72e+00,2.88e+00,
61,4.84e+00,3.00e+00,
62,4.80e+00,2.92e+00,
63,4.68e+00,3.04e+00,
64,4.80e+00,3.04e+00,
65,4.64e+00,2.96e+00,
66,4.76e+00,3.04e+00,
67,4.60e+00,2.92e+00,
68,4.72e+00,2.96e+00,
69,4.56e+00,3.04e+00,
70,4.64e+00,2.96e+00,
71,4.52e+00,3.12e+00,
72,4.60e+00,3.08e+00,
73,4.44e+00,3.16e+00,
74,4.56e+00,3.08e+00,
75,4.36e+00,3.16e+00,
76,4.48e+00,3.16e+00,
77,4.32e+00,3.08e+00,
78,4.40e+00,3.16e+00,
79,4.24e+00,3.08e+00,
80,4.36e+00,3.24e+00,
81,4.20e+00,3.12e+00,
82,4.28e+00,3.12e+00,
83,4.08e+00,3.24e+00,
84,4.16e+00,3.12e+00,
85,4.00e+00,3.24e+00,
86,4.08e+00,3.12e+00,
87,3.88e+00,3.24e+00,
88,4.00e+00,3.24e+00,
89,3.84e+00,3.16e+00,
90,3.92e+00,3.20e+00,
91,3.72e+00,3.28e+00,
92,3.80e+00,3.28e+00,
93,3.60e+00,3.12e+00,
94,3.68e+00,3.20e+00,
95,3.52e+00,3.28e+00,
96,3.56e+00,3.28e+00,
97,3.40e+00,3.20e+00,
98,3.48e+00,3.24e+00,
99,3.28e+00,3.12e+00,
100,3.40e+00,3.24e+00,
101,3.16e+00,3.08e+00,
102,3.28e+00,3.12e+00,
103,3.04e+00,2.72e+00,
104,3.16e+00,2.76e+00,
105,2.92e+00,2.60e+00,
106,3.04e+00,2.64e+00,
107,2.80e+00,3.00e+00,
108,2.92e+00,2.96e+00,
109,2.68e+00,3.16e+00,
110,2.80e+00,3.12e+00,
111,2.60e+00,3.24e+00,
112,2.68e+00,3.16e+00,
113,2.44e+00,3.08e+00,
114,2.56e+00,3.16e+00,
115,2.32e+00,3.04e+00,
116,2.44e+00,3.08e+00,
117,2.20e+00,3.20e+00,
118,2.32e+00,3.12e+00,
119,2.08e+00,3.24e+00,
120,2.20e+00,3.24e+00,
121,2.00e+00,3.12e+00,
122,2.08e+00,3.24e+00,
123,1.84e+00,3.20e+00,
124,1.96e+00,3.20e+00,
125,1.76e+00,3.28e+00,
126,1.84e+00,3.20e+00,
127,1.64e+00,3.28e+00,
128,1.72e+00,3.28e+00,
129,1.56e+00,3.20e+00,
130,1.64e+00,3.28e+00,
131,1.44e+00,3.08e+00,
132,1.52e+00,3.12e+00,
133,1.32e+00,2.60e+00,
134,1.40e+00,2.64e+00,
135,1.24e+00,2.40e+00,
136,1.36e+00,2.36e+00,
137,1.16e+00,2.48e+00,
138,1.24e+00,2.40e+00,
139,1.04e+00,2.28e+00,
140,1.12e+00,2.32e+00,
141,9.60e-01,2.08e+00,
142,1.04e+00,2.16e+00,
143,8.40e-01,1.92e+00,
144,9.60e-01,2.04e+00,
145,8.00e-01,1.92e+00,
146,8.80e-01,1.92e+00,
147,7.20e-01,2.08e+00,
148,8.00e-01,2.08e+00,
149,6.80e-01,1.92e+00,
150,7.60e-01,2.04e+00,
151,5.60e-01,1.88e+00,
152,6.80e-01,1.96e+00,
153,5.60e-01,1.72e+00,
154,6.40e-01,1.80e+00,
155,4.80e-01,1.64e+00,
156,6.00e-01,1.72e+00,
157,4.40e-01,1.56e+00,
158,5.20e-01,1.60e+00,
159,4.00e-01,1.52e+00,
160,3.60e-01,1.60e+00,
161,4.80e-01,1.44e+00,
162,4.80e-01,1.48e+00,
163,3.20e-01,1.40e+00,
164,3.20e-01,1.48e+00,
165,4.40e-01,1.32e+00,
166,4.00e-01,1.36e+00,
167,2.40e-01,1.24e+00,
168,4.00e-01,1.36e+00,
169,3.20e-01,1.20e+00,
170,4.00e-01,1.32e+00,
171,3.20e-01,1.16e+00,
172,4.00e-01,1.24e+00,
173,2.40e-01,1.16e+00,
174,3.20e-01,1.20e+00,
175,4.00e-01,1.08e+00,
176,4.00e-01,1.20e+00,
177,3.20e-01,1.04e+00,
178,3.20e-01,1.12e+00,
179,4.80e-01,9.60e-01,
180,4.80e-01,1.08e+00,
181,3.60e-01,9.60e-01,
182,3.60e-01,1.08e+00,
183,5.20e-01,9.60e-01,
184,4.40e-01,1.00e+00,
185,5.60e-01,9.20e-01,
186,4.80e-01,1.00e+00,
187,6.00e-01,9.20e-01,
188,4.80e-01,1.00e+00,
189,6.40e-01,8.40e-01,
190,5.60e-01,9.60e-01,
191,7.20e-01,8.40e-01,
192,6.00e-01,8.80e-01,
193,7.60e-01,8.00e-01,
194,6.80e-01,8.80e-01,
195,8.80e-01,8.00e-01,
196,8.00e-01,8.80e-01,
197,9.20e-01,7.60e-01,
198,8.40e-01,8.40e-01,
199,1.00e+00,7.20e-01,
200,9.20e-01,8.40e-01,
201,1.12e+00,7.20e-01,
202,1.04e+00,7.20e-01,
203,1.20e+00,8.40e-01,
204,1.08e+00,7.60e-01,
205,1.28e+00,6.80e-01,
206,1.20e+00,7.60e-01,
207,1.36e+00,6.80e-01,
208,1.28e+00,6.80e-01,
209,1.48e+00,7.60e-01,
210,1.40e+00,7.20e-01,
211,1.60e+00,6.00e-01,
212,1.48e+00,7.20e-01,
213,1.72e+00,6.00e-01,
214,1.60e+00,7.20e-01,
215,1.76e+00,6.00e-01,
216,1.72e+00,7.20e-01,
217,1.88e+00,5.60e-01,
218,1.84e+00,6.40e-01,
219,2.00e+00,5.60e-01,
220,1.92e+00,5.60e-01,
221,2.12e+00,6.40e-01,
222,2.04e+00,5.60e-01,
223,2.24e+00,9.20e-01,
224,2.16e+00,8.40e-01,
225,2.36e+00,1.36e+00,
226,2.28e+00,1.32e+00,
227,2.48e+00,1.48e+00,
228,2.40e+00,1.44e+00,
229,2.60e+00,1.60e+00,
230,2.52e+00,1.52e+00,
231,2.72e+00,1.80e+00,
232,2.64e+00,1.72e+00,
233,2.84e+00,1.96e+00,
234,2.76e+00,1.88e+00,
235,2.96e+00,2.04e+00,
236,2.88e+00,1.96e+00,
237,3.08e+00,2.04e+00,
238,3.00e+00,2.04e+00,
239,3.20e+00,1.92e+00,
240,3.12e+00,1.96e+00,
241,3.32e+00,1.56e+00,
242,3.24e+00,1.60e+00,
243,3.44e+00,1.36e+00,
244,3.36e+00,1.44e+00,
245,3.56e+00,1.28e+00,
246,3.48e+00,1.36e+00,
247,3.68e+00,1.24e+00,
248,3.56e+00,1.32e+00,
249,3.76e+00,1.16e+00,
250,3.64e+00,1.20e+00,
251,3.88e+00,1.04e+00,
252,3.76e+00,1.12e+00,
253,3.96e+00,9.60e-01,
254,3.88e+00,1.08e+00,
255,4.04e+00,9.20e-01,
256,3.96e+00,9.20e-01,
257,4.16e+00,1.08e+00,
258,4.08e+00,1.04e+00,
259,4.24e+00,1.68e+00,
260,4.12e+00,1.56e+00,
261,4.28e+00,1.88e+00,
262,4.24e+00,1.76e+00,
263,4.40e+00,1.92e+00,
264,4.32e+00,1.84e+00,
265,4.48e+00,2.04e+00,
266,4.36e+00,2.00e+00,
267,4.52e+00,2.20e+00,
268,4.44e+00,2.16e+00,
269,4.60e+00,2.32e+00,
270,4.48e+00,2.24e+00,
271,4.64e+00,2.44e+00,
272,4.56e+00,2.36e+00,
273,4.68e+00,2.52e+00,
274,4.60e+00,2.40e+00,
275,4.72e+00,2.56e+00,
276,4.60e+00,2.52e+00,
277,4.76e+00,2.68e+00,
278,4.68e+00,2.60e+00,
279,4.80e+00,2.76e+00,
280,4.72e+00,2.64e+00,
281,4.84e+00,2.76e+00,
282,4.72e+00,2.80e+00,
283,4.84e+00,2.68e+00,
284,4.72e+00,2.80e+00,
285,4.88e+00,2.76e+00,
286,4.88e+00,2.80e+00,
287,4.72e+00,2.72e+00,
288,4.88e+00,2.72e+00,
289,4.68e+00,2.88e+00,
290,4.88e+00,2.76e+00,
291,4.72e+00,2.92e+00,
292,4.72e+00,2.88e+00,
293,4.88e+00,3.04e+00,
294,4.72e+00,2.92e+00,
295,4.84e+00,3.00e+00,
296,4.84e+00,2.96e+00,
297,4.68e+00,3.00e+00,
298,4.68e+00,2.96e+00,
299,4.76e+00,3.04e+00,
300,4.76e+00,2.96e+00,
301,4.60e+00,3.12e+00,
302,4.72e+00,3.16e+00,
303,4.56e+00,2.96e+00,
304,4.64e+00,3.12e+00,
305,4.56e+00,3.00e+00,
306,4.64e+00,3.08e+00,
307,4.48e+00,3.16e+00,
308,4.60e+00,3.08e+00,
309,4.44e+00,3.16e+00,
310,4.52e+00,3.08e+00,
311,4.36e+00,3.20e+00,
312,4.40e+00,3.04e+00,
313,4.24e+00,3.20e+00,
314,4.36e+00,3.16e+00,
315,4.20e+00,3.12e+00,
316,4.28e+00,3.12e+00,
317,4.12e+00,3.24e+00,
318,4.24e+00,3.24e+00,
319,4.00e+00,3.12e+00,
320,4.12e+00,3.16e+00,
321,3.92e+00,3.08e+00,
322,4.04e+00,3.12e+00,
323,3.84e+00,2.96e+00,
324,3.92e+00,3.00e+00,
325,3.72e+00,2.84e+00,
326,3.80e+00,2.84e+00,
327,3.64e+00,3.00e+00,
328,3.72e+00,2.96e+00,
329,3.52e+00,3.16e+00,
330,3.64e+00,3.08e+00,
331,3.40e+00,3.24e+00,
332,3.52e+00,3.16e+00,
333,3.28e+00,3.08e+00,
334,3.40e+00,3.16e+00,
335,3.16e+00,3.08e+00,
336,3.28e+00,3.08e+00,
337,3.08e+00,3.20e+00,
338,3.16e+00,3.12e+00,
339,2.96e+00,3.24e+00,
340,3.04e+00,3.12e+00,
341,2.80e+00,3.28e+00,
342,2.92e+00,3.20e+00,
343,2.76e+00,3.28e+00,
344,2.80e+00,3.28e+00,
345,2.64e+00,3.16e+00,
346,2.68e+00,3.20e+00,
347,2.48e+00,3.32e+00,
348,2.56e+00,3.20e+00,
349,2.36e+00,3.32e+00,
350,2.44e+00,3.28e+00,
351,2.24e+00,3.20e+00,
352,2.32e+00,3.28e+00,
353,2.16e+00,3.20e+00,
354,2.20e+00,3.28e+00,
355,2.04e+00,3.00e+00,
356,2.12e+00,3.04e+00,
357,1.92e+00,2.52e+00,
358,2.00e+00,2.56e+00,
359,1.80e+00,2.40e+00,
360,1.88e+00,2.44e+00,
361,1.68e+00,2.32e+00,
362,1.76e+00,2.40e+00,
363,1.52e+00,2.20e+00,
364,1.64e+00,2.28e+00,
365,1.44e+00,2.12e+00,
366,1.52e+00,2.16e+00,
367,1.36e+00,2.88e+00,
368,1.40e+00,2.84e+00,
369,1.28e+00,2.92e+00,
370,1.36e+00,2.92e+00,
371,1.16e+00,2.84e+00,
372,1.24e+00,2.92e+00,
373,1.08e+00,2.80e+00,
374,1.16e+00,2.88e+00,
375,9.60e-01,2.72e+00,
376,1.08e+00,2.88e+00,
377,8.80e-01,2.52e+00,
378,1.00e+00,2.56e+00,
379,8.40e-01,2.24e+00,
380,9.20e-01,2.32e+00,
381,7.20e-01,2.12e+00,
382,8.40e-01,2.16e+00,
383,6.80e-01,2.04e+00,
384,7.60e-01,2.08e+00,
385,6.00e-01,1.92e+00,
386,7.20e-01,2.00e+00,
387,5.60e-01,1.80e+00,
388,6.80e-01,1.84e+00,
389,4.80e-01,1.72e+00,
390,6.00e-01,1.80e+00,
391,4.40e-01,1.64e+00,
392,5.20e-01,1.72e+00,
393,3.60e-01,1.56e+00,
394,5.20e-01,1.64e+00,
395,3.60e-01,1.48e+00,
396,3.60e-01,1.60e+00,
397,4.80e-01,1.44e+00,
398,4.80e-01,1.48e+00,
399,3.20e-01,1.36e+00,
400,3.20e-01,1.44e+00,
401,4.00e-01,1.28e+00,
402,4.00e-01,1.36e+00,
403,2.40e-01,1.28e+00,
404,4.00e-01,1.32e+00,
405,3.20e-01,1.20e+00,
406,4.00e-01,1.32e+00,
407,3.20e-01,1.16e+00,
408,4.00e-01,1.24e+00,
409,2.80e-01,1.12e+00,
410,4.00e-01,1.20e+00,
411,3.20e-01,1.04e+00,
412,3.20e-01,1.12e+00,
413,4.80e-01,1.04e+00,
414,4.80e-01,1.12e+00,
415,3.60e-01,1.04e+00,
416,3.60e-01,1.08e+00,
417,5.20e-01,9.60e-01,
418,5.20e-01,1.08e+00,
419,4.40e-01,9.60e-01,
420,4.80e-01,1.00e+00,
421,6.00e-01,8.80e-01,
422,4.80e-01,1.00e+00,
423,6.40e-01,8.80e-01,
424,5.60e-01,9.60e-01,
425,7.20e-01,8.40e-01,
426,6.00e-01,9.60e-01,
427,7.60e-01,7.60e-01,
428,6.80e-01,8.00e-01,
429,8.40e-01,9.20e-01,
430,7.20e-01,8.80e-01,
431,9.60e-01,8.00e-01,
432,8.40e-01,8.00e-01,
433,1.00e+00,8.40e-01,
434,9.20e-01,8.40e-01,
435,1.08e+00,7.20e-01,
436,1.00e+00,8.40e-01,
437,1.16e+00,7.20e-01,
438,1.08e+00,7.20e-01,
439,1.24e+00,7.60e-01,
440,1.16e+00,7.60e-01,
441,1.36e+00,6.80e-01,
442,1.28e+00,6.80e-01,
443,1.48e+00,8.40e-01,
444,1.40e+00,7.60e-01,
445,1.52e+00,8.80e-01,
446,1.48e+00,8.80e-01,
447,1.64e+00,8.00e-01,
448,1.56e+00,8.40e-01,
449,1.76e+00,7.20e-01,
450,1.68e+00,7.60e-01,
451,1.88e+00,6.80e-01,
452,1.80e+00,6.80e-01,
453,2.00e+00,7.60e-01,
454,1.92e+00,7.20e-01,
455,2.12e+00,6.00e-01,
456,2.04e+00,7.20e-01,
457,2.24e+00,6.00e-01,
458,2.16e+00,7.20e-01,
459,2.36e+00,6.00e-01,
460,2.28e+00,6.40e-01,
461,2.48e+00,5.60e-01,
462,2.40e+00,6.40e-01,
463,2.60e+00,5.60e-01,
464,2.52e+00,5.60e-01,
465,2.72e+00,6.40e-01,
466,2.64e+00,6.00e-01,
467,2.84e+00,5.60e-01,
468,2.76e+00,6.00e-01,
469,2.96e+00,4.80e-01,
470,2.88e+00,4.80e-01,
471,3.08e+00,6.00e-01,
472,3.00e+00,4.80e-01,
473,3.20e+00,6.00e-01,
474,3.12e+00,4.80e-01,
475,3.32e+00,5.60e-01,
476,3.24e+00,5.20e-01,
477,3.44e+00,4.40e-01,
478,3.32e+00,4.40e-01,
479,3.52e+00,6.00e-01,
480,3.40e+00,5.20e-01,
481,3.64e+00,1.08e+00,
482,3.52e+00,1.04e+00,
483,3.76e+00,1.32e+00,
484,3.64e+00,1.28e+00,
485,3.88e+00,1.44e+00,
486,3.76e+00,1.40e+00,
487,3.92e+00,1.60e+00,
488,3.84e+00,1.52e+00,
489,4.04e+00,1.80e+00,
490,3.96e+00,1.76e+00,
491,4.12e+00,1.92e+00,
492,4.00e+00,1.84e+00,
493,4.24e+00,2.04e+00,
494,4.12e+00,2.00e+00,
495,4.28e+00,2.20e+00,
496,4.20e+00,2.08e+00,
497,4.36e+00,2.28e+00,
498,4.24e+00,2.20e+00,
499,4.48e+00,2.32e+00,
500,4.32e+00,2.32e+00,
501,4.52e+00,2.44e+00,
502,4.44e+00,2.36e+00,
503,4.60e+00,2.52e+00,
504,4.48e+00,2.48e+00,
505,4.64e+00,2.36e+00,
506,4.48e+00,2.44e+00,
507,4.72e+00,2.24e+00,
508,4.72e+00,2.28e+00,
509,4.56e+00,2.12e+00,
510,4.60e+00,2.12e+00,
511,4.76e+00,2.32e+00,
512,4.68e+00,2.28e+00,
513,4.80e+00,2.64e+00,
514,4.72e+00,2.52e+00,
515,4.84e+00,2.68e+00,
516,4.72e+00,2.60e+00,
517,4.84e+00,2.76e+00,
518,4.72e+00,2.76e+00,
519,4.84e+00,2.64e+00,
520,4.72e+00,2.64e+00,
521,4.88e+00,2.80e+00,
522,4.80e+00,2.76e+00,
523,4.88e+00,2.92e+00,
524,4.88e+00,2.84e+00,
525,4.72e+00,2.92e+00,
526,4.88e+00,3.00e+00,
527,4.68e+00,2.84e+00,
528,4.72e+00,2.88e+00,
529,4.84e+00,3.00e+00,
530,4.72e+00,2.96e+00,
531,4.84e+00,3.04e+00,
532,4.80e+00,2.96e+00,
533,4.68e+00,3.04e+00,
534,4.76e+00,3.04e+00,
535,4.60e+00,3.00e+00,
536,4.60e+00,3.00e+00,
537,4.72e+00,3.12e+00,
538,4.72e+00,3.12e+00,
539,4.56e+00,3.00e+00,
540,4.64e+00,3.00e+00,
541,4.48e+00,3.12e+00,
542,4.60e+00,3.12e+00,
543,4.44e+00,3.00e+00,
544,4.52e+00,3.08e+00,
545,4.36e+00,2.96e+00,
546,4.48e+00,3.12e+00,
547,4.32e+00,2.96e+00,
548,4.40e+00,3.00e+00,
549,4.20e+00,3.16e+00,
550,4.28e+00,3.08e+00,
551,4.08e+00,3.24e+00,
552,4.24e+00,3.16e+00,
553,4.08e+00,3.12e+00,
554,4.12e+00,3.12e+00,
555,3.96e+00,3.24e+00,
556,4.04e+00,3.12e+00,
557,3.88e+00,3.24e+00,
558,3.92e+00,3.24e+00,
559,3.76e+00,3.12e+00,
560,3.88e+00,3.20e+00,
561,3.64e+00,3.24e+00,
562,3.76e+00,3.12e+00,
563,3.52e+00,3.28e+00,
564,3.64e+00,3.28e+00,
565,3.40e+00,3.12e+00,
566,3.52e+00,3.20e+00,
567,3.36e+00,3.28e+00,
568,3.44e+00,3.20e+00,
569,3.24e+00,3.28e+00,
570,3.32e+00,3.28e+00,
571,3.12e+00,3.20e+00,
572,3.20e+00,3.20e+00,
573,3.00e+00,3.28e+00,
574,3.08e+00,3.28e+00,
575,2.88e+00,3.20e+00,
576,2.96e+00,3.20e+00,
577,2.76e+00,3.28e+00,
578,2.84e+00,3.24e+00,
579,2.64e+00,3.00e+00,
580,2.72e+00,3.08e+00,
581,2.52e+00,2.64e+00,
582,2.60e+00,2.56e+00,
583,2.40e+00,2.76e+00,
584,2.48e+00,2.64e+00,
585,2.28e+00,3.12e+00,
586,2.36e+00,3.08e+00,
587,2.16e+00,3.24e+00,
588,2.24e+00,3.24e+00,
589,2.00e+00,3.08e+00,
590,2.12e+00,3.24e+00,
591,1.92e+00,3.08e+00,
592,2.00e+00,3.08e+00,
593,1.80e+00,3.24e+00,
594,1.88e+00,3.24e+00,
595,1.68e+00,3.08e+00,
596,1.76e+00,3.24e+00,
597,1.56e+00,3.12e+00,
598,1.64e+00,3.24e+00,
599,1.48e+00,3.20e+00,
600,1.60e+00,3.28e+00,
601,1.40e+00,3.16e+00,
602,1.48e+00,3.24e+00,
603,1.28e+00,3.12e+00,
604,1.36e+00,3.24e+00,
605,1.16e+00,2.96e+00,
606,1.24e+00,3.00e+00,
607,1.08e+00,2.48e+00,
608,1.20e+00,2.56e+00,
609,9.60e-01,2.36e+00,
610,1.08e+00,2.44e+00,
611,9.20e-01,2.28e+00,
612,1.00e+00,2.40e+00,
613,8.40e-01,2.16e+00,
614,9.60e-01,2.28e+00,
615,7.20e-01,2.04e+00,
616,8.40e-01,2.08e+00,
617,6.80e-01,1.92e+00,
618,7.60e-01,1.96e+00,
619,6.00e-01,1.88e+00,
620,7.20e-01,1.92e+00,
621,5.60e-01,1.80e+00,
622,6.40e-01,1.84e+00,
623,4.80e-01,1.64e+00,
624,6.00e-01,1.80e+00,
625,4.40e-01,1.60e+00,
626,4.40e-01,1.68e+00,
627,5.60e-01,1.56e+00,
628,5.20e-01,1.60e+00,
629,3.60e-01,1.48e+00,
630,4.80e-01,1.56e+00,
631,3.20e-01,1.40e+00,
632,4.80e-01,1.40e+00,
633,3.20e-01,1.48e+00,
634,3.20e-01,1.44e+00,
635,4.00e-01,1.32e+00,
636,4.00e-01,1.36e+00,
637,2.80e-01,1.28e+00,
638,4.00e-01,1.36e+00,
639,3.20e-01,1.20e+00,
640,3.20e-01,1.32e+00,
641,4.00e-01,1.16e+00,
642,4.00e-01,1.16e+00,
643,3.20e-01,1.24e+00,
644,4.00e-01,1.20e+00,
645,3.20e-01,1.08e+00,
646,4.80e-01,1.16e+00,
647,2.40e-01,9.60e-01,
648,3.60e-01,1.04e+00,
649,4.80e-01,1.12e+00,
650,3.60e-01,1.12e+00,
651,5.20e-01,9.60e-01,
652,4.40e-01,1.08e+00,
653,5.20e-01,9.60e-01,
654,4.40e-01,1.08e+00,
655,6.00e-01,9.20e-01,
656,4.80e-01,1.00e+00,
657,6.40e-01,9.20e-01,
658,5.60e-01,9.60e-01,
659,7.20e-01,8.40e-01,
660,6.00e-01,9.60e-01,
661,7.60e-01,8.40e-01,
662,6.40e-01,8.40e-01,
663,8.40e-01,9.60e-01,
664,7.20e-01,8.80e-01,
665,8.80e-01,8.00e-01,
666,8.00e-01,8.80e-01,
667,1.00e+00,7.20e-01,
668,9.20e-01,8.40e-01,
669,1.08e+00,7.20e-01,
670,9.60e-01,8.40e-01,
671,1.12e+00,7.20e-01,
672,1.08e+00,8.40e-01,
673,1.24e+00,7.20e-01,
674,1.16e+00,7.60e-01,
675,1.32e+00,6.80e-01,
676,1.28e+00,6.80e-01,
677,1.40e+00,7.60e-01,
678,1.32e+00,7.60e-01,
679,1.52e+00,6.80e-01,
680,1.44e+00,7.20e-01,
681,1.64e+00,6.40e-01,
682,1.56e+00,7.20e-01,
683,1.76e+00,6.00e-01,
684,1.64e+00,6.00e-01,
685,1.88e+00,7.20e-01,
686,1.80e+00,6.00e-01,
687,1.96e+00,7.20e-01,
688,1.88e+00,6.40e-01,
689,2.12e+00,5.60e-01,
690,2.00e+00,5.60e-01,
691,2.20e+00,6.80e-01,
692,2.12e+00,5.60e-01,
693,2.32e+00,6.40e-01,
694,2.24e+00,5.60e-01,
695,2.44e+00,6.40e-01,
696,2.32e+00,6.00e-01,
697,2.56e+00,5.20e-01,
698,2.48e+00,6.00e-01,
699,2.68e+00,4.80e-01,
700,2.60e+00,5.60e-01,
701,2.80e+00,1.08e+00,
702,2.68e+00,1.04e+00,
703,2.92e+00,1.44e+00,
704,2.80e+00,1.32e+00,
705,3.04e+00,1.56e+00,
706,2.92e+00,1.44e+00,
707,3.16e+00,1.60e+00,
708,3.04e+00,1.56e+00,
709,3.28e+00,1.84e+00,
710,3.16e+00,1.80e+00,
711,3.40e+00,1.96e+00,
712,3.28e+00,1.92e+00,
713,3.52e+00,2.08e+00,
714,3.40e+00,2.04e+00,
715,3.64e+00,2.20e+00,
716,3.52e+00,2.16e+00,
717,3.68e+00,2.32e+00,
718,3.64e+00,2.32e+00,
719,3.80e+00,2.24e+00,
720,3.72e+00,2.32e+00,
721,3.92e+00,2.24e+00,
722,3.80e+00,2.32e+00,
723,4.00e+00,1.96e+00,
724,3.96e+00,2.00e+00,
725,4.12e+00,1.64e+00,
726,4.00e+00,1.72e+00,
727,4.20e+00,1.52e+00,
728,4.12e+00,1.56e+00,
729,4.28e+00,1.40e+00,
730,4.12e+00,1.48e+00,
731,4.36e+00,1.32e+00,
732,4.24e+00,1.36e+00,
733,4.40e+00,1.28e+00,
734,4.32e+00,1.32e+00,
735,4.52e+00,2.04e+00,
736,4.44e+00,1.92e+00,
737,4.56e+00,2.20e+00,
738,4.48e+00,2.04e+00,
739,4.60e+00,2.20e+00,
740,4.56e+00,2.12e+00,
741,4.64e+00,2.28e+00,
742,4.72e+00,2.24e+00,
743,4.56e+00,2.44e+00,
744,4.76e+00,2.40e+00,
745,4.56e+00,2.56e+00,
746,4.68e+00,2.48e+00,
747,4.76e+00,2.64e+00,
748,4.68e+00,2.52e+00,
749,4.84e+00,2.68e+00,
750,4.72e+00,2.60e+00,
751,4.84e+00,2.76e+00,
752,4.72e+00,2.64e+00,
753,4.84e+00,2.80e+00,
754,4.72e+00,2.76e+00,
755,4.88e+00,2.88e+00,
756,4.72e+00,2.80e+00,
757,4.88e+00,2.92e+00,
758,4.88e+00,2.84e+00,
759,4.72e+00,2.92e+00,
760,4.72e+00,2.88e+00,
761,4.88e+00,3.00e+00,
762,4.72e+00,3.00e+00,
763,4.84e+00,2.88e+00,
764,4.84e+00,3.00e+00,
765,4.68e+00,2.84e+00,
766,4.68e+00,2.88e+00,
767,4.84e+00,3.00e+00,
768,4.68e+00,2.96e+00,
769,4.76e+00,3.04e+00,
770,4.72e+00,3.12e+00,
771,4.56e+00,2.96e+00,
772,4.72e+00,3.00e+00,
773,4.48e+00,3.16e+00,
774,4.64e+00,3.00e+00,
775,4.48e+00,3.16e+00,
776,4.60e+00,3.08e+00,
777,4.44e+00,3.12e+00,
778,4.52e+00,3.16e+00,
779,4.36e+00,3.08e+00,
780,4.48e+00,3.12e+00,
781,4.32e+00,3.16e+00,
782,4.40e+00,3.16e+00,
783,4.24e+00,3.12e+00,
784,4.32e+00,3.12e+00,
785,4.12e+00,3.24e+00,
786,4.24e+00,3.12e+00,
787,4.08e+00,3.24e+00,
788,4.16e+00,3.12e+00,
789,3.96e+00,3.24e+00,
790,4.04e+00,3.16e+00,
791,3.88e+00,3.28e+00,
792,4.00e+00,3.24e+00,
793,3.76e+00,3.12e+00,
794,3.88e+00,3.28e+00,
795,3.64e+00,3.12e+00,
796,3.76e+00,3.24e+00,
797,3.60e+00,3.16e+00,
798,3.68e+00,3.24e+00,
799,3.48e+00,3.12e+00,
800,3.56e+00,3.16e+00,
801,3.36e+00,3.00e+00,
802,3.44e+00,3.12e+00,
803,3.24e+00,3.00e+00,
804,3.32e+00,3.00e+00,
805,3.12e+00,3.16e+00,
806,3.20e+00,3.08e+00,
807,3.00e+00,3.24e+00,
808,3.08e+00,3.24e+00,
809,2.88e+00,3.16e+00,
810,2.96e+00,3.24e+00,
811,2.76e+00,3.12e+00,
812,2.84e+00,3.24e+00,
813,2.64e+00,3.12e+00,
814,2.72e+00,3.12e+00,
815,2.52e+00,3.24e+00,
816,2.60e+00,3.24e+00,
817,2.40e+00,3.20e+00,
818,2.48e+00,3.20e+00,
819,2.28e+00,3.28e+00,
820,2.36e+00,3.28e+00,
821,2.16e+00,3.20e+00,
822,2.24e+00,3.36e+00,
823,2.04e+00,3.16e+00,
824,2.12e+00,3.28e+00,
825,1.92e+00,3.20e+00,
826,2.00e+00,3.36e+00,
827,1.84e+00,3.20e+00,
828,1.88e+00,3.36e+00,
829,1.68e+00,3.12e+00,
830,1.76e+00,3.16e+00,
831,1.56e+00,2.68e+00,
832,1.72e+00,2.68e+00,
833,1.52e+00,2.44e+00,
834,1.60e+00,2.52e+00,
835,1.40e+00,2.36e+00,
836,1.48e+00,2.44e+00,
837,1.28e+00,2.28e+00,
838,1.36e+00,2.32e+00,
839,1.20e+00,2.12e+00,
840,1.28e+00,2.20e+00,
841,1.08e+00,2.00e+00,
842,1.16e+00,2.04e+00,
843,1.04e+00,1.92e+00,
844,1.12e+00,1.96e+00,
845,9.20e-01,2.64e+00,
846,1.00e+00,2.64e+00,
847,8.40e-01,2.48e+00,
848,9.20e-01,2.56e+00,
849,8.00e-01,2.40e+00,
850,8.80e-01,2.44e+00,
851,6.80e-01,2.28e+00,
852,7.60e-01,2.32e+00,
853,6.00e-01,2.12e+00,
854,7.20e-01,2.28e+00,
855,5.60e-01,2.00e+00,
856,6.40e-01,2.08e+00,
857,5.20e-01,1.88e+00,
858,4.80e-01,1.96e+00,
859,6.00e-01,1.76e+00,
860,5.60e-01,1.84e+00,
861,4.40e-01,1.68e+00,
862,5.20e-01,1.80e+00,
863,3.60e-01,1.60e+00,
864,4.80e-01,1.68e+00,
865,3.20e-01,1.52e+00,
866,4.80e-01,1.60e+00,
867,3.20e-01,1.44e+00,
868,3.20e-01,1.56e+00,
869,4.80e-01,1.40e+00,
870,4.00e-01,1.48e+00,
