Code/Open_Loop_Bode_Data/Open_Loop_Frequency_Response_Signals_2/NewFile10.csv

X,CH3,CH4,Start,Increment,
Sequence,Volt,Volt,-5.990000e+00,1.000000e-02
0,4.12e+00,3.40e+00,
1,4.32e+00,2.64e+00,
2,4.24e+00,3.40e+00,
3,4.40e+00,2.64e+00,
4,4.32e+00,2.68e+00,
5,4.48e+00,3.48e+00,
6,4.36e+00,2.68e+00,
7,4.52e+00,3.48e+00,
8,4.44e+00,3.48e+00,
9,4.60e+00,2.72e+00,
10,4.48e+00,3.04e+00,
11,4.64e+00,3.60e+00,
12,4.56e+00,3.60e+00,
13,4.68e+00,2.84e+00,
14,4.60e+00,3.08e+00,
15,4.72e+00,3.60e+00,
16,4.64e+00,3.64e+00,
17,4.76e+00,2.80e+00,
18,4.68e+00,3.20e+00,
19,4.80e+00,3.64e+00,
20,4.80e+00,3.64e+00,
21,4.72e+00,3.04e+00,
22,4.72e+00,3.64e+00,
23,4.80e+00,3.04e+00,
24,4.72e+00,3.64e+00,
25,4.88e+00,2.96e+00,
26,4.88e+00,3.52e+00,
27,4.76e+00,3.72e+00,
28,4.88e+00,3.72e+00,
29,4.72e+00,2.92e+00,
30,4.72e+00,3.44e+00,
31,4.88e+00,3.72e+00,
32,4.72e+00,3.72e+00,
33,4.80e+00,2.92e+00,
34,4.80e+00,3.72e+00,
35,4.68e+00,2.88e+00,
36,4.72e+00,2.92e+00,
37,4.84e+00,3.72e+00,
38,4.80e+00,3.72e+00,
39,4.60e+00,2.92e+00,
40,4.76e+00,3.72e+00,
41,4.64e+00,3.48e+00,
42,4.76e+00,3.72e+00,
43,4.60e+00,2.92e+00,
44,4.72e+00,3.44e+00,
45,4.56e+00,3.76e+00,
46,4.64e+00,3.72e+00,
47,4.48e+00,2.72e+00,
48,4.44e+00,3.08e+00,
49,4.60e+00,3.72e+00,
50,4.52e+00,3.72e+00,
51,4.36e+00,3.04e+00,
52,4.48e+00,3.04e+00,
53,4.32e+00,3.72e+00,
54,4.40e+00,2.84e+00,
55,4.24e+00,3.68e+00,
56,4.36e+00,2.88e+00,
57,4.12e+00,3.72e+00,
58,4.24e+00,3.68e+00,
59,4.08e+00,2.80e+00,
60,4.16e+00,3.64e+00,
61,3.96e+00,2.64e+00,
62,4.08e+00,3.60e+00,
63,3.88e+00,2.60e+00,
64,4.00e+00,3.60e+00,
65,3.80e+00,2.64e+00,
66,3.88e+00,3.60e+00,
67,3.72e+00,2.60e+00,
68,3.80e+00,3.52e+00,
69,3.60e+00,2.36e+00,
70,3.68e+00,3.48e+00,
71,3.48e+00,2.24e+00,
72,3.56e+00,3.48e+00,
73,3.40e+00,2.20e+00,
74,3.44e+00,3.40e+00,
75,3.28e+00,2.16e+00,
76,3.40e+00,2.12e+00,
77,3.16e+00,3.32e+00,
78,3.24e+00,2.08e+00,
79,3.04e+00,3.32e+00,
80,3.16e+00,2.08e+00,
81,2.92e+00,3.28e+00,
82,3.04e+00,1.96e+00,
83,2.80e+00,3.24e+00,
84,2.92e+00,3.16e+00,
85,2.72e+00,1.84e+00,
86,2.80e+00,3.16e+00,
87,2.60e+00,1.84e+00,
88,2.68e+00,3.12e+00,
89,2.44e+00,1.76e+00,
90,2.56e+00,3.04e+00,
91,2.32e+00,1.64e+00,
92,2.44e+00,3.00e+00,
93,2.24e+00,1.64e+00,
94,2.32e+00,2.88e+00,
95,2.12e+00,1.48e+00,
96,2.20e+00,2.80e+00,
97,2.04e+00,1.52e+00,
98,2.08e+00,1.36e+00,
99,1.92e+00,2.52e+00,
100,2.00e+00,1.16e+00,
101,1.80e+00,2.52e+00,
102,1.88e+00,1.28e+00,
103,1.68e+00,2.44e+00,
104,1.76e+00,1.12e+00,
105,1.56e+00,2.20e+00,
106,1.64e+00,1.00e+00,
107,1.48e+00,2.28e+00,
108,1.52e+00,2.20e+00,
109,1.40e+00,9.60e-01,
110,1.48e+00,1.96e+00,
111,1.28e+00,8.00e-01,
112,1.36e+00,1.72e+00,
113,1.20e+00,6.80e-01,
114,1.24e+00,5.60e-01,
115,1.08e+00,1.48e+00,
116,1.20e+00,1.68e+00,
117,9.60e-01,6.80e-01,
118,1.08e+00,6.40e-01,
119,9.20e-01,1.48e+00,
120,1.00e+00,5.60e-01,
121,8.40e-01,1.40e+00,
122,9.60e-01,4.80e-01,
123,7.60e-01,1.28e+00,
124,8.80e-01,4.40e-01,
125,6.80e-01,1.12e+00,
126,7.60e-01,4.00e-01,
127,6.00e-01,1.04e+00,
128,7.20e-01,3.20e-01,
129,5.60e-01,1.00e+00,
130,6.40e-01,9.60e-01,
131,4.80e-01,2.80e-01,
132,4.80e-01,9.60e-01,
133,6.00e-01,2.80e-01,
134,5.60e-01,9.60e-01,
135,4.40e-01,2.40e-01,
136,5.20e-01,9.60e-01,
137,3.60e-01,2.40e-01,
138,4.40e-01,2.00e-01,
139,3.20e-01,4.80e-01,
140,4.80e-01,1.60e-01,
141,3.60e-01,6.40e-01,
142,4.80e-01,1.60e-01,
143,2.40e-01,8.00e-01,
144,4.00e-01,2.00e-01,
145,3.20e-01,4.80e-01,
146,4.00e-01,1.20e-01,
147,2.40e-01,5.20e-01,
148,4.00e-01,1.60e-01,
149,3.20e-01,6.80e-01,
150,4.00e-01,2.00e-01,
151,2.40e-01,8.80e-01,
152,4.00e-01,4.80e-01,
153,3.20e-01,1.60e-01,
154,4.00e-01,1.60e-01,
155,3.20e-01,6.00e-01,
156,4.80e-01,8.40e-01,
157,3.60e-01,2.00e-01,
158,4.80e-01,9.60e-01,
159,3.60e-01,2.40e-01,
160,5.20e-01,2.00e-01,
161,3.60e-01,6.00e-01,
162,4.40e-01,2.00e-01,
163,6.00e-01,8.00e-01,
164,4.80e-01,2.00e-01,
165,6.40e-01,9.60e-01,
166,6.40e-01,2.40e-01,
167,5.60e-01,1.04e+00,
168,5.60e-01,3.20e-01,
169,7.20e-01,1.12e+00,
170,7.60e-01,3.20e-01,
171,6.80e-01,1.12e+00,
172,7.20e-01,3.20e-01,
173,8.80e-01,1.12e+00,
174,8.00e-01,3.20e-01,
175,9.60e-01,1.08e+00,
176,8.40e-01,4.00e-01,
177,1.00e+00,1.32e+00,
178,9.20e-01,1.36e+00,
179,1.08e+00,4.40e-01,
180,1.04e+00,1.64e+00,
181,1.16e+00,6.40e-01,
182,1.08e+00,1.68e+00,
183,1.24e+00,6.00e-01,
184,1.20e+00,5.20e-01,
185,1.36e+00,1.72e+00,
186,1.28e+00,6.80e-01,
187,1.48e+00,2.24e+00,
188,1.40e+00,2.04e+00,
189,1.52e+00,1.04e+00,
190,1.48e+00,7.60e-01,
191,1.64e+00,1.96e+00,
192,1.56e+00,8.00e-01,
193,1.76e+00,2.40e+00,
194,1.64e+00,1.16e+00,
195,1.88e+00,2.32e+00,
196,1.80e+00,1.04e+00,
197,2.00e+00,2.52e+00,
198,1.92e+00,2.40e+00,
199,2.12e+00,1.12e+00,
200,2.04e+00,2.52e+00,
201,2.24e+00,1.24e+00,
202,2.16e+00,2.64e+00,
203,2.36e+00,1.32e+00,
204,2.28e+00,2.80e+00,
205,2.44e+00,1.48e+00,
206,2.40e+00,2.80e+00,
207,2.56e+00,1.48e+00,
208,2.48e+00,1.52e+00,
209,2.68e+00,2.84e+00,
210,2.60e+00,1.52e+00,
211,2.80e+00,2.92e+00,
212,2.72e+00,1.68e+00,
213,2.92e+00,3.00e+00,
214,2.84e+00,1.72e+00,
215,3.04e+00,3.00e+00,
216,2.96e+00,1.76e+00,
217,3.16e+00,3.04e+00,
218,3.04e+00,1.84e+00,
219,3.28e+00,3.04e+00,
220,3.16e+00,1.84e+00,
221,3.40e+00,3.04e+00,
222,3.28e+00,3.12e+00,
223,3.52e+00,2.00e+00,
224,3.40e+00,3.16e+00,
225,3.60e+00,2.12e+00,
226,3.52e+00,3.16e+00,
227,3.68e+00,2.16e+00,
228,3.60e+00,3.24e+00,
229,3.80e+00,2.20e+00,
230,3.72e+00,3.28e+00,
231,3.92e+00,2.20e+00,
232,3.84e+00,3.28e+00,
233,4.00e+00,2.44e+00,
234,3.88e+00,2.36e+00,
235,4.08e+00,3.36e+00,
236,4.00e+00,2.52e+00,
237,4.16e+00,3.36e+00,
238,4.08e+00,2.60e+00,
239,4.24e+00,3.40e+00,
240,4.12e+00,3.40e+00,
241,4.32e+00,2.64e+00,
242,4.24e+00,2.68e+00,
243,4.40e+00,3.48e+00,
244,4.32e+00,3.48e+00,
245,4.48e+00,2.72e+00,
246,4.36e+00,3.48e+00,
247,4.52e+00,2.72e+00,
248,4.44e+00,3.48e+00,
249,4.60e+00,2.72e+00,
250,4.64e+00,3.20e+00,
251,4.48e+00,3.60e+00,
252,4.56e+00,3.60e+00,
253,4.72e+00,2.80e+00,
254,4.60e+00,3.36e+00,
255,4.76e+00,3.60e+00,
256,4.76e+00,2.84e+00,
257,4.60e+00,3.60e+00,
258,4.68e+00,3.40e+00,
259,4.80e+00,3.64e+00,
260,4.84e+00,2.84e+00,
261,4.72e+00,3.64e+00,
262,4.80e+00,3.64e+00,
263,4.72e+00,2.92e+00,
264,4.68e+00,2.84e+00,
265,4.88e+00,3.64e+00,
266,4.72e+00,3.68e+00,
267,4.88e+00,2.84e+00,
268,4.88e+00,3.44e+00,
269,4.72e+00,3.68e+00,
270,4.88e+00,3.72e+00,
271,4.72e+00,2.84e+00,
272,4.72e+00,3.44e+00,
273,4.88e+00,3.72e+00,
274,4.72e+00,3.72e+00,
275,4.84e+00,2.92e+00,
276,4.84e+00,3.72e+00,
277,4.68e+00,3.52e+00,
278,4.68e+00,3.72e+00,
279,4.76e+00,2.92e+00,
280,4.76e+00,3.72e+00,
281,4.56e+00,3.52e+00,
282,4.56e+00,3.72e+00,
283,4.72e+00,2.92e+00,
284,4.68e+00,3.04e+00,
285,4.56e+00,3.76e+00,
286,4.64e+00,2.96e+00,
287,4.48e+00,3.68e+00,
288,4.60e+00,3.72e+00,
289,4.44e+00,3.04e+00,
290,4.52e+00,3.72e+00,
291,4.36e+00,3.04e+00,
292,4.48e+00,3.72e+00,
293,4.32e+00,2.80e+00,
294,4.40e+00,3.68e+00,
295,4.24e+00,2.92e+00,
296,4.28e+00,3.72e+00,
297,4.12e+00,2.80e+00,
298,4.24e+00,3.64e+00,
299,4.08e+00,2.76e+00,
300,4.12e+00,3.64e+00,
301,3.96e+00,2.68e+00,
302,4.04e+00,3.60e+00,
303,3.84e+00,2.68e+00,
304,3.96e+00,2.68e+00,
305,3.76e+00,3.60e+00,
306,3.72e+00,2.60e+00,
307,3.88e+00,3.52e+00,
308,3.72e+00,2.36e+00,
309,3.60e+00,3.48e+00,
310,3.68e+00,2.24e+00,
311,3.44e+00,3.48e+00,
312,3.56e+00,3.40e+00,
313,3.36e+00,2.16e+00,
314,3.44e+00,3.40e+00,
315,3.24e+00,2.12e+00,
316,3.32e+00,3.36e+00,
317,3.16e+00,2.16e+00,
318,3.20e+00,3.36e+00,
319,3.00e+00,2.08e+00,
320,3.16e+00,3.28e+00,
321,2.92e+00,1.88e+00,
322,2.96e+00,3.20e+00,
323,2.84e+00,1.88e+00,
324,2.88e+00,3.16e+00,
325,2.68e+00,1.84e+00,
326,2.80e+00,3.12e+00,
327,2.56e+00,1.76e+00,
328,2.68e+00,1.80e+00,
329,2.44e+00,3.04e+00,
330,2.56e+00,1.64e+00,
331,2.28e+00,3.00e+00,
332,2.44e+00,2.88e+00,
333,2.24e+00,1.60e+00,
334,2.32e+00,1.48e+00,
335,2.04e+00,2.88e+00,
336,2.20e+00,2.76e+00,
337,1.96e+00,1.40e+00,
338,2.08e+00,2.52e+00,
339,1.88e+00,1.16e+00,
340,1.96e+00,2.56e+00,
341,1.76e+00,1.28e+00,
342,1.84e+00,2.44e+00,
343,1.68e+00,1.12e+00,
344,1.72e+00,9.60e-01,
345,1.56e+00,2.24e+00,
346,1.64e+00,2.24e+00,
347,1.44e+00,1.12e+00,
348,1.52e+00,9.60e-01,
349,1.32e+00,2.04e+00,
350,1.40e+00,8.00e-01,
351,1.28e+00,1.84e+00,
352,1.36e+00,7.60e-01,
353,1.16e+00,1.56e+00,
354,1.24e+00,6.40e-01,
355,1.08e+00,1.72e+00,
356,1.12e+00,7.20e-01,
357,9.60e-01,1.72e+00,
358,1.04e+00,1.52e+00,
359,9.20e-01,5.60e-01,
360,1.00e+00,1.36e+00,
361,8.40e-01,5.20e-01,
362,8.80e-01,1.24e+00,
363,7.20e-01,4.40e-01,
364,8.40e-01,1.00e+00,
365,6.80e-01,3.60e-01,
366,7.60e-01,8.80e-01,
367,6.00e-01,3.20e-01,
368,6.80e-01,2.80e-01,
369,5.60e-01,9.20e-01,
370,6.40e-01,2.40e-01,
371,4.80e-01,9.60e-01,
372,4.40e-01,2.40e-01,
373,6.00e-01,9.60e-01,
374,4.40e-01,2.40e-01,
375,5.20e-01,1.00e+00,
376,5.20e-01,5.20e-01,
377,3.60e-01,2.00e-01,
378,3.60e-01,2.00e-01,
379,4.80e-01,5.20e-01,
380,4.80e-01,1.60e-01,
381,3.20e-01,7.60e-01,
382,3.20e-01,2.00e-01,
383,4.40e-01,8.80e-01,
384,3.20e-01,1.60e-01,
385,4.00e-01,5.20e-01,
386,3.20e-01,1.60e-01,
387,4.00e-01,7.60e-01,
388,4.00e-01,8.40e-01,
389,2.80e-01,2.00e-01,
390,4.00e-01,1.60e-01,
391,3.20e-01,5.20e-01,
392,4.00e-01,1.60e-01,
393,3.20e-01,8.40e-01,
394,3.20e-01,2.00e-01,
395,4.40e-01,9.60e-01,
396,4.80e-01,5.20e-01,
397,3.20e-01,2.00e-01,
398,3.60e-01,1.20e-01,
399,5.20e-01,6.00e-01,
400,5.20e-01,2.00e-01,
401,4.40e-01,8.80e-01,
402,4.40e-01,9.60e-01,
403,5.60e-01,2.40e-01,
404,4.80e-01,1.00e+00,
405,6.40e-01,2.80e-01,
406,5.60e-01,1.04e+00,
407,7.20e-01,3.60e-01,
408,6.00e-01,1.12e+00,
409,7.60e-01,3.20e-01,
410,6.80e-01,1.20e+00,
411,8.40e-01,3.20e-01,
412,7.20e-01,3.20e-01,
413,8.80e-01,1.12e+00,
414,8.00e-01,3.20e-01,
415,9.60e-01,1.04e+00,
416,8.40e-01,3.20e-01,
417,1.04e+00,1.40e+00,
418,9.60e-01,5.20e-01,
419,1.12e+00,1.48e+00,
420,1.04e+00,5.20e-01,
421,1.16e+00,1.80e+00,
422,1.16e+00,7.60e-01,
423,1.28e+00,1.80e+00,
424,1.20e+00,1.72e+00,
425,1.36e+00,6.40e-01,
426,1.32e+00,6.80e-01,
427,1.48e+00,1.96e+00,
428,1.40e+00,2.04e+00,
429,1.60e+00,8.80e-01,
430,1.52e+00,2.32e+00,
431,1.72e+00,1.12e+00,
432,1.64e+00,2.40e+00,
433,1.76e+00,1.12e+00,
434,1.76e+00,9.20e-01,
435,1.88e+00,2.20e+00,
436,1.88e+00,1.04e+00,
437,2.00e+00,2.48e+00,
438,1.92e+00,2.56e+00,
439,2.12e+00,1.28e+00,
440,2.04e+00,1.16e+00,
441,2.24e+00,2.56e+00,
442,2.16e+00,1.28e+00,
443,2.36e+00,2.68e+00,
444,2.28e+00,1.40e+00,
445,2.48e+00,2.76e+00,
446,2.40e+00,1.48e+00,
447,2.60e+00,2.80e+00,
448,2.52e+00,1.52e+00,
449,2.72e+00,2.80e+00,
450,2.64e+00,2.92e+00,
451,2.84e+00,1.72e+00,
452,2.76e+00,2.96e+00,
453,2.96e+00,1.76e+00,
454,2.88e+00,3.00e+00,
455,3.08e+00,1.84e+00,
456,3.00e+00,3.04e+00,
457,3.20e+00,1.84e+00,
458,3.12e+00,3.04e+00,
459,3.28e+00,1.88e+00,
460,3.24e+00,3.12e+00,
461,3.40e+00,1.88e+00,
462,3.32e+00,2.04e+00,
463,3.52e+00,3.16e+00,
464,3.40e+00,2.16e+00,
465,3.64e+00,3.24e+00,
466,3.52e+00,2.20e+00,
467,3.72e+00,3.20e+00,
468,3.64e+00,2.20e+00,
469,3.80e+00,3.24e+00,
470,3.72e+00,3.24e+00,
471,3.92e+00,2.16e+00,
472,3.84e+00,3.28e+00,
473,4.00e+00,2.52e+00,
474,3.92e+00,3.36e+00,
475,4.12e+00,2.60e+00,
476,4.00e+00,3.40e+00,
477,4.16e+00,2.60e+00,
478,4.12e+00,3.40e+00,
479,4.28e+00,2.64e+00,
480,4.20e+00,3.40e+00,
481,4.32e+00,2.64e+00,
482,4.24e+00,3.48e+00,
483,4.40e+00,2.72e+00,
484,4.44e+00,3.48e+00,
485,4.32e+00,2.72e+00,
486,4.36e+00,2.72e+00,
487,4.52e+00,3.52e+00,
488,4.44e+00,2.76e+00,
489,4.60e+00,3.52e+00,
490,4.48e+00,2.80e+00,
491,4.64e+00,3.52e+00,
492,4.56e+00,3.64e+00,
493,4.72e+00,2.80e+00,
494,4.60e+00,3.24e+00,
495,4.76e+00,3.60e+00,
496,4.76e+00,3.60e+00,
497,4.64e+00,2.84e+00,
498,4.68e+00,3.32e+00,
499,4.80e+00,3.64e+00,
500,4.80e+00,3.72e+00,
501,4.72e+00,2.84e+00,
502,4.72e+00,3.64e+00,
503,4.88e+00,3.44e+00,
504,4.72e+00,3.72e+00,
505,4.88e+00,2.88e+00,
506,4.88e+00,3.36e+00,
507,4.72e+00,3.72e+00,
508,4.88e+00,2.92e+00,
509,4.72e+00,3.72e+00,
510,4.88e+00,3.52e+00,
511,4.72e+00,3.72e+00,
512,4.72e+00,2.92e+00,
513,4.88e+00,3.72e+00,
514,4.72e+00,3.72e+00,
515,4.84e+00,2.92e+00,
516,4.84e+00,2.88e+00,
517,4.68e+00,3.72e+00,
518,4.68e+00,3.72e+00,
519,4.76e+00,2.92e+00,
520,4.76e+00,3.72e+00,
521,4.60e+00,3.44e+00,
522,4.72e+00,2.96e+00,
523,4.56e+00,3.76e+00,
524,4.64e+00,3.00e+00,
525,4.48e+00,3.76e+00,
526,4.64e+00,3.08e+00,
527,4.44e+00,3.76e+00,
528,4.56e+00,3.08e+00,
529,4.40e+00,3.76e+00,
530,4.52e+00,3.72e+00,
531,4.32e+00,2.88e+00,
532,4.40e+00,2.96e+00,
533,4.24e+00,3.76e+00,
534,4.36e+00,2.92e+00,
535,4.20e+00,3.72e+00,
536,4.28e+00,2.80e+00,
537,4.08e+00,3.64e+00,
538,4.20e+00,2.76e+00,
539,4.00e+00,3.64e+00,
540,4.12e+00,3.64e+00,
541,3.96e+00,2.68e+00,
542,4.04e+00,3.60e+00,
543,3.84e+00,2.68e+00,
544,3.92e+00,3.64e+00,
545,3.76e+00,2.60e+00,
546,3.84e+00,3.60e+00,
547,3.64e+00,2.40e+00,
548,3.76e+00,3.52e+00,
549,3.52e+00,2.48e+00,
550,3.64e+00,3.48e+00,
551,3.48e+00,2.24e+00,
552,3.52e+00,3.48e+00,
553,3.36e+00,2.24e+00,
554,3.44e+00,3.40e+00,
555,3.24e+00,2.12e+00,
556,3.32e+00,2.12e+00,
557,3.12e+00,3.36e+00,
558,3.20e+00,2.08e+00,
559,3.00e+00,3.28e+00,
560,3.08e+00,1.92e+00,
561,2.88e+00,3.24e+00,
562,2.96e+00,1.88e+00,
563,2.76e+00,3.24e+00,
564,2.84e+00,3.16e+00,
565,2.64e+00,1.84e+00,
566,2.72e+00,3.16e+00,
567,2.52e+00,1.84e+00,
568,2.60e+00,3.04e+00,
569,2.40e+00,1.64e+00,
570,2.48e+00,3.00e+00,
571,2.28e+00,1.68e+00,
572,2.36e+00,2.88e+00,
573,2.20e+00,1.44e+00,
574,2.24e+00,2.84e+00,
575,2.08e+00,1.52e+00,
576,2.20e+00,1.36e+00,
577,2.00e+00,2.76e+00,
578,2.00e+00,1.48e+00,
579,1.84e+00,2.68e+00,
580,1.96e+00,1.36e+00,
581,1.68e+00,2.44e+00,
582,1.84e+00,1.16e+00,
583,1.64e+00,2.24e+00,
584,1.72e+00,9.60e-01,
585,1.52e+00,2.28e+00,
586,1.60e+00,2.28e+00,
587,1.40e+00,1.04e+00,
588,1.48e+00,2.00e+00,
589,1.32e+00,8.80e-01,
590,1.40e+00,1.84e+00,
591,1.20e+00,7.60e-01,
592,1.28e+00,1.60e+00,
593,1.16e+00,6.40e-01,
594,1.24e+00,1.72e+00,
595,1.04e+00,6.80e-01,
596,1.12e+00,1.72e+00,
597,9.60e-01,6.80e-01,
598,1.04e+00,5.60e-01,
599,8.40e-01,1.48e+00,
600,9.20e-01,4.80e-01,
601,8.00e-01,1.32e+00,
602,8.80e-01,5.20e-01,
603,7.20e-01,1.32e+00,
604,8.00e-01,4.40e-01,
605,6.80e-01,1.16e+00,
606,7.60e-01,4.00e-01,
607,6.00e-01,1.12e+00,
608,6.80e-01,1.08e+00,
609,5.60e-01,3.20e-01,
610,6.40e-01,3.20e-01,
611,4.80e-01,1.08e+00,
612,6.00e-01,1.08e+00,
613,4.40e-01,3.20e-01,
614,4.40e-01,2.00e-01,
615,5.20e-01,5.60e-01,
616,5.20e-01,2.00e-01,
617,3.60e-01,7.20e-01,
618,3.60e-01,2.00e-01,
619,4.80e-01,8.40e-01,
620,4.80e-01,2.40e-01,
621,3.20e-01,9.60e-01,
622,3.20e-01,5.60e-01,
623,4.00e-01,2.00e-01,
624,4.00e-01,1.60e-01,
625,3.20e-01,5.60e-01,
626,4.00e-01,1.20e-01,
627,3.20e-01,7.60e-01,
628,3.20e-01,4.00e-01,
629,4.00e-01,1.60e-01,
630,4.00e-01,1.20e-01,
631,2.40e-01,5.20e-01,
632,3.20e-01,1.60e-01,
633,4.40e-01,7.60e-01,
634,3.20e-01,8.80e-01,
635,4.80e-01,2.00e-01,
636,4.40e-01,1.20e-01,
637,3.20e-01,5.20e-01,
638,3.60e-01,1.60e-01,
639,5.20e-01,7.60e-01,
640,5.20e-01,2.00e-01,
641,4.40e-01,8.80e-01,
642,6.00e-01,2.40e-01,
643,4.00e-01,9.60e-01,
644,4.80e-01,2.80e-01,
645,6.40e-01,1.00e+00,
646,5.60e-01,2.80e-01,
647,7.20e-01,1.08e+00,
648,5.60e-01,3.20e-01,
649,7.60e-01,1.20e+00,
650,6.80e-01,4.00e-01,
651,8.40e-01,1.24e+00,
652,7.20e-01,4.00e-01,
653,8.80e-01,1.28e+00,
654,8.00e-01,4.00e-01,
655,9.60e-01,1.28e+00,
656,9.20e-01,1.32e+00,
657,1.04e+00,4.40e-01,
658,9.60e-01,1.68e+00,
659,1.16e+00,6.40e-01,
660,1.04e+00,1.72e+00,
661,1.24e+00,6.80e-01,
662,1.16e+00,5.60e-01,
663,1.28e+00,1.80e+00,
664,1.20e+00,7.60e-01,
665,1.40e+00,1.84e+00,
666,1.32e+00,7.60e-01,
667,1.52e+00,2.20e+00,
668,1.44e+00,1.04e+00,
669,1.60e+00,2.40e+00,
670,1.52e+00,1.08e+00,
671,1.72e+00,2.16e+00,
672,1.64e+00,9.20e-01,
673,1.84e+00,2.28e+00,
674,1.76e+00,1.04e+00,
675,1.96e+00,2.56e+00,
676,1.88e+00,2.48e+00,
677,2.08e+00,1.16e+00,
678,2.00e+00,1.24e+00,
679,2.12e+00,2.52e+00,
680,2.12e+00,2.68e+00,
681,2.24e+00,1.40e+00,
682,2.20e+00,2.72e+00,
683,2.36e+00,1.48e+00,
684,2.32e+00,2.80e+00,
685,2.56e+00,1.52e+00,
686,2.44e+00,2.84e+00,
687,2.60e+00,1.52e+00,
688,2.52e+00,1.60e+00,
689,2.72e+00,2.88e+00,
690,2.64e+00,1.60e+00,
691,2.84e+00,2.92e+00,
692,2.76e+00,1.72e+00,
693,2.96e+00,3.00e+00,
694,2.88e+00,1.80e+00,
695,3.08e+00,3.04e+00,
696,3.00e+00,1.84e+00,
697,3.20e+00,3.04e+00,
698,3.12e+00,1.84e+00,
699,3.32e+00,3.04e+00,
700,3.24e+00,1.84e+00,
701,3.44e+00,3.12e+00,
702,3.36e+00,3.16e+00,
703,3.56e+00,2.12e+00,
704,3.48e+00,3.24e+00,
705,3.64e+00,2.20e+00,
706,3.56e+00,3.24e+00,
707,3.76e+00,2.24e+00,
708,3.64e+00,3.24e+00,
709,3.84e+00,2.24e+00,
710,3.76e+00,3.28e+00,
711,3.92e+00,2.24e+00,
712,3.84e+00,2.48e+00,
713,4.04e+00,3.36e+00,
714,3.96e+00,3.36e+00,
715,4.12e+00,2.44e+00,
716,3.96e+00,2.60e+00,
717,4.20e+00,3.40e+00,
718,4.12e+00,2.64e+00,
719,4.28e+00,3.40e+00,
720,4.20e+00,2.68e+00,
721,4.40e+00,3.48e+00,
722,4.20e+00,2.64e+00,
723,4.44e+00,3.48e+00,
724,4.36e+00,3.48e+00,
725,4.52e+00,2.72e+00,
726,4.44e+00,3.52e+00,
727,4.60e+00,2.72e+00,
728,4.48e+00,3.52e+00,
729,4.64e+00,2.76e+00,
730,4.56e+00,3.20e+00,
731,4.64e+00,3.56e+00,
732,4.60e+00,3.60e+00,
733,4.72e+00,2.76e+00,
734,4.60e+00,3.28e+00,
735,4.76e+00,3.60e+00,
736,4.76e+00,3.60e+00,
737,4.68e+00,2.84e+00,
738,4.68e+00,3.40e+00,
739,4.84e+00,3.64e+00,
740,4.68e+00,2.84e+00,
741,4.84e+00,3.64e+00,
742,4.88e+00,3.64e+00,
743,4.72e+00,2.92e+00,
744,4.72e+00,2.84e+00,
745,4.88e+00,3.64e+00,
746,4.88e+00,3.72e+00,
747,4.72e+00,2.88e+00,
748,4.88e+00,3.40e+00,
749,4.72e+00,3.72e+00,
750,4.72e+00,3.72e+00,
751,4.88e+00,3.16e+00,
752,4.72e+00,3.72e+00,
753,4.88e+00,3.08e+00,
754,4.80e+00,3.72e+00,
755,4.68e+00,3.04e+00,
756,4.84e+00,3.00e+00,
757,4.68e+00,3.76e+00,
758,4.76e+00,2.96e+00,
759,4.64e+00,3.72e+00,
760,4.76e+00,3.72e+00,
761,4.60e+00,3.04e+00,
762,4.72e+00,3.04e+00,
763,4.56e+00,3.76e+00,
764,4.64e+00,3.08e+00,
765,4.48e+00,3.72e+00,
766,4.60e+00,3.72e+00,
767,4.44e+00,2.96e+00,
768,4.52e+00,3.76e+00,
769,4.36e+00,3.04e+00,
770,4.48e+00,3.72e+00,
771,4.32e+00,3.00e+00,
772,4.40e+00,3.72e+00,
773,4.24e+00,2.84e+00,
774,4.36e+00,2.92e+00,
775,4.20e+00,3.72e+00,
776,4.28e+00,3.72e+00,
777,4.12e+00,2.84e+00,
778,4.16e+00,3.72e+00,
779,4.00e+00,2.80e+00,
780,4.12e+00,3.64e+00,
781,3.84e+00,2.64e+00,
782,4.00e+00,3.64e+00,
783,3.84e+00,2.68e+00,
784,3.92e+00,2.68e+00,
785,3.72e+00,3.56e+00,
786,3.80e+00,2.40e+00,
787,3.64e+00,3.52e+00,
788,3.72e+00,2.32e+00,
789,3.52e+00,3.48e+00,
790,3.64e+00,2.24e+00,
791,3.40e+00,3.44e+00,
792,3.52e+00,2.20e+00,
793,3.28e+00,3.40e+00,
794,3.40e+00,3.40e+00,
795,3.20e+00,2.12e+00,
796,3.28e+00,3.36e+00,
797,3.12e+00,2.12e+00,
798,3.16e+00,3.36e+00,
799,3.00e+00,2.00e+00,
800,3.08e+00,3.24e+00,
801,2.88e+00,1.88e+00,
802,2.96e+00,3.24e+00,
803,2.76e+00,1.88e+00,
804,2.84e+00,3.16e+00,
805,2.64e+00,1.88e+00,
806,2.72e+00,3.16e+00,
807,2.52e+00,1.84e+00,
808,2.60e+00,1.68e+00,
809,2.40e+00,3.00e+00,
810,2.48e+00,1.72e+00,
811,2.28e+00,2.92e+00,
812,2.36e+00,1.48e+00,
813,2.16e+00,2.84e+00,
814,2.24e+00,2.80e+00,
815,2.04e+00,1.48e+00,
816,2.12e+00,2.56e+00,
817,1.92e+00,1.24e+00,
818,2.00e+00,2.60e+00,
819,1.80e+00,1.36e+00,
820,1.88e+00,2.52e+00,
821,1.72e+00,1.16e+00,
822,1.76e+00,2.28e+00,
823,1.64e+00,1.00e+00,
824,1.72e+00,2.36e+00,
825,1.52e+00,1.16e+00,
826,1.60e+00,2.28e+00,
827,1.40e+00,1.04e+00,
828,1.48e+00,8.80e-01,
829,1.32e+00,1.92e+00,
830,1.36e+00,7.60e-01,
831,1.20e+00,1.72e+00,
832,1.28e+00,6.80e-01,
833,1.08e+00,1.40e+00,
834,1.20e+00,5.60e-01,
835,1.04e+00,1.68e+00,
836,1.12e+00,6.80e-01,
837,9.60e-01,1.68e+00,
838,1.00e+00,1.56e+00,
839,8.40e-01,5.60e-01,
840,9.20e-01,1.44e+00,
841,8.00e-01,5.20e-01,
842,8.80e-01,1.32e+00,
843,7.20e-01,4.40e-01,
844,8.00e-01,1.16e+00,
845,6.80e-01,4.00e-01,
846,6.80e-01,1.12e+00,
847,6.00e-01,4.00e-01,
848,7.20e-01,3.20e-01,
849,5.60e-01,1.08e+00,
850,6.40e-01,3.20e-01,
851,4.80e-01,1.04e+00,
852,6.00e-01,3.20e-01,
853,4.40e-01,1.08e+00,
854,5.20e-01,5.20e-01,
855,3.60e-01,2.00e-01,
856,5.20e-01,2.00e-01,
857,3.60e-01,6.00e-01,
858,4.80e-01,2.00e-01,
859,3.20e-01,7.20e-01,
860,4.40e-01,2.40e-01,
861,3.20e-01,8.80e-01,
862,3.20e-01,4.40e-01,
863,4.00e-01,1.60e-01,
864,3.20e-01,2.00e-01,
865,4.00e-01,6.40e-01,
866,4.00e-01,8.40e-01,
867,3.20e-01,2.00e-01,
868,4.00e-01,1.60e-01,
869,3.20e-01,6.00e-01,
870,4.00e-01,2.00e-01,
