Code/Matlab/Analysis/Control_Methods_Testing/Passive_Filter_WhiteNoise_Data/NewFile2.csv

X,CH1,CH2,Start,Increment,
Sequence,Volt,Volt,-9.200000e-03,5.000000e-05
0,-7.60e+00,-7.60e-02,
1,7.60e+00,2.84e-01,
2,7.80e+00,2.56e-01,
3,-7.80e+00,-9.60e-02,
4,-7.80e+00,-7.20e-02,
5,8.80e+00,2.56e-01,
6,7.80e+00,2.80e-01,
7,-7.80e+00,-1.00e-01,
8,-8.40e+00,2.64e-01,
9,9.00e+00,-6.40e-02,
10,-7.20e+00,2.92e-01,
11,8.20e+00,-6.00e-02,
12,-8.60e+00,2.68e-01,
13,8.80e+00,-1.00e-01,
14,-7.60e+00,2.84e-01,
15,8.60e+00,-6.80e-02,
16,8.40e+00,2.72e-01,
17,-8.20e+00,-6.40e-02,
18,-8.20e+00,2.92e-01,
19,8.80e+00,-4.80e-02,
20,8.80e+00,-6.40e-02,
21,-8.40e+00,2.84e-01,
22,-8.00e+00,-6.00e-02,
23,8.40e+00,2.64e-01,
24,-8.00e+00,2.68e-01,
25,8.80e+00,-7.60e-02,
26,-9.00e+00,-6.00e-02,
27,8.20e+00,2.72e-01,
28,-8.40e+00,2.80e-01,
29,8.40e+00,-6.80e-02,
30,8.80e+00,-6.00e-02,
31,-8.80e+00,2.64e-01,
32,8.20e+00,-7.20e-02,
33,-8.40e+00,2.84e-01,
34,8.80e+00,2.84e-01,
35,-8.40e+00,-8.00e-02,
36,-7.60e+00,-6.00e-02,
37,8.80e+00,3.00e-01,
38,-8.00e+00,2.68e-01,
39,8.60e+00,-7.60e-02,
40,-8.80e+00,-8.00e-02,
41,9.00e+00,2.84e-01,
42,-7.80e+00,2.84e-01,
43,8.40e+00,-6.40e-02,
44,8.20e+00,-6.80e-02,
45,-8.00e+00,2.56e-01,
46,-8.00e+00,2.88e-01,
47,9.00e+00,-6.00e-02,
48,8.00e+00,2.80e-01,
49,-8.00e+00,-1.08e-01,
50,-8.60e+00,-6.00e-02,
51,9.00e+00,2.68e-01,
52,-7.80e+00,2.88e-01,
53,8.60e+00,-7.20e-02,
54,-8.20e+00,-1.00e-01,
55,9.00e+00,2.56e-01,
56,-7.60e+00,-6.40e-02,
57,8.60e+00,2.96e-01,
58,8.60e+00,-8.80e-02,
59,-8.20e+00,2.72e-01,
60,8.80e+00,2.84e-01,
61,-8.00e+00,-7.20e-02,
62,8.60e+00,2.64e-01,
63,-8.40e+00,-5.20e-02,
64,-8.00e+00,-3.60e-02,
65,8.20e+00,2.68e-01,
66,8.80e+00,2.56e-01,
67,-8.80e+00,-8.00e-02,
68,-8.20e+00,-5.60e-02,
69,8.20e+00,2.64e-01,
70,-8.20e+00,-7.60e-02,
71,8.60e+00,2.72e-01,
72,8.80e+00,-6.00e-02,
73,-8.40e+00,2.72e-01,
74,8.40e+00,2.92e-01,
75,-8.20e+00,-5.20e-02,
76,8.80e+00,2.56e-01,
77,-9.00e+00,-5.60e-02,
78,-7.60e+00,-7.20e-02,
79,8.60e+00,2.84e-01,
80,8.60e+00,2.68e-01,
81,-9.00e+00,-6.80e-02,
82,-7.80e+00,-7.60e-02,
83,9.00e+00,2.92e-01,
84,8.20e+00,2.80e-01,
85,-7.80e+00,-6.40e-02,
86,-8.40e+00,-1.04e-01,
87,9.20e+00,2.56e-01,
88,8.40e+00,-6.80e-02,
89,-7.80e+00,2.68e-01,
90,8.60e+00,2.56e-01,
91,-8.40e+00,-9.20e-02,
92,-7.80e+00,-4.80e-02,
93,9.00e+00,2.72e-01,
94,8.60e+00,2.64e-01,
95,-8.20e+00,-9.60e-02,
96,-8.20e+00,-6.80e-02,
97,9.00e+00,2.64e-01,
98,-7.80e+00,2.88e-01,
99,8.20e+00,-6.00e-02,
100,-8.20e+00,-6.00e-02,
101,8.60e+00,2.60e-01,
102,8.20e+00,2.88e-01,
103,-8.00e+00,-6.00e-02,
104,8.80e+00,2.60e-01,
105,-8.40e+00,-6.40e-02,
106,8.20e+00,-4.00e-02,
107,-8.20e+00,2.76e-01,
108,8.80e+00,2.60e-01,
109,-8.80e+00,-7.60e-02,
110,-8.20e+00,-5.20e-02,
111,8.20e+00,2.72e-01,
112,-8.20e+00,2.64e-01,
113,8.80e+00,-5.20e-02,
114,-8.40e+00,-6.40e-02,
115,8.40e+00,2.64e-01,
116,7.80e+00,2.72e-01,
117,-8.20e+00,-7.20e-02,
118,8.80e+00,-8.00e-02,
119,-9.00e+00,2.68e-01,
120,8.80e+00,-6.40e-02,
121,-8.00e+00,3.00e-01,
122,8.60e+00,2.68e-01,
123,-8.00e+00,-8.00e-02,
124,-7.80e+00,-7.60e-02,
125,9.00e+00,2.72e-01,
126,-7.80e+00,2.80e-01,
127,8.20e+00,-8.80e-02,
128,-8.20e+00,-7.60e-02,
129,9.00e+00,2.64e-01,
130,-7.60e+00,-6.40e-02,
131,8.00e+00,2.84e-01,
132,7.80e+00,-1.00e-01,
133,-8.60e+00,2.48e-01,
134,-7.60e+00,2.88e-01,
135,9.00e+00,-7.20e-02,
136,8.20e+00,3.00e-01,
137,-7.80e+00,-7.60e-02,
138,-8.20e+00,-5.60e-02,
139,9.00e+00,2.92e-01,
140,-7.80e+00,-6.40e-02,
141,8.60e+00,2.96e-01,
142,-8.20e+00,2.72e-01,
143,8.60e+00,-8.40e-02,
144,-8.00e+00,2.76e-01,
145,8.40e+00,-7.20e-02,
146,8.40e+00,-4.80e-02,
147,-8.80e+00,2.64e-01,
148,-8.20e+00,2.60e-01,
149,8.20e+00,-8.00e-02,
150,8.80e+00,-4.80e-02,
151,-8.60e+00,2.64e-01,
152,-8.20e+00,2.68e-01,
153,8.00e+00,-5.60e-02,
154,8.80e+00,2.64e-01,
155,-8.40e+00,-6.80e-02,
156,8.20e+00,-5.60e-02,
157,-7.80e+00,2.76e-01,
158,-8.20e+00,2.64e-01,
159,8.20e+00,-6.80e-02,
160,8.80e+00,-7.20e-02,
161,-8.40e+00,2.72e-01,
162,8.80e+00,-6.40e-02,
163,-8.00e+00,2.88e-01,
164,8.40e+00,2.64e-01,
165,-8.00e+00,-7.60e-02,
166,-7.60e+00,-7.20e-02,
167,9.00e+00,2.92e-01,
168,-7.80e+00,2.72e-01,
169,8.20e+00,-1.04e-01,
170,-8.40e+00,-6.40e-02,
171,9.00e+00,2.72e-01,
172,-7.40e+00,2.68e-01,
173,8.60e+00,-6.40e-02,
174,-8.40e+00,-1.00e-01,
175,8.20e+00,2.52e-01,
176,9.00e+00,2.76e-01,
177,-7.40e+00,-6.80e-02,
178,8.20e+00,2.76e-01,
179,-8.40e+00,-1.12e-01,
180,-8.00e+00,2.96e-01,
181,9.00e+00,-6.40e-02,
182,8.60e+00,-6.00e-02,
183,-8.20e+00,2.76e-01,
184,-8.00e+00,-5.60e-02,
185,8.40e+00,2.56e-01,
186,-8.00e+00,2.72e-01,
187,8.80e+00,-5.20e-02,
188,-8.40e+00,-6.80e-02,
189,8.20e+00,2.72e-01,
190,8.00e+00,2.72e-01,
191,-8.20e+00,-8.00e-02,
192,8.80e+00,-6.80e-02,
193,-8.60e+00,2.64e-01,
194,8.20e+00,2.64e-01,
195,-8.20e+00,-6.00e-02,
196,8.80e+00,2.64e-01,
197,-9.20e+00,-6.00e-02,
198,-7.80e+00,-6.00e-02,
199,8.40e+00,3.00e-01,
200,-8.40e+00,2.64e-01,
201,8.80e+00,-7.60e-02,
202,-9.20e+00,-8.40e-02,
203,8.80e+00,2.68e-01,
204,8.20e+00,-7.60e-02,
205,-8.00e+00,3.04e-01,
206,8.60e+00,2.68e-01,
207,-8.20e+00,-8.00e-02,
208,9.00e+00,-7.60e-02,
209,-7.80e+00,2.84e-01,
210,8.20e+00,2.56e-01,
211,-8.80e+00,-1.04e-01,
212,-8.20e+00,-5.60e-02,
213,9.00e+00,2.60e-01,
214,8.60e+00,2.64e-01,
215,-7.40e+00,-7.60e-02,
216,-8.60e+00,2.56e-01,
217,9.20e+00,-1.00e-01,
218,8.20e+00,-6.80e-02,
219,-7.80e+00,2.96e-01,
220,8.00e+00,2.64e-01,
221,-8.40e+00,-8.40e-02,
222,-8.00e+00,-6.00e-02,
223,8.80e+00,2.80e-01,
224,8.80e+00,2.92e-01,
225,-8.20e+00,-7.60e-02,
226,-7.80e+00,-5.60e-02,
227,8.20e+00,2.72e-01,
228,-8.00e+00,2.80e-01,
229,8.60e+00,-5.60e-02,
230,-8.60e+00,-5.20e-02,
231,8.60e+00,2.72e-01,
232,-8.20e+00,2.52e-01,
233,8.60e+00,-7.20e-02,
234,8.80e+00,-5.20e-02,
235,-8.80e+00,2.68e-01,
236,8.20e+00,2.64e-01,
237,-8.20e+00,-7.20e-02,
238,8.80e+00,2.64e-01,
239,-8.80e+00,-6.40e-02,
240,-8.00e+00,-6.40e-02,
241,8.20e+00,2.84e-01,
242,8.80e+00,2.76e-01,
243,-8.40e+00,-6.40e-02,
244,-8.00e+00,-7.20e-02,
245,8.80e+00,2.88e-01,
246,-8.00e+00,2.76e-01,
247,8.20e+00,-7.20e-02,
248,8.40e+00,-8.00e-02,
249,-8.20e+00,2.60e-01,
250,9.00e+00,2.80e-01,
251,-7.80e+00,-6.40e-02,
252,8.60e+00,-9.20e-02,
253,-8.80e+00,2.52e-01,
254,-8.40e+00,-6.00e-02,
255,9.00e+00,2.60e-01,
256,8.40e+00,2.88e-01,
257,-7.80e+00,-1.08e-01,
258,-8.20e+00,-6.00e-02,
259,9.00e+00,2.48e-01,
260,8.40e+00,-6.80e-02,
261,-7.80e+00,2.88e-01,
262,8.00e+00,2.52e-01,
263,-8.60e+00,-7.20e-02,
264,8.80e+00,2.96e-01,
265,-7.80e+00,-6.40e-02,
266,8.60e+00,2.64e-01,
267,-8.20e+00,-5.20e-02,
268,-8.40e+00,-5.20e-02,
269,8.20e+00,2.76e-01,
270,8.80e+00,2.60e-01,
271,-8.60e+00,-8.00e-02,
272,8.20e+00,-6.00e-02,
273,-8.20e+00,2.72e-01,
274,-8.20e+00,2.76e-01,
275,8.80e+00,-7.20e-02,
276,-8.80e+00,-5.20e-02,
277,8.20e+00,2.60e-01,
278,7.80e+00,2.68e-01,
279,-8.20e+00,-7.60e-02,
280,8.80e+00,2.64e-01,
281,-9.20e+00,-5.60e-02,
282,8.60e+00,-6.00e-02,
283,-8.40e+00,2.92e-01,
284,8.80e+00,2.76e-01,
285,-8.40e+00,-8.00e-02,
286,-7.80e+00,-7.60e-02,
287,8.60e+00,2.96e-01,
288,-8.00e+00,2.72e-01,
289,8.40e+00,-6.00e-02,
290,-8.40e+00,-7.60e-02,
291,9.00e+00,2.68e-01,
292,8.00e+00,-7.60e-02,
293,-7.80e+00,2.84e-01,
294,8.20e+00,2.48e-01,
295,-8.60e+00,-1.00e-01,
296,-7.80e+00,-9.20e-02,
297,9.00e+00,2.60e-01,
298,8.20e+00,2.80e-01,
299,-7.80e+00,-1.08e-01,
300,-8.60e+00,-6.00e-02,
301,9.00e+00,2.56e-01,
302,-7.60e+00,3.00e-01,
303,8.40e+00,-6.00e-02,
304,-8.20e+00,2.68e-01,
305,8.80e+00,-8.00e-02,
306,-7.60e+00,2.88e-01,
307,8.40e+00,-6.00e-02,
308,8.80e+00,2.76e-01,
309,-8.20e+00,-7.60e-02,
310,-8.20e+00,-4.00e-02,
311,8.20e+00,2.84e-01,
312,8.60e+00,-5.60e-02,
313,-8.60e+00,2.72e-01,
314,-8.00e+00,2.68e-01,
315,8.40e+00,-4.40e-02,
316,-8.20e+00,2.72e-01,
317,8.80e+00,-6.80e-02,
318,-9.00e+00,-6.40e-02,
319,8.20e+00,2.80e-01,
320,-8.20e+00,2.64e-01,
321,8.40e+00,-6.40e-02,
322,8.80e+00,-6.00e-02,
323,-8.60e+00,2.80e-01,
324,8.40e+00,-7.20e-02,
325,-8.20e+00,2.84e-01,
326,8.80e+00,2.76e-01,
327,-8.60e+00,-6.80e-02,
328,-8.20e+00,-6.40e-02,
329,8.80e+00,3.00e-01,
330,-8.00e+00,2.68e-01,
331,8.60e+00,-7.20e-02,
332,-9.00e+00,-8.00e-02,
333,9.00e+00,2.76e-01,
334,-7.80e+00,2.72e-01,
335,8.60e+00,-6.00e-02,
336,8.40e+00,-9.20e-02,
337,-8.80e+00,2.60e-01,
338,-8.00e+00,2.76e-01,
339,9.00e+00,-6.40e-02,
340,7.80e+00,2.92e-01,
341,-8.40e+00,-1.12e-01,
342,-7.80e+00,-6.40e-02,
343,8.80e+00,2.68e-01,
344,8.60e+00,2.92e-01,
345,-8.00e+00,-7.20e-02,
346,-8.20e+00,-9.60e-02,
347,8.80e+00,2.60e-01,
348,-7.60e+00,-6.40e-02,
349,8.40e+00,2.96e-01,
350,8.60e+00,2.72e-01,
351,-8.20e+00,-6.00e-02,
352,8.80e+00,2.84e-01,
353,-8.00e+00,-7.60e-02,
354,8.60e+00,2.64e-01,
355,-8.60e+00,-6.80e-02,
356,-8.00e+00,-4.00e-02,
357,8.00e+00,2.80e-01,
358,8.80e+00,2.60e-01,
359,-8.80e+00,-7.60e-02,
360,-8.00e+00,2.72e-01,
361,8.40e+00,-6.40e-02,
362,-8.20e+00,-7.60e-02,
363,8.80e+00,2.76e-01,
364,-8.40e+00,2.84e-01,
365,8.60e+00,-6.80e-02,
366,-8.20e+00,3.04e-01,
367,7.80e+00,-6.00e-02,
368,8.80e+00,2.68e-01,
369,-8.60e+00,-6.40e-02,
370,8.80e+00,2.88e-01,
371,-8.00e+00,-7.20e-02,
372,8.60e+00,2.72e-01,
373,-8.00e+00,-7.60e-02,
374,-8.00e+00,-7.20e-02,
375,9.00e+00,2.84e-01,
376,-7.80e+00,2.76e-01,
377,8.40e+00,-7.20e-02,
378,-8.00e+00,2.48e-01,
379,9.00e+00,-1.08e-01,
380,8.40e+00,-6.80e-02,
381,-7.80e+00,2.76e-01,
382,7.80e+00,2.64e-01,
383,-8.40e+00,-1.04e-01,
384,-8.00e+00,2.92e-01,
385,9.00e+00,-6.80e-02,
386,8.60e+00,2.88e-01,
387,-8.40e+00,-9.20e-02,
388,-8.20e+00,-5.60e-02,
389,8.80e+00,2.64e-01,
390,-7.60e+00,2.84e-01,
391,8.60e+00,-7.20e-02,
392,-8.20e+00,2.68e-01,
393,8.60e+00,-5.60e-02,
394,-8.00e+00,2.92e-01,
395,8.00e+00,-6.40e-02,
396,8.80e+00,-5.20e-02,
397,-8.40e+00,2.64e-01,
398,8.40e+00,-4.40e-02,
399,-8.20e+00,2.56e-01,
400,8.60e+00,2.56e-01,
401,-8.60e+00,-7.60e-02,
402,-8.20e+00,-4.00e-02,
403,8.20e+00,2.76e-01,
404,-8.40e+00,2.64e-01,
405,8.80e+00,-6.80e-02,
406,-8.60e+00,-7.60e-02,
407,8.40e+00,2.76e-01,
408,-8.20e+00,2.80e-01,
409,8.40e+00,-6.80e-02,
410,8.80e+00,-8.00e-02,
411,-8.40e+00,2.64e-01,
412,8.80e+00,-6.40e-02,
413,-8.00e+00,2.96e-01,
414,8.40e+00,2.64e-01,
415,-9.00e+00,-8.40e-02,
416,-7.80e+00,2.76e-01,
417,8.80e+00,-7.60e-02,
418,-7.80e+00,2.80e-01,
419,8.60e+00,-6.40e-02,
420,-8.20e+00,-8.00e-02,
421,9.00e+00,2.60e-01,
422,-7.80e+00,-5.60e-02,
423,8.20e+00,2.84e-01,
424,8.80e+00,2.52e-01,
425,-8.80e+00,-9.60e-02,
426,-7.60e+00,-5.60e-02,
427,9.00e+00,2.92e-01,
428,8.80e+00,2.68e-01,
429,-7.80e+00,-9.20e-02,
430,-8.20e+00,-6.00e-02,
431,8.80e+00,2.92e-01,
432,8.60e+00,-6.40e-02,
433,-8.20e+00,2.92e-01,
434,-8.20e+00,-7.20e-02,
435,8.80e+00,2.72e-01,
436,-8.00e+00,2.80e-01,
437,8.20e+00,-7.60e-02,
438,8.80e+00,-5.60e-02,
439,-8.60e+00,2.68e-01,
440,-8.20e+00,2.56e-01,
441,8.20e+00,-7.60e-02,
442,8.80e+00,-5.20e-02,
443,-8.60e+00,2.68e-01,
444,-8.20e+00,-5.60e-02,
445,8.20e+00,2.76e-01,
446,8.80e+00,-6.80e-02,
447,-8.60e+00,2.76e-01,
448,-8.00e+00,-5.20e-02,
449,8.40e+00,2.96e-01,
450,-8.20e+00,2.64e-01,
451,8.80e+00,-6.80e-02,
452,-9.20e+00,-6.80e-02,
453,8.40e+00,2.72e-01,
454,8.80e+00,-7.60e-02,
455,-8.00e+00,2.84e-01,
456,8.40e+00,2.64e-01,
457,-9.00e+00,-7.60e-02,
458,-8.00e+00,-6.80e-02,
459,9.00e+00,2.88e-01,
460,8.20e+00,2.76e-01,
461,-8.00e+00,-1.04e-01,
462,-8.40e+00,-6.40e-02,
463,9.20e+00,2.68e-01,
464,-7.80e+00,-6.40e-02,
465,8.60e+00,2.72e-01,
466,-8.40e+00,-9.60e-02,
467,8.80e+00,2.52e-01,
468,-7.40e+00,-7.20e-02,
469,8.60e+00,2.92e-01,
470,8.60e+00,2.72e-01,
471,-8.00e+00,-9.20e-02,
472,-8.20e+00,2.92e-01,
473,9.00e+00,-6.00e-02,
474,8.60e+00,-5.60e-02,
475,-8.20e+00,2.72e-01,
476,-8.00e+00,-5.60e-02,
477,8.60e+00,2.72e-01,
478,-8.00e+00,2.92e-01,
479,8.80e+00,-6.40e-02,
480,-8.60e+00,-6.40e-02,
481,8.40e+00,2.64e-01,
482,-8.20e+00,2.68e-01,
483,8.00e+00,-8.00e-02,
484,8.80e+00,-6.00e-02,
485,-8.80e+00,2.64e-01,
486,8.20e+00,-5.60e-02,
487,-8.20e+00,2.84e-01,
488,8.80e+00,2.68e-01,
489,-8.40e+00,-6.40e-02,
490,-7.80e+00,2.76e-01,
491,8.40e+00,-6.80e-02,
492,-8.20e+00,2.64e-01,
493,8.60e+00,-7.20e-02,
494,-9.00e+00,-8.00e-02,
495,8.60e+00,2.80e-01,
496,-8.00e+00,-7.60e-02,
497,8.00e+00,2.96e-01,
498,8.60e+00,-8.40e-02,
499,-8.00e+00,2.56e-01,
500,9.20e+00,-7.60e-02,
501,-7.80e+00,2.80e-01,
502,8.00e+00,2.64e-01,
503,-8.00e+00,-8.00e-02,
504,-8.40e+00,2.80e-01,
505,9.00e+00,-6.40e-02,
506,-7.60e+00,2.96e-01,
507,8.80e+00,-8.00e-02,
508,-8.80e+00,2.64e-01,
509,8.80e+00,-1.00e-01,
510,-7.40e+00,-6.80e-02,
511,8.60e+00,2.96e-01,
512,8.40e+00,2.76e-01,
513,-8.00e+00,-8.00e-02,
514,8.80e+00,-6.40e-02,
515,-7.80e+00,3.00e-01,
516,8.60e+00,2.92e-01,
517,-8.40e+00,-7.60e-02,
518,-8.20e+00,2.72e-01,
519,8.40e+00,-5.60e-02,
520,8.80e+00,2.84e-01,
521,-8.40e+00,-7.20e-02,
522,8.20e+00,-6.00e-02,
523,-8.20e+00,2.72e-01,
524,-8.20e+00,-7.20e-02,
525,8.60e+00,2.64e-01,
526,8.80e+00,2.64e-01,
527,-8.80e+00,-6.40e-02,
528,7.80e+00,2.76e-01,
529,-8.20e+00,-6.80e-02,
530,8.80e+00,-6.80e-02,
531,-8.80e+00,2.72e-01,
532,-8.00e+00,-6.00e-02,
533,8.40e+00,2.92e-01,
534,8.80e+00,2.72e-01,
535,-9.20e+00,-6.80e-02,
536,-8.00e+00,-7.20e-02,
537,8.80e+00,2.96e-01,
538,-8.00e+00,2.72e-01,
539,8.60e+00,-7.60e-02,
540,-8.20e+00,-7.20e-02,
541,8.00e+00,2.64e-01,
542,9.00e+00,-6.80e-02,
543,-7.80e+00,2.88e-01,
544,8.60e+00,2.44e-01,
545,-9.00e+00,-1.00e-01,
546,-7.60e+00,-6.00e-02,
547,9.00e+00,2.84e-01,
548,8.40e+00,2.56e-01,
549,-8.20e+00,-9.60e-02,
550,-8.20e+00,-6.00e-02,
551,9.00e+00,2.56e-01,
552,-7.80e+00,-6.40e-02,
553,8.40e+00,2.92e-01,
554,-8.40e+00,2.64e-01,
555,9.00e+00,-1.04e-01,
556,8.40e+00,-6.00e-02,
557,-7.80e+00,2.92e-01,
558,8.60e+00,2.60e-01,
559,-8.40e+00,-4.40e-02,
560,8.40e+00,2.64e-01,
561,-8.00e+00,-4.00e-02,
562,8.80e+00,2.56e-01,
563,-8.60e+00,-8.00e-02,
564,-8.20e+00,-6.00e-02,
565,8.40e+00,2.76e-01,
566,-8.20e+00,2.72e-01,
567,8.80e+00,-6.80e-02,
568,-8.60e+00,2.64e-01,
569,8.20e+00,-5.60e-02,
570,7.80e+00,2.64e-01,
571,-8.20e+00,-5.60e-02,
572,8.80e+00,-5.60e-02,
573,-9.20e+00,2.68e-01,
574,8.40e+00,-6.80e-02,
575,-8.20e+00,2.92e-01,
576,8.60e+00,2.76e-01,
577,-8.60e+00,-8.00e-02,
578,-7.80e+00,-7.60e-02,
579,8.80e+00,2.92e-01,
580,-8.00e+00,2.84e-01,
581,8.60e+00,-6.40e-02,
582,-8.20e+00,-8.40e-02,
583,9.00e+00,2.68e-01,
584,8.00e+00,-7.20e-02,
585,-7.80e+00,2.88e-01,
586,8.20e+00,2.44e-01,
587,-8.60e+00,-9.20e-02,
588,-8.00e+00,-6.00e-02,
589,9.00e+00,2.80e-01,
590,8.00e+00,2.64e-01,
591,-7.80e+00,-1.08e-01,
592,-8.20e+00,3.00e-01,
593,9.00e+00,-6.80e-02,
594,-7.60e+00,-6.40e-02,
595,8.40e+00,2.92e-01,
596,-8.20e+00,2.64e-01,
597,8.80e+00,-7.20e-02,
598,-7.80e+00,3.00e-01,
599,8.00e+00,-4.80e-02,
600,8.80e+00,-6.80e-02,
601,-8.20e+00,2.68e-01,
602,-8.20e+00,2.80e-01,
603,8.40e+00,-6.80e-02,
604,8.80e+00,-6.00e-02,
605,-8.60e+00,2.64e-01,
606,-8.20e+00,2.64e-01,
607,8.60e+00,-4.40e-02,
608,8.80e+00,2.60e-01,
609,-8.60e+00,-6.40e-02,
610,-8.60e+00,-5.60e-02,
611,8.20e+00,2.88e-01,
612,-8.40e+00,2.64e-01,
613,8.40e+00,-7.20e-02,
614,8.60e+00,2.68e-01,
615,-9.00e+00,-7.20e-02,
616,8.60e+00,-6.80e-02,
617,-8.00e+00,2.88e-01,
618,8.80e+00,2.60e-01,
619,-8.20e+00,-7.20e-02,
620,-8.00e+00,-7.60e-02,
621,9.00e+00,2.84e-01,
622,-8.00e+00,2.68e-01,
623,8.40e+00,-6.40e-02,
624,-8.20e+00,-8.00e-02,
625,9.00e+00,2.76e-01,
626,-7.80e+00,2.72e-01,
627,8.60e+00,-6.80e-02,
628,-8.80e+00,-9.60e-02,
629,8.40e+00,2.56e-01,
630,9.00e+00,2.80e-01,
631,-7.40e+00,-6.40e-02,
632,8.00e+00,2.88e-01,
633,-8.60e+00,-1.00e-01,
634,-7.80e+00,-6.00e-02,
635,9.00e+00,2.80e-01,
636,8.40e+00,2.72e-01,
637,-8.00e+00,-9.60e-02,
638,-8.40e+00,-5.60e-02,
639,8.80e+00,2.56e-01,
640,-7.80e+00,2.76e-01,
641,8.60e+00,-5.60e-02,
642,-8.40e+00,2.64e-01,
643,8.40e+00,-4.80e-02,
644,-8.00e+00,2.68e-01,
645,8.60e+00,-8.40e-02,
646,8.80e+00,2.60e-01,
647,-8.60e+00,-6.00e-02,
648,8.00e+00,2.76e-01,
649,-8.20e+00,-3.60e-02,
650,8.80e+00,2.64e-01,
651,-8.80e+00,-7.20e-02,
652,-8.00e+00,2.80e-01,
653,8.40e+00,-6.00e-02,
654,-8.20e+00,-7.20e-02,
655,8.80e+00,2.64e-01,
656,-9.20e+00,2.80e-01,
657,8.60e+00,-6.80e-02,
658,-8.20e+00,3.04e-01,
659,7.80e+00,-6.00e-02,
660,8.80e+00,-7.60e-02,
661,-8.60e+00,2.72e-01,
662,8.60e+00,-7.60e-02,
663,-8.00e+00,3.00e-01,
664,8.40e+00,2.68e-01,
665,-8.80e+00,-7.60e-02,
666,-8.20e+00,-7.60e-02,
667,9.00e+00,2.80e-01,
668,-7.60e+00,2.72e-01,
669,8.40e+00,-6.00e-02,
670,-8.80e+00,2.44e-01,
671,9.20e+00,-1.00e-01,
672,-7.60e+00,-6.40e-02,
673,8.20e+00,2.72e-01,
674,8.00e+00,-1.12e-01,
675,-8.40e+00,2.60e-01,
676,-8.00e+00,3.00e-01,
677,9.20e+00,-6.00e-02,
678,8.80e+00,2.88e-01,
679,-8.20e+00,-8.80e-02,
680,-7.80e+00,-6.00e-02,
681,8.80e+00,2.64e-01,
682,-7.80e+00,2.80e-01,
683,8.80e+00,-7.20e-02,
684,-8.20e+00,2.72e-01,
685,8.40e+00,-7.20e-02,
686,-8.00e+00,2.88e-01,
687,8.40e+00,-6.80e-02,
688,8.80e+00,-6.40e-02,
689,-8.40e+00,2.68e-01,
690,8.40e+00,2.56e-01,
691,-8.40e+00,-6.80e-02,
692,8.80e+00,-6.00e-02,
693,-9.20e+00,2.64e-01,
694,-8.00e+00,-5.20e-02,
695,8.20e+00,2.92e-01,
696,-8.20e+00,2.68e-01,
697,8.80e+00,-6.80e-02,
698,-8.80e+00,-7.20e-02,
699,8.40e+00,2.96e-01,
700,-8.20e+00,2.72e-01,
701,8.20e+00,-6.40e-02,
702,8.80e+00,-8.00e-02,
703,-8.40e+00,2.72e-01,
704,9.00e+00,2.84e-01,
705,-8.00e+00,-6.80e-02,
706,8.40e+00,2.52e-01,
707,-8.80e+00,-8.80e-02,
708,-7.60e+00,-6.40e-02,
709,8.80e+00,2.72e-01,
710,8.40e+00,2.80e-01,
711,-7.80e+00,-7.20e-02,
712,-8.20e+00,-8.40e-02,
713,9.00e+00,2.56e-01,
714,8.20e+00,-6.40e-02,
715,-7.80e+00,2.96e-01,
716,8.20e+00,2.60e-01,
717,-8.00e+00,-1.00e-01,
718,9.00e+00,-6.00e-02,
719,-7.80e+00,2.84e-01,
720,8.80e+00,2.96e-01,
721,-8.00e+00,-9.20e-02,
722,-8.20e+00,-6.00e-02,
723,8.80e+00,2.88e-01,
724,8.60e+00,2.88e-01,
725,-8.20e+00,-6.40e-02,
726,-8.20e+00,-4.80e-02,
727,8.80e+00,2.76e-01,
728,-8.00e+00,2.84e-01,
729,8.80e+00,-7.60e-02,
730,-8.40e+00,2.60e-01,
731,8.20e+00,-5.20e-02,
732,8.20e+00,2.56e-01,
733,-8.20e+00,-6.00e-02,
734,8.80e+00,-4.80e-02,
735,-8.60e+00,2.68e-01,
736,-8.00e+00,-6.80e-02,
737,8.40e+00,2.76e-01,
738,8.80e+00,-6.80e-02,
739,-8.60e+00,2.76e-01,
740,-8.00e+00,-6.80e-02,
741,8.60e+00,3.00e-01,
742,-8.20e+00,2.84e-01,
743,8.80e+00,-6.00e-02,
744,-8.20e+00,-6.40e-02,
745,8.80e+00,2.80e-01,
746,-8.00e+00,2.80e-01,
747,8.20e+00,-7.60e-02,
748,8.40e+00,-7.60e-02,
749,-9.20e+00,2.60e-01,
750,-8.00e+00,-6.40e-02,
751,9.00e+00,2.68e-01,
752,8.20e+00,2.76e-01,
753,-8.00e+00,-1.04e-01,
754,-8.40e+00,2.52e-01,
755,9.20e+00,-5.60e-02,
756,-7.60e+00,-6.40e-02,
757,8.20e+00,2.96e-01,
758,-8.40e+00,-9.20e-02,
759,9.00e+00,2.48e-01,
760,8.40e+00,2.84e-01,
761,-7.40e+00,-7.20e-02,
762,8.80e+00,2.60e-01,
763,-8.00e+00,-7.60e-02,
764,-8.20e+00,2.80e-01,
765,8.80e+00,-6.40e-02,
766,8.40e+00,-6.80e-02,
767,-8.20e+00,2.68e-01,
768,-8.00e+00,-4.80e-02,
769,8.40e+00,2.68e-01,
770,-8.00e+00,2.84e-01,
771,8.80e+00,-6.40e-02,
772,-8.40e+00,-6.40e-02,
773,8.40e+00,2.64e-01,
774,8.00e+00,2.60e-01,
775,-8.20e+00,-7.60e-02,
776,8.60e+00,-6.00e-02,
777,-9.00e+00,2.68e-01,
778,8.20e+00,-4.80e-02,
779,-8.20e+00,2.84e-01,
780,8.80e+00,2.64e-01,
781,-8.60e+00,-6.40e-02,
782,-8.00e+00,-6.80e-02,
783,8.60e+00,2.88e-01,
784,-8.20e+00,2.60e-01,
785,8.40e+00,-7.20e-02,
786,-9.20e+00,-8.40e-02,
787,9.00e+00,2.80e-01,
788,-8.00e+00,2.68e-01,
789,8.20e+00,-7.20e-02,
790,8.40e+00,2.60e-01,
791,-7.80e+00,-8.80e-02,
792,9.20e+00,-7.60e-02,
793,-7.60e+00,2.84e-01,
794,7.80e+00,2.56e-01,
795,-8.00e+00,-8.80e-02,
796,-7.80e+00,-6.00e-02,
797,9.00e+00,2.80e-01,
798,8.80e+00,2.92e-01,
799,-8.40e+00,-6.80e-02,
800,-8.20e+00,-9.60e-02,
801,9.00e+00,2.64e-01,
802,-7.40e+00,3.04e-01,
803,7.80e+00,-6.40e-02,
804,8.60e+00,2.68e-01,
805,-8.00e+00,-8.80e-02,
806,-8.20e+00,2.88e-01,
807,8.80e+00,-6.40e-02,
808,8.60e+00,2.88e-01,
809,-8.40e+00,-6.40e-02,
810,-7.80e+00,2.72e-01,
811,8.80e+00,-6.00e-02,
812,8.80e+00,-7.60e-02,
813,-8.60e+00,2.60e-01,
814,8.20e+00,-6.00e-02,
815,-8.00e+00,2.72e-01,
816,-8.20e+00,2.68e-01,
817,8.80e+00,-7.20e-02,
818,-8.80e+00,2.64e-01,
819,8.20e+00,-6.80e-02,
820,8.00e+00,2.76e-01,
821,-8.20e+00,-5.60e-02,
822,8.80e+00,2.64e-01,
823,-8.40e+00,-7.60e-02,
824,-7.80e+00,-6.00e-02,
825,8.60e+00,2.92e-01,
826,8.60e+00,2.68e-01,
827,-9.20e+00,-6.80e-02,
828,-7.60e+00,-7.60e-02,
829,8.80e+00,2.80e-01,
830,-8.00e+00,2.76e-01,
831,8.40e+00,-7.20e-02,
832,-8.00e+00,-6.40e-02,
833,9.00e+00,2.72e-01,
