Code/Matlab/Analysis/Control_Methods_Testing/Chebyshev_Filter_Impulse_Data/NewFile2.csv

X,CH1,CH2,Start,Increment,
Sequence,Volt,Volt,-3.920000e-02,1.000000e-04
0,2.40e-01,8.00e-02,
1,8.00e-02,0.00e+00,
2,2.40e-01,0.00e+00,
3,8.00e-02,8.00e-02,
4,2.40e-01,8.00e-02,
5,8.00e-02,0.00e+00,
6,2.40e-01,8.00e-02,
7,8.00e-02,0.00e+00,
8,2.40e-01,0.00e+00,
9,8.00e-02,8.00e-02,
10,2.40e-01,8.00e-02,
11,8.00e-02,0.00e+00,
12,8.00e-02,8.00e-02,
13,2.40e-01,0.00e+00,
14,2.40e-01,8.00e-02,
15,8.00e-02,0.00e+00,
16,2.40e-01,8.00e-02,
17,8.00e-02,0.00e+00,
18,8.00e-02,8.00e-02,
19,2.40e-01,0.00e+00,
20,2.40e-01,0.00e+00,
21,8.00e-02,8.00e-02,
22,2.40e-01,0.00e+00,
23,8.00e-02,8.00e-02,
24,8.00e-02,8.00e-02,
25,2.40e-01,0.00e+00,
26,2.40e-01,8.00e-02,
27,8.00e-02,0.00e+00,
28,8.00e-02,0.00e+00,
29,2.40e-01,8.00e-02,
30,8.00e-02,8.00e-02,
31,2.40e-01,0.00e+00,
32,2.40e-01,8.00e-02,
33,8.00e-02,0.00e+00,
34,8.00e-02,8.00e-02,
35,2.40e-01,0.00e+00,
36,2.40e-01,8.00e-02,
37,8.00e-02,0.00e+00,
38,8.00e-02,8.00e-02,
39,2.40e-01,0.00e+00,
40,2.40e-01,0.00e+00,
41,8.00e-02,8.00e-02,
42,8.00e-02,8.00e-02,
43,2.40e-01,0.00e+00,
44,2.40e-01,8.00e-02,
45,8.00e-02,0.00e+00,
46,2.40e-01,8.00e-02,
47,8.00e-02,0.00e+00,
48,8.00e-02,0.00e+00,
49,2.40e-01,8.00e-02,
50,8.00e-02,8.00e-02,
51,2.40e-01,0.00e+00,
52,2.40e-01,0.00e+00,
53,8.00e-02,8.00e-02,
54,2.40e-01,8.00e-02,
55,8.00e-02,0.00e+00,
56,2.40e-01,8.00e-02,
57,8.00e-02,0.00e+00,
58,2.40e-01,8.00e-02,
59,8.00e-02,0.00e+00,
60,8.00e-02,8.00e-02,
61,2.40e-01,0.00e+00,
62,8.00e-02,8.00e-02,
63,2.40e-01,0.00e+00,
64,8.00e-02,8.00e-02,
65,2.40e-01,0.00e+00,
66,8.00e-02,8.00e-02,
67,2.40e-01,0.00e+00,
68,8.00e-02,8.00e-02,
69,2.40e-01,0.00e+00,
70,8.00e-02,8.00e-02,
71,2.40e-01,0.00e+00,
72,2.40e-01,0.00e+00,
73,8.00e-02,8.00e-02,
74,8.00e-02,0.00e+00,
75,2.40e-01,8.00e-02,
76,2.40e-01,0.00e+00,
77,8.00e-02,8.00e-02,
78,2.40e-01,8.00e-02,
79,8.00e-02,0.00e+00,
80,8.00e-02,0.00e+00,
81,2.40e-01,8.00e-02,
82,8.00e-02,8.00e-02,
83,2.40e-01,0.00e+00,
84,2.40e-01,0.00e+00,
85,8.00e-02,8.00e-02,
86,8.00e-02,8.00e-02,
87,2.40e-01,0.00e+00,
88,8.00e-02,8.00e-02,
89,2.40e-01,0.00e+00,
90,8.00e-02,0.00e+00,
91,2.40e-01,8.00e-02,
92,8.00e-02,8.00e-02,
93,2.40e-01,0.00e+00,
94,8.00e-02,8.00e-02,
95,2.40e-01,0.00e+00,
96,8.00e-02,0.00e+00,
97,2.40e-01,8.00e-02,
98,8.00e-02,8.00e-02,
99,2.40e-01,0.00e+00,
100,2.40e-01,8.00e-02,
101,8.00e-02,0.00e+00,
102,8.00e-02,8.00e-02,
103,2.40e-01,0.00e+00,
104,2.40e-01,8.00e-02,
105,8.00e-02,0.00e+00,
106,8.00e-02,8.00e-02,
107,2.40e-01,0.00e+00,
108,8.00e-02,8.00e-02,
109,2.40e-01,0.00e+00,
110,8.00e-02,8.00e-02,
111,2.40e-01,0.00e+00,
112,2.40e-01,0.00e+00,
113,8.00e-02,8.00e-02,
114,8.00e-02,8.00e-02,
115,2.40e-01,0.00e+00,
116,2.40e-01,0.00e+00,
117,8.00e-02,8.00e-02,
118,2.40e-01,8.00e-02,
119,8.00e-02,0.00e+00,
120,2.40e-01,8.00e-02,
121,8.00e-02,0.00e+00,
122,2.40e-01,8.00e-02,
123,8.00e-02,0.00e+00,
124,8.00e-02,8.00e-02,
125,2.40e-01,0.00e+00,
126,8.00e-02,8.00e-02,
127,2.40e-01,0.00e+00,
128,8.00e-02,0.00e+00,
129,2.40e-01,8.00e-02,
130,2.40e-01,8.00e-02,
131,8.00e-02,0.00e+00,
132,8.00e-02,8.00e-02,
133,2.40e-01,0.00e+00,
134,8.00e-02,0.00e+00,
135,2.40e-01,8.00e-02,
136,8.00e-02,8.00e-02,
137,2.40e-01,0.00e+00,
138,8.00e-02,8.00e-02,
139,2.40e-01,0.00e+00,
140,8.00e-02,0.00e+00,
141,2.40e-01,8.00e-02,
142,2.40e-01,8.00e-02,
143,8.00e-02,0.00e+00,
144,2.40e-01,8.00e-02,
145,8.00e-02,0.00e+00,
146,8.00e-02,0.00e+00,
147,2.40e-01,8.00e-02,
148,8.00e-02,8.00e-02,
149,2.40e-01,0.00e+00,
150,8.00e-02,8.00e-02,
151,2.40e-01,0.00e+00,
152,2.40e-01,8.00e-02,
153,8.00e-02,0.00e+00,
154,2.40e-01,8.00e-02,
155,8.00e-02,0.00e+00,
156,8.00e-02,8.00e-02,
157,2.40e-01,0.00e+00,
158,8.00e-02,8.00e-02,
159,2.40e-01,0.00e+00,
160,8.00e-02,8.00e-02,
161,2.40e-01,0.00e+00,
162,2.40e-01,0.00e+00,
163,8.00e-02,8.00e-02,
164,8.00e-02,0.00e+00,
165,2.40e-01,8.00e-02,
166,2.40e-01,8.00e-02,
167,8.00e-02,0.00e+00,
168,8.00e-02,8.00e-02,
169,2.40e-01,0.00e+00,
170,8.00e-02,8.00e-02,
171,2.40e-01,0.00e+00,
172,2.40e-01,8.00e-02,
173,8.00e-02,0.00e+00,
174,8.00e-02,8.00e-02,
175,2.40e-01,0.00e+00,
176,2.40e-01,8.00e-02,
177,8.00e-02,0.00e+00,
178,8.00e-02,8.00e-02,
179,2.40e-01,0.00e+00,
180,2.40e-01,8.00e-02,
181,8.00e-02,0.00e+00,
182,8.00e-02,8.00e-02,
183,2.40e-01,0.00e+00,
184,2.40e-01,0.00e+00,
185,8.00e-02,8.00e-02,
186,8.00e-02,8.00e-02,
187,2.40e-01,0.00e+00,
188,8.00e-02,8.00e-02,
189,2.40e-01,0.00e+00,
190,8.00e-02,8.00e-02,
191,2.40e-01,0.00e+00,
192,2.40e-01,8.00e-02,
193,8.00e-02,0.00e+00,
194,2.40e-01,8.00e-02,
195,8.00e-02,0.00e+00,
196,8.00e-02,8.00e-02,
197,2.40e-01,0.00e+00,
198,8.00e-02,8.00e-02,
199,2.40e-01,0.00e+00,
200,2.40e-01,8.00e-02,
201,8.00e-02,0.00e+00,
202,2.40e-01,8.00e-02,
203,8.00e-02,0.00e+00,
204,8.00e-02,8.00e-02,
205,2.40e-01,0.00e+00,
206,2.40e-01,8.00e-02,
207,8.00e-02,0.00e+00,
208,2.40e-01,8.00e-02,
209,8.00e-02,0.00e+00,
210,2.40e-01,8.00e-02,
211,8.00e-02,0.00e+00,
212,2.40e-01,0.00e+00,
213,8.00e-02,8.00e-02,
214,2.40e-01,8.00e-02,
215,8.00e-02,0.00e+00,
216,2.40e-01,8.00e-02,
217,8.00e-02,0.00e+00,
218,2.40e-01,8.00e-02,
219,8.00e-02,0.00e+00,
220,8.00e-02,8.00e-02,
221,2.40e-01,0.00e+00,
222,8.00e-02,0.00e+00,
223,2.40e-01,8.00e-02,
224,2.40e-01,8.00e-02,
225,8.00e-02,0.00e+00,
226,2.40e-01,0.00e+00,
227,8.00e-02,8.00e-02,
228,2.40e-01,8.00e-02,
229,8.00e-02,0.00e+00,
230,8.00e-02,8.00e-02,
231,2.40e-01,0.00e+00,
232,8.00e-02,8.00e-02,
233,2.40e-01,0.00e+00,
234,8.00e-02,8.00e-02,
235,2.40e-01,0.00e+00,
236,2.40e-01,8.00e-02,
237,8.00e-02,0.00e+00,
238,8.00e-02,8.00e-02,
239,2.40e-01,0.00e+00,
240,8.00e-02,8.00e-02,
241,2.40e-01,0.00e+00,
242,8.00e-02,8.00e-02,
243,2.40e-01,0.00e+00,
244,2.40e-01,8.00e-02,
245,8.00e-02,0.00e+00,
246,2.40e-01,0.00e+00,
247,8.00e-02,8.00e-02,
248,8.00e-02,8.00e-02,
249,2.40e-01,0.00e+00,
250,8.00e-02,0.00e+00,
251,2.40e-01,8.00e-02,
252,8.00e-02,0.00e+00,
253,2.40e-01,8.00e-02,
254,2.40e-01,8.00e-02,
255,8.00e-02,0.00e+00,
256,8.00e-02,0.00e+00,
257,2.40e-01,8.00e-02,
258,8.00e-02,8.00e-02,
259,2.40e-01,0.00e+00,
260,2.40e-01,0.00e+00,
261,8.00e-02,8.00e-02,
262,2.40e-01,8.00e-02,
263,8.00e-02,0.00e+00,
264,2.40e-01,0.00e+00,
265,8.00e-02,8.00e-02,
266,2.40e-01,0.00e+00,
267,8.00e-02,8.00e-02,
268,2.40e-01,8.00e-02,
269,8.00e-02,0.00e+00,
270,2.40e-01,0.00e+00,
271,8.00e-02,8.00e-02,
272,8.00e-02,8.00e-02,
273,2.40e-01,0.00e+00,
274,2.40e-01,8.00e-02,
275,8.00e-02,0.00e+00,
276,2.40e-01,8.00e-02,
277,8.00e-02,0.00e+00,
278,8.00e-02,0.00e+00,
279,2.40e-01,8.00e-02,
280,8.00e-02,8.00e-02,
281,2.40e-01,0.00e+00,
282,2.40e-01,8.00e-02,
283,8.00e-02,0.00e+00,
284,8.00e-02,8.00e-02,
285,2.40e-01,0.00e+00,
286,8.00e-02,0.00e+00,
287,2.40e-01,8.00e-02,
288,8.00e-02,0.00e+00,
289,2.40e-01,8.00e-02,
290,2.40e-01,0.00e+00,
291,8.00e-02,8.00e-02,
292,2.40e-01,0.00e+00,
293,8.00e-02,8.00e-02,
294,2.40e-01,8.00e-02,
295,8.00e-02,0.00e+00,
296,8.00e-02,0.00e+00,
297,2.40e-01,8.00e-02,
298,2.40e-01,8.00e-02,
299,8.00e-02,0.00e+00,
300,8.00e-02,8.00e-02,
301,2.40e-01,0.00e+00,
302,8.00e-02,0.00e+00,
303,2.40e-01,8.00e-02,
304,2.40e-01,0.00e+00,
305,8.00e-02,8.00e-02,
306,2.40e-01,0.00e+00,
307,8.00e-02,8.00e-02,
308,8.00e-02,8.00e-02,
309,2.40e-01,0.00e+00,
310,2.40e-01,8.00e-02,
311,8.00e-02,0.00e+00,
312,2.40e-01,8.00e-02,
313,8.00e-02,0.00e+00,
314,8.00e-02,8.00e-02,
315,2.40e-01,0.00e+00,
316,8.00e-02,8.00e-02,
317,2.40e-01,0.00e+00,
318,2.40e-01,8.00e-02,
319,8.00e-02,0.00e+00,
320,8.00e-02,8.00e-02,
321,2.40e-01,0.00e+00,
322,2.40e-01,8.00e-02,
323,8.00e-02,0.00e+00,
324,2.40e-01,8.00e-02,
325,8.00e-02,0.00e+00,
326,2.40e-01,8.00e-02,
327,8.00e-02,0.00e+00,
328,2.40e-01,0.00e+00,
329,8.00e-02,8.00e-02,
330,2.40e-01,0.00e+00,
331,8.00e-02,8.00e-02,
332,2.40e-01,0.00e+00,
333,8.00e-02,8.00e-02,
334,2.40e-01,8.00e-02,
335,8.00e-02,0.00e+00,
336,2.40e-01,8.00e-02,
337,8.00e-02,0.00e+00,
338,8.00e-02,8.00e-02,
339,2.40e-01,0.00e+00,
340,8.00e-02,8.00e-02,
341,2.40e-01,0.00e+00,
342,2.40e-01,8.00e-02,
343,8.00e-02,0.00e+00,
344,8.00e-02,8.00e-02,
345,2.40e-01,0.00e+00,
346,2.40e-01,8.00e-02,
347,8.00e-02,0.00e+00,
348,8.00e-02,0.00e+00,
349,2.40e-01,8.00e-02,
350,2.40e-01,0.00e+00,
351,8.00e-02,8.00e-02,
352,8.00e-02,8.00e-02,
353,2.40e-01,0.00e+00,
354,8.00e-02,0.00e+00,
355,2.40e-01,8.00e-02,
356,2.40e-01,0.00e+00,
357,8.00e-02,8.00e-02,
358,8.00e-02,0.00e+00,
359,2.40e-01,8.00e-02,
360,8.00e-02,8.00e-02,
361,2.40e-01,0.00e+00,
362,2.40e-01,8.00e-02,
363,8.00e-02,0.00e+00,
364,2.40e-01,0.00e+00,
365,8.00e-02,8.00e-02,
366,8.00e-02,8.00e-02,
367,2.40e-01,0.00e+00,
368,8.00e-02,8.00e-02,
369,2.40e-01,0.00e+00,
370,2.40e-01,8.00e-02,
371,8.00e-02,0.00e+00,
372,8.00e-02,8.00e-02,
373,2.40e-01,0.00e+00,
374,8.00e-02,8.00e-02,
375,2.40e-01,0.00e+00,
376,8.00e-02,8.00e-02,
377,2.40e-01,0.00e+00,
378,2.40e-01,8.00e-02,
379,8.00e-02,0.00e+00,
380,8.00e-02,8.00e-02,
381,2.40e-01,0.00e+00,
382,2.40e-01,8.00e-02,
383,8.00e-02,0.00e+00,
384,8.00e-02,8.00e-02,
385,2.40e-01,0.00e+00,
386,2.40e-01,8.00e-02,
387,8.00e-02,0.00e+00,
388,2.40e-01,8.00e-02,
389,8.00e-02,0.00e+00,
390,8.00e-02,0.00e+00,
391,2.40e-01,8.00e-02,
392,2.40e-01,8.00e-02,
393,8.00e-02,0.00e+00,
394,2.40e-01,0.00e+00,
395,8.00e-02,8.00e-02,
396,2.40e-01,8.00e-02,
397,8.00e-02,0.00e+00,
398,2.40e-01,0.00e+00,
399,8.00e-02,8.00e-02,
400,8.00e-02,8.00e-02,
401,2.40e-01,0.00e+00,
402,2.40e-01,8.00e-02,
403,8.00e-02,0.00e+00,
404,2.40e-01,8.00e-02,
405,8.00e-02,0.00e+00,
406,8.00e-02,8.00e-02,
407,2.40e-01,0.00e+00,
408,8.00e-02,0.00e+00,
409,2.40e-01,8.00e-02,
410,8.00e-02,0.00e+00,
411,2.40e-01,8.00e-02,
412,8.00e-02,0.00e+00,
413,2.40e-01,8.00e-02,
414,8.00e-02,8.00e-02,
415,2.40e-01,0.00e+00,
416,8.00e-02,8.00e-02,
417,2.40e-01,0.00e+00,
418,2.40e-01,8.00e-02,
419,8.00e-02,0.00e+00,
420,2.40e-01,8.00e-02,
421,8.00e-02,0.00e+00,
422,8.00e-02,0.00e+00,
423,2.40e-01,8.00e-02,
424,8.00e-02,8.00e-02,
425,2.40e-01,0.00e+00,
426,2.40e-01,0.00e+00,
427,8.00e-02,8.00e-02,
428,8.00e-02,8.00e-02,
429,2.40e-01,0.00e+00,
430,8.00e-02,8.00e-02,
431,2.40e-01,0.00e+00,
432,8.00e-02,8.00e-02,
433,2.40e-01,0.00e+00,
434,8.00e-02,8.00e-02,
435,2.40e-01,0.00e+00,
436,2.40e-01,8.00e-02,
437,8.00e-02,0.00e+00,
438,8.00e-02,8.00e-02,
439,2.40e-01,0.00e+00,
440,2.40e-01,8.00e-02,
441,8.00e-02,0.00e+00,
442,8.00e-02,8.00e-02,
443,2.40e-01,0.00e+00,
444,8.00e-02,8.00e-02,
445,2.40e-01,0.00e+00,
446,8.00e-02,8.00e-02,
447,2.40e-01,0.00e+00,
448,8.00e-02,0.00e+00,
449,2.40e-01,8.00e-02,
450,8.00e-02,8.00e-02,
451,2.40e-01,0.00e+00,
452,2.40e-01,0.00e+00,
453,8.00e-02,8.00e-02,
454,8.00e-02,8.00e-02,
455,2.40e-01,0.00e+00,
456,8.00e-02,8.00e-02,
457,2.40e-01,0.00e+00,
458,2.40e-01,0.00e+00,
459,8.00e-02,8.00e-02,
460,8.00e-02,8.00e-02,
461,2.40e-01,0.00e+00,
462,8.00e-02,8.00e-02,
463,2.40e-01,0.00e+00,
464,8.00e-02,0.00e+00,
465,2.40e-01,8.00e-02,
466,8.00e-02,8.00e-02,
467,2.40e-01,0.00e+00,
468,8.00e-02,8.00e-02,
469,2.40e-01,0.00e+00,
470,8.00e-02,8.00e-02,
471,2.40e-01,0.00e+00,
472,8.00e-02,8.00e-02,
473,2.40e-01,0.00e+00,
474,8.00e-02,8.00e-02,
475,2.40e-01,0.00e+00,
476,8.00e-02,8.00e-02,
477,5.04e+00,0.00e+00,
478,4.96e+00,8.00e-02,
479,5.04e+00,0.00e+00,
480,5.04e+00,8.00e-02,
481,4.96e+00,0.00e+00,
482,5.04e+00,0.00e+00,
483,4.96e+00,8.00e-02,
484,5.04e+00,8.00e-02,
485,4.96e+00,0.00e+00,
486,5.04e+00,8.00e-02,
487,4.96e+00,0.00e+00,
488,5.04e+00,8.00e-02,
489,4.96e+00,0.00e+00,
490,4.96e+00,8.00e-02,
491,5.12e+00,0.00e+00,
492,4.96e+00,8.00e-02,
493,5.12e+00,0.00e+00,
494,4.96e+00,8.00e-02,
495,5.12e+00,0.00e+00,
496,4.96e+00,8.00e-02,
497,5.12e+00,0.00e+00,
498,5.12e+00,8.00e-02,
499,4.96e+00,0.00e+00,
500,4.96e+00,0.00e+00,
501,5.12e+00,8.00e-02,
502,5.12e+00,0.00e+00,
503,4.96e+00,1.60e-01,
504,4.96e+00,0.00e+00,
505,5.12e+00,1.60e-01,
506,5.12e+00,0.00e+00,
507,4.96e+00,1.60e-01,
508,5.12e+00,1.60e-01,
509,4.96e+00,8.00e-02,
510,5.12e+00,8.00e-02,
511,4.96e+00,2.40e-01,
512,4.96e+00,8.00e-02,
513,5.12e+00,2.40e-01,
514,5.12e+00,1.60e-01,
515,4.96e+00,3.20e-01,
516,4.96e+00,2.40e-01,
517,5.12e+00,4.80e-01,
518,4.96e+00,2.40e-01,
519,5.12e+00,4.80e-01,
520,5.12e+00,4.00e-01,
521,4.96e+00,5.60e-01,
522,5.12e+00,4.80e-01,
523,4.96e+00,6.40e-01,
524,5.12e+00,5.60e-01,
525,4.96e+00,8.00e-01,
526,4.96e+00,6.40e-01,
527,5.12e+00,8.80e-01,
528,5.12e+00,7.20e-01,
529,4.96e+00,9.60e-01,
530,4.96e+00,8.80e-01,
531,5.12e+00,1.12e+00,
532,4.96e+00,9.60e-01,
533,5.12e+00,1.20e+00,
534,4.96e+00,1.12e+00,
535,5.12e+00,1.36e+00,
536,4.96e+00,1.28e+00,
537,5.04e+00,1.60e+00,
538,5.04e+00,1.44e+00,
539,4.96e+00,1.76e+00,
540,5.04e+00,1.60e+00,
541,4.96e+00,1.92e+00,
542,5.04e+00,1.76e+00,
543,4.96e+00,2.08e+00,
544,4.96e+00,1.92e+00,
545,5.04e+00,2.24e+00,
546,5.04e+00,2.08e+00,
547,4.96e+00,2.40e+00,
548,5.04e+00,2.24e+00,
549,4.96e+00,2.56e+00,
550,5.04e+00,2.48e+00,
551,4.96e+00,2.80e+00,
552,5.04e+00,2.72e+00,
553,4.96e+00,2.96e+00,
554,5.04e+00,2.88e+00,
555,4.96e+00,3.12e+00,
556,4.96e+00,3.04e+00,
557,5.04e+00,3.28e+00,
558,4.96e+00,3.20e+00,
559,5.04e+00,3.44e+00,
560,5.04e+00,3.36e+00,
561,4.96e+00,3.60e+00,
562,4.96e+00,3.60e+00,
563,5.04e+00,3.84e+00,
564,5.04e+00,3.76e+00,
565,4.96e+00,4.00e+00,
566,4.96e+00,3.92e+00,
567,5.04e+00,4.16e+00,
568,4.96e+00,4.00e+00,
569,5.04e+00,4.24e+00,
570,5.04e+00,4.16e+00,
571,4.96e+00,4.40e+00,
572,5.04e+00,4.32e+00,
573,2.40e-01,4.48e+00,
574,2.40e-01,4.40e+00,
575,8.00e-02,4.64e+00,
576,8.00e-02,4.48e+00,
577,2.40e-01,4.80e+00,
578,2.40e-01,4.64e+00,
579,8.00e-02,4.88e+00,
580,8.00e-02,4.72e+00,
581,2.40e-01,4.96e+00,
582,2.40e-01,4.80e+00,
583,8.00e-02,5.04e+00,
584,8.00e-02,4.88e+00,
585,2.40e-01,5.04e+00,
586,8.00e-02,4.96e+00,
587,2.40e-01,5.12e+00,
588,2.40e-01,4.96e+00,
589,8.00e-02,5.12e+00,
590,8.00e-02,5.04e+00,
591,2.40e-01,5.20e+00,
592,8.00e-02,5.04e+00,
593,2.40e-01,5.20e+00,
594,8.00e-02,5.04e+00,
595,2.40e-01,5.12e+00,
596,8.00e-02,5.04e+00,
597,2.40e-01,5.12e+00,
598,1.60e-01,5.04e+00,
599,8.00e-02,5.20e+00,
600,8.00e-02,5.04e+00,
601,1.60e-01,5.20e+00,
602,1.60e-01,5.12e+00,
603,8.00e-02,4.96e+00,
604,8.00e-02,4.96e+00,
605,1.60e-01,5.12e+00,
606,1.60e-01,5.04e+00,
607,8.00e-02,4.88e+00,
608,8.00e-02,5.04e+00,
609,2.40e-01,4.80e+00,
610,8.00e-02,4.96e+00,
611,1.60e-01,4.72e+00,
612,8.00e-02,4.88e+00,
613,1.60e-01,4.64e+00,
614,1.60e-01,4.80e+00,
615,8.00e-02,4.48e+00,
616,8.00e-02,4.64e+00,
617,2.40e-01,4.40e+00,
618,8.00e-02,4.56e+00,
619,2.40e-01,4.32e+00,
620,8.00e-02,4.40e+00,
621,2.40e-01,4.16e+00,
622,8.00e-02,4.32e+00,
623,2.40e-01,4.08e+00,
624,8.00e-02,4.16e+00,
625,2.40e-01,3.92e+00,
626,8.00e-02,4.08e+00,
627,2.40e-01,3.76e+00,
628,8.00e-02,3.92e+00,
629,2.40e-01,3.68e+00,
630,8.00e-02,3.76e+00,
631,2.40e-01,3.44e+00,
632,8.00e-02,3.52e+00,
633,2.40e-01,3.28e+00,
634,8.00e-02,3.36e+00,
635,2.40e-01,3.12e+00,
636,8.00e-02,3.20e+00,
637,2.40e-01,2.96e+00,
638,2.40e-01,3.04e+00,
639,8.00e-02,2.80e+00,
640,2.40e-01,2.88e+00,
641,8.00e-02,2.64e+00,
642,2.40e-01,2.72e+00,
643,8.00e-02,2.40e+00,
644,8.00e-02,2.48e+00,
645,2.40e-01,2.16e+00,
646,2.40e-01,2.32e+00,
647,8.00e-02,2.00e+00,
648,8.00e-02,2.16e+00,
649,2.40e-01,1.84e+00,
650,8.00e-02,2.00e+00,
651,2.40e-01,1.68e+00,
652,2.40e-01,1.76e+00,
653,8.00e-02,1.52e+00,
654,8.00e-02,1.60e+00,
655,2.40e-01,1.28e+00,
656,8.00e-02,1.36e+00,
657,2.40e-01,1.12e+00,
658,8.00e-02,1.20e+00,
659,2.40e-01,9.60e-01,
660,8.00e-02,1.12e+00,
661,2.40e-01,8.00e-01,
662,8.00e-02,9.60e-01,
663,2.40e-01,7.20e-01,
664,8.00e-02,8.00e-01,
665,2.40e-01,5.60e-01,
666,2.40e-01,6.40e-01,
667,8.00e-02,4.80e-01,
668,8.00e-02,5.60e-01,
669,2.40e-01,3.20e-01,
670,8.00e-02,4.00e-01,
671,2.40e-01,1.60e-01,
672,8.00e-02,2.40e-01,
673,2.40e-01,8.00e-02,
674,2.40e-01,1.60e-01,
675,8.00e-02,0.00e+00,
676,2.40e-01,-8.00e-02,
677,8.00e-02,8.00e-02,
678,8.00e-02,0.00e+00,
679,2.40e-01,-1.60e-01,
680,8.00e-02,-8.00e-02,
681,2.40e-01,-2.40e-01,
682,8.00e-02,-8.00e-02,
683,2.40e-01,-2.40e-01,
684,8.00e-02,-1.60e-01,
685,2.40e-01,-3.20e-01,
686,8.00e-02,-3.20e-01,
687,2.40e-01,-1.60e-01,
688,8.00e-02,-3.20e-01,
689,2.40e-01,-2.40e-01,
690,2.40e-01,-3.20e-01,
691,8.00e-02,-2.40e-01,
692,2.40e-01,-3.20e-01,
693,8.00e-02,-2.40e-01,
694,2.40e-01,-3.20e-01,
695,8.00e-02,-1.60e-01,
696,2.40e-01,-3.20e-01,
697,8.00e-02,-1.60e-01,
698,8.00e-02,-3.20e-01,
699,2.40e-01,-1.60e-01,
700,2.40e-01,-2.40e-01,
701,8.00e-02,-8.00e-02,
702,2.40e-01,-2.40e-01,
703,8.00e-02,-8.00e-02,
704,8.00e-02,-1.60e-01,
705,2.40e-01,0.00e+00,
706,2.40e-01,0.00e+00,
707,8.00e-02,-1.60e-01,
708,8.00e-02,-8.00e-02,
709,2.40e-01,8.00e-02,
710,8.00e-02,-8.00e-02,
711,2.40e-01,8.00e-02,
712,2.40e-01,0.00e+00,
713,8.00e-02,1.60e-01,
714,2.40e-01,8.00e-02,
715,8.00e-02,2.40e-01,
716,8.00e-02,8.00e-02,
717,2.40e-01,2.40e-01,
718,8.00e-02,1.60e-01,
719,2.40e-01,3.20e-01,
720,2.40e-01,3.20e-01,
721,8.00e-02,1.60e-01,
722,2.40e-01,2.40e-01,
723,8.00e-02,4.00e-01,
724,2.40e-01,4.80e-01,
725,8.00e-02,2.40e-01,
726,2.40e-01,4.00e-01,
727,8.00e-02,4.80e-01,
728,8.00e-02,4.00e-01,
729,2.40e-01,4.80e-01,
730,2.40e-01,4.00e-01,
731,8.00e-02,5.60e-01,
732,8.00e-02,4.00e-01,
733,2.40e-01,5.60e-01,
734,2.40e-01,4.00e-01,
735,8.00e-02,5.60e-01,
736,8.00e-02,4.80e-01,
737,2.40e-01,5.60e-01,
738,8.00e-02,4.80e-01,
739,2.40e-01,5.60e-01,
740,8.00e-02,5.60e-01,
741,2.40e-01,4.00e-01,
742,8.00e-02,4.00e-01,
743,2.40e-01,5.60e-01,
744,8.00e-02,4.00e-01,
745,2.40e-01,5.60e-01,
746,8.00e-02,5.60e-01,
747,2.40e-01,4.00e-01,
748,2.40e-01,4.00e-01,
749,8.00e-02,4.80e-01,
750,8.00e-02,4.00e-01,
751,2.40e-01,4.80e-01,
752,2.40e-01,4.80e-01,
753,8.00e-02,2.40e-01,
754,2.40e-01,3.20e-01,
755,8.00e-02,4.80e-01,
756,2.40e-01,3.20e-01,
757,8.00e-02,2.40e-01,
758,8.00e-02,3.20e-01,
759,2.40e-01,1.60e-01,
760,2.40e-01,3.20e-01,
761,8.00e-02,1.60e-01,
762,2.40e-01,1.60e-01,
763,8.00e-02,2.40e-01,
764,8.00e-02,2.40e-01,
765,2.40e-01,8.00e-02,
766,8.00e-02,2.40e-01,
767,2.40e-01,8.00e-02,
768,2.40e-01,2.40e-01,
769,8.00e-02,8.00e-02,
770,8.00e-02,1.60e-01,
771,2.40e-01,8.00e-02,
772,8.00e-02,1.60e-01,
773,2.40e-01,0.00e+00,
774,2.40e-01,1.60e-01,
775,8.00e-02,0.00e+00,
776,2.40e-01,8.00e-02,
777,8.00e-02,0.00e+00,
778,8.00e-02,0.00e+00,
779,2.40e-01,8.00e-02,
780,8.00e-02,0.00e+00,
781,2.40e-01,8.00e-02,
782,8.00e-02,8.00e-02,
783,2.40e-01,-8.00e-02,
784,8.00e-02,-8.00e-02,
785,2.40e-01,8.00e-02,
786,2.40e-01,-8.00e-02,
787,8.00e-02,8.00e-02,
788,2.40e-01,-8.00e-02,
789,8.00e-02,8.00e-02,
790,8.00e-02,-8.00e-02,
791,2.40e-01,8.00e-02,
792,8.00e-02,-8.00e-02,
793,2.40e-01,8.00e-02,
794,2.40e-01,-8.00e-02,
795,8.00e-02,8.00e-02,
796,2.40e-01,-8.00e-02,
797,8.00e-02,8.00e-02,
798,8.00e-02,-8.00e-02,
799,2.40e-01,8.00e-02,
800,2.40e-01,-8.00e-02,
801,8.00e-02,8.00e-02,
802,8.00e-02,-8.00e-02,
803,2.40e-01,8.00e-02,
804,8.00e-02,8.00e-02,
805,2.40e-01,-8.00e-02,
806,8.00e-02,-8.00e-02,
807,2.40e-01,8.00e-02,
808,2.40e-01,8.00e-02,
809,8.00e-02,-8.00e-02,
810,8.00e-02,-8.00e-02,
811,2.40e-01,8.00e-02,
812,8.00e-02,-8.00e-02,
813,2.40e-01,8.00e-02,
814,2.40e-01,8.00e-02,
815,8.00e-02,-8.00e-02,
816,8.00e-02,8.00e-02,
817,2.40e-01,-8.00e-02,
818,2.40e-01,-8.00e-02,
819,8.00e-02,8.00e-02,
820,2.40e-01,8.00e-02,
821,8.00e-02,0.00e+00,
822,2.40e-01,8.00e-02,
823,8.00e-02,0.00e+00,
824,2.40e-01,0.00e+00,
825,8.00e-02,8.00e-02,
826,8.00e-02,8.00e-02,
827,2.40e-01,0.00e+00,
828,8.00e-02,8.00e-02,
829,2.40e-01,0.00e+00,
830,8.00e-02,8.00e-02,
831,2.40e-01,0.00e+00,
832,8.00e-02,8.00e-02,
833,2.40e-01,0.00e+00,
834,2.40e-01,8.00e-02,
835,8.00e-02,0.00e+00,
836,2.40e-01,8.00e-02,
837,8.00e-02,0.00e+00,
838,2.40e-01,8.00e-02,
839,8.00e-02,0.00e+00,
840,8.00e-02,8.00e-02,
841,2.40e-01,0.00e+00,
842,8.00e-02,8.00e-02,
843,2.40e-01,0.00e+00,
844,8.00e-02,8.00e-02,
845,2.40e-01,0.00e+00,
846,2.40e-01,0.00e+00,
847,8.00e-02,8.00e-02,
848,2.40e-01,0.00e+00,
849,8.00e-02,8.00e-02,
850,8.00e-02,8.00e-02,
851,2.40e-01,0.00e+00,
852,8.00e-02,0.00e+00,
853,2.40e-01,8.00e-02,
854,2.40e-01,8.00e-02,
855,8.00e-02,0.00e+00,
856,2.40e-01,0.00e+00,
857,8.00e-02,8.00e-02,
858,8.00e-02,8.00e-02,
859,2.40e-01,0.00e+00,
860,8.00e-02,8.00e-02,
861,2.40e-01,0.00e+00,
862,8.00e-02,8.00e-02,
863,2.40e-01,0.00e+00,
864,8.00e-02,8.00e-02,
865,2.40e-01,0.00e+00,
866,8.00e-02,8.00e-02,
867,2.40e-01,0.00e+00,
868,2.40e-01,8.00e-02,
