Code/Open_Loop_Bode_Data/Open_Loop_Frequency_Response_Signals_1/OLBD24.csv

X,CH3,CH4,Start,Increment,
Sequence,Volt,Volt,-6.980000e-01,2.000000e-03
0,8.00e-01,3.00e+00,
1,6.00e-01,3.20e+00,
2,6.80e-01,3.20e+00,
3,4.80e-01,2.76e+00,
4,5.60e-01,2.72e+00,
5,3.60e-01,2.12e+00,
6,4.40e-01,2.12e+00,
7,2.40e-01,1.68e+00,
8,3.20e-01,1.72e+00,
9,1.60e-01,1.36e+00,
10,2.80e-01,1.44e+00,
11,1.20e-01,1.20e+00,
12,1.20e-01,1.20e+00,
13,2.00e-01,2.36e+00,
14,1.20e-01,2.36e+00,
15,2.00e-01,2.80e+00,
16,2.00e-01,2.76e+00,
17,1.20e-01,2.96e+00,
18,1.20e-01,2.92e+00,
19,2.80e-01,2.08e+00,
20,1.60e-01,2.12e+00,
21,3.20e-01,1.64e+00,
22,2.00e-01,1.64e+00,
23,4.00e-01,1.40e+00,
24,3.20e-01,1.36e+00,
25,5.20e-01,1.16e+00,
26,4.00e-01,1.24e+00,
27,6.00e-01,9.20e-01,
28,5.20e-01,8.80e-01,
29,7.60e-01,1.92e+00,
30,6.40e-01,1.84e+00,
31,9.20e-01,2.36e+00,
32,8.40e-01,2.40e+00,
33,1.08e+00,2.72e+00,
34,1.00e+00,2.68e+00,
35,1.28e+00,2.84e+00,
36,1.20e+00,2.80e+00,
37,1.44e+00,1.88e+00,
38,1.36e+00,1.92e+00,
39,1.68e+00,1.44e+00,
40,1.60e+00,1.48e+00,
41,1.88e+00,1.20e+00,
42,1.84e+00,1.24e+00,
43,2.08e+00,9.60e-01,
44,2.00e+00,1.04e+00,
45,2.36e+00,8.80e-01,
46,2.28e+00,1.12e+00,
47,2.56e+00,2.04e+00,
48,2.52e+00,2.04e+00,
49,2.84e+00,2.52e+00,
50,2.76e+00,2.52e+00,
51,3.08e+00,2.84e+00,
52,2.96e+00,2.76e+00,
53,3.24e+00,2.96e+00,
54,3.16e+00,2.96e+00,
55,3.48e+00,2.24e+00,
56,3.40e+00,2.20e+00,
57,3.64e+00,1.68e+00,
58,3.64e+00,1.72e+00,
59,3.88e+00,1.36e+00,
60,3.80e+00,1.40e+00,
61,4.08e+00,1.16e+00,
62,4.00e+00,1.08e+00,
63,4.24e+00,2.20e+00,
64,4.16e+00,2.08e+00,
65,4.36e+00,2.60e+00,
66,4.28e+00,2.56e+00,
67,4.56e+00,2.84e+00,
68,4.48e+00,2.84e+00,
69,4.68e+00,3.04e+00,
70,4.60e+00,3.00e+00,
71,4.72e+00,3.08e+00,
72,4.64e+00,3.12e+00,
73,4.88e+00,2.76e+00,
74,4.76e+00,2.72e+00,
75,4.92e+00,2.00e+00,
76,4.92e+00,2.00e+00,
77,4.84e+00,1.56e+00,
78,4.84e+00,1.44e+00,
79,4.96e+00,2.44e+00,
80,4.96e+00,2.40e+00,
81,4.84e+00,2.80e+00,
82,4.92e+00,2.76e+00,
83,4.84e+00,2.96e+00,
84,4.92e+00,2.96e+00,
85,4.72e+00,3.16e+00,
86,4.84e+00,3.04e+00,
87,4.72e+00,3.20e+00,
88,4.80e+00,3.08e+00,
89,4.60e+00,3.20e+00,
90,4.68e+00,3.20e+00,
91,4.48e+00,2.40e+00,
92,4.56e+00,2.40e+00,
93,4.36e+00,2.00e+00,
94,4.44e+00,1.76e+00,
95,4.24e+00,2.16e+00,
96,4.28e+00,2.36e+00,
97,4.04e+00,2.84e+00,
98,4.12e+00,2.84e+00,
99,3.88e+00,3.08e+00,
100,3.96e+00,3.00e+00,
101,3.64e+00,3.20e+00,
102,3.72e+00,3.12e+00,
103,3.48e+00,3.28e+00,
104,3.56e+00,3.28e+00,
105,3.28e+00,3.16e+00,
106,3.28e+00,3.28e+00,
107,3.04e+00,2.60e+00,
108,3.12e+00,2.56e+00,
109,2.80e+00,2.12e+00,
110,2.88e+00,2.08e+00,
111,2.56e+00,1.72e+00,
112,2.64e+00,1.68e+00,
113,2.32e+00,2.72e+00,
114,2.40e+00,2.64e+00,
115,2.16e+00,3.00e+00,
116,2.16e+00,2.92e+00,
117,1.92e+00,3.16e+00,
118,1.92e+00,3.12e+00,
119,1.68e+00,3.28e+00,
120,1.76e+00,3.16e+00,
121,1.44e+00,3.28e+00,
122,1.52e+00,3.20e+00,
123,1.20e+00,2.36e+00,
124,1.32e+00,2.44e+00,
125,1.08e+00,1.92e+00,
126,1.16e+00,1.96e+00,
127,8.80e-01,1.56e+00,
128,9.60e-01,1.44e+00,
129,7.20e-01,2.00e+00,
130,8.00e-01,2.16e+00,
131,6.00e-01,2.80e+00,
132,6.80e-01,2.68e+00,
133,4.80e-01,2.96e+00,
134,5.20e-01,2.96e+00,
135,3.60e-01,3.16e+00,
136,4.40e-01,3.16e+00,
137,2.40e-01,2.44e+00,
138,3.20e-01,2.44e+00,
139,1.60e-01,1.92e+00,
140,2.80e-01,2.00e+00,
141,1.20e-01,1.56e+00,
142,1.20e-01,1.64e+00,
143,2.00e-01,1.32e+00,
144,2.00e-01,1.36e+00,
145,1.20e-01,1.12e+00,
146,2.00e-01,1.12e+00,
147,1.20e-01,2.20e+00,
148,1.20e-01,2.12e+00,
149,2.80e-01,2.64e+00,
150,1.60e-01,2.64e+00,
151,3.20e-01,2.92e+00,
152,2.40e-01,2.96e+00,
153,3.60e-01,2.20e+00,
154,3.60e-01,2.20e+00,
155,5.20e-01,1.76e+00,
156,4.00e-01,1.72e+00,
157,6.00e-01,1.40e+00,
158,6.00e-01,1.44e+00,
159,8.00e-01,1.20e+00,
160,7.20e-01,1.24e+00,
161,9.20e-01,1.00e+00,
162,9.60e-01,8.80e-01,
163,1.12e+00,1.64e+00,
164,1.00e+00,1.64e+00,
165,1.28e+00,2.24e+00,
166,1.24e+00,2.28e+00,
167,1.52e+00,2.64e+00,
168,1.44e+00,2.64e+00,
169,1.68e+00,2.92e+00,
170,1.68e+00,2.84e+00,
171,1.92e+00,2.04e+00,
172,1.84e+00,2.00e+00,
173,2.16e+00,1.56e+00,
174,2.12e+00,1.64e+00,
175,2.40e+00,1.28e+00,
176,2.32e+00,1.28e+00,
177,2.60e+00,1.08e+00,
178,2.56e+00,1.12e+00,
179,2.84e+00,8.80e-01,
180,2.80e+00,8.80e-01,
181,3.08e+00,1.96e+00,
182,3.00e+00,1.92e+00,
183,3.32e+00,2.48e+00,
184,3.20e+00,2.44e+00,
185,3.48e+00,2.80e+00,
186,3.44e+00,2.76e+00,
187,3.72e+00,2.96e+00,
188,3.64e+00,3.04e+00,
189,3.92e+00,2.88e+00,
190,3.80e+00,2.88e+00,
191,4.08e+00,2.00e+00,
192,4.00e+00,2.00e+00,
193,4.24e+00,1.56e+00,
194,4.20e+00,1.60e+00,
195,4.44e+00,1.24e+00,
196,4.36e+00,1.20e+00,
197,4.56e+00,2.24e+00,
198,4.48e+00,2.16e+00,
199,4.68e+00,2.60e+00,
200,4.60e+00,2.56e+00,
201,4.80e+00,2.88e+00,
202,4.64e+00,2.84e+00,
203,4.84e+00,3.04e+00,
204,4.72e+00,3.00e+00,
205,4.92e+00,3.16e+00,
206,4.92e+00,3.16e+00,
207,4.84e+00,3.04e+00,
208,4.84e+00,3.08e+00,
209,4.96e+00,2.20e+00,
210,4.96e+00,2.24e+00,
211,4.84e+00,1.76e+00,
212,4.92e+00,1.60e+00,
213,4.80e+00,2.36e+00,
214,4.76e+00,2.40e+00,
215,4.92e+00,2.80e+00,
216,4.84e+00,2.76e+00,
217,4.72e+00,3.00e+00,
218,4.80e+00,2.92e+00,
219,4.60e+00,3.16e+00,
220,4.68e+00,3.12e+00,
221,4.48e+00,3.24e+00,
222,4.56e+00,3.28e+00,
223,4.36e+00,3.16e+00,
224,4.44e+00,3.24e+00,
225,4.16e+00,2.68e+00,
226,4.24e+00,2.64e+00,
227,4.00e+00,2.12e+00,
228,4.08e+00,2.12e+00,
229,3.84e+00,1.76e+00,
230,3.88e+00,1.80e+00,
231,3.64e+00,2.80e+00,
232,3.72e+00,2.76e+00,
233,3.44e+00,3.04e+00,
234,3.48e+00,3.00e+00,
235,3.20e+00,3.20e+00,
236,3.32e+00,3.12e+00,
237,2.96e+00,3.28e+00,
238,3.08e+00,3.16e+00,
239,2.76e+00,3.32e+00,
240,2.80e+00,3.28e+00,
241,2.56e+00,2.72e+00,
242,2.60e+00,2.64e+00,
243,2.32e+00,2.16e+00,
244,2.36e+00,2.20e+00,
245,2.08e+00,1.76e+00,
246,2.16e+00,1.64e+00,
247,1.84e+00,2.72e+00,
248,1.92e+00,2.64e+00,
249,1.64e+00,2.96e+00,
250,1.68e+00,2.92e+00,
251,1.44e+00,3.16e+00,
252,1.52e+00,3.08e+00,
253,1.24e+00,3.20e+00,
254,1.28e+00,3.28e+00,
255,1.04e+00,3.16e+00,
256,1.08e+00,3.20e+00,
257,8.80e-01,2.36e+00,
258,9.20e-01,2.36e+00,
259,7.20e-01,1.84e+00,
260,7.60e-01,1.88e+00,
261,5.20e-01,1.56e+00,
262,6.00e-01,1.60e+00,
263,4.00e-01,1.32e+00,
264,5.20e-01,1.40e+00,
265,2.80e-01,2.52e+00,
266,4.00e-01,2.52e+00,
267,2.40e-01,2.88e+00,
268,3.20e-01,2.84e+00,
269,1.60e-01,3.08e+00,
270,2.40e-01,3.08e+00,
271,1.20e-01,2.48e+00,
272,1.20e-01,2.36e+00,
273,2.00e-01,1.92e+00,
274,2.00e-01,1.96e+00,
275,1.20e-01,1.56e+00,
276,2.00e-01,1.60e+00,
277,4.00e-02,1.32e+00,
278,4.00e-02,1.36e+00,
279,2.40e-01,1.08e+00,
280,1.60e-01,1.08e+00,
281,3.20e-01,2.12e+00,
282,2.40e-01,2.04e+00,
283,4.40e-01,2.52e+00,
284,3.60e-01,2.52e+00,
285,5.20e-01,2.84e+00,
286,4.80e-01,2.84e+00,
287,6.80e-01,2.32e+00,
288,6.00e-01,2.24e+00,
289,8.00e-01,1.76e+00,
290,7.20e-01,1.72e+00,
291,9.60e-01,1.36e+00,
292,8.80e-01,1.48e+00,
293,1.16e+00,1.16e+00,
294,1.08e+00,1.24e+00,
295,1.32e+00,9.60e-01,
296,1.24e+00,1.04e+00,
297,1.52e+00,8.40e-01,
298,1.48e+00,1.16e+00,
299,1.76e+00,2.12e+00,
300,1.68e+00,2.04e+00,
301,2.00e+00,2.56e+00,
302,1.92e+00,2.52e+00,
303,2.24e+00,2.84e+00,
304,2.12e+00,2.92e+00,
305,2.40e+00,2.72e+00,
306,2.40e+00,2.64e+00,
307,2.64e+00,1.80e+00,
308,2.56e+00,1.88e+00,
309,2.88e+00,1.44e+00,
310,2.80e+00,1.44e+00,
311,3.12e+00,1.20e+00,
312,3.04e+00,1.24e+00,
313,3.36e+00,9.60e-01,
314,3.32e+00,9.60e-01,
315,3.56e+00,2.00e+00,
316,3.40e+00,1.96e+00,
317,3.80e+00,2.48e+00,
318,3.72e+00,2.44e+00,
319,3.96e+00,2.80e+00,
320,3.88e+00,2.76e+00,
321,4.16e+00,2.96e+00,
322,4.04e+00,2.96e+00,
323,4.32e+00,3.08e+00,
324,4.24e+00,3.04e+00,
325,4.44e+00,2.24e+00,
326,4.36e+00,2.24e+00,
327,4.56e+00,1.76e+00,
328,4.52e+00,1.84e+00,
329,4.68e+00,1.44e+00,
330,4.60e+00,1.32e+00,
331,4.80e+00,2.32e+00,
332,4.72e+00,2.20e+00,
333,4.88e+00,2.68e+00,
334,4.76e+00,2.64e+00,
335,4.92e+00,2.88e+00,
336,4.92e+00,2.84e+00,
337,4.84e+00,3.08e+00,
338,4.84e+00,3.00e+00,
339,4.96e+00,3.16e+00,
340,4.96e+00,3.12e+00,
341,4.84e+00,3.20e+00,
342,4.92e+00,3.16e+00,
343,4.80e+00,2.32e+00,
344,4.92e+00,2.36e+00,
345,4.76e+00,1.92e+00,
346,4.84e+00,1.68e+00,
347,4.64e+00,2.28e+00,
348,4.76e+00,2.40e+00,
349,4.60e+00,2.84e+00,
350,4.64e+00,2.80e+00,
351,4.48e+00,3.04e+00,
352,4.48e+00,3.00e+00,
353,4.32e+00,3.16e+00,
354,4.40e+00,3.12e+00,
355,4.16e+00,3.28e+00,
356,4.24e+00,3.16e+00,
357,4.00e+00,3.28e+00,
358,4.08e+00,3.28e+00,
359,3.80e+00,3.00e+00,
360,3.84e+00,2.88e+00,
361,3.56e+00,2.24e+00,
362,3.68e+00,2.20e+00,
363,3.40e+00,1.80e+00,
364,3.48e+00,1.72e+00,
365,3.16e+00,2.80e+00,
366,3.20e+00,2.72e+00,
367,2.96e+00,3.04e+00,
368,3.00e+00,2.96e+00,
369,2.76e+00,3.20e+00,
370,2.80e+00,3.12e+00,
371,2.48e+00,3.28e+00,
372,2.56e+00,3.28e+00,
373,2.28e+00,3.16e+00,
374,2.32e+00,3.28e+00,
375,2.04e+00,2.60e+00,
376,2.04e+00,2.56e+00,
377,1.80e+00,2.12e+00,
378,1.88e+00,2.12e+00,
379,1.60e+00,1.76e+00,
380,1.68e+00,1.56e+00,
381,1.36e+00,2.44e+00,
382,1.44e+00,2.40e+00,
383,1.20e+00,2.96e+00,
384,1.28e+00,2.84e+00,
385,1.00e+00,3.08e+00,
386,1.08e+00,3.00e+00,
387,8.40e-01,3.20e+00,
388,9.20e-01,3.12e+00,
389,6.40e-01,3.20e+00,
390,7.20e-01,3.16e+00,
391,5.20e-01,2.28e+00,
392,6.00e-01,2.28e+00,
393,4.00e-01,1.80e+00,
394,4.80e-01,1.84e+00,
395,2.80e-01,1.48e+00,
396,4.00e-01,1.52e+00,
397,2.40e-01,1.28e+00,
398,3.20e-01,1.24e+00,
399,1.60e-01,2.36e+00,
400,2.80e-01,2.28e+00,
401,1.20e-01,2.80e+00,
402,1.20e-01,2.76e+00,
403,2.00e-01,3.00e+00,
404,2.00e-01,3.04e+00,
405,4.00e-02,2.40e+00,
406,2.00e-01,2.36e+00,
407,8.00e-02,1.88e+00,
408,1.60e-01,1.88e+00,
409,2.80e-01,1.52e+00,
410,1.60e-01,1.56e+00,
411,3.20e-01,1.24e+00,
412,2.80e-01,1.28e+00,
413,4.40e-01,1.08e+00,
414,3.60e-01,1.00e+00,
415,5.60e-01,1.76e+00,
416,4.80e-01,1.68e+00,
417,6.80e-01,2.40e+00,
418,6.00e-01,2.36e+00,
419,8.40e-01,2.72e+00,
420,7.60e-01,2.68e+00,
421,9.60e-01,2.84e+00,
422,8.80e-01,2.84e+00,
423,1.16e+00,1.92e+00,
424,1.12e+00,1.96e+00,
425,1.40e+00,1.44e+00,
426,1.32e+00,1.52e+00,
427,1.56e+00,1.20e+00,
428,1.48e+00,1.24e+00,
429,1.80e+00,1.04e+00,
430,1.72e+00,1.04e+00,
431,2.04e+00,9.20e-01,
432,1.96e+00,8.80e-01,
433,2.24e+00,1.92e+00,
434,2.16e+00,1.96e+00,
435,2.48e+00,2.48e+00,
436,2.40e+00,2.48e+00,
437,2.68e+00,2.80e+00,
438,2.64e+00,2.76e+00,
439,2.96e+00,2.96e+00,
440,2.84e+00,2.92e+00,
441,3.12e+00,2.04e+00,
442,3.12e+00,2.08e+00,
443,3.36e+00,1.64e+00,
444,3.32e+00,1.64e+00,
445,3.60e+00,1.32e+00,
446,3.52e+00,1.36e+00,
447,3.76e+00,1.08e+00,
448,3.68e+00,1.04e+00,
449,3.96e+00,2.08e+00,
450,3.92e+00,1.96e+00,
451,4.16e+00,2.48e+00,
452,4.12e+00,2.48e+00,
453,4.32e+00,2.80e+00,
454,4.24e+00,2.76e+00,
455,4.48e+00,2.96e+00,
456,4.40e+00,2.96e+00,
457,4.60e+00,3.08e+00,
458,4.52e+00,3.08e+00,
459,4.72e+00,2.84e+00,
460,4.64e+00,2.76e+00,
461,4.80e+00,2.00e+00,
462,4.72e+00,2.00e+00,
463,4.84e+00,1.56e+00,
464,4.76e+00,1.36e+00,
465,4.92e+00,2.20e+00,
466,4.84e+00,2.20e+00,
467,4.96e+00,2.68e+00,
468,4.84e+00,2.64e+00,
469,4.96e+00,2.92e+00,
470,4.92e+00,2.88e+00,
471,4.84e+00,3.04e+00,
472,4.92e+00,3.04e+00,
473,4.80e+00,3.16e+00,
474,4.92e+00,3.12e+00,
475,4.76e+00,3.20e+00,
476,4.80e+00,3.20e+00,
477,4.64e+00,2.64e+00,
478,4.76e+00,2.56e+00,
479,4.52e+00,2.04e+00,
480,4.64e+00,2.04e+00,
481,4.44e+00,1.76e+00,
482,4.48e+00,1.80e+00,
483,4.28e+00,2.80e+00,
484,4.36e+00,2.68e+00,
485,4.12e+00,3.08e+00,
486,4.20e+00,2.96e+00,
487,3.96e+00,3.16e+00,
488,4.00e+00,3.12e+00,
489,3.76e+00,3.28e+00,
490,3.84e+00,3.28e+00,
491,3.60e+00,3.16e+00,
492,3.68e+00,3.28e+00,
493,3.32e+00,3.12e+00,
494,3.40e+00,3.08e+00,
495,3.16e+00,2.28e+00,
496,3.20e+00,2.32e+00,
497,2.92e+00,1.80e+00,
498,3.00e+00,1.72e+00,
499,2.68e+00,2.72e+00,
500,2.76e+00,2.68e+00,
501,2.44e+00,3.04e+00,
502,2.52e+00,2.96e+00,
503,2.20e+00,3.16e+00,
504,2.28e+00,3.08e+00,
505,1.96e+00,3.24e+00,
506,2.04e+00,3.28e+00,
507,1.80e+00,3.16e+00,
508,1.88e+00,3.28e+00,
509,1.56e+00,2.52e+00,
510,1.64e+00,2.52e+00,
511,1.36e+00,2.04e+00,
512,1.40e+00,2.08e+00,
513,1.16e+00,1.68e+00,
514,1.20e+00,1.72e+00,
515,9.60e-01,1.48e+00,
516,1.04e+00,1.68e+00,
517,7.60e-01,2.68e+00,
518,8.40e-01,2.64e+00,
519,6.40e-01,2.96e+00,
520,7.20e-01,2.92e+00,
521,5.20e-01,3.16e+00,
522,5.60e-01,3.16e+00,
523,4.00e-01,3.00e+00,
524,4.40e-01,3.04e+00,
525,2.80e-01,2.16e+00,
526,3.60e-01,2.20e+00,
527,2.40e-01,1.72e+00,
528,3.20e-01,1.76e+00,
529,1.60e-01,1.44e+00,
530,2.40e-01,1.48e+00,
531,1.20e-01,1.20e+00,
532,2.00e-01,1.20e+00,
533,4.00e-02,2.24e+00,
534,1.20e-01,2.16e+00,
535,2.00e-01,2.64e+00,
536,2.00e-01,2.64e+00,
537,1.20e-01,2.92e+00,
538,1.20e-01,2.96e+00,
539,3.20e-01,2.52e+00,
540,2.40e-01,2.48e+00,
541,4.00e-01,1.88e+00,
542,2.80e-01,1.88e+00,
543,4.40e-01,1.52e+00,
544,3.60e-01,1.52e+00,
545,5.60e-01,1.20e+00,
546,4.80e-01,1.28e+00,
547,6.80e-01,1.04e+00,
548,6.40e-01,9.60e-01,
549,8.40e-01,1.20e+00,
550,7.60e-01,1.40e+00,
551,1.04e+00,2.20e+00,
552,9.60e-01,2.16e+00,
553,1.20e+00,2.60e+00,
554,1.12e+00,2.60e+00,
555,1.40e+00,2.84e+00,
556,1.36e+00,2.84e+00,
557,1.64e+00,2.04e+00,
558,1.56e+00,2.00e+00,
559,1.80e+00,1.56e+00,
560,1.80e+00,1.64e+00,
561,2.04e+00,1.24e+00,
562,1.96e+00,1.32e+00,
563,2.28e+00,1.08e+00,
564,2.20e+00,1.12e+00,
565,2.52e+00,9.20e-01,
566,2.44e+00,9.20e-01,
567,2.72e+00,1.96e+00,
568,2.64e+00,1.84e+00,
569,2.96e+00,2.40e+00,
570,2.92e+00,2.40e+00,
571,3.20e+00,2.76e+00,
572,3.12e+00,2.72e+00,
573,3.44e+00,2.96e+00,
574,3.40e+00,2.96e+00,
575,3.60e+00,2.88e+00,
576,3.56e+00,2.92e+00,
577,3.84e+00,1.96e+00,
578,3.76e+00,1.92e+00,
579,4.00e+00,1.56e+00,
580,3.92e+00,1.60e+00,
581,4.20e+00,1.28e+00,
582,4.12e+00,1.12e+00,
583,4.36e+00,2.08e+00,
584,4.28e+00,2.08e+00,
585,4.52e+00,2.52e+00,
586,4.40e+00,2.48e+00,
587,4.64e+00,2.84e+00,
588,4.52e+00,2.80e+00,
589,4.72e+00,3.04e+00,
590,4.64e+00,2.92e+00,
591,4.80e+00,3.12e+00,
592,4.72e+00,3.04e+00,
593,4.92e+00,3.16e+00,
594,4.84e+00,3.08e+00,
595,4.92e+00,2.16e+00,
596,4.84e+00,2.24e+00,
597,4.96e+00,1.72e+00,
598,4.96e+00,1.52e+00,
599,4.84e+00,2.00e+00,
600,4.96e+00,2.12e+00,
601,4.84e+00,2.68e+00,
602,4.92e+00,2.64e+00,
603,4.76e+00,2.96e+00,
604,4.88e+00,2.88e+00,
605,4.72e+00,3.08e+00,
606,4.80e+00,3.08e+00,
607,4.64e+00,3.20e+00,
608,4.72e+00,3.12e+00,
609,4.52e+00,3.24e+00,
610,4.64e+00,3.20e+00,
611,4.40e+00,3.04e+00,
612,4.48e+00,3.08e+00,
613,4.28e+00,2.24e+00,
614,4.32e+00,2.24e+00,
615,4.12e+00,1.80e+00,
616,4.20e+00,1.72e+00,
617,3.92e+00,2.80e+00,
618,4.04e+00,2.68e+00,
619,3.76e+00,3.04e+00,
620,3.80e+00,2.96e+00,
621,3.52e+00,3.16e+00,
622,3.60e+00,3.12e+00,
623,3.36e+00,3.28e+00,
624,3.36e+00,3.28e+00,
625,3.08e+00,3.16e+00,
626,3.16e+00,3.32e+00,
627,2.84e+00,3.08e+00,
628,2.96e+00,3.00e+00,
629,2.60e+00,2.28e+00,
630,2.72e+00,2.28e+00,
631,2.44e+00,1.84e+00,
632,2.44e+00,1.60e+00,
633,2.20e+00,2.48e+00,
634,2.24e+00,2.52e+00,
635,1.96e+00,2.88e+00,
636,2.04e+00,2.88e+00,
637,1.72e+00,3.08e+00,
638,1.80e+00,3.04e+00,
639,1.56e+00,3.20e+00,
640,1.56e+00,3.16e+00,
641,1.32e+00,3.28e+00,
642,1.40e+00,3.20e+00,
643,1.08e+00,2.40e+00,
644,1.20e+00,2.44e+00,
645,9.60e-01,2.00e+00,
646,9.60e-01,2.00e+00,
647,7.60e-01,1.68e+00,
648,8.40e-01,1.72e+00,
649,6.00e-01,1.44e+00,
650,6.80e-01,1.40e+00,
651,4.80e-01,2.48e+00,
652,5.60e-01,2.48e+00,
653,3.60e-01,2.88e+00,
654,4.40e-01,2.84e+00,
655,2.80e-01,3.08e+00,
656,3.60e-01,3.16e+00,
657,2.40e-01,2.80e+00,
658,1.60e-01,2.76e+00,
659,2.80e-01,2.04e+00,
660,1.20e-01,2.08e+00,
661,2.40e-01,1.64e+00,
662,2.00e-01,1.68e+00,
663,1.20e-01,1.32e+00,
664,2.00e-01,1.40e+00,
665,1.20e-01,1.16e+00,
666,1.20e-01,1.08e+00,
667,2.40e-01,1.88e+00,
668,1.60e-01,1.92e+00,
669,3.20e-01,2.48e+00,
670,2.40e-01,2.48e+00,
671,4.00e-01,2.80e+00,
672,2.80e-01,2.84e+00,
673,4.80e-01,2.68e+00,
674,4.00e-01,2.56e+00,
675,6.00e-01,1.84e+00,
676,5.20e-01,1.84e+00,
677,7.20e-01,1.44e+00,
678,6.80e-01,1.52e+00,
679,9.20e-01,1.20e+00,
680,8.40e-01,1.24e+00,
681,1.04e+00,1.00e+00,
682,1.00e+00,1.04e+00,
683,1.28e+00,8.80e-01,
684,1.20e+00,9.20e-01,
685,1.44e+00,1.96e+00,
686,1.36e+00,1.92e+00,
687,1.64e+00,2.48e+00,
688,1.64e+00,2.52e+00,
689,1.88e+00,2.80e+00,
690,1.80e+00,2.92e+00,
691,2.12e+00,2.68e+00,
692,2.04e+00,2.68e+00,
693,2.28e+00,1.80e+00,
694,2.32e+00,1.88e+00,
695,2.52e+00,1.44e+00,
696,2.52e+00,1.48e+00,
697,2.76e+00,1.16e+00,
698,2.76e+00,1.20e+00,
699,3.00e+00,9.60e-01,
700,2.96e+00,9.20e-01,
701,3.24e+00,1.96e+00,
702,3.16e+00,1.88e+00,
703,3.44e+00,2.44e+00,
704,3.40e+00,2.40e+00,
705,3.68e+00,2.72e+00,
706,3.56e+00,2.72e+00,
707,3.84e+00,2.96e+00,
708,3.76e+00,2.88e+00,
709,4.04e+00,3.04e+00,
710,4.00e+00,3.04e+00,
711,4.20e+00,2.20e+00,
712,4.16e+00,2.20e+00,
713,4.36e+00,1.72e+00,
714,4.28e+00,1.80e+00,
715,4.52e+00,1.40e+00,
716,4.48e+00,1.28e+00,
717,4.60e+00,2.00e+00,
718,4.60e+00,2.00e+00,
719,4.76e+00,2.56e+00,
720,4.64e+00,2.52e+00,
721,4.80e+00,2.84e+00,
722,4.76e+00,2.80e+00,
723,4.92e+00,3.04e+00,
724,4.92e+00,3.00e+00,
725,4.84e+00,3.12e+00,
726,4.84e+00,3.20e+00,
727,4.96e+00,3.04e+00,
728,4.96e+00,3.16e+00,
729,4.84e+00,2.36e+00,
730,4.84e+00,2.36e+00,
731,4.92e+00,1.96e+00,
732,4.92e+00,1.88e+00,
733,4.76e+00,1.64e+00,
734,4.84e+00,1.64e+00,
735,4.72e+00,2.68e+00,
736,4.80e+00,2.64e+00,
737,4.60e+00,2.96e+00,
738,4.68e+00,2.88e+00,
739,4.52e+00,3.16e+00,
740,4.60e+00,3.08e+00,
741,4.40e+00,3.20e+00,
742,4.44e+00,3.16e+00,
743,4.24e+00,3.24e+00,
744,4.32e+00,3.16e+00,
745,4.04e+00,3.24e+00,
746,4.16e+00,3.20e+00,
747,3.88e+00,2.32e+00,
748,3.96e+00,2.32e+00,
749,3.68e+00,1.88e+00,
750,3.76e+00,1.80e+00,
751,3.52e+00,2.76e+00,
752,3.56e+00,2.68e+00,
753,3.28e+00,3.04e+00,
754,3.36e+00,3.00e+00,
755,3.04e+00,3.16e+00,
756,3.12e+00,3.12e+00,
757,2.84e+00,3.28e+00,
758,2.88e+00,3.16e+00,
759,2.60e+00,3.32e+00,
760,2.64e+00,3.28e+00,
761,2.36e+00,3.16e+00,
762,2.44e+00,3.16e+00,
763,2.12e+00,2.32e+00,
764,2.24e+00,2.36e+00,
765,1.92e+00,1.84e+00,
766,2.00e+00,1.60e+00,
767,1.72e+00,2.00e+00,
768,1.76e+00,2.16e+00,
769,1.48e+00,2.80e+00,
770,1.56e+00,2.84e+00,
771,1.32e+00,3.08e+00,
772,1.32e+00,3.00e+00,
773,1.08e+00,3.20e+00,
774,1.16e+00,3.12e+00,
775,8.80e-01,3.28e+00,
776,9.60e-01,3.20e+00,
777,7.20e-01,2.36e+00,
778,8.00e-01,2.44e+00,
779,5.60e-01,1.92e+00,
780,6.80e-01,1.92e+00,
781,4.80e-01,1.64e+00,
782,5.60e-01,1.64e+00,
783,3.60e-01,1.36e+00,
784,4.40e-01,1.32e+00,
785,2.40e-01,2.40e+00,
786,3.20e-01,2.36e+00,
787,1.60e-01,2.80e+00,
788,2.80e-01,2.76e+00,
789,1.20e-01,3.04e+00,
790,1.20e-01,3.04e+00,
791,2.00e-01,2.76e+00,
792,2.00e-01,2.72e+00,
793,8.00e-02,1.96e+00,
794,2.00e-01,2.00e+00,
795,1.20e-01,1.60e+00,
796,1.20e-01,1.60e+00,
797,2.80e-01,1.32e+00,
798,1.60e-01,1.36e+00,
799,3.20e-01,1.12e+00,
800,2.40e-01,1.04e+00,
801,4.00e-01,1.44e+00,
802,2.80e-01,1.64e+00,
803,5.20e-01,2.36e+00,
804,4.00e-01,2.28e+00,
805,6.40e-01,2.72e+00,
806,5.20e-01,2.64e+00,
807,7.20e-01,2.88e+00,
808,7.20e-01,2.84e+00,
809,9.20e-01,1.92e+00,
810,8.40e-01,2.00e+00,
811,1.08e+00,1.56e+00,
812,1.00e+00,1.60e+00,
813,1.28e+00,1.28e+00,
814,1.20e+00,1.28e+00,
815,1.44e+00,1.08e+00,
816,1.44e+00,1.12e+00,
817,1.68e+00,8.80e-01,
818,1.60e+00,9.20e-01,
819,1.92e+00,1.96e+00,
820,1.88e+00,1.88e+00,
821,2.12e+00,2.44e+00,
822,2.08e+00,2.44e+00,
823,2.36e+00,2.80e+00,
824,2.28e+00,2.76e+00,
825,2.60e+00,2.92e+00,
826,2.52e+00,2.92e+00,
827,2.80e+00,2.08e+00,
828,2.72e+00,2.08e+00,
829,3.04e+00,1.64e+00,
830,3.00e+00,1.64e+00,
831,3.24e+00,1.32e+00,
832,3.24e+00,1.36e+00,
833,3.48e+00,1.08e+00,
834,3.44e+00,1.00e+00,
835,3.72e+00,1.88e+00,
836,3.64e+00,1.92e+00,
837,3.92e+00,2.44e+00,
838,3.84e+00,2.40e+00,
839,4.08e+00,2.72e+00,
840,4.00e+00,2.68e+00,
841,4.28e+00,2.96e+00,
842,4.20e+00,2.88e+00,
843,4.40e+00,3.08e+00,
844,4.36e+00,3.08e+00,
845,4.56e+00,2.84e+00,
846,4.48e+00,2.84e+00,
847,4.68e+00,1.96e+00,
848,4.60e+00,2.00e+00,
849,4.80e+00,1.56e+00,
850,4.72e+00,1.64e+00,
851,4.88e+00,1.36e+00,
852,4.76e+00,1.80e+00,
853,4.92e+00,2.56e+00,
854,4.84e+00,2.44e+00,
855,4.92e+00,2.84e+00,
856,4.84e+00,2.80e+00,
857,4.96e+00,3.04e+00,
858,4.96e+00,3.00e+00,
859,4.84e+00,3.16e+00,
860,4.92e+00,3.08e+00,
861,4.84e+00,3.20e+00,
862,4.92e+00,3.20e+00,
863,4.76e+00,2.92e+00,
864,4.88e+00,2.88e+00,
865,4.72e+00,2.12e+00,
866,4.80e+00,2.08e+00,
867,4.60e+00,1.68e+00,
868,4.68e+00,1.68e+00,
869,4.48e+00,2.72e+00,
870,4.56e+00,2.64e+00,
