Code/Open_Loop_Bode_Data/Open_Loop_Frequency_Response_Signals_1/OLBD13.csv

X,CH3,CH4,Start,Increment,
Sequence,Volt,Volt,-2.995000e+00,5.000000e-03
0,1.60e-01,6.40e-01,
1,3.20e-01,2.36e+00,
2,2.40e-01,2.60e+00,
3,4.00e-01,1.44e+00,
4,2.80e-01,1.40e+00,
5,4.00e-01,8.40e-01,
6,2.80e-01,7.20e-01,
7,4.40e-01,1.96e+00,
8,3.60e-01,2.60e+00,
9,5.20e-01,2.00e+00,
10,5.20e-01,1.88e+00,
11,3.60e-01,1.04e+00,
12,4.80e-01,7.20e-01,
13,5.60e-01,1.40e+00,
14,4.80e-01,1.52e+00,
15,6.40e-01,2.60e+00,
16,5.20e-01,2.68e+00,
17,6.80e-01,1.32e+00,
18,6.00e-01,1.36e+00,
19,8.00e-01,8.00e-01,
20,8.00e-01,7.20e-01,
21,6.40e-01,2.28e+00,
22,7.60e-01,2.68e+00,
23,8.80e-01,1.68e+00,
24,7.60e-01,1.72e+00,
25,1.00e+00,9.60e-01,
26,8.80e-01,8.00e-01,
27,1.04e+00,1.88e+00,
28,9.60e-01,1.92e+00,
29,1.08e+00,2.72e+00,
30,1.00e+00,2.68e+00,
31,1.20e+00,1.20e+00,
32,1.12e+00,1.28e+00,
33,1.28e+00,8.00e-01,
34,1.20e+00,1.44e+00,
35,1.40e+00,2.60e+00,
36,1.32e+00,2.76e+00,
37,1.44e+00,1.56e+00,
38,1.36e+00,1.60e+00,
39,1.56e+00,9.60e-01,
40,1.40e+00,8.40e-01,
41,1.64e+00,2.36e+00,
42,1.56e+00,2.28e+00,
43,1.76e+00,2.84e+00,
44,1.64e+00,2.52e+00,
45,1.80e+00,1.28e+00,
46,1.76e+00,9.60e-01,
47,1.92e+00,1.96e+00,
48,1.84e+00,2.00e+00,
49,2.00e+00,2.84e+00,
50,1.96e+00,2.92e+00,
51,2.12e+00,1.64e+00,
52,2.04e+00,1.60e+00,
53,2.24e+00,1.00e+00,
54,2.12e+00,1.28e+00,
55,2.28e+00,2.72e+00,
56,2.24e+00,2.96e+00,
57,2.40e+00,2.12e+00,
58,2.32e+00,2.04e+00,
59,2.52e+00,1.24e+00,
60,2.44e+00,1.08e+00,
61,2.64e+00,2.52e+00,
62,2.52e+00,2.48e+00,
63,2.72e+00,3.00e+00,
64,2.60e+00,3.04e+00,
65,2.84e+00,1.64e+00,
66,2.72e+00,1.20e+00,
67,2.96e+00,2.24e+00,
68,2.88e+00,2.16e+00,
69,3.00e+00,2.96e+00,
70,2.92e+00,3.08e+00,
71,3.12e+00,2.08e+00,
72,3.04e+00,2.12e+00,
73,3.24e+00,1.28e+00,
74,3.08e+00,1.32e+00,
75,3.32e+00,2.84e+00,
76,3.20e+00,2.80e+00,
77,3.44e+00,3.08e+00,
78,3.32e+00,3.04e+00,
79,3.48e+00,1.56e+00,
80,3.40e+00,1.32e+00,
81,3.60e+00,2.72e+00,
82,3.52e+00,2.68e+00,
83,3.68e+00,3.08e+00,
84,3.64e+00,3.16e+00,
85,3.80e+00,2.12e+00,
86,3.68e+00,1.44e+00,
87,3.84e+00,2.48e+00,
88,3.76e+00,2.40e+00,
89,3.96e+00,3.04e+00,
90,3.88e+00,3.16e+00,
91,4.00e+00,2.96e+00,
92,3.92e+00,2.72e+00,
93,4.08e+00,1.56e+00,
94,4.00e+00,1.52e+00,
95,4.20e+00,2.96e+00,
96,4.12e+00,2.96e+00,
97,4.28e+00,3.20e+00,
98,4.16e+00,3.20e+00,
99,4.32e+00,1.92e+00,
100,4.24e+00,1.64e+00,
101,4.40e+00,2.88e+00,
102,4.28e+00,2.88e+00,
103,4.44e+00,3.20e+00,
104,4.36e+00,3.20e+00,
105,4.48e+00,2.40e+00,
106,4.40e+00,1.72e+00,
107,4.56e+00,2.72e+00,
108,4.48e+00,2.64e+00,
109,4.64e+00,3.16e+00,
110,4.52e+00,3.12e+00,
111,4.68e+00,3.28e+00,
112,4.60e+00,3.28e+00,
113,4.72e+00,1.88e+00,
114,4.76e+00,1.76e+00,
115,4.64e+00,3.08e+00,
116,4.64e+00,3.08e+00,
117,4.80e+00,3.28e+00,
118,4.64e+00,3.32e+00,
119,4.88e+00,2.28e+00,
120,4.76e+00,1.80e+00,
121,4.84e+00,3.00e+00,
122,4.84e+00,3.00e+00,
123,4.76e+00,3.28e+00,
124,4.84e+00,3.32e+00,
125,4.92e+00,3.12e+00,
126,4.92e+00,2.84e+00,
127,4.84e+00,1.88e+00,
128,4.92e+00,2.84e+00,
129,4.84e+00,3.28e+00,
130,4.84e+00,3.24e+00,
131,4.96e+00,3.32e+00,
132,4.84e+00,3.32e+00,
133,5.00e+00,2.04e+00,
134,4.88e+00,1.92e+00,
135,5.00e+00,3.16e+00,
136,5.00e+00,3.16e+00,
137,4.84e+00,3.40e+00,
138,4.96e+00,3.40e+00,
139,4.84e+00,2.48e+00,
140,4.96e+00,1.92e+00,
141,4.84e+00,3.04e+00,
142,4.84e+00,3.04e+00,
143,4.92e+00,3.32e+00,
144,4.92e+00,3.28e+00,
145,4.84e+00,3.40e+00,
146,4.92e+00,3.24e+00,
147,4.76e+00,1.92e+00,
148,4.92e+00,2.80e+00,
149,4.76e+00,3.32e+00,
150,4.84e+00,3.24e+00,
151,4.72e+00,3.40e+00,
152,4.80e+00,3.40e+00,
153,4.64e+00,2.12e+00,
154,4.80e+00,1.96e+00,
155,4.64e+00,3.20e+00,
156,4.76e+00,3.12e+00,
157,4.60e+00,3.40e+00,
158,4.68e+00,3.40e+00,
159,4.52e+00,2.52e+00,
160,4.52e+00,1.92e+00,
161,4.64e+00,2.96e+00,
162,4.48e+00,3.00e+00,
163,4.60e+00,3.40e+00,
164,4.56e+00,3.28e+00,
165,4.40e+00,3.40e+00,
166,4.44e+00,3.32e+00,
167,4.36e+00,1.92e+00,
168,4.28e+00,2.16e+00,
169,4.40e+00,3.28e+00,
170,4.32e+00,3.28e+00,
171,4.16e+00,3.40e+00,
172,4.28e+00,3.40e+00,
173,4.12e+00,2.12e+00,
174,4.20e+00,1.84e+00,
175,4.04e+00,3.16e+00,
176,4.16e+00,3.12e+00,
177,4.00e+00,3.40e+00,
178,4.08e+00,3.40e+00,
179,3.88e+00,2.52e+00,
180,3.96e+00,1.80e+00,
181,3.80e+00,2.92e+00,
182,3.92e+00,2.84e+00,
183,3.68e+00,3.32e+00,
184,3.80e+00,3.40e+00,
185,3.64e+00,3.24e+00,
186,3.72e+00,3.20e+00,
187,3.52e+00,1.76e+00,
188,3.60e+00,1.76e+00,
189,3.44e+00,3.20e+00,
190,3.52e+00,3.16e+00,
191,3.32e+00,3.36e+00,
192,3.44e+00,3.32e+00,
193,3.28e+00,2.00e+00,
194,3.36e+00,1.68e+00,
195,3.16e+00,3.04e+00,
196,3.24e+00,2.96e+00,
197,3.08e+00,3.32e+00,
198,3.12e+00,3.32e+00,
199,3.00e+00,2.40e+00,
200,3.08e+00,1.64e+00,
201,2.84e+00,2.52e+00,
202,2.96e+00,2.60e+00,
203,2.80e+00,3.20e+00,
204,2.84e+00,3.32e+00,
205,2.68e+00,2.60e+00,
206,2.76e+00,2.56e+00,
207,2.56e+00,1.56e+00,
208,2.64e+00,1.52e+00,
209,2.48e+00,3.00e+00,
210,2.52e+00,2.92e+00,
211,2.32e+00,3.28e+00,
212,2.48e+00,3.28e+00,
213,2.24e+00,1.80e+00,
214,2.36e+00,1.36e+00,
215,2.16e+00,2.60e+00,
216,2.24e+00,2.72e+00,
217,2.08e+00,3.20e+00,
218,2.16e+00,3.20e+00,
219,1.96e+00,2.04e+00,
220,2.04e+00,2.00e+00,
221,1.84e+00,1.32e+00,
222,1.92e+00,2.04e+00,
223,1.76e+00,3.04e+00,
224,1.88e+00,3.20e+00,
225,1.68e+00,2.28e+00,
226,1.76e+00,2.24e+00,
227,1.60e+00,1.40e+00,
228,1.68e+00,1.28e+00,
229,1.48e+00,2.76e+00,
230,1.56e+00,2.72e+00,
231,1.40e+00,3.08e+00,
232,1.48e+00,2.96e+00,
233,1.32e+00,1.52e+00,
234,1.40e+00,1.12e+00,
235,1.24e+00,2.24e+00,
236,1.32e+00,2.16e+00,
237,1.12e+00,3.00e+00,
238,1.20e+00,3.08e+00,
239,1.08e+00,1.72e+00,
240,1.16e+00,1.72e+00,
241,1.00e+00,1.08e+00,
242,1.04e+00,1.16e+00,
243,8.80e-01,2.80e+00,
244,9.60e-01,2.96e+00,
245,8.40e-01,1.96e+00,
246,9.20e-01,1.96e+00,
247,7.60e-01,1.20e+00,
248,8.40e-01,1.00e+00,
249,7.20e-01,2.48e+00,
250,8.00e-01,2.40e+00,
251,6.40e-01,2.92e+00,
252,7.20e-01,2.36e+00,
253,5.60e-01,1.28e+00,
254,6.80e-01,9.60e-01,
255,5.20e-01,1.92e+00,
256,6.40e-01,1.96e+00,
257,4.80e-01,2.84e+00,
258,5.60e-01,2.80e+00,
259,4.00e-01,1.44e+00,
260,5.20e-01,1.44e+00,
261,3.60e-01,9.20e-01,
262,4.40e-01,9.20e-01,
263,2.80e-01,2.52e+00,
264,4.00e-01,2.72e+00,
265,2.40e-01,1.64e+00,
266,3.60e-01,1.64e+00,
267,2.40e-01,9.60e-01,
268,3.20e-01,8.00e-01,
269,2.00e-01,2.12e+00,
270,3.20e-01,2.16e+00,
271,1.60e-01,2.72e+00,
272,1.60e-01,2.00e+00,
273,2.80e-01,1.08e+00,
274,2.80e-01,7.60e-01,
275,1.20e-01,1.44e+00,
276,1.20e-01,1.64e+00,
277,2.40e-01,2.60e+00,
278,1.20e-01,2.60e+00,
279,2.00e-01,1.28e+00,
280,2.00e-01,1.24e+00,
281,4.00e-02,7.60e-01,
282,1.20e-01,7.20e-01,
283,2.00e-01,2.28e+00,
284,2.00e-01,2.60e+00,
285,1.20e-01,1.52e+00,
286,2.00e-01,1.52e+00,
287,1.20e-01,9.20e-01,
288,2.00e-01,7.20e-01,
289,1.20e-01,1.80e+00,
290,1.20e-01,1.96e+00,
291,2.40e-01,2.56e+00,
292,1.20e-01,1.96e+00,
293,2.80e-01,1.04e+00,
294,2.80e-01,1.04e+00,
295,1.60e-01,6.80e-01,
296,1.60e-01,1.28e+00,
297,2.80e-01,2.56e+00,
298,3.20e-01,2.56e+00,
299,2.40e-01,1.28e+00,
300,2.40e-01,1.24e+00,
301,3.60e-01,7.20e-01,
302,4.00e-01,6.80e-01,
303,2.80e-01,2.20e+00,
304,2.80e-01,2.56e+00,
305,4.40e-01,1.68e+00,
306,3.60e-01,1.64e+00,
307,4.80e-01,9.60e-01,
308,4.00e-01,7.20e-01,
309,5.60e-01,1.72e+00,
310,5.60e-01,1.64e+00,
311,4.80e-01,2.60e+00,
312,5.20e-01,2.56e+00,
313,6.40e-01,1.16e+00,
314,6.80e-01,1.16e+00,
315,6.00e-01,7.20e-01,
316,6.40e-01,8.00e-01,
317,8.00e-01,2.48e+00,
318,7.20e-01,2.68e+00,
319,8.80e-01,1.44e+00,
320,7.60e-01,1.44e+00,
321,9.20e-01,8.80e-01,
322,8.40e-01,7.60e-01,
323,9.60e-01,2.20e+00,
324,8.80e-01,2.16e+00,
325,1.04e+00,2.72e+00,
326,1.00e+00,2.00e+00,
327,1.16e+00,1.12e+00,
328,1.08e+00,7.60e-01,
329,1.24e+00,1.68e+00,
330,1.12e+00,1.76e+00,
331,1.28e+00,2.72e+00,
332,1.24e+00,2.80e+00,
333,1.40e+00,1.40e+00,
334,1.32e+00,1.40e+00,
335,1.52e+00,8.80e-01,
336,1.44e+00,8.40e-01,
337,1.56e+00,2.56e+00,
338,1.48e+00,2.80e+00,
339,1.68e+00,1.84e+00,
340,1.56e+00,1.92e+00,
341,1.76e+00,1.08e+00,
342,1.64e+00,8.80e-01,
343,1.88e+00,2.28e+00,
344,1.80e+00,2.28e+00,
345,1.92e+00,2.92e+00,
346,1.84e+00,2.92e+00,
347,2.04e+00,1.48e+00,
348,1.96e+00,1.04e+00,
349,2.16e+00,2.00e+00,
350,2.08e+00,1.92e+00,
351,2.24e+00,2.84e+00,
352,2.16e+00,2.96e+00,
353,2.32e+00,1.92e+00,
354,2.24e+00,1.92e+00,
355,2.48e+00,1.16e+00,
356,2.36e+00,1.08e+00,
357,2.52e+00,2.68e+00,
358,2.44e+00,2.64e+00,
359,2.64e+00,3.04e+00,
360,2.56e+00,2.84e+00,
361,2.76e+00,1.44e+00,
362,2.68e+00,1.16e+00,
363,2.84e+00,2.44e+00,
364,2.76e+00,2.36e+00,
365,2.96e+00,3.04e+00,
366,2.84e+00,3.04e+00,
367,3.04e+00,1.88e+00,
368,2.96e+00,1.24e+00,
369,3.12e+00,2.04e+00,
370,3.08e+00,2.16e+00,
371,3.24e+00,2.92e+00,
372,3.16e+00,3.08e+00,
373,3.36e+00,2.60e+00,
374,3.28e+00,2.44e+00,
375,3.44e+00,1.44e+00,
376,3.32e+00,1.32e+00,
377,3.56e+00,2.76e+00,
378,3.44e+00,2.76e+00,
379,3.60e+00,3.16e+00,
380,3.52e+00,3.16e+00,
381,3.72e+00,1.72e+00,
382,3.64e+00,1.36e+00,
383,3.80e+00,2.48e+00,
384,3.68e+00,2.64e+00,
385,3.92e+00,3.08e+00,
386,3.80e+00,3.16e+00,
387,3.96e+00,2.28e+00,
388,3.88e+00,2.32e+00,
389,4.04e+00,1.52e+00,
390,3.92e+00,2.32e+00,
391,4.12e+00,3.08e+00,
392,4.04e+00,3.04e+00,
393,4.20e+00,3.20e+00,
394,4.12e+00,3.20e+00,
395,4.24e+00,1.80e+00,
396,4.16e+00,1.60e+00,
397,4.32e+00,2.96e+00,
398,4.24e+00,2.88e+00,
399,4.36e+00,3.20e+00,
400,4.36e+00,3.20e+00,
401,4.44e+00,2.32e+00,
402,4.36e+00,1.64e+00,
403,4.56e+00,2.76e+00,
404,4.40e+00,2.76e+00,
405,4.56e+00,3.20e+00,
406,4.48e+00,3.28e+00,
407,4.64e+00,3.00e+00,
408,4.52e+00,2.76e+00,
409,4.68e+00,1.76e+00,
410,4.60e+00,2.48e+00,
411,4.72e+00,3.16e+00,
412,4.64e+00,3.12e+00,
413,4.76e+00,3.28e+00,
414,4.80e+00,3.28e+00,
415,4.64e+00,2.00e+00,
416,4.72e+00,1.80e+00,
417,4.84e+00,3.08e+00,
418,4.84e+00,3.08e+00,
419,4.76e+00,3.32e+00,
420,4.76e+00,3.32e+00,
421,4.88e+00,2.44e+00,
422,4.92e+00,1.88e+00,
423,4.76e+00,2.92e+00,
424,4.92e+00,2.80e+00,
425,4.84e+00,3.32e+00,
426,4.84e+00,3.32e+00,
427,4.96e+00,3.24e+00,
428,4.84e+00,3.32e+00,
429,4.96e+00,1.92e+00,
430,4.96e+00,2.12e+00,
431,4.84e+00,3.24e+00,
432,5.00e+00,3.24e+00,
433,4.84e+00,3.32e+00,
434,4.84e+00,3.40e+00,
435,5.00e+00,2.24e+00,
436,4.84e+00,1.92e+00,
437,4.96e+00,3.16e+00,
438,4.84e+00,3.12e+00,
439,4.96e+00,3.36e+00,
440,4.92e+00,3.40e+00,
441,4.80e+00,2.64e+00,
442,4.92e+00,1.92e+00,
443,4.76e+00,2.96e+00,
444,4.76e+00,2.88e+00,
445,4.92e+00,3.32e+00,
446,4.76e+00,3.28e+00,
447,4.88e+00,3.40e+00,
448,4.88e+00,3.40e+00,
449,4.72e+00,2.00e+00,
450,4.80e+00,1.92e+00,
451,4.64e+00,3.24e+00,
452,4.64e+00,3.24e+00,
453,4.72e+00,3.40e+00,
454,4.72e+00,3.40e+00,
455,4.60e+00,2.40e+00,
456,4.68e+00,1.96e+00,
457,4.52e+00,3.20e+00,
458,4.60e+00,3.12e+00,
459,4.48e+00,3.40e+00,
460,4.56e+00,3.40e+00,
461,4.40e+00,2.76e+00,
462,4.48e+00,1.92e+00,
463,4.36e+00,2.92e+00,
464,4.44e+00,2.88e+00,
465,4.28e+00,3.32e+00,
466,4.36e+00,3.32e+00,
467,4.24e+00,3.40e+00,
468,4.32e+00,3.40e+00,
469,4.16e+00,2.00e+00,
470,4.28e+00,1.88e+00,
471,4.12e+00,3.20e+00,
472,4.20e+00,3.16e+00,
473,4.04e+00,3.40e+00,
474,4.08e+00,3.40e+00,
475,3.92e+00,2.28e+00,
476,4.00e+00,1.80e+00,
477,3.88e+00,3.04e+00,
478,3.96e+00,3.04e+00,
479,3.76e+00,3.40e+00,
480,3.84e+00,3.40e+00,
481,3.68e+00,2.60e+00,
482,3.80e+00,2.56e+00,
483,3.64e+00,1.76e+00,
484,3.68e+00,2.60e+00,
485,3.52e+00,3.24e+00,
486,3.60e+00,3.20e+00,
487,3.44e+00,3.40e+00,
488,3.48e+00,3.32e+00,
489,3.32e+00,1.88e+00,
490,3.40e+00,1.68e+00,
491,3.20e+00,3.08e+00,
492,3.32e+00,3.08e+00,
493,3.16e+00,3.32e+00,
494,3.24e+00,3.32e+00,
495,3.04e+00,2.12e+00,
496,3.12e+00,1.64e+00,
497,2.96e+00,2.72e+00,
498,3.00e+00,2.68e+00,
499,2.84e+00,3.28e+00,
500,2.96e+00,3.32e+00,
501,2.72e+00,2.40e+00,
502,2.84e+00,2.48e+00,
503,2.60e+00,1.48e+00,
504,2.72e+00,1.68e+00,
505,2.56e+00,3.12e+00,
506,2.64e+00,3.12e+00,
507,2.44e+00,3.28e+00,
508,2.52e+00,3.00e+00,
509,2.32e+00,1.64e+00,
510,2.40e+00,1.44e+00,
511,2.28e+00,2.88e+00,
512,2.36e+00,2.80e+00,
513,2.12e+00,3.28e+00,
514,2.24e+00,3.28e+00,
515,2.08e+00,1.88e+00,
516,2.12e+00,1.36e+00,
517,1.96e+00,2.40e+00,
518,2.04e+00,2.32e+00,
519,1.84e+00,3.12e+00,
520,1.92e+00,3.20e+00,
521,1.76e+00,2.16e+00,
522,1.80e+00,2.12e+00,
523,1.68e+00,1.32e+00,
524,1.76e+00,1.24e+00,
525,1.56e+00,2.88e+00,
526,1.64e+00,3.16e+00,
527,1.48e+00,2.36e+00,
528,1.56e+00,2.32e+00,
529,1.36e+00,1.40e+00,
530,1.44e+00,1.20e+00,
531,1.32e+00,2.52e+00,
532,1.40e+00,2.60e+00,
533,1.20e+00,3.08e+00,
534,1.28e+00,3.04e+00,
535,1.12e+00,1.60e+00,
536,1.20e+00,1.08e+00,
537,1.08e+00,1.88e+00,
538,1.08e+00,2.08e+00,
539,9.60e-01,2.88e+00,
540,1.04e+00,2.96e+00,
541,8.80e-01,1.76e+00,
542,9.60e-01,1.72e+00,
543,8.40e-01,1.08e+00,
544,9.20e-01,1.04e+00,
545,7.60e-01,2.60e+00,
546,8.00e-01,2.92e+00,
547,7.20e-01,2.00e+00,
548,7.20e-01,2.00e+00,
549,6.00e-01,1.20e+00,
550,6.80e-01,9.60e-01,
551,6.00e-01,2.08e+00,
552,6.00e-01,2.16e+00,
553,4.80e-01,2.84e+00,
554,4.80e-01,2.72e+00,
555,5.60e-01,1.32e+00,
556,4.00e-01,1.36e+00,
557,5.20e-01,8.80e-01,
558,4.80e-01,1.52e+00,
559,3.60e-01,2.72e+00,
560,4.40e-01,2.76e+00,
561,2.80e-01,1.44e+00,
562,2.80e-01,1.52e+00,
563,4.00e-01,9.20e-01,
564,3.60e-01,8.40e-01,
565,2.40e-01,2.36e+00,
566,2.40e-01,2.72e+00,
567,3.20e-01,1.80e+00,
568,1.60e-01,1.76e+00,
569,2.80e-01,1.04e+00,
570,2.80e-01,7.60e-01,
571,1.20e-01,1.76e+00,
572,1.20e-01,1.80e+00,
573,2.80e-01,2.68e+00,
574,1.20e-01,2.36e+00,
575,1.60e-01,1.16e+00,
576,2.00e-01,1.16e+00,
577,4.00e-02,7.20e-01,
578,2.00e-01,8.00e-01,
579,1.20e-01,2.56e+00,
580,2.00e-01,2.60e+00,
581,1.20e-01,1.32e+00,
582,2.00e-01,1.36e+00,
583,1.20e-01,8.00e-01,
584,2.00e-01,7.20e-01,
585,1.20e-01,2.12e+00,
586,2.00e-01,2.56e+00,
587,8.00e-02,1.72e+00,
588,1.20e-01,1.64e+00,
589,2.40e-01,9.60e-01,
590,1.20e-01,7.20e-01,
591,2.80e-01,1.56e+00,
592,1.20e-01,1.56e+00,
593,2.80e-01,2.56e+00,
594,1.60e-01,2.52e+00,
595,3.20e-01,1.16e+00,
596,3.20e-01,1.12e+00,
597,2.40e-01,7.20e-01,
598,2.40e-01,6.80e-01,
599,4.00e-01,2.44e+00,
600,3.60e-01,2.60e+00,
601,2.80e-01,1.44e+00,
602,3.60e-01,1.40e+00,
603,4.40e-01,8.80e-01,
604,3.60e-01,7.20e-01,
605,5.20e-01,2.04e+00,
606,4.00e-01,2.60e+00,
607,5.60e-01,1.92e+00,
608,4.80e-01,1.88e+00,
609,6.40e-01,1.04e+00,
610,4.80e-01,7.20e-01,
611,6.80e-01,1.52e+00,
612,6.00e-01,1.56e+00,
613,7.20e-01,2.60e+00,
614,6.40e-01,2.68e+00,
615,8.00e-01,1.32e+00,
616,7.20e-01,1.36e+00,
617,8.80e-01,8.00e-01,
618,7.60e-01,8.00e-01,
619,9.20e-01,2.36e+00,
620,8.40e-01,2.72e+00,
621,1.04e+00,1.76e+00,
622,9.60e-01,1.84e+00,
623,1.12e+00,1.04e+00,
624,1.00e+00,8.00e-01,
625,1.16e+00,2.00e+00,
626,1.08e+00,2.04e+00,
627,1.20e+00,2.80e+00,
628,1.20e+00,2.72e+00,
629,1.32e+00,1.28e+00,
630,1.24e+00,8.40e-01,
631,1.40e+00,1.52e+00,
632,1.36e+00,1.56e+00,
633,1.52e+00,2.64e+00,
634,1.40e+00,2.84e+00,
635,1.56e+00,1.68e+00,
636,1.56e+00,1.64e+00,
637,1.68e+00,1.04e+00,
638,1.60e+00,8.80e-01,
639,1.80e+00,2.44e+00,
640,1.72e+00,2.40e+00,
641,1.88e+00,2.92e+00,
642,1.80e+00,2.44e+00,
643,2.00e+00,1.28e+00,
644,1.92e+00,9.60e-01,
645,2.04e+00,2.00e+00,
646,1.96e+00,2.12e+00,
647,2.16e+00,2.92e+00,
648,2.04e+00,2.96e+00,
649,2.28e+00,1.72e+00,
650,2.20e+00,1.64e+00,
651,2.36e+00,1.08e+00,
652,2.28e+00,1.64e+00,
653,2.48e+00,2.76e+00,
654,2.32e+00,3.00e+00,
655,2.60e+00,2.24e+00,
656,2.52e+00,2.20e+00,
657,2.68e+00,1.32e+00,
658,2.60e+00,1.12e+00,
659,2.76e+00,2.60e+00,
660,2.68e+00,2.60e+00,
661,2.88e+00,3.04e+00,
662,2.80e+00,3.04e+00,
663,2.96e+00,1.60e+00,
664,2.88e+00,1.20e+00,
665,3.08e+00,2.24e+00,
666,2.96e+00,2.24e+00,
667,3.20e+00,2.96e+00,
668,3.04e+00,3.08e+00,
669,3.24e+00,2.16e+00,
670,3.16e+00,2.12e+00,
671,3.36e+00,1.32e+00,
672,3.28e+00,1.44e+00,
673,3.48e+00,2.92e+00,
674,3.40e+00,2.88e+00,
675,3.52e+00,3.16e+00,
676,3.44e+00,3.08e+00,
677,3.68e+00,1.64e+00,
678,3.56e+00,1.40e+00,
679,3.72e+00,2.80e+00,
680,3.64e+00,2.72e+00,
681,3.80e+00,3.16e+00,
682,3.76e+00,3.16e+00,
683,3.92e+00,2.12e+00,
684,3.80e+00,1.48e+00,
685,3.96e+00,2.48e+00,
686,3.92e+00,2.48e+00,
687,4.08e+00,3.08e+00,
688,4.00e+00,3.20e+00,
689,4.12e+00,2.88e+00,
690,4.04e+00,2.68e+00,
691,4.20e+00,1.56e+00,
692,4.12e+00,1.64e+00,
693,4.32e+00,3.04e+00,
694,4.24e+00,3.00e+00,
695,4.40e+00,3.20e+00,
696,4.28e+00,3.20e+00,
697,4.44e+00,1.92e+00,
698,4.36e+00,1.64e+00,
699,4.52e+00,2.92e+00,
700,4.36e+00,2.88e+00,
701,4.56e+00,3.20e+00,
702,4.48e+00,3.28e+00,
703,4.60e+00,2.40e+00,
704,4.60e+00,1.68e+00,
705,4.52e+00,2.72e+00,
706,4.68e+00,2.64e+00,
707,4.52e+00,3.20e+00,
708,4.60e+00,3.16e+00,
709,4.76e+00,3.28e+00,
710,4.64e+00,3.20e+00,
711,4.80e+00,1.88e+00,
712,4.80e+00,1.80e+00,
713,4.72e+00,3.12e+00,
714,4.72e+00,3.12e+00,
715,4.88e+00,3.32e+00,
716,4.84e+00,3.32e+00,
717,4.76e+00,2.36e+00,
718,4.72e+00,1.84e+00,
719,4.92e+00,3.08e+00,
720,4.92e+00,3.08e+00,
721,4.84e+00,3.36e+00,
722,4.84e+00,3.32e+00,
723,4.96e+00,3.00e+00,
724,4.84e+00,1.92e+00,
725,4.92e+00,2.88e+00,
726,4.84e+00,2.88e+00,
727,4.96e+00,3.28e+00,
728,4.84e+00,3.24e+00,
729,5.00e+00,3.36e+00,
730,4.96e+00,3.40e+00,
731,4.84e+00,2.04e+00,
732,5.00e+00,1.92e+00,
733,4.84e+00,3.20e+00,
734,4.96e+00,3.20e+00,
735,4.84e+00,3.36e+00,
736,4.92e+00,3.40e+00,
737,4.76e+00,2.48e+00,
738,4.84e+00,1.92e+00,
739,4.92e+00,3.16e+00,
740,4.92e+00,3.04e+00,
741,4.76e+00,3.40e+00,
742,4.76e+00,3.40e+00,
743,4.92e+00,3.28e+00,
744,4.84e+00,3.28e+00,
745,4.72e+00,1.96e+00,
746,4.72e+00,2.84e+00,
747,4.84e+00,3.32e+00,
748,4.80e+00,3.28e+00,
749,4.64e+00,3.40e+00,
750,4.64e+00,3.40e+00,
751,4.76e+00,2.12e+00,
752,4.60e+00,1.96e+00,
753,4.72e+00,3.20e+00,
754,4.68e+00,3.20e+00,
755,4.52e+00,3.40e+00,
756,4.64e+00,3.40e+00,
757,4.48e+00,2.52e+00,
758,4.56e+00,1.96e+00,
759,4.40e+00,2.96e+00,
760,4.52e+00,3.04e+00,
761,4.36e+00,3.40e+00,
762,4.44e+00,3.28e+00,
763,4.28e+00,3.44e+00,
764,4.36e+00,3.28e+00,
765,4.24e+00,1.84e+00,
766,4.32e+00,2.36e+00,
767,4.16e+00,3.32e+00,
768,4.24e+00,3.24e+00,
769,4.08e+00,3.40e+00,
770,4.20e+00,3.40e+00,
771,4.00e+00,2.12e+00,
772,4.08e+00,1.88e+00,
773,3.92e+00,3.16e+00,
774,4.00e+00,3.12e+00,
775,3.88e+00,3.40e+00,
776,3.92e+00,3.40e+00,
777,3.76e+00,2.52e+00,
778,3.84e+00,1.80e+00,
779,3.64e+00,2.92e+00,
780,3.76e+00,2.84e+00,
781,3.56e+00,3.32e+00,
782,3.68e+00,3.40e+00,
783,3.52e+00,3.08e+00,
784,3.60e+00,2.84e+00,
785,3.40e+00,1.72e+00,
786,3.48e+00,1.76e+00,
787,3.32e+00,3.20e+00,
788,3.40e+00,3.16e+00,
789,3.20e+00,3.40e+00,
790,3.28e+00,3.32e+00,
791,3.08e+00,1.96e+00,
792,3.20e+00,1.64e+00,
793,3.04e+00,2.96e+00,
794,2.92e+00,2.92e+00,
795,3.08e+00,3.32e+00,
796,3.00e+00,3.32e+00,
797,2.84e+00,2.28e+00,
798,2.88e+00,1.56e+00,
799,2.76e+00,2.60e+00,
800,2.84e+00,2.56e+00,
801,2.60e+00,3.20e+00,
802,2.72e+00,3.32e+00,
803,2.48e+00,2.52e+00,
804,2.60e+00,2.52e+00,
805,2.44e+00,1.56e+00,
806,2.52e+00,1.52e+00,
807,2.32e+00,3.00e+00,
808,2.40e+00,3.00e+00,
809,2.20e+00,3.28e+00,
810,2.28e+00,3.20e+00,
811,2.12e+00,1.76e+00,
812,2.20e+00,1.40e+00,
813,2.04e+00,2.68e+00,
814,2.12e+00,2.68e+00,
815,1.92e+00,3.20e+00,
816,2.00e+00,3.20e+00,
817,1.84e+00,1.92e+00,
818,1.88e+00,1.88e+00,
819,1.72e+00,1.32e+00,
820,1.80e+00,2.12e+00,
821,1.64e+00,3.04e+00,
822,1.76e+00,3.16e+00,
823,1.56e+00,2.24e+00,
824,1.64e+00,2.24e+00,
825,1.48e+00,1.36e+00,
826,1.52e+00,1.20e+00,
827,1.36e+00,2.76e+00,
828,1.44e+00,2.72e+00,
829,1.24e+00,3.08e+00,
830,1.32e+00,2.60e+00,
831,1.20e+00,1.44e+00,
832,1.28e+00,1.12e+00,
833,1.12e+00,2.24e+00,
834,1.20e+00,2.24e+00,
835,1.00e+00,3.04e+00,
836,1.08e+00,3.00e+00,
837,9.60e-01,1.64e+00,
838,1.04e+00,1.60e+00,
839,8.80e-01,1.04e+00,
840,9.20e-01,1.08e+00,
841,7.60e-01,2.80e+00,
842,8.40e-01,2.96e+00,
843,7.20e-01,1.88e+00,
844,8.00e-01,1.84e+00,
845,6.40e-01,1.08e+00,
846,7.60e-01,9.60e-01,
847,6.00e-01,2.44e+00,
848,6.80e-01,2.84e+00,
849,5.20e-01,2.12e+00,
850,6.40e-01,2.04e+00,
851,4.80e-01,1.24e+00,
852,5.60e-01,9.20e-01,
853,4.00e-01,1.88e+00,
854,5.20e-01,1.92e+00,
855,3.60e-01,2.80e+00,
856,3.60e-01,2.80e+00,
857,4.40e-01,1.36e+00,
858,4.40e-01,1.40e+00,
859,2.80e-01,9.20e-01,
860,4.00e-01,8.40e-01,
861,2.80e-01,2.56e+00,
862,2.40e-01,2.72e+00,
863,3.20e-01,1.64e+00,
864,3.20e-01,1.60e+00,
865,1.60e-01,9.60e-01,
866,1.60e-01,8.00e-01,
867,3.20e-01,2.20e+00,
868,2.80e-01,2.72e+00,
869,1.60e-01,2.00e+00,
870,2.00e-01,1.96e+00,
