Code/Open_Loop_Bode_Data/Open_Loop_Frequency_Response_Signals_1/OLBD9.csv

X,CH3,CH4,Start,Increment,
Sequence,Volt,Volt,-1.198000e+01,2.000000e-02
0,1.72e+00,2.84e+00,
1,2.00e+00,9.60e-01,
2,1.92e+00,2.88e+00,
3,2.16e+00,1.04e+00,
4,2.12e+00,1.12e+00,
5,2.40e+00,2.96e+00,
6,2.32e+00,1.08e+00,
7,2.56e+00,3.00e+00,
8,2.52e+00,3.04e+00,
9,2.84e+00,1.20e+00,
10,2.72e+00,3.04e+00,
11,3.00e+00,1.28e+00,
12,3.00e+00,3.08e+00,
13,3.24e+00,1.28e+00,
14,3.16e+00,1.32e+00,
15,3.44e+00,3.08e+00,
16,3.36e+00,1.40e+00,
17,3.68e+00,3.16e+00,
18,3.56e+00,1.40e+00,
19,3.84e+00,3.16e+00,
20,3.76e+00,3.16e+00,
21,4.04e+00,1.52e+00,
22,3.88e+00,3.20e+00,
23,4.16e+00,1.52e+00,
24,4.12e+00,1.64e+00,
25,4.32e+00,3.20e+00,
26,4.24e+00,1.68e+00,
27,4.44e+00,3.28e+00,
28,4.36e+00,1.72e+00,
29,4.56e+00,3.28e+00,
30,4.48e+00,3.28e+00,
31,4.68e+00,1.80e+00,
32,4.60e+00,3.32e+00,
33,4.76e+00,1.88e+00,
34,4.72e+00,3.32e+00,
35,4.84e+00,1.80e+00,
36,4.76e+00,1.96e+00,
37,4.92e+00,3.32e+00,
38,4.76e+00,1.92e+00,
39,4.92e+00,3.40e+00,
40,4.84e+00,3.40e+00,
41,4.96e+00,1.92e+00,
42,4.96e+00,3.40e+00,
43,4.84e+00,1.92e+00,
44,4.96e+00,1.92e+00,
45,4.84e+00,3.40e+00,
46,4.84e+00,3.40e+00,
47,4.92e+00,1.92e+00,
48,4.84e+00,2.00e+00,
49,4.72e+00,3.40e+00,
50,4.80e+00,3.40e+00,
51,4.64e+00,2.00e+00,
52,4.76e+00,3.40e+00,
53,4.60e+00,1.92e+00,
54,4.68e+00,3.40e+00,
55,4.48e+00,1.92e+00,
56,4.56e+00,1.92e+00,
57,4.28e+00,3.40e+00,
58,4.36e+00,1.88e+00,
59,4.16e+00,3.36e+00,
60,4.24e+00,3.40e+00,
61,4.00e+00,1.84e+00,
62,4.08e+00,3.32e+00,
63,3.88e+00,1.80e+00,
64,3.96e+00,3.32e+00,
65,3.72e+00,1.76e+00,
66,3.80e+00,3.32e+00,
67,3.52e+00,1.68e+00,
68,3.56e+00,1.64e+00,
69,3.28e+00,3.32e+00,
70,3.36e+00,1.60e+00,
71,3.08e+00,3.28e+00,
72,3.20e+00,3.32e+00,
73,2.92e+00,1.48e+00,
74,2.96e+00,3.28e+00,
75,2.68e+00,1.52e+00,
76,2.76e+00,3.20e+00,
77,2.44e+00,1.44e+00,
78,2.52e+00,1.40e+00,
79,2.28e+00,3.16e+00,
80,2.36e+00,3.12e+00,
81,2.04e+00,1.28e+00,
82,2.12e+00,3.04e+00,
83,1.84e+00,1.24e+00,
84,1.92e+00,3.04e+00,
85,1.68e+00,1.12e+00,
86,1.68e+00,3.04e+00,
87,1.44e+00,1.16e+00,
88,1.52e+00,1.08e+00,
89,1.24e+00,2.96e+00,
90,1.32e+00,1.00e+00,
91,1.08e+00,2.88e+00,
92,1.16e+00,2.88e+00,
93,9.20e-01,9.60e-01,
94,1.00e+00,2.84e+00,
95,7.60e-01,9.20e-01,
96,8.40e-01,2.84e+00,
97,6.00e-01,9.20e-01,
98,6.80e-01,8.80e-01,
99,4.80e-01,2.72e+00,
100,5.60e-01,8.40e-01,
101,4.00e-01,2.72e+00,
102,4.40e-01,2.68e+00,
103,2.80e-01,7.20e-01,
104,4.00e-01,2.60e+00,
105,2.00e-01,7.60e-01,
106,3.20e-01,2.60e+00,
107,1.60e-01,7.20e-01,
108,2.80e-01,7.20e-01,
109,1.20e-01,2.52e+00,
110,1.20e-01,6.80e-01,
111,2.00e-01,2.48e+00,
112,2.00e-01,6.40e-01,
113,8.00e-02,2.48e+00,
114,2.00e-01,2.48e+00,
115,1.20e-01,6.00e-01,
116,1.20e-01,2.48e+00,
117,2.80e-01,6.80e-01,
118,1.60e-01,6.00e-01,
119,3.20e-01,2.56e+00,
120,2.40e-01,6.80e-01,
121,4.00e-01,2.56e+00,
122,2.80e-01,7.20e-01,
123,4.80e-01,2.60e+00,
124,4.00e-01,2.56e+00,
125,6.00e-01,7.20e-01,
126,5.20e-01,7.20e-01,
127,7.20e-01,2.68e+00,
128,6.00e-01,8.00e-01,
129,8.80e-01,2.72e+00,
130,7.60e-01,8.00e-01,
131,1.04e+00,2.72e+00,
132,8.80e-01,8.00e-01,
133,1.16e+00,2.72e+00,
134,1.08e+00,2.80e+00,
135,1.32e+00,8.40e-01,
136,1.32e+00,2.84e+00,
137,1.52e+00,9.20e-01,
138,1.48e+00,2.84e+00,
139,1.76e+00,9.20e-01,
140,1.68e+00,9.60e-01,
141,1.92e+00,2.92e+00,
142,1.88e+00,1.04e+00,
143,2.16e+00,2.92e+00,
144,2.08e+00,1.12e+00,
145,2.36e+00,2.96e+00,
146,2.28e+00,3.00e+00,
147,2.60e+00,1.20e+00,
148,2.52e+00,3.04e+00,
149,2.76e+00,1.20e+00,
150,2.68e+00,1.28e+00,
151,3.00e+00,3.08e+00,
152,2.92e+00,1.36e+00,
153,3.20e+00,3.08e+00,
154,3.16e+00,1.40e+00,
155,3.44e+00,3.16e+00,
156,3.32e+00,3.16e+00,
157,3.60e+00,1.44e+00,
158,3.52e+00,1.52e+00,
159,3.76e+00,3.20e+00,
160,3.68e+00,3.20e+00,
161,3.96e+00,1.56e+00,
162,3.88e+00,1.56e+00,
163,4.16e+00,3.20e+00,
164,4.04e+00,3.24e+00,
165,4.24e+00,1.68e+00,
166,4.24e+00,3.28e+00,
167,4.44e+00,1.76e+00,
168,4.36e+00,3.28e+00,
169,4.56e+00,1.76e+00,
170,4.48e+00,3.32e+00,
171,4.68e+00,1.76e+00,
172,4.60e+00,1.80e+00,
173,4.76e+00,3.32e+00,
174,4.64e+00,1.88e+00,
175,4.84e+00,3.32e+00,
176,4.76e+00,3.40e+00,
177,4.92e+00,1.96e+00,
178,4.92e+00,3.40e+00,
179,4.80e+00,1.96e+00,
180,4.84e+00,3.40e+00,
181,4.96e+00,1.96e+00,
182,4.96e+00,3.40e+00,
183,4.84e+00,2.00e+00,
184,4.96e+00,2.00e+00,
185,4.84e+00,3.44e+00,
186,4.92e+00,3.44e+00,
187,4.84e+00,2.00e+00,
188,4.92e+00,3.44e+00,
189,4.76e+00,2.00e+00,
190,4.84e+00,3.44e+00,
191,4.72e+00,2.00e+00,
192,4.76e+00,3.44e+00,
193,4.52e+00,1.96e+00,
194,4.68e+00,1.96e+00,
195,4.48e+00,3.44e+00,
196,4.56e+00,1.92e+00,
197,4.36e+00,3.44e+00,
198,4.44e+00,3.44e+00,
199,4.24e+00,1.88e+00,
200,4.32e+00,3.40e+00,
201,4.04e+00,1.88e+00,
202,4.12e+00,3.40e+00,
203,3.88e+00,1.80e+00,
204,3.96e+00,1.80e+00,
205,3.72e+00,3.36e+00,
206,3.80e+00,1.76e+00,
207,3.52e+00,3.40e+00,
208,3.60e+00,3.40e+00,
209,3.32e+00,1.68e+00,
210,3.44e+00,3.32e+00,
211,3.16e+00,1.60e+00,
212,3.20e+00,3.32e+00,
213,2.92e+00,1.56e+00,
214,3.00e+00,1.56e+00,
215,2.72e+00,3.28e+00,
216,2.76e+00,3.28e+00,
217,2.48e+00,1.44e+00,
218,2.60e+00,3.20e+00,
219,2.32e+00,1.40e+00,
220,2.36e+00,3.20e+00,
221,2.08e+00,1.32e+00,
222,2.16e+00,3.16e+00,
223,1.92e+00,1.28e+00,
224,1.92e+00,1.28e+00,
225,1.68e+00,3.08e+00,
226,1.76e+00,3.08e+00,
227,1.48e+00,1.12e+00,
228,1.56e+00,3.04e+00,
229,1.32e+00,1.08e+00,
230,1.32e+00,2.96e+00,
231,1.12e+00,1.12e+00,
232,1.16e+00,2.96e+00,
233,9.60e-01,1.04e+00,
234,1.04e+00,9.60e-01,
235,7.20e-01,2.84e+00,
236,8.40e-01,9.20e-01,
237,6.40e-01,2.84e+00,
238,7.20e-01,2.76e+00,
239,5.20e-01,8.40e-01,
240,6.00e-01,2.72e+00,
241,4.00e-01,8.40e-01,
242,5.20e-01,2.72e+00,
243,2.80e-01,8.40e-01,
244,4.00e-01,8.00e-01,
245,2.40e-01,2.68e+00,
246,3.20e-01,7.60e-01,
247,1.60e-01,2.68e+00,
248,2.80e-01,2.60e+00,
249,1.20e-01,7.60e-01,
250,1.20e-01,2.60e+00,
251,2.00e-01,6.80e-01,
252,2.00e-01,2.56e+00,
253,1.20e-01,6.80e-01,
254,2.00e-01,6.80e-01,
255,4.00e-02,2.52e+00,
256,1.20e-01,6.40e-01,
257,2.80e-01,2.56e+00,
258,1.60e-01,2.56e+00,
259,3.20e-01,6.40e-01,
260,2.40e-01,2.52e+00,
261,3.60e-01,7.20e-01,
262,2.80e-01,7.60e-01,
263,4.40e-01,2.60e+00,
264,3.60e-01,7.20e-01,
265,5.60e-01,2.60e+00,
266,4.80e-01,7.60e-01,
267,6.80e-01,2.68e+00,
268,6.00e-01,7.60e-01,
269,8.00e-01,2.68e+00,
270,7.60e-01,2.72e+00,
271,1.00e+00,8.00e-01,
272,8.80e-01,2.72e+00,
273,1.16e+00,8.40e-01,
274,1.12e+00,2.76e+00,
275,1.32e+00,8.40e-01,
276,1.24e+00,9.20e-01,
277,1.52e+00,2.84e+00,
278,1.48e+00,9.20e-01,
279,1.68e+00,2.92e+00,
280,1.60e+00,2.92e+00,
281,1.88e+00,1.00e+00,
282,1.84e+00,2.88e+00,
283,2.12e+00,1.08e+00,
284,2.04e+00,2.96e+00,
285,2.32e+00,1.16e+00,
286,2.24e+00,1.16e+00,
287,2.52e+00,3.04e+00,
288,2.44e+00,1.20e+00,
289,2.76e+00,3.00e+00,
290,2.68e+00,1.28e+00,
291,2.96e+00,3.08e+00,
292,2.84e+00,3.08e+00,
293,3.16e+00,1.32e+00,
294,3.08e+00,3.16e+00,
295,3.36e+00,1.40e+00,
296,3.28e+00,1.44e+00,
297,3.56e+00,3.16e+00,
298,3.52e+00,1.44e+00,
299,3.80e+00,3.20e+00,
300,3.68e+00,1.52e+00,
301,3.92e+00,3.20e+00,
302,3.88e+00,3.20e+00,
303,4.08e+00,1.56e+00,
304,4.08e+00,3.28e+00,
305,4.28e+00,1.68e+00,
306,4.16e+00,3.28e+00,
307,4.44e+00,1.68e+00,
308,4.36e+00,1.76e+00,
309,4.56e+00,3.32e+00,
310,4.48e+00,1.80e+00,
311,4.64e+00,3.32e+00,
312,4.60e+00,3.32e+00,
313,4.76e+00,1.92e+00,
314,4.64e+00,3.36e+00,
315,4.80e+00,1.96e+00,
316,4.72e+00,3.40e+00,
317,4.88e+00,2.00e+00,
318,4.84e+00,1.96e+00,
319,4.92e+00,3.44e+00,
320,4.84e+00,2.08e+00,
321,4.96e+00,3.44e+00,
322,4.96e+00,3.44e+00,
323,4.84e+00,2.08e+00,
324,4.96e+00,3.44e+00,
325,4.84e+00,2.08e+00,
326,4.92e+00,3.44e+00,
327,4.76e+00,2.04e+00,
328,4.92e+00,3.44e+00,
329,4.76e+00,2.04e+00,
330,4.84e+00,2.04e+00,
331,4.72e+00,3.44e+00,
332,4.80e+00,2.04e+00,
333,4.60e+00,3.44e+00,
334,4.68e+00,3.44e+00,
335,4.52e+00,2.00e+00,
336,4.56e+00,3.44e+00,
337,4.36e+00,2.00e+00,
338,4.44e+00,3.44e+00,
339,4.20e+00,2.00e+00,
340,4.32e+00,1.92e+00,
341,4.12e+00,3.44e+00,
342,4.16e+00,3.40e+00,
343,3.92e+00,1.84e+00,
344,4.00e+00,3.40e+00,
345,3.76e+00,1.80e+00,
346,3.84e+00,3.40e+00,
347,3.56e+00,1.84e+00,
348,3.68e+00,3.40e+00,
349,3.40e+00,1.76e+00,
350,3.44e+00,1.68e+00,
351,3.16e+00,3.40e+00,
352,3.24e+00,3.32e+00,
353,2.96e+00,1.56e+00,
354,3.08e+00,3.32e+00,
355,2.72e+00,1.56e+00,
356,2.84e+00,3.24e+00,
357,2.56e+00,1.52e+00,
358,2.60e+00,3.24e+00,
359,2.32e+00,1.48e+00,
360,2.40e+00,1.36e+00,
361,2.16e+00,3.20e+00,
362,2.24e+00,1.32e+00,
363,1.92e+00,3.16e+00,
364,2.00e+00,3.16e+00,
365,1.72e+00,1.20e+00,
366,1.80e+00,3.08e+00,
367,1.48e+00,1.24e+00,
368,1.56e+00,3.04e+00,
369,1.32e+00,1.12e+00,
370,1.40e+00,1.08e+00,
371,1.12e+00,2.96e+00,
372,1.20e+00,1.04e+00,
373,9.60e-01,2.88e+00,
374,1.04e+00,9.60e-01,
375,8.40e-01,2.92e+00,
376,9.20e-01,2.84e+00,
377,6.40e-01,9.20e-01,
378,7.60e-01,2.84e+00,
379,5.20e-01,9.20e-01,
380,6.00e-01,8.40e-01,
381,4.00e-01,2.72e+00,
382,5.20e-01,8.40e-01,
383,2.80e-01,2.68e+00,
384,4.00e-01,7.20e-01,
385,2.80e-01,2.64e+00,
386,3.20e-01,2.68e+00,
387,1.60e-01,7.20e-01,
388,2.80e-01,2.68e+00,
389,1.20e-01,7.20e-01,
390,1.20e-01,7.20e-01,
391,2.00e-01,2.60e+00,
392,2.00e-01,6.80e-01,
393,1.20e-01,2.52e+00,
394,2.00e-01,6.80e-01,
395,4.00e-02,2.56e+00,
396,1.20e-01,2.52e+00,
397,2.80e-01,6.40e-01,
398,1.60e-01,6.80e-01,
399,3.20e-01,2.60e+00,
400,1.60e-01,7.20e-01,
401,3.60e-01,2.60e+00,
402,2.80e-01,7.60e-01,
403,4.40e-01,2.60e+00,
404,3.60e-01,7.20e-01,
405,5.60e-01,2.60e+00,
406,4.80e-01,7.20e-01,
407,6.80e-01,2.68e+00,
408,6.00e-01,2.64e+00,
409,8.00e-01,8.00e-01,
410,7.20e-01,7.60e-01,
411,9.60e-01,2.72e+00,
412,8.80e-01,7.60e-01,
413,1.08e+00,2.72e+00,
414,1.00e+00,8.80e-01,
415,1.28e+00,2.80e+00,
416,1.20e+00,8.40e-01,
417,1.44e+00,2.80e+00,
418,1.36e+00,2.84e+00,
419,1.68e+00,1.00e+00,
420,1.60e+00,1.04e+00,
421,1.84e+00,2.92e+00,
422,1.80e+00,1.08e+00,
423,2.04e+00,2.92e+00,
424,2.04e+00,1.08e+00,
425,2.28e+00,2.96e+00,
426,2.20e+00,1.16e+00,
427,2.48e+00,3.00e+00,
428,2.44e+00,3.04e+00,
429,2.72e+00,1.20e+00,
430,2.60e+00,1.28e+00,
431,2.88e+00,3.08e+00,
432,2.88e+00,1.32e+00,
433,3.12e+00,3.12e+00,
434,3.04e+00,1.44e+00,
435,3.32e+00,3.12e+00,
436,3.28e+00,1.48e+00,
437,3.56e+00,3.12e+00,
438,3.44e+00,3.20e+00,
439,3.72e+00,1.56e+00,
440,3.64e+00,3.20e+00,
441,3.92e+00,1.56e+00,
442,3.80e+00,1.64e+00,
443,4.08e+00,3.28e+00,
444,4.00e+00,3.24e+00,
445,4.24e+00,1.64e+00,
446,4.16e+00,1.72e+00,
447,4.40e+00,3.32e+00,
448,4.28e+00,3.32e+00,
449,4.52e+00,1.80e+00,
450,4.44e+00,3.32e+00,
451,4.60e+00,1.80e+00,
452,4.52e+00,3.32e+00,
453,4.72e+00,1.88e+00,
454,4.64e+00,3.40e+00,
455,4.80e+00,1.92e+00,
456,4.72e+00,1.96e+00,
457,4.92e+00,3.40e+00,
458,4.76e+00,2.00e+00,
459,4.92e+00,3.40e+00,
460,4.96e+00,3.44e+00,
461,4.76e+00,2.00e+00,
462,4.84e+00,3.44e+00,
463,5.00e+00,2.00e+00,
464,4.96e+00,3.44e+00,
465,4.84e+00,2.04e+00,
466,4.84e+00,2.00e+00,
467,4.92e+00,3.44e+00,
468,4.92e+00,2.04e+00,
469,4.76e+00,3.44e+00,
470,4.72e+00,3.44e+00,
471,4.88e+00,2.04e+00,
472,4.80e+00,3.44e+00,
473,4.64e+00,2.04e+00,
474,4.68e+00,3.44e+00,
475,4.52e+00,2.00e+00,
476,4.64e+00,3.44e+00,
477,4.40e+00,2.00e+00,
478,4.48e+00,3.44e+00,
479,4.28e+00,1.92e+00,
480,4.36e+00,3.44e+00,
481,4.12e+00,1.92e+00,
482,4.20e+00,3.44e+00,
483,4.00e+00,1.84e+00,
484,3.96e+00,1.88e+00,
485,3.80e+00,3.44e+00,
486,3.84e+00,3.40e+00,
487,3.60e+00,1.80e+00,
488,3.64e+00,3.40e+00,
489,3.40e+00,1.68e+00,
490,3.48e+00,3.40e+00,
491,3.20e+00,1.68e+00,
492,3.28e+00,3.32e+00,
493,3.04e+00,1.64e+00,
494,3.08e+00,3.32e+00,
495,2.80e+00,1.56e+00,
496,2.88e+00,1.56e+00,
497,2.56e+00,3.28e+00,
498,2.64e+00,1.52e+00,
499,2.36e+00,3.24e+00,
500,2.48e+00,3.20e+00,
501,2.12e+00,1.40e+00,
502,2.24e+00,3.20e+00,
503,1.96e+00,1.32e+00,
504,2.04e+00,3.16e+00,
505,1.72e+00,1.32e+00,
506,1.80e+00,1.24e+00,
507,1.56e+00,3.04e+00,
508,1.64e+00,1.16e+00,
509,1.36e+00,3.04e+00,
510,1.44e+00,3.04e+00,
511,1.20e+00,1.08e+00,
512,1.28e+00,2.96e+00,
513,1.00e+00,1.08e+00,
514,1.08e+00,2.96e+00,
515,8.40e-01,1.04e+00,
516,9.20e-01,9.60e-01,
517,7.20e-01,2.84e+00,
518,7.60e-01,9.20e-01,
519,6.00e-01,2.76e+00,
520,6.80e-01,2.80e+00,
521,4.80e-01,8.40e-01,
522,5.20e-01,2.80e+00,
523,3.60e-01,8.40e-01,
524,4.40e-01,2.72e+00,
525,2.80e-01,8.00e-01,
526,3.20e-01,7.60e-01,
527,1.60e-01,2.68e+00,
528,2.80e-01,8.00e-01,
529,1.20e-01,2.60e+00,
530,1.20e-01,7.20e-01,
531,2.00e-01,2.60e+00,
532,1.20e-01,2.52e+00,
533,2.00e-01,7.20e-01,
534,2.00e-01,2.56e+00,
535,4.00e-02,6.80e-01,
536,1.20e-01,6.80e-01,
537,2.40e-01,2.56e+00,
538,1.20e-01,6.80e-01,
539,2.80e-01,2.56e+00,
540,1.60e-01,6.80e-01,
541,3.20e-01,2.60e+00,
542,2.80e-01,7.20e-01,
543,4.40e-01,2.60e+00,
544,3.60e-01,2.60e+00,
545,4.80e-01,7.20e-01,
546,4.80e-01,7.20e-01,
547,6.00e-01,2.68e+00,
548,6.00e-01,8.00e-01,
549,8.00e-01,2.68e+00,
550,6.40e-01,8.00e-01,
551,9.20e-01,2.72e+00,
552,8.40e-01,8.40e-01,
553,1.08e+00,2.68e+00,
554,1.00e+00,2.76e+00,
555,1.28e+00,9.20e-01,
556,1.20e+00,9.20e-01,
557,1.44e+00,2.84e+00,
558,1.36e+00,1.00e+00,
559,1.64e+00,2.92e+00,
560,1.52e+00,1.00e+00,
561,1.80e+00,2.88e+00,
562,1.72e+00,1.04e+00,
563,2.04e+00,2.92e+00,
564,1.96e+00,3.04e+00,
565,2.24e+00,1.16e+00,
566,2.16e+00,3.04e+00,
567,2.48e+00,1.16e+00,
568,2.40e+00,1.20e+00,
569,2.64e+00,3.08e+00,
570,2.60e+00,1.28e+00,
571,2.88e+00,3.08e+00,
572,2.80e+00,1.32e+00,
573,3.12e+00,3.08e+00,
574,3.04e+00,3.16e+00,
575,3.32e+00,1.44e+00,
576,3.20e+00,3.16e+00,
577,3.48e+00,1.48e+00,
578,3.40e+00,3.20e+00,
579,3.68e+00,1.52e+00,
580,3.64e+00,3.20e+00,
581,3.84e+00,1.56e+00,
582,3.76e+00,1.64e+00,
583,4.04e+00,3.28e+00,
584,4.00e+00,1.64e+00,
585,4.20e+00,3.28e+00,
586,4.12e+00,3.28e+00,
587,4.40e+00,1.72e+00,
588,4.28e+00,3.32e+00,
589,4.52e+00,1.80e+00,
590,4.40e+00,3.36e+00,
591,4.60e+00,1.80e+00,
592,4.52e+00,1.88e+00,
593,4.72e+00,3.40e+00,
594,4.60e+00,1.92e+00,
595,4.80e+00,3.40e+00,
596,4.72e+00,3.40e+00,
597,4.84e+00,1.96e+00,
598,4.76e+00,3.40e+00,
599,4.92e+00,2.00e+00,
600,4.92e+00,3.44e+00,
601,4.80e+00,1.96e+00,
602,4.84e+00,2.04e+00,
603,5.00e+00,3.44e+00,
604,5.00e+00,2.08e+00,
605,4.84e+00,3.44e+00,
606,4.84e+00,3.44e+00,
607,4.92e+00,2.12e+00,
608,4.92e+00,3.44e+00,
609,4.76e+00,2.08e+00,
610,4.64e+00,2.12e+00,
611,4.88e+00,3.52e+00,
612,4.80e+00,3.44e+00,
613,4.64e+00,2.12e+00,
614,4.72e+00,3.44e+00,
615,4.52e+00,2.00e+00,
616,4.64e+00,3.44e+00,
617,4.40e+00,2.04e+00,
618,4.48e+00,3.44e+00,
619,4.28e+00,1.96e+00,
620,4.36e+00,3.44e+00,
621,4.16e+00,1.92e+00,
622,4.28e+00,1.92e+00,
623,4.00e+00,3.44e+00,
624,4.08e+00,1.88e+00,
625,3.80e+00,3.44e+00,
626,3.92e+00,1.80e+00,
627,3.64e+00,3.40e+00,
628,3.72e+00,3.40e+00,
629,3.44e+00,1.68e+00,
630,3.56e+00,3.40e+00,
631,3.28e+00,1.68e+00,
632,3.28e+00,3.40e+00,
633,3.04e+00,1.64e+00,
634,3.12e+00,1.60e+00,
635,2.84e+00,3.32e+00,
636,2.88e+00,3.32e+00,
637,2.64e+00,1.52e+00,
638,2.72e+00,3.28e+00,
639,2.44e+00,1.44e+00,
640,2.48e+00,3.28e+00,
641,2.20e+00,1.44e+00,
642,2.28e+00,3.20e+00,
643,1.96e+00,1.36e+00,
644,2.04e+00,1.32e+00,
645,1.80e+00,3.16e+00,
646,1.88e+00,1.20e+00,
647,1.60e+00,3.08e+00,
648,1.64e+00,3.08e+00,
649,1.36e+00,1.16e+00,
650,1.44e+00,3.00e+00,
651,1.20e+00,1.12e+00,
652,1.28e+00,3.00e+00,
653,1.04e+00,1.12e+00,
654,1.12e+00,1.00e+00,
655,8.80e-01,2.88e+00,
656,9.60e-01,9.60e-01,
657,7.20e-01,2.84e+00,
658,8.00e-01,2.84e+00,
659,6.00e-01,9.20e-01,
660,6.80e-01,2.80e+00,
661,4.80e-01,9.60e-01,
662,5.60e-01,2.80e+00,
663,3.60e-01,8.40e-01,
664,4.40e-01,7.60e-01,
665,2.80e-01,2.72e+00,
666,4.00e-01,8.00e-01,
667,2.40e-01,2.68e+00,
668,3.20e-01,8.00e-01,
669,1.20e-01,2.68e+00,
670,2.40e-01,2.60e+00,
671,1.20e-01,7.20e-01,
672,1.20e-01,2.60e+00,
673,2.00e-01,7.20e-01,
674,2.00e-01,6.80e-01,
675,4.00e-02,2.56e+00,
676,1.20e-01,6.40e-01,
677,2.00e-01,2.56e+00,
678,1.60e-01,6.80e-01,
679,2.80e-01,2.52e+00,
680,1.60e-01,2.52e+00,
681,3.20e-01,6.80e-01,
682,2.40e-01,2.60e+00,
683,4.40e-01,7.20e-01,
684,3.60e-01,7.20e-01,
685,4.80e-01,2.68e+00,
686,4.00e-01,7.20e-01,
687,6.40e-01,2.64e+00,
688,5.20e-01,8.00e-01,
689,7.20e-01,2.72e+00,
690,6.80e-01,2.72e+00,
691,9.20e-01,8.00e-01,
692,8.40e-01,8.40e-01,
693,1.04e+00,2.76e+00,
694,9.60e-01,8.80e-01,
695,1.20e+00,2.80e+00,
696,1.12e+00,8.40e-01,
697,1.40e+00,2.84e+00,
698,1.32e+00,9.60e-01,
699,1.56e+00,2.84e+00,
700,1.52e+00,2.88e+00,
701,1.80e+00,1.04e+00,
702,1.72e+00,2.92e+00,
703,2.00e+00,1.04e+00,
704,1.92e+00,2.96e+00,
705,2.24e+00,1.08e+00,
706,2.16e+00,1.12e+00,
707,2.40e+00,3.04e+00,
708,2.32e+00,1.24e+00,
709,2.60e+00,3.08e+00,
710,2.56e+00,1.24e+00,
711,2.84e+00,3.08e+00,
712,2.72e+00,3.08e+00,
713,3.08e+00,1.32e+00,
714,2.96e+00,1.40e+00,
715,3.24e+00,3.16e+00,
716,3.16e+00,1.44e+00,
717,3.48e+00,3.16e+00,
718,3.40e+00,1.52e+00,
719,3.68e+00,3.20e+00,
720,3.56e+00,1.48e+00,
721,3.84e+00,3.20e+00,
722,3.76e+00,3.20e+00,
723,4.00e+00,1.68e+00,
724,3.92e+00,3.28e+00,
725,4.20e+00,1.60e+00,
726,4.12e+00,1.76e+00,
727,4.32e+00,3.32e+00,
728,4.24e+00,1.80e+00,
729,4.52e+00,3.32e+00,
730,4.40e+00,1.88e+00,
731,4.60e+00,3.32e+00,
732,4.48e+00,3.36e+00,
733,4.68e+00,1.92e+00,
734,4.60e+00,3.40e+00,
735,4.80e+00,1.96e+00,
736,4.72e+00,3.40e+00,
737,4.84e+00,1.96e+00,
738,4.76e+00,2.00e+00,
739,4.92e+00,3.44e+00,
740,4.92e+00,2.00e+00,
741,4.76e+00,3.44e+00,
742,4.84e+00,3.44e+00,
743,4.96e+00,2.08e+00,
744,4.88e+00,3.44e+00,
745,5.00e+00,2.08e+00,
746,4.96e+00,3.44e+00,
747,4.84e+00,2.08e+00,
748,4.92e+00,2.04e+00,
749,4.76e+00,3.52e+00,
750,4.84e+00,2.04e+00,
751,4.72e+00,3.44e+00,
752,4.80e+00,3.44e+00,
753,4.64e+00,2.08e+00,
754,4.76e+00,3.44e+00,
755,4.52e+00,2.04e+00,
756,4.60e+00,2.04e+00,
757,4.48e+00,3.52e+00,
758,4.52e+00,3.44e+00,
759,4.36e+00,2.00e+00,
760,4.40e+00,2.00e+00,
761,4.16e+00,3.44e+00,
762,4.24e+00,3.44e+00,
763,4.04e+00,1.92e+00,
764,4.08e+00,3.44e+00,
765,3.88e+00,1.88e+00,
766,3.88e+00,3.44e+00,
767,3.68e+00,1.80e+00,
768,3.72e+00,3.40e+00,
769,3.48e+00,1.80e+00,
770,3.56e+00,1.76e+00,
771,3.28e+00,3.36e+00,
772,3.36e+00,1.68e+00,
773,3.08e+00,3.32e+00,
774,3.20e+00,3.36e+00,
775,2.88e+00,1.60e+00,
776,2.96e+00,3.32e+00,
777,2.68e+00,1.60e+00,
778,2.76e+00,1.52e+00,
779,2.44e+00,3.28e+00,
780,2.52e+00,1.52e+00,
781,2.28e+00,3.20e+00,
782,2.28e+00,1.40e+00,
783,2.04e+00,3.20e+00,
784,2.12e+00,3.16e+00,
785,1.84e+00,1.24e+00,
786,1.88e+00,3.12e+00,
787,1.60e+00,1.24e+00,
788,1.68e+00,3.08e+00,
789,1.44e+00,1.16e+00,
790,1.52e+00,1.16e+00,
791,1.24e+00,3.04e+00,
792,1.32e+00,1.08e+00,
793,1.08e+00,2.96e+00,
794,1.16e+00,2.96e+00,
795,8.80e-01,1.04e+00,
796,9.60e-01,2.88e+00,
797,7.60e-01,9.60e-01,
798,8.00e-01,2.84e+00,
799,6.00e-01,9.20e-01,
800,6.80e-01,9.20e-01,
801,4.80e-01,2.80e+00,
802,5.60e-01,8.40e-01,
803,4.00e-01,2.80e+00,
804,4.40e-01,2.72e+00,
805,2.80e-01,8.00e-01,
806,4.00e-01,2.68e+00,
807,2.40e-01,8.00e-01,
808,3.20e-01,2.68e+00,
809,1.60e-01,7.60e-01,
810,2.80e-01,7.60e-01,
811,1.20e-01,2.60e+00,
812,1.20e-01,7.20e-01,
813,2.00e-01,2.60e+00,
814,1.20e-01,6.80e-01,
815,2.00e-01,2.56e+00,
816,1.20e-01,2.56e+00,
817,2.80e-01,6.80e-01,
818,4.00e-02,2.56e+00,
819,2.80e-01,6.40e-01,
820,1.60e-01,6.40e-01,
821,3.20e-01,2.60e+00,
822,2.40e-01,7.20e-01,
823,3.60e-01,2.56e+00,
824,2.80e-01,7.20e-01,
825,5.20e-01,2.60e+00,
826,3.60e-01,2.56e+00,
827,6.00e-01,7.20e-01,
828,5.20e-01,2.68e+00,
829,7.60e-01,8.00e-01,
830,6.40e-01,8.00e-01,
831,8.80e-01,2.72e+00,
832,7.60e-01,8.40e-01,
833,1.04e+00,2.72e+00,
834,8.80e-01,8.40e-01,
835,1.20e+00,2.80e+00,
836,1.12e+00,8.40e-01,
837,1.36e+00,2.80e+00,
838,1.32e+00,2.84e+00,
839,1.56e+00,9.60e-01,
840,1.48e+00,2.88e+00,
841,1.76e+00,9.60e-01,
842,1.68e+00,1.04e+00,
843,1.92e+00,2.96e+00,
844,1.92e+00,1.08e+00,
845,2.16e+00,2.96e+00,
846,2.08e+00,1.16e+00,
847,2.36e+00,3.00e+00,
848,2.32e+00,3.00e+00,
849,2.60e+00,1.28e+00,
850,2.52e+00,1.32e+00,
851,2.84e+00,3.12e+00,
852,2.68e+00,3.08e+00,
853,3.00e+00,1.32e+00,
854,2.92e+00,1.40e+00,
855,3.24e+00,3.16e+00,
856,3.16e+00,1.44e+00,
857,3.40e+00,3.12e+00,
858,3.36e+00,3.16e+00,
859,3.60e+00,1.48e+00,
860,3.52e+00,3.20e+00,
861,3.76e+00,1.56e+00,
862,3.76e+00,1.56e+00,
863,3.96e+00,3.28e+00,
864,3.92e+00,1.60e+00,
865,4.16e+00,3.28e+00,
866,4.04e+00,1.68e+00,
867,4.32e+00,3.28e+00,
868,4.24e+00,3.32e+00,
869,4.44e+00,1.80e+00,
870,4.36e+00,3.32e+00,
