Code/Open_Loop_Bode_Data/Open_Loop_Frequency_Response_Signals_1/OLBD29.csv

X,CH3,CH4,Start,Increment,
Sequence,Volt,Volt,-3.000000e-01,5.000000e-04
0,1.68e+00,2.48e+00,
1,1.48e+00,2.20e+00,
2,1.56e+00,2.32e+00,
3,1.36e+00,2.16e+00,
4,1.44e+00,2.24e+00,
5,1.32e+00,2.08e+00,
6,1.40e+00,2.12e+00,
7,1.20e+00,1.92e+00,
8,1.28e+00,1.96e+00,
9,1.08e+00,1.80e+00,
10,1.16e+00,1.88e+00,
11,9.60e-01,1.72e+00,
12,1.04e+00,1.68e+00,
13,8.80e-01,1.84e+00,
14,1.00e+00,1.72e+00,
15,7.60e-01,1.56e+00,
16,8.80e-01,1.64e+00,
17,7.20e-01,1.48e+00,
18,8.00e-01,1.48e+00,
19,6.40e-01,1.84e+00,
20,6.80e-01,1.76e+00,
21,5.20e-01,2.36e+00,
22,6.40e-01,2.28e+00,
23,4.80e-01,2.52e+00,
24,5.60e-01,2.56e+00,
25,4.00e-01,2.44e+00,
26,5.20e-01,2.48e+00,
27,3.60e-01,2.68e+00,
28,4.40e-01,2.56e+00,
29,2.80e-01,2.84e+00,
30,4.00e-01,2.68e+00,
31,2.40e-01,2.84e+00,
32,3.60e-01,2.80e+00,
33,1.60e-01,2.92e+00,
34,2.80e-01,2.92e+00,
35,1.60e-01,2.80e+00,
36,2.80e-01,2.88e+00,
37,1.20e-01,2.96e+00,
38,1.20e-01,2.92e+00,
39,2.40e-01,3.04e+00,
40,1.20e-01,3.08e+00,
41,2.00e-01,2.92e+00,
42,2.00e-01,3.00e+00,
43,4.00e-02,3.12e+00,
44,2.00e-01,3.00e+00,
45,1.20e-01,3.12e+00,
46,2.00e-01,3.12e+00,
47,4.00e-02,3.00e+00,
48,2.00e-01,3.08e+00,
49,1.20e-01,3.00e+00,
50,1.20e-01,3.04e+00,
51,2.00e-01,2.56e+00,
52,1.60e-01,2.60e+00,
53,2.80e-01,2.28e+00,
54,1.60e-01,2.32e+00,
55,3.20e-01,2.16e+00,
56,3.20e-01,2.24e+00,
57,2.40e-01,2.12e+00,
58,2.40e-01,2.20e+00,
59,4.00e-01,1.96e+00,
60,2.80e-01,2.00e+00,
61,4.40e-01,1.80e+00,
62,3.60e-01,1.88e+00,
63,5.20e-01,1.72e+00,
64,4.00e-01,1.76e+00,
65,5.60e-01,1.68e+00,
66,4.80e-01,1.72e+00,
67,6.40e-01,1.60e+00,
68,6.00e-01,1.64e+00,
69,7.20e-01,1.48e+00,
70,6.40e-01,1.60e+00,
71,8.00e-01,1.44e+00,
72,7.20e-01,1.36e+00,
73,9.20e-01,1.52e+00,
74,8.40e-01,1.48e+00,
75,1.00e+00,1.32e+00,
76,8.80e-01,1.36e+00,
77,1.08e+00,1.24e+00,
78,1.00e+00,1.36e+00,
79,1.16e+00,1.20e+00,
80,1.08e+00,1.28e+00,
81,1.28e+00,1.16e+00,
82,1.20e+00,1.24e+00,
83,1.40e+00,1.08e+00,
84,1.28e+00,1.08e+00,
85,1.52e+00,1.24e+00,
86,1.44e+00,1.08e+00,
87,1.64e+00,1.20e+00,
88,1.52e+00,1.12e+00,
89,1.76e+00,1.84e+00,
90,1.68e+00,1.80e+00,
91,1.88e+00,2.12e+00,
92,1.76e+00,2.04e+00,
93,2.00e+00,2.20e+00,
94,1.88e+00,2.08e+00,
95,2.12e+00,2.32e+00,
96,2.04e+00,2.28e+00,
97,2.24e+00,2.48e+00,
98,2.12e+00,2.40e+00,
99,2.36e+00,2.56e+00,
100,2.24e+00,2.52e+00,
101,2.48e+00,2.60e+00,
102,2.36e+00,2.56e+00,
103,2.60e+00,2.68e+00,
104,2.44e+00,2.60e+00,
105,2.72e+00,2.80e+00,
106,2.68e+00,2.72e+00,
107,2.84e+00,2.84e+00,
108,2.80e+00,2.76e+00,
109,3.00e+00,2.84e+00,
110,2.92e+00,2.80e+00,
111,3.12e+00,2.92e+00,
112,3.04e+00,2.96e+00,
113,3.24e+00,2.84e+00,
114,3.16e+00,2.88e+00,
115,3.36e+00,3.00e+00,
116,3.28e+00,2.96e+00,
117,3.48e+00,2.88e+00,
118,3.40e+00,2.96e+00,
119,3.60e+00,2.80e+00,
120,3.52e+00,2.84e+00,
121,3.72e+00,2.40e+00,
122,3.64e+00,2.44e+00,
123,3.80e+00,2.16e+00,
124,3.76e+00,2.20e+00,
125,3.92e+00,2.04e+00,
126,3.88e+00,2.08e+00,
127,4.04e+00,1.96e+00,
128,3.92e+00,2.00e+00,
129,4.12e+00,1.80e+00,
130,4.04e+00,1.88e+00,
131,4.20e+00,1.68e+00,
132,4.16e+00,1.76e+00,
133,4.32e+00,1.60e+00,
134,4.24e+00,1.64e+00,
135,4.40e+00,1.56e+00,
136,4.28e+00,1.60e+00,
137,4.48e+00,1.44e+00,
138,4.40e+00,1.52e+00,
139,4.56e+00,1.36e+00,
140,4.48e+00,1.48e+00,
141,4.64e+00,1.32e+00,
142,4.52e+00,1.40e+00,
143,4.68e+00,1.24e+00,
144,4.60e+00,1.36e+00,
145,4.76e+00,1.20e+00,
146,4.64e+00,1.28e+00,
147,4.80e+00,1.16e+00,
148,4.72e+00,1.24e+00,
149,4.84e+00,1.08e+00,
150,4.76e+00,1.08e+00,
151,4.88e+00,1.16e+00,
152,4.76e+00,1.12e+00,
153,4.92e+00,1.00e+00,
154,4.84e+00,1.00e+00,
155,4.92e+00,1.40e+00,
156,4.92e+00,1.36e+00,
157,4.84e+00,1.96e+00,
158,4.84e+00,1.92e+00,
159,4.96e+00,2.08e+00,
160,4.88e+00,2.00e+00,
161,4.96e+00,2.12e+00,
162,5.00e+00,2.04e+00,
163,4.84e+00,2.32e+00,
164,4.84e+00,2.24e+00,
165,4.96e+00,2.48e+00,
166,4.84e+00,2.40e+00,
167,4.92e+00,2.56e+00,
168,4.84e+00,2.44e+00,
169,4.92e+00,2.60e+00,
170,4.92e+00,2.44e+00,
171,4.72e+00,2.72e+00,
172,4.88e+00,2.60e+00,
173,4.72e+00,2.80e+00,
174,4.80e+00,2.68e+00,
175,4.64e+00,2.84e+00,
176,4.80e+00,2.76e+00,
177,4.64e+00,2.92e+00,
178,4.76e+00,2.80e+00,
179,4.60e+00,2.92e+00,
180,4.68e+00,2.84e+00,
181,4.52e+00,2.96e+00,
182,4.64e+00,2.88e+00,
183,4.48e+00,3.04e+00,
184,4.56e+00,2.92e+00,
185,4.40e+00,3.04e+00,
186,4.52e+00,3.04e+00,
187,4.28e+00,2.92e+00,
188,4.40e+00,2.96e+00,
189,4.24e+00,3.08e+00,
190,4.32e+00,3.00e+00,
191,4.16e+00,3.08e+00,
192,4.24e+00,3.00e+00,
193,4.04e+00,3.12e+00,
194,4.12e+00,3.00e+00,
195,3.92e+00,3.08e+00,
196,4.04e+00,3.00e+00,
197,3.84e+00,3.16e+00,
198,3.92e+00,3.08e+00,
199,3.76e+00,3.00e+00,
200,3.84e+00,3.04e+00,
201,3.64e+00,2.76e+00,
202,3.72e+00,2.80e+00,
203,3.52e+00,2.28e+00,
204,3.60e+00,2.36e+00,
205,3.40e+00,2.16e+00,
206,3.48e+00,2.20e+00,
207,3.28e+00,2.08e+00,
208,3.36e+00,2.20e+00,
209,3.16e+00,1.96e+00,
210,3.24e+00,2.08e+00,
211,3.04e+00,1.84e+00,
212,3.12e+00,1.88e+00,
213,2.92e+00,1.72e+00,
214,3.00e+00,1.76e+00,
215,2.80e+00,1.68e+00,
216,2.88e+00,1.72e+00,
217,2.56e+00,1.52e+00,
218,2.72e+00,1.64e+00,
219,2.56e+00,1.56e+00,
220,2.60e+00,1.52e+00,
221,2.36e+00,2.24e+00,
222,2.48e+00,2.24e+00,
223,2.24e+00,2.56e+00,
224,2.36e+00,2.40e+00,
225,2.12e+00,2.60e+00,
226,2.24e+00,2.56e+00,
227,2.00e+00,2.44e+00,
228,2.12e+00,2.52e+00,
229,1.88e+00,2.72e+00,
230,2.00e+00,2.68e+00,
231,1.76e+00,2.84e+00,
232,1.88e+00,2.76e+00,
233,1.64e+00,2.88e+00,
234,1.76e+00,2.80e+00,
235,1.52e+00,2.92e+00,
236,1.64e+00,2.80e+00,
237,1.36e+00,2.96e+00,
238,1.52e+00,2.88e+00,
239,1.32e+00,3.04e+00,
240,1.40e+00,2.92e+00,
241,1.12e+00,3.08e+00,
242,1.28e+00,2.92e+00,
243,1.08e+00,3.08e+00,
244,1.16e+00,3.00e+00,
245,1.00e+00,3.08e+00,
246,1.04e+00,3.04e+00,
247,8.80e-01,3.16e+00,
248,1.00e+00,3.04e+00,
249,8.00e-01,3.20e+00,
250,8.80e-01,3.12e+00,
251,7.20e-01,3.16e+00,
252,8.00e-01,3.12e+00,
253,6.40e-01,3.20e+00,
254,6.80e-01,3.08e+00,
255,5.20e-01,3.20e+00,
256,6.40e-01,3.16e+00,
257,4.80e-01,3.04e+00,
258,5.60e-01,3.16e+00,
259,4.00e-01,2.92e+00,
260,5.20e-01,2.96e+00,
261,3.60e-01,2.48e+00,
262,4.40e-01,2.48e+00,
263,2.80e-01,2.28e+00,
264,4.00e-01,2.32e+00,
265,2.40e-01,2.16e+00,
266,3.20e-01,2.24e+00,
267,2.40e-01,2.08e+00,
268,3.20e-01,2.20e+00,
269,1.60e-01,1.96e+00,
270,2.80e-01,2.00e+00,
271,1.20e-01,1.84e+00,
272,2.00e-01,1.88e+00,
273,1.20e-01,1.76e+00,
274,1.20e-01,1.84e+00,
275,2.00e-01,1.68e+00,
276,2.00e-01,1.76e+00,
277,8.00e-02,1.60e+00,
278,2.00e-01,1.64e+00,
279,8.00e-02,1.52e+00,
280,2.00e-01,1.60e+00,
281,1.20e-01,1.44e+00,
282,2.00e-01,1.52e+00,
283,4.00e-02,1.40e+00,
284,1.20e-01,1.48e+00,
285,2.00e-01,1.32e+00,
286,1.20e-01,1.32e+00,
287,2.80e-01,1.40e+00,
288,1.60e-01,1.32e+00,
289,2.80e-01,1.80e+00,
290,2.40e-01,1.76e+00,
291,3.20e-01,2.24e+00,
292,2.40e-01,2.16e+00,
293,4.00e-01,2.36e+00,
294,2.80e-01,2.28e+00,
295,4.40e-01,2.44e+00,
296,3.60e-01,2.32e+00,
297,5.20e-01,2.60e+00,
298,4.00e-01,2.52e+00,
299,5.60e-01,2.72e+00,
300,4.80e-01,2.64e+00,
301,6.40e-01,2.80e+00,
302,5.20e-01,2.68e+00,
303,6.80e-01,2.84e+00,
304,6.00e-01,2.76e+00,
305,8.00e-01,2.84e+00,
306,7.20e-01,2.92e+00,
307,8.40e-01,2.76e+00,
308,7.60e-01,2.88e+00,
309,9.60e-01,2.96e+00,
310,8.80e-01,2.96e+00,
311,1.04e+00,2.84e+00,
312,9.60e-01,2.88e+00,
313,1.16e+00,2.96e+00,
314,1.08e+00,2.92e+00,
315,1.28e+00,2.60e+00,
316,1.20e+00,2.60e+00,
317,1.32e+00,2.16e+00,
318,1.28e+00,2.24e+00,
319,1.44e+00,2.04e+00,
320,1.36e+00,2.12e+00,
321,1.56e+00,1.96e+00,
322,1.52e+00,2.08e+00,
323,1.68e+00,1.88e+00,
324,1.60e+00,1.96e+00,
325,1.80e+00,1.72e+00,
326,1.72e+00,1.76e+00,
327,1.92e+00,1.64e+00,
328,1.84e+00,1.72e+00,
329,2.04e+00,1.56e+00,
330,2.00e+00,1.64e+00,
331,2.16e+00,1.48e+00,
332,2.12e+00,1.60e+00,
333,2.28e+00,1.44e+00,
334,2.20e+00,1.48e+00,
335,2.48e+00,1.36e+00,
336,2.40e+00,1.40e+00,
337,2.60e+00,1.28e+00,
338,2.48e+00,1.36e+00,
339,2.72e+00,1.24e+00,
340,2.60e+00,1.20e+00,
341,2.84e+00,1.28e+00,
342,2.72e+00,1.24e+00,
343,2.96e+00,1.12e+00,
344,2.84e+00,1.16e+00,
345,3.08e+00,1.08e+00,
346,2.92e+00,1.16e+00,
347,3.20e+00,1.04e+00,
348,3.16e+00,1.12e+00,
349,3.36e+00,1.00e+00,
350,3.28e+00,1.12e+00,
351,3.44e+00,9.60e-01,
352,3.28e+00,1.04e+00,
353,3.56e+00,9.60e-01,
354,3.52e+00,1.00e+00,
355,3.68e+00,8.80e-01,
356,3.56e+00,9.20e-01,
357,3.80e+00,1.40e+00,
358,3.68e+00,1.40e+00,
359,3.92e+00,1.88e+00,
360,3.80e+00,1.80e+00,
361,4.04e+00,1.96e+00,
362,3.92e+00,1.88e+00,
363,4.08e+00,2.08e+00,
364,4.04e+00,1.96e+00,
365,4.20e+00,2.20e+00,
366,4.12e+00,2.16e+00,
367,4.28e+00,2.36e+00,
368,4.24e+00,2.32e+00,
369,4.40e+00,2.48e+00,
370,4.28e+00,2.40e+00,
371,4.44e+00,2.56e+00,
372,4.36e+00,2.44e+00,
373,4.56e+00,2.60e+00,
374,4.48e+00,2.56e+00,
375,4.64e+00,2.72e+00,
376,4.52e+00,2.64e+00,
377,4.68e+00,2.80e+00,
378,4.60e+00,2.68e+00,
379,4.72e+00,2.80e+00,
380,4.64e+00,2.76e+00,
381,4.80e+00,2.84e+00,
382,4.80e+00,2.80e+00,
383,4.72e+00,2.92e+00,
384,4.72e+00,2.96e+00,
385,4.88e+00,2.84e+00,
386,4.76e+00,2.88e+00,
387,4.92e+00,2.96e+00,
388,4.84e+00,2.92e+00,
389,4.92e+00,3.04e+00,
390,4.84e+00,3.04e+00,
391,4.92e+00,2.88e+00,
392,4.84e+00,2.92e+00,
393,4.96e+00,3.08e+00,
394,4.88e+00,3.04e+00,
395,4.96e+00,2.92e+00,
396,4.96e+00,3.04e+00,
397,4.84e+00,2.88e+00,
398,4.96e+00,2.96e+00,
399,4.84e+00,2.64e+00,
400,4.84e+00,2.72e+00,
401,4.96e+00,2.20e+00,
402,4.92e+00,2.32e+00,
403,4.76e+00,2.04e+00,
404,4.92e+00,2.04e+00,
405,4.76e+00,2.12e+00,
406,4.76e+00,2.08e+00,
407,4.88e+00,1.88e+00,
408,4.84e+00,1.96e+00,
409,4.72e+00,1.72e+00,
410,4.80e+00,1.84e+00,
411,4.64e+00,1.64e+00,
412,4.76e+00,1.72e+00,
413,4.60e+00,1.56e+00,
414,4.68e+00,1.64e+00,
415,4.52e+00,1.48e+00,
416,4.64e+00,1.60e+00,
417,4.48e+00,1.44e+00,
418,4.56e+00,1.48e+00,
419,4.40e+00,1.36e+00,
420,4.52e+00,1.40e+00,
421,4.28e+00,1.32e+00,
422,4.40e+00,1.32e+00,
423,4.24e+00,1.96e+00,
424,4.32e+00,1.88e+00,
425,4.16e+00,2.28e+00,
426,4.24e+00,2.20e+00,
427,4.04e+00,2.40e+00,
428,4.00e+00,2.28e+00,
429,4.16e+00,2.44e+00,
430,4.04e+00,2.32e+00,
431,3.88e+00,2.56e+00,
432,3.96e+00,2.48e+00,
433,3.76e+00,2.72e+00,
434,3.84e+00,2.60e+00,
435,3.64e+00,2.72e+00,
436,3.72e+00,2.68e+00,
437,3.56e+00,2.80e+00,
438,3.60e+00,2.68e+00,
439,3.44e+00,2.84e+00,
440,3.48e+00,2.72e+00,
441,3.32e+00,2.92e+00,
442,3.36e+00,2.88e+00,
443,3.16e+00,2.96e+00,
444,3.24e+00,2.88e+00,
445,3.08e+00,3.04e+00,
446,3.12e+00,2.92e+00,
447,2.92e+00,3.08e+00,
448,3.00e+00,2.96e+00,
449,2.80e+00,3.08e+00,
450,2.88e+00,3.00e+00,
451,2.68e+00,3.08e+00,
452,2.76e+00,3.08e+00,
453,2.56e+00,3.04e+00,
454,2.64e+00,3.04e+00,
455,2.44e+00,3.16e+00,
456,2.52e+00,3.16e+00,
457,2.32e+00,3.04e+00,
458,2.40e+00,3.16e+00,
459,2.20e+00,3.04e+00,
460,2.24e+00,3.04e+00,
461,2.08e+00,3.16e+00,
462,2.12e+00,3.04e+00,
463,1.92e+00,3.16e+00,
464,2.00e+00,3.16e+00,
465,1.80e+00,3.04e+00,
466,1.88e+00,3.08e+00,
467,1.64e+00,2.88e+00,
468,1.76e+00,2.96e+00,
469,1.56e+00,2.44e+00,
470,1.64e+00,2.48e+00,
471,1.40e+00,2.24e+00,
472,1.52e+00,2.32e+00,
473,1.32e+00,2.20e+00,
474,1.40e+00,2.24e+00,
475,1.24e+00,2.08e+00,
476,1.28e+00,2.12e+00,
477,1.08e+00,1.92e+00,
478,1.20e+00,1.96e+00,
479,1.00e+00,1.80e+00,
480,1.08e+00,1.88e+00,
481,9.20e-01,1.72e+00,
482,9.60e-01,1.76e+00,
483,8.40e-01,1.64e+00,
484,9.20e-01,1.72e+00,
485,7.20e-01,1.56e+00,
486,8.00e-01,1.64e+00,
487,6.40e-01,1.48e+00,
488,7.60e-01,1.48e+00,
489,6.00e-01,1.64e+00,
490,6.40e-01,1.64e+00,
491,4.80e-01,2.32e+00,
492,5.60e-01,2.24e+00,
493,4.00e-01,2.56e+00,
494,5.20e-01,2.44e+00,
495,3.60e-01,2.56e+00,
496,4.40e-01,2.44e+00,
497,3.20e-01,2.68e+00,
498,4.00e-01,2.56e+00,
499,2.40e-01,2.84e+00,
500,3.20e-01,2.72e+00,
501,2.00e-01,2.88e+00,
502,3.20e-01,2.80e+00,
503,1.60e-01,2.92e+00,
504,2.80e-01,2.96e+00,
505,1.20e-01,2.80e+00,
506,2.40e-01,2.88e+00,
507,1.20e-01,2.96e+00,
508,1.20e-01,2.92e+00,
509,2.00e-01,3.08e+00,
510,1.20e-01,3.00e+00,
511,2.00e-01,3.08e+00,
512,2.00e-01,3.08e+00,
513,1.20e-01,3.00e+00,
514,2.00e-01,3.04e+00,
515,1.20e-01,3.16e+00,
516,2.00e-01,3.04e+00,
517,1.20e-01,3.16e+00,
518,1.20e-01,3.00e+00,
519,2.00e-01,3.12e+00,
520,1.20e-01,3.08e+00,
521,2.80e-01,2.68e+00,
522,1.60e-01,2.72e+00,
523,2.80e-01,2.28e+00,
524,2.00e-01,2.36e+00,
525,3.20e-01,2.16e+00,
526,2.40e-01,2.24e+00,
527,4.00e-01,2.12e+00,
528,4.00e-01,2.20e+00,
529,2.80e-01,1.96e+00,
530,3.60e-01,2.08e+00,
531,4.40e-01,1.84e+00,
532,4.00e-01,1.88e+00,
533,5.20e-01,1.72e+00,
534,4.80e-01,1.84e+00,
535,6.00e-01,1.68e+00,
536,5.20e-01,1.76e+00,
537,6.80e-01,1.60e+00,
538,6.00e-01,1.64e+00,
539,7.60e-01,1.48e+00,
540,6.40e-01,1.60e+00,
541,8.40e-01,1.44e+00,
542,7.60e-01,1.52e+00,
543,9.20e-01,1.36e+00,
544,8.40e-01,1.48e+00,
545,1.04e+00,1.32e+00,
546,9.60e-01,1.40e+00,
547,1.16e+00,1.24e+00,
548,1.08e+00,1.36e+00,
549,1.20e+00,1.24e+00,
550,1.12e+00,1.28e+00,
551,1.32e+00,1.16e+00,
552,1.24e+00,1.24e+00,
553,1.44e+00,1.12e+00,
554,1.36e+00,1.16e+00,
555,1.56e+00,1.08e+00,
556,1.48e+00,1.08e+00,
557,1.68e+00,1.16e+00,
558,1.60e+00,1.12e+00,
559,1.80e+00,1.84e+00,
560,1.72e+00,1.76e+00,
561,1.92e+00,2.12e+00,
562,1.84e+00,2.16e+00,
563,2.04e+00,2.00e+00,
564,1.96e+00,2.08e+00,
565,2.16e+00,2.24e+00,
566,2.08e+00,2.20e+00,
567,2.28e+00,2.44e+00,
568,2.20e+00,2.40e+00,
569,2.40e+00,2.56e+00,
570,2.36e+00,2.68e+00,
571,2.52e+00,2.48e+00,
572,2.48e+00,2.56e+00,
573,2.64e+00,2.68e+00,
574,2.60e+00,2.64e+00,
575,2.80e+00,2.80e+00,
576,2.72e+00,2.68e+00,
577,2.92e+00,2.84e+00,
578,2.84e+00,2.76e+00,
579,3.08e+00,2.92e+00,
580,2.96e+00,2.80e+00,
581,3.20e+00,2.92e+00,
582,3.08e+00,2.88e+00,
583,3.32e+00,2.96e+00,
584,3.20e+00,2.96e+00,
585,3.44e+00,2.88e+00,
586,3.32e+00,2.96e+00,
587,3.56e+00,2.88e+00,
588,3.44e+00,2.96e+00,
589,3.68e+00,2.80e+00,
590,3.56e+00,2.84e+00,
591,3.80e+00,2.40e+00,
592,3.68e+00,2.44e+00,
593,3.92e+00,2.12e+00,
594,3.80e+00,2.20e+00,
595,3.96e+00,2.04e+00,
596,3.92e+00,2.08e+00,
597,4.08e+00,1.96e+00,
598,4.00e+00,2.00e+00,
599,4.20e+00,1.80e+00,
600,4.12e+00,1.84e+00,
601,4.28e+00,1.68e+00,
602,4.16e+00,1.72e+00,
603,4.36e+00,1.60e+00,
604,4.28e+00,1.64e+00,
605,4.44e+00,1.52e+00,
606,4.36e+00,1.60e+00,
607,4.52e+00,1.44e+00,
608,4.40e+00,1.52e+00,
609,4.56e+00,1.36e+00,
610,4.48e+00,1.40e+00,
611,4.68e+00,1.32e+00,
612,4.60e+00,1.36e+00,
613,4.76e+00,1.24e+00,
614,4.60e+00,1.36e+00,
615,4.76e+00,1.20e+00,
616,4.80e+00,1.28e+00,
617,4.64e+00,1.12e+00,
618,4.72e+00,1.24e+00,
619,4.84e+00,1.08e+00,
620,4.76e+00,1.16e+00,
621,4.88e+00,1.00e+00,
622,4.76e+00,1.12e+00,
623,4.92e+00,1.00e+00,
624,4.84e+00,1.00e+00,
625,4.92e+00,1.28e+00,
626,4.84e+00,1.28e+00,
627,4.92e+00,1.84e+00,
628,4.96e+00,1.80e+00,
629,4.84e+00,2.00e+00,
630,4.96e+00,1.96e+00,
631,4.84e+00,2.12e+00,
632,4.88e+00,2.04e+00,
633,5.00e+00,2.24e+00,
634,4.92e+00,2.20e+00,
635,4.84e+00,2.44e+00,
636,4.92e+00,2.40e+00,
637,4.76e+00,2.56e+00,
638,4.84e+00,2.44e+00,
639,4.92e+00,2.60e+00,
640,4.76e+00,2.52e+00,
641,4.88e+00,2.68e+00,
642,4.88e+00,2.56e+00,
643,4.72e+00,2.76e+00,
644,4.72e+00,2.68e+00,
645,4.80e+00,2.80e+00,
646,4.76e+00,2.76e+00,
647,4.64e+00,2.84e+00,
648,4.68e+00,2.80e+00,
649,4.60e+00,2.92e+00,
650,4.64e+00,2.80e+00,
651,4.48e+00,2.96e+00,
652,4.56e+00,2.88e+00,
653,4.40e+00,3.00e+00,
654,4.52e+00,3.04e+00,
655,4.36e+00,2.88e+00,
656,4.44e+00,2.92e+00,
657,4.28e+00,3.04e+00,
658,4.32e+00,3.04e+00,
659,4.16e+00,3.00e+00,
660,4.28e+00,2.92e+00,
661,4.12e+00,3.08e+00,
662,4.16e+00,3.08e+00,
663,3.92e+00,2.96e+00,
664,4.08e+00,3.00e+00,
665,3.88e+00,3.08e+00,
666,3.96e+00,3.08e+00,
667,3.76e+00,2.96e+00,
668,3.84e+00,3.08e+00,
669,3.68e+00,2.96e+00,
670,3.72e+00,3.04e+00,
671,3.56e+00,2.80e+00,
672,3.68e+00,2.84e+00,
673,3.44e+00,2.36e+00,
674,3.56e+00,2.40e+00,
675,3.32e+00,2.16e+00,
676,3.44e+00,2.24e+00,
677,3.20e+00,2.08e+00,
678,3.32e+00,2.20e+00,
679,3.04e+00,2.00e+00,
680,3.20e+00,2.08e+00,
681,2.96e+00,1.84e+00,
682,3.04e+00,1.96e+00,
683,2.84e+00,1.72e+00,
684,2.88e+00,1.84e+00,
685,2.68e+00,1.68e+00,
686,2.76e+00,1.72e+00,
687,2.56e+00,1.60e+00,
688,2.64e+00,1.64e+00,
689,2.44e+00,1.56e+00,
690,2.52e+00,1.56e+00,
691,2.32e+00,2.12e+00,
692,2.40e+00,2.08e+00,
693,2.20e+00,2.48e+00,
694,2.28e+00,2.40e+00,
695,2.08e+00,2.56e+00,
696,2.16e+00,2.56e+00,
697,1.96e+00,2.44e+00,
698,2.00e+00,2.48e+00,
699,1.84e+00,2.68e+00,
700,1.88e+00,2.64e+00,
701,1.72e+00,2.80e+00,
702,1.80e+00,2.76e+00,
703,1.60e+00,2.84e+00,
704,1.64e+00,2.80e+00,
705,1.48e+00,2.92e+00,
706,1.56e+00,2.80e+00,
707,1.36e+00,2.96e+00,
708,1.44e+00,2.88e+00,
709,1.24e+00,3.04e+00,
710,1.32e+00,2.92e+00,
711,1.12e+00,3.04e+00,
712,1.20e+00,3.00e+00,
713,1.04e+00,3.08e+00,
714,1.08e+00,3.00e+00,
715,9.60e-01,3.16e+00,
716,1.00e+00,3.04e+00,
717,8.40e-01,3.16e+00,
718,9.20e-01,3.04e+00,
719,7.20e-01,3.20e+00,
720,8.00e-01,3.12e+00,
721,6.40e-01,3.20e+00,
722,7.60e-01,3.12e+00,
723,6.00e-01,3.20e+00,
724,6.80e-01,3.16e+00,
725,5.20e-01,3.12e+00,
726,5.60e-01,3.04e+00,
727,4.40e-01,3.20e+00,
728,5.20e-01,3.16e+00,
729,3.60e-01,2.96e+00,
730,4.40e-01,3.04e+00,
731,3.60e-01,2.44e+00,
732,4.00e-01,2.56e+00,
733,2.40e-01,2.28e+00,
734,4.00e-01,2.36e+00,
735,2.40e-01,2.20e+00,
736,3.20e-01,2.32e+00,
737,1.60e-01,2.16e+00,
738,1.60e-01,2.20e+00,
739,2.80e-01,1.96e+00,
740,2.40e-01,2.00e+00,
741,1.20e-01,1.84e+00,
742,2.00e-01,1.88e+00,
743,8.00e-02,1.72e+00,
744,2.00e-01,1.84e+00,
745,4.00e-02,1.68e+00,
746,2.00e-01,1.76e+00,
747,8.00e-02,1.60e+00,
748,1.20e-01,1.64e+00,
749,2.00e-01,1.56e+00,
750,2.00e-01,1.60e+00,
751,1.20e-01,1.44e+00,
752,1.20e-01,1.52e+00,
753,2.00e-01,1.40e+00,
754,1.20e-01,1.48e+00,
755,2.80e-01,1.36e+00,
756,2.80e-01,1.40e+00,
757,1.20e-01,1.28e+00,
758,1.60e-01,1.32e+00,
759,3.20e-01,1.64e+00,
760,3.20e-01,1.64e+00,
761,2.40e-01,2.20e+00,
762,2.80e-01,2.08e+00,
763,4.00e-01,2.40e+00,
764,3.60e-01,2.24e+00,
765,4.40e-01,2.44e+00,
766,3.60e-01,2.36e+00,
767,5.20e-01,2.56e+00,
768,4.80e-01,2.52e+00,
769,5.60e-01,2.68e+00,
770,5.20e-01,2.64e+00,
771,6.80e-01,2.72e+00,
772,6.00e-01,2.68e+00,
773,7.60e-01,2.80e+00,
774,6.40e-01,2.76e+00,
775,8.00e-01,2.84e+00,
776,7.60e-01,2.80e+00,
777,9.20e-01,2.92e+00,
778,8.40e-01,2.88e+00,
779,1.00e+00,2.96e+00,
780,9.20e-01,2.96e+00,
781,1.12e+00,2.88e+00,
782,1.00e+00,2.96e+00,
783,1.20e+00,2.88e+00,
784,1.12e+00,2.96e+00,
785,1.32e+00,2.64e+00,
786,1.24e+00,2.72e+00,
787,1.40e+00,2.20e+00,
788,1.36e+00,2.24e+00,
789,1.52e+00,2.04e+00,
790,1.48e+00,2.12e+00,
791,1.64e+00,2.04e+00,
792,1.60e+00,2.12e+00,
793,1.76e+00,1.92e+00,
794,1.72e+00,1.96e+00,
795,1.88e+00,1.76e+00,
796,1.84e+00,1.84e+00,
797,2.00e+00,1.64e+00,
798,1.92e+00,1.76e+00,
799,2.16e+00,1.56e+00,
800,2.08e+00,1.64e+00,
801,2.28e+00,1.52e+00,
802,2.20e+00,1.60e+00,
803,2.40e+00,1.44e+00,
804,2.32e+00,1.48e+00,
805,2.52e+00,1.36e+00,
806,2.44e+00,1.40e+00,
807,2.64e+00,1.32e+00,
808,2.56e+00,1.36e+00,
809,2.76e+00,1.24e+00,
810,2.68e+00,1.36e+00,
811,2.92e+00,1.20e+00,
812,2.84e+00,1.28e+00,
813,3.04e+00,1.12e+00,
814,2.96e+00,1.24e+00,
815,3.12e+00,1.12e+00,
816,3.08e+00,1.16e+00,
817,3.32e+00,1.08e+00,
818,3.20e+00,1.12e+00,
819,3.44e+00,1.00e+00,
820,3.32e+00,1.08e+00,
821,3.48e+00,9.60e-01,
822,3.44e+00,1.04e+00,
823,3.68e+00,9.60e-01,
824,3.56e+00,1.04e+00,
825,3.72e+00,8.80e-01,
826,3.68e+00,9.20e-01,
827,3.84e+00,1.28e+00,
828,3.76e+00,1.20e+00,
829,3.96e+00,1.76e+00,
830,3.88e+00,1.72e+00,
831,4.08e+00,1.96e+00,
832,4.00e+00,1.92e+00,
833,4.16e+00,2.00e+00,
834,4.12e+00,1.96e+00,
835,4.28e+00,2.24e+00,
836,4.16e+00,2.16e+00,
837,4.32e+00,2.36e+00,
838,4.24e+00,2.32e+00,
839,4.44e+00,2.44e+00,
840,4.36e+00,2.40e+00,
841,4.52e+00,2.56e+00,
842,4.40e+00,2.44e+00,
843,4.56e+00,2.60e+00,
844,4.48e+00,2.56e+00,
845,4.64e+00,2.68e+00,
846,4.68e+00,2.64e+00,
847,4.52e+00,2.80e+00,
848,4.64e+00,2.68e+00,
849,4.76e+00,2.84e+00,
850,4.64e+00,2.84e+00,
851,4.80e+00,2.76e+00,
852,4.72e+00,2.92e+00,
853,4.84e+00,2.76e+00,
854,4.88e+00,2.88e+00,
855,4.76e+00,2.96e+00,
856,4.76e+00,2.96e+00,
857,4.92e+00,2.88e+00,
858,4.84e+00,2.92e+00,
859,4.92e+00,3.04e+00,
860,4.84e+00,2.92e+00,
861,4.92e+00,3.04e+00,
862,4.84e+00,3.04e+00,
863,4.96e+00,2.92e+00,
864,4.84e+00,3.08e+00,
865,4.96e+00,2.92e+00,
866,4.96e+00,3.04e+00,
867,4.88e+00,2.92e+00,
868,4.84e+00,3.00e+00,
869,4.96e+00,2.76e+00,
870,4.84e+00,2.84e+00,
