Code/Open_Loop_Bode_Data/Open_Loop_Frequency_Response_Signals_1/OLBD22.csv

X,CH3,CH4,Start,Increment,
Sequence,Volt,Volt,-1.198000e+00,2.000000e-03
0,2.12e+00,8.80e-01,
1,2.36e+00,1.88e+00,
2,2.24e+00,1.80e+00,
3,2.52e+00,2.44e+00,
4,2.44e+00,2.36e+00,
5,2.68e+00,2.72e+00,
6,2.64e+00,2.72e+00,
7,2.80e+00,2.92e+00,
8,2.80e+00,2.92e+00,
9,3.00e+00,2.16e+00,
10,2.96e+00,2.20e+00,
11,3.20e+00,1.68e+00,
12,3.08e+00,1.64e+00,
13,3.36e+00,1.32e+00,
14,3.24e+00,1.40e+00,
15,3.48e+00,1.08e+00,
16,3.44e+00,1.04e+00,
17,3.68e+00,2.00e+00,
18,3.56e+00,2.00e+00,
19,3.80e+00,2.44e+00,
20,3.76e+00,2.48e+00,
21,3.96e+00,2.80e+00,
22,3.88e+00,2.72e+00,
23,4.08e+00,2.96e+00,
24,4.00e+00,2.92e+00,
25,4.20e+00,3.08e+00,
26,4.12e+00,3.08e+00,
27,4.32e+00,2.60e+00,
28,4.24e+00,2.52e+00,
29,4.44e+00,1.88e+00,
30,4.36e+00,1.88e+00,
31,4.56e+00,1.52e+00,
32,4.48e+00,1.32e+00,
33,4.64e+00,2.00e+00,
34,4.52e+00,2.04e+00,
35,4.68e+00,2.52e+00,
36,4.64e+00,2.48e+00,
37,4.80e+00,2.84e+00,
38,4.80e+00,2.80e+00,
39,4.68e+00,3.04e+00,
40,4.84e+00,3.00e+00,
41,4.72e+00,3.16e+00,
42,4.76e+00,3.04e+00,
43,4.92e+00,3.16e+00,
44,4.84e+00,3.16e+00,
45,4.92e+00,2.40e+00,
46,4.84e+00,2.44e+00,
47,4.96e+00,1.92e+00,
48,4.96e+00,1.96e+00,
49,4.88e+00,1.64e+00,
50,4.96e+00,1.60e+00,
51,4.84e+00,2.60e+00,
52,4.84e+00,2.56e+00,
53,4.92e+00,2.92e+00,
54,4.92e+00,2.88e+00,
55,4.76e+00,3.08e+00,
56,4.76e+00,3.04e+00,
57,4.84e+00,3.20e+00,
58,4.84e+00,3.12e+00,
59,4.72e+00,3.20e+00,
60,4.80e+00,3.28e+00,
61,4.60e+00,3.12e+00,
62,4.68e+00,3.20e+00,
63,4.52e+00,2.28e+00,
64,4.64e+00,2.36e+00,
65,4.48e+00,1.84e+00,
66,4.56e+00,1.72e+00,
67,4.36e+00,2.72e+00,
68,4.44e+00,2.68e+00,
69,4.24e+00,3.00e+00,
70,4.32e+00,2.92e+00,
71,4.12e+00,3.16e+00,
72,4.20e+00,3.20e+00,
73,4.00e+00,3.12e+00,
74,4.08e+00,3.16e+00,
75,3.88e+00,3.28e+00,
76,3.96e+00,3.24e+00,
77,3.76e+00,3.16e+00,
78,3.80e+00,3.28e+00,
79,3.56e+00,2.44e+00,
80,3.68e+00,2.48e+00,
81,3.44e+00,1.96e+00,
82,3.56e+00,1.72e+00,
83,3.28e+00,2.00e+00,
84,3.36e+00,2.16e+00,
85,3.16e+00,2.84e+00,
86,3.20e+00,2.84e+00,
87,3.00e+00,3.08e+00,
88,3.00e+00,3.08e+00,
89,2.80e+00,3.20e+00,
90,2.88e+00,3.16e+00,
91,2.64e+00,3.28e+00,
92,2.72e+00,3.12e+00,
93,2.44e+00,3.28e+00,
94,2.52e+00,3.28e+00,
95,2.28e+00,2.40e+00,
96,2.36e+00,2.44e+00,
97,2.12e+00,1.92e+00,
98,2.20e+00,2.00e+00,
99,1.96e+00,1.60e+00,
100,2.04e+00,1.56e+00,
101,1.76e+00,2.60e+00,
102,1.88e+00,2.56e+00,
103,1.64e+00,2.96e+00,
104,1.68e+00,2.92e+00,
105,1.44e+00,3.16e+00,
106,1.52e+00,3.08e+00,
107,1.36e+00,3.20e+00,
108,1.40e+00,3.20e+00,
109,1.20e+00,2.96e+00,
110,1.28e+00,2.92e+00,
111,1.08e+00,2.16e+00,
112,1.08e+00,2.24e+00,
113,8.80e-01,1.76e+00,
114,9.60e-01,1.76e+00,
115,7.60e-01,1.44e+00,
116,8.40e-01,1.28e+00,
117,6.40e-01,1.64e+00,
118,7.60e-01,1.84e+00,
119,6.00e-01,2.60e+00,
120,6.80e-01,2.56e+00,
121,4.80e-01,2.88e+00,
122,5.60e-01,2.88e+00,
123,4.00e-01,3.08e+00,
124,4.80e-01,3.08e+00,
125,2.80e-01,2.28e+00,
126,2.40e-01,2.28e+00,
127,3.60e-01,1.80e+00,
128,3.20e-01,1.84e+00,
129,1.60e-01,1.52e+00,
130,1.60e-01,1.52e+00,
131,2.80e-01,1.28e+00,
132,2.80e-01,1.28e+00,
133,1.20e-01,1.08e+00,
134,1.20e-01,1.08e+00,
135,2.00e-01,2.12e+00,
136,2.00e-01,2.08e+00,
137,1.20e-01,2.60e+00,
138,2.00e-01,2.52e+00,
139,4.00e-02,2.84e+00,
140,2.00e-01,2.84e+00,
141,1.20e-01,2.04e+00,
142,1.20e-01,2.08e+00,
143,2.40e-01,1.64e+00,
144,2.80e-01,1.64e+00,
145,1.20e-01,1.32e+00,
146,1.60e-01,1.36e+00,
147,3.60e-01,1.08e+00,
148,2.40e-01,1.16e+00,
149,4.00e-01,8.80e-01,
150,2.80e-01,8.40e-01,
151,4.40e-01,1.56e+00,
152,4.00e-01,1.52e+00,
153,5.60e-01,2.24e+00,
154,4.80e-01,2.24e+00,
155,6.40e-01,2.60e+00,
156,6.00e-01,2.56e+00,
157,7.20e-01,2.80e+00,
158,6.40e-01,2.72e+00,
159,8.80e-01,1.80e+00,
160,7.60e-01,1.84e+00,
161,1.00e+00,1.36e+00,
162,8.80e-01,1.40e+00,
163,1.08e+00,1.16e+00,
164,1.00e+00,1.16e+00,
165,1.28e+00,9.60e-01,
166,1.20e+00,1.00e+00,
167,1.40e+00,8.40e-01,
168,1.32e+00,8.40e-01,
169,1.52e+00,1.88e+00,
170,1.48e+00,1.84e+00,
171,1.68e+00,2.44e+00,
172,1.60e+00,2.40e+00,
173,1.88e+00,2.72e+00,
174,1.80e+00,2.72e+00,
175,2.00e+00,2.84e+00,
176,1.96e+00,2.84e+00,
177,2.16e+00,1.88e+00,
178,2.12e+00,1.96e+00,
179,2.36e+00,1.44e+00,
180,2.28e+00,1.48e+00,
181,2.52e+00,1.16e+00,
182,2.44e+00,1.24e+00,
183,2.72e+00,9.60e-01,
184,2.60e+00,8.80e-01,
185,2.84e+00,1.88e+00,
186,2.80e+00,1.80e+00,
187,3.00e+00,2.36e+00,
188,2.92e+00,2.36e+00,
189,3.20e+00,2.68e+00,
190,3.04e+00,2.56e+00,
191,3.32e+00,2.92e+00,
192,3.28e+00,2.88e+00,
193,3.48e+00,3.04e+00,
194,3.40e+00,3.04e+00,
195,3.68e+00,2.16e+00,
196,3.56e+00,2.20e+00,
197,3.80e+00,1.68e+00,
198,3.68e+00,1.72e+00,
199,3.96e+00,1.40e+00,
200,3.88e+00,1.20e+00,
201,4.08e+00,1.76e+00,
202,4.00e+00,1.88e+00,
203,4.20e+00,2.40e+00,
204,4.12e+00,2.40e+00,
205,4.32e+00,2.80e+00,
206,4.24e+00,2.76e+00,
207,4.44e+00,2.96e+00,
208,4.36e+00,2.92e+00,
209,4.56e+00,3.08e+00,
210,4.48e+00,3.04e+00,
211,4.64e+00,3.16e+00,
212,4.52e+00,3.08e+00,
213,4.68e+00,2.16e+00,
214,4.60e+00,2.24e+00,
215,4.80e+00,1.80e+00,
216,4.80e+00,1.84e+00,
217,4.72e+00,1.48e+00,
218,4.76e+00,1.48e+00,
219,4.88e+00,2.48e+00,
220,4.76e+00,2.48e+00,
221,4.92e+00,2.84e+00,
222,4.84e+00,2.80e+00,
223,4.96e+00,3.04e+00,
224,4.84e+00,3.00e+00,
225,4.96e+00,3.16e+00,
226,4.88e+00,3.12e+00,
227,4.96e+00,3.20e+00,
228,4.96e+00,3.12e+00,
229,4.84e+00,3.20e+00,
230,4.92e+00,3.12e+00,
231,4.76e+00,2.28e+00,
232,4.84e+00,2.24e+00,
233,4.92e+00,1.80e+00,
234,4.76e+00,1.72e+00,
235,4.88e+00,2.72e+00,
236,4.84e+00,2.64e+00,
237,4.72e+00,2.96e+00,
238,4.80e+00,2.88e+00,
239,4.64e+00,3.12e+00,
240,4.68e+00,3.04e+00,
241,4.56e+00,3.20e+00,
242,4.64e+00,3.28e+00,
243,4.48e+00,3.16e+00,
244,4.56e+00,3.28e+00,
245,4.32e+00,3.12e+00,
246,4.44e+00,3.28e+00,
247,4.24e+00,2.48e+00,
248,4.32e+00,2.52e+00,
249,4.12e+00,2.04e+00,
250,4.20e+00,1.80e+00,
251,4.00e+00,2.40e+00,
252,4.08e+00,2.52e+00,
253,3.88e+00,2.96e+00,
254,3.96e+00,2.88e+00,
255,3.76e+00,3.08e+00,
256,3.84e+00,3.08e+00,
257,3.64e+00,3.20e+00,
258,3.64e+00,3.16e+00,
259,3.44e+00,3.28e+00,
260,3.56e+00,3.24e+00,
261,3.28e+00,3.32e+00,
262,3.36e+00,3.28e+00,
263,3.16e+00,2.60e+00,
264,3.20e+00,2.56e+00,
265,2.96e+00,2.12e+00,
266,3.08e+00,2.12e+00,
267,2.80e+00,1.76e+00,
268,2.88e+00,1.68e+00,
269,2.60e+00,2.80e+00,
270,2.68e+00,2.68e+00,
271,2.44e+00,3.04e+00,
272,2.52e+00,3.00e+00,
273,2.32e+00,3.16e+00,
274,2.36e+00,3.12e+00,
275,2.16e+00,3.32e+00,
276,2.20e+00,3.16e+00,
277,2.00e+00,3.28e+00,
278,2.04e+00,3.28e+00,
279,1.80e+00,2.40e+00,
280,1.88e+00,2.44e+00,
281,1.68e+00,2.00e+00,
282,1.68e+00,1.96e+00,
283,1.48e+00,1.64e+00,
284,1.56e+00,1.44e+00,
285,1.32e+00,2.24e+00,
286,1.40e+00,2.28e+00,
287,1.20e+00,2.84e+00,
288,1.28e+00,2.80e+00,
289,1.08e+00,3.00e+00,
290,1.12e+00,3.00e+00,
291,9.60e-01,3.20e+00,
292,1.00e+00,3.20e+00,
293,8.40e-01,3.00e+00,
294,8.40e-01,2.96e+00,
295,7.20e-01,2.16e+00,
296,7.60e-01,2.16e+00,
297,6.00e-01,1.76e+00,
298,6.80e-01,1.76e+00,
299,4.80e-01,1.44e+00,
300,5.60e-01,1.48e+00,
301,4.00e-01,1.20e+00,
302,4.80e-01,1.20e+00,
303,3.60e-01,2.28e+00,
304,2.80e-01,2.24e+00,
305,4.00e-01,2.72e+00,
306,3.20e-01,2.68e+00,
307,2.00e-01,2.96e+00,
308,2.40e-01,3.04e+00,
309,1.60e-01,2.68e+00,
310,2.80e-01,2.60e+00,
311,1.20e-01,1.92e+00,
312,1.20e-01,1.88e+00,
313,2.00e-01,1.56e+00,
314,1.20e-01,1.52e+00,
315,2.00e-01,1.24e+00,
316,2.00e-01,1.28e+00,
317,4.00e-02,1.08e+00,
318,2.00e-01,1.00e+00,
319,1.20e-01,1.72e+00,
320,1.20e-01,1.76e+00,
321,2.00e-01,2.36e+00,
322,1.20e-01,2.36e+00,
323,2.80e-01,2.72e+00,
324,1.60e-01,2.84e+00,
325,3.20e-01,2.60e+00,
326,2.40e-01,2.52e+00,
327,4.00e-01,1.80e+00,
328,2.80e-01,1.84e+00,
329,4.40e-01,1.40e+00,
330,3.60e-01,1.48e+00,
331,5.60e-01,1.16e+00,
332,4.80e-01,1.16e+00,
333,6.80e-01,9.60e-01,
334,6.00e-01,1.04e+00,
335,7.20e-01,8.40e-01,
336,6.40e-01,8.40e-01,
337,8.40e-01,1.92e+00,
338,7.60e-01,1.88e+00,
339,9.60e-01,2.44e+00,
340,8.80e-01,2.40e+00,
341,1.12e+00,2.72e+00,
342,1.00e+00,2.80e+00,
343,1.20e+00,2.16e+00,
344,1.20e+00,2.12e+00,
345,1.36e+00,1.60e+00,
346,1.32e+00,1.60e+00,
347,1.52e+00,1.24e+00,
348,1.48e+00,1.28e+00,
349,1.68e+00,1.08e+00,
350,1.60e+00,1.12e+00,
351,1.84e+00,8.80e-01,
352,1.72e+00,8.40e-01,
353,2.00e+00,1.76e+00,
354,1.96e+00,1.76e+00,
355,2.16e+00,2.32e+00,
356,2.08e+00,2.24e+00,
357,2.32e+00,2.64e+00,
358,2.24e+00,2.64e+00,
359,2.52e+00,2.92e+00,
360,2.44e+00,2.92e+00,
361,2.64e+00,2.52e+00,
362,2.60e+00,2.48e+00,
363,2.84e+00,1.72e+00,
364,2.72e+00,1.76e+00,
365,3.00e+00,1.40e+00,
366,2.92e+00,1.44e+00,
367,3.20e+00,1.16e+00,
368,3.08e+00,1.00e+00,
369,3.32e+00,1.36e+00,
370,3.28e+00,1.44e+00,
371,3.48e+00,2.16e+00,
372,3.40e+00,2.16e+00,
373,3.64e+00,2.60e+00,
374,3.56e+00,2.60e+00,
375,3.76e+00,2.84e+00,
376,3.68e+00,2.80e+00,
377,3.92e+00,3.04e+00,
378,3.88e+00,3.04e+00,
379,4.08e+00,2.92e+00,
380,4.00e+00,2.92e+00,
381,4.20e+00,2.00e+00,
382,4.12e+00,2.00e+00,
383,4.32e+00,1.56e+00,
384,4.24e+00,1.64e+00,
385,4.44e+00,1.32e+00,
386,4.36e+00,1.28e+00,
387,4.52e+00,2.32e+00,
388,4.48e+00,2.28e+00,
389,4.64e+00,2.72e+00,
390,4.52e+00,2.72e+00,
391,4.68e+00,2.96e+00,
392,4.60e+00,2.88e+00,
393,4.76e+00,3.08e+00,
394,4.80e+00,3.00e+00,
395,4.64e+00,3.16e+00,
396,4.72e+00,3.16e+00,
397,4.88e+00,2.92e+00,
398,4.76e+00,2.84e+00,
399,4.92e+00,2.08e+00,
400,4.84e+00,2.08e+00,
401,4.96e+00,1.68e+00,
402,4.84e+00,1.56e+00,
403,4.96e+00,2.52e+00,
404,4.84e+00,2.48e+00,
405,4.96e+00,2.84e+00,
406,4.84e+00,2.76e+00,
407,4.96e+00,3.04e+00,
408,4.92e+00,3.00e+00,
409,4.84e+00,3.16e+00,
410,4.92e+00,3.12e+00,
411,4.84e+00,3.20e+00,
412,4.84e+00,3.12e+00,
413,4.76e+00,3.20e+00,
414,4.84e+00,3.20e+00,
415,4.72e+00,2.40e+00,
416,4.80e+00,2.44e+00,
417,4.64e+00,2.00e+00,
418,4.72e+00,1.76e+00,
419,4.52e+00,2.36e+00,
420,4.64e+00,2.48e+00,
421,4.48e+00,2.88e+00,
422,4.56e+00,2.88e+00,
423,4.36e+00,3.08e+00,
424,4.44e+00,3.04e+00,
425,4.28e+00,3.20e+00,
426,4.32e+00,3.12e+00,
427,4.16e+00,3.28e+00,
428,4.20e+00,3.28e+00,
429,4.00e+00,3.16e+00,
430,4.08e+00,3.28e+00,
431,3.88e+00,2.96e+00,
432,3.96e+00,2.84e+00,
433,3.76e+00,2.24e+00,
434,3.84e+00,2.20e+00,
435,3.64e+00,1.80e+00,
436,3.68e+00,1.76e+00,
437,3.44e+00,2.84e+00,
438,3.56e+00,2.76e+00,
439,3.28e+00,3.04e+00,
440,3.36e+00,3.00e+00,
441,3.16e+00,3.20e+00,
442,3.24e+00,3.12e+00,
443,2.96e+00,3.32e+00,
444,3.04e+00,3.28e+00,
445,2.80e+00,3.16e+00,
446,2.88e+00,3.28e+00,
447,2.64e+00,2.84e+00,
448,2.72e+00,2.80e+00,
449,2.48e+00,2.20e+00,
450,2.52e+00,2.20e+00,
451,2.32e+00,1.80e+00,
452,2.40e+00,1.64e+00,
453,2.12e+00,2.48e+00,
454,2.24e+00,2.44e+00,
455,1.96e+00,2.92e+00,
456,2.04e+00,2.84e+00,
457,1.80e+00,3.08e+00,
458,1.88e+00,3.04e+00,
459,1.64e+00,3.24e+00,
460,1.76e+00,3.16e+00,
461,1.48e+00,3.28e+00,
462,1.56e+00,3.20e+00,
463,1.36e+00,2.40e+00,
464,1.40e+00,2.44e+00,
465,1.20e+00,1.92e+00,
466,1.28e+00,1.96e+00,
467,1.08e+00,1.60e+00,
468,1.16e+00,1.60e+00,
469,9.60e-01,1.36e+00,
470,1.04e+00,1.32e+00,
471,8.40e-01,2.48e+00,
472,8.80e-01,2.40e+00,
473,7.20e-01,2.84e+00,
474,8.00e-01,2.80e+00,
475,6.00e-01,3.08e+00,
476,6.80e-01,3.00e+00,
477,4.80e-01,3.16e+00,
478,5.60e-01,3.08e+00,
479,4.00e-01,2.16e+00,
480,3.60e-01,2.20e+00,
481,5.20e-01,1.76e+00,
482,4.40e-01,1.72e+00,
483,2.80e-01,1.44e+00,
484,2.40e-01,1.48e+00,
485,3.20e-01,1.20e+00,
486,3.20e-01,1.12e+00,
487,1.20e-01,1.92e+00,
488,2.80e-01,2.00e+00,
489,1.20e-01,2.56e+00,
490,1.20e-01,2.52e+00,
491,2.00e-01,2.84e+00,
492,2.00e-01,2.80e+00,
493,1.20e-01,2.96e+00,
494,2.00e-01,2.92e+00,
495,1.20e-01,2.00e+00,
496,2.00e-01,2.08e+00,
497,4.00e-02,1.56e+00,
498,1.20e-01,1.60e+00,
499,2.80e-01,1.32e+00,
500,2.80e-01,1.36e+00,
501,1.20e-01,1.08e+00,
502,1.60e-01,1.16e+00,
503,3.20e-01,9.60e-01,
504,2.40e-01,9.60e-01,
505,4.00e-01,2.04e+00,
506,2.80e-01,2.00e+00,
507,4.40e-01,2.56e+00,
508,3.60e-01,2.52e+00,
509,5.60e-01,2.80e+00,
510,4.80e-01,2.84e+00,
511,6.40e-01,1.96e+00,
512,5.20e-01,2.00e+00,
513,7.20e-01,1.56e+00,
514,6.00e-01,1.60e+00,
515,8.80e-01,1.28e+00,
516,7.60e-01,1.28e+00,
517,9.60e-01,1.00e+00,
518,8.80e-01,1.12e+00,
519,1.08e+00,9.20e-01,
520,1.00e+00,8.40e-01,
521,1.20e+00,1.84e+00,
522,1.12e+00,1.76e+00,
523,1.40e+00,2.32e+00,
524,1.32e+00,2.28e+00,
525,1.52e+00,2.68e+00,
526,1.44e+00,2.64e+00,
527,1.68e+00,2.84e+00,
528,1.60e+00,2.84e+00,
529,1.80e+00,1.92e+00,
530,1.80e+00,1.96e+00,
531,2.00e+00,1.52e+00,
532,1.88e+00,1.60e+00,
533,2.16e+00,1.24e+00,
534,2.04e+00,1.28e+00,
535,2.32e+00,1.04e+00,
536,2.24e+00,8.80e-01,
537,2.48e+00,1.20e+00,
538,2.44e+00,1.40e+00,
539,2.64e+00,2.16e+00,
540,2.56e+00,2.16e+00,
541,2.84e+00,2.56e+00,
542,2.76e+00,2.52e+00,
543,3.00e+00,2.84e+00,
544,2.92e+00,2.76e+00,
545,3.16e+00,2.96e+00,
546,3.12e+00,2.96e+00,
547,3.32e+00,2.24e+00,
548,3.28e+00,2.20e+00,
549,3.48e+00,1.72e+00,
550,3.40e+00,1.76e+00,
551,3.68e+00,1.40e+00,
552,3.56e+00,1.40e+00,
553,3.80e+00,1.12e+00,
554,3.72e+00,1.16e+00,
555,3.92e+00,2.16e+00,
556,3.88e+00,2.12e+00,
557,4.08e+00,2.60e+00,
558,4.00e+00,2.60e+00,
559,4.20e+00,2.84e+00,
560,4.12e+00,2.80e+00,
561,4.32e+00,3.04e+00,
562,4.24e+00,3.00e+00,
563,4.40e+00,3.08e+00,
564,4.36e+00,3.08e+00,
565,4.52e+00,2.40e+00,
566,4.40e+00,2.36e+00,
567,4.60e+00,1.88e+00,
568,4.52e+00,1.92e+00,
569,4.68e+00,1.52e+00,
570,4.60e+00,1.44e+00,
571,4.76e+00,2.40e+00,
572,4.72e+00,2.32e+00,
573,4.80e+00,2.80e+00,
574,4.84e+00,2.72e+00,
575,4.72e+00,2.96e+00,
576,4.76e+00,2.92e+00,
577,4.92e+00,3.08e+00,
578,4.92e+00,3.04e+00,
579,4.84e+00,3.20e+00,
580,4.84e+00,3.12e+00,
581,4.96e+00,3.20e+00,
582,4.88e+00,3.20e+00,
583,5.00e+00,2.36e+00,
584,4.96e+00,2.36e+00,
585,4.84e+00,1.92e+00,
586,4.96e+00,1.68e+00,
587,4.84e+00,2.36e+00,
588,4.92e+00,2.44e+00,
589,4.76e+00,2.84e+00,
590,4.88e+00,2.84e+00,
591,4.72e+00,3.04e+00,
592,4.88e+00,3.00e+00,
593,4.64e+00,3.20e+00,
594,4.80e+00,3.20e+00,
595,4.64e+00,3.12e+00,
596,4.76e+00,3.28e+00,
597,4.60e+00,3.12e+00,
598,4.64e+00,3.28e+00,
599,4.48e+00,3.08e+00,
600,4.56e+00,3.04e+00,
601,4.40e+00,2.24e+00,
602,4.44e+00,2.32e+00,
603,4.28e+00,1.80e+00,
604,4.32e+00,1.80e+00,
605,4.16e+00,2.80e+00,
606,4.24e+00,2.76e+00,
607,4.04e+00,3.08e+00,
608,4.12e+00,3.00e+00,
609,3.88e+00,3.20e+00,
610,3.96e+00,3.12e+00,
611,3.68e+00,3.28e+00,
612,3.84e+00,3.32e+00,
613,3.60e+00,3.16e+00,
614,3.72e+00,3.28e+00,
615,3.44e+00,3.16e+00,
616,3.56e+00,3.16e+00,
617,3.32e+00,2.36e+00,
618,3.36e+00,2.36e+00,
619,3.16e+00,1.88e+00,
620,3.24e+00,1.68e+00,
621,2.96e+00,2.52e+00,
622,3.08e+00,2.60e+00,
623,2.80e+00,2.96e+00,
624,2.88e+00,2.96e+00,
625,2.68e+00,3.16e+00,
626,2.72e+00,3.04e+00,
627,2.48e+00,3.28e+00,
628,2.56e+00,3.28e+00,
629,2.32e+00,3.16e+00,
630,2.40e+00,3.28e+00,
631,2.16e+00,3.04e+00,
632,2.24e+00,3.04e+00,
633,2.00e+00,2.28e+00,
634,2.04e+00,2.24e+00,
635,1.80e+00,1.80e+00,
636,1.92e+00,1.88e+00,
637,1.68e+00,1.56e+00,
638,1.76e+00,1.52e+00,
639,1.48e+00,2.60e+00,
640,1.56e+00,2.60e+00,
641,1.36e+00,2.96e+00,
642,1.44e+00,2.96e+00,
643,1.20e+00,3.16e+00,
644,1.28e+00,3.04e+00,
645,1.08e+00,3.28e+00,
646,1.16e+00,3.20e+00,
647,9.60e-01,2.36e+00,
648,1.04e+00,2.36e+00,
649,8.40e-01,1.92e+00,
650,9.20e-01,1.96e+00,
651,7.20e-01,1.60e+00,
652,8.00e-01,1.64e+00,
653,6.00e-01,1.32e+00,
654,6.80e-01,1.24e+00,
655,4.80e-01,2.12e+00,
656,5.60e-01,2.20e+00,
657,4.00e-01,2.68e+00,
658,5.20e-01,2.64e+00,
659,3.60e-01,2.96e+00,
660,2.80e-01,2.92e+00,
661,4.00e-01,3.08e+00,
662,3.60e-01,2.96e+00,
663,2.40e-01,2.08e+00,
664,3.20e-01,2.20e+00,
665,1.60e-01,1.68e+00,
666,2.80e-01,1.72e+00,
667,1.20e-01,1.36e+00,
668,1.20e-01,1.40e+00,
669,2.00e-01,1.20e+00,
670,2.00e-01,1.20e+00,
671,4.00e-02,1.04e+00,
672,2.00e-01,1.04e+00,
673,1.20e-01,2.16e+00,
674,2.00e-01,2.20e+00,
675,1.20e-01,2.64e+00,
676,1.20e-01,2.60e+00,
677,2.00e-01,2.84e+00,
678,2.80e-01,2.84e+00,
679,1.60e-01,1.92e+00,
680,1.60e-01,1.96e+00,
681,3.20e-01,1.52e+00,
682,2.40e-01,1.52e+00,
683,4.00e-01,1.20e+00,
684,2.80e-01,1.28e+00,
685,4.40e-01,1.00e+00,
686,3.60e-01,1.12e+00,
687,5.60e-01,8.80e-01,
688,4.80e-01,8.40e-01,
689,6.00e-01,1.84e+00,
690,5.20e-01,1.76e+00,
691,7.20e-01,2.36e+00,
692,6.40e-01,2.32e+00,
693,8.40e-01,2.72e+00,
694,7.60e-01,2.64e+00,
695,9.60e-01,2.80e+00,
696,8.80e-01,2.72e+00,
697,1.08e+00,1.80e+00,
698,1.00e+00,1.84e+00,
699,1.20e+00,1.40e+00,
700,1.12e+00,1.44e+00,
701,1.32e+00,1.12e+00,
702,1.32e+00,1.16e+00,
703,1.52e+00,9.60e-01,
704,1.44e+00,8.40e-01,
705,1.68e+00,1.16e+00,
706,1.56e+00,1.28e+00,
707,1.80e+00,2.12e+00,
708,1.76e+00,2.12e+00,
709,2.00e+00,2.56e+00,
710,1.88e+00,2.48e+00,
711,2.16e+00,2.84e+00,
712,2.08e+00,2.76e+00,
713,2.28e+00,2.92e+00,
714,2.20e+00,2.84e+00,
715,2.48e+00,1.88e+00,
716,2.44e+00,1.84e+00,
717,2.64e+00,1.44e+00,
718,2.56e+00,1.48e+00,
719,2.84e+00,1.20e+00,
720,2.72e+00,1.20e+00,
721,3.00e+00,1.00e+00,
722,2.92e+00,9.60e-01,
723,3.20e+00,2.00e+00,
724,3.08e+00,1.96e+00,
725,3.28e+00,2.48e+00,
726,3.20e+00,2.44e+00,
727,3.48e+00,2.80e+00,
728,3.40e+00,2.76e+00,
729,3.60e+00,2.96e+00,
730,3.52e+00,3.04e+00,
731,3.80e+00,2.92e+00,
732,3.64e+00,3.00e+00,
733,3.88e+00,2.04e+00,
734,3.80e+00,2.08e+00,
735,4.04e+00,1.60e+00,
736,4.00e+00,1.64e+00,
737,4.20e+00,1.32e+00,
738,4.12e+00,1.24e+00,
739,4.32e+00,2.24e+00,
740,4.24e+00,2.16e+00,
741,4.40e+00,2.60e+00,
742,4.36e+00,2.56e+00,
743,4.52e+00,2.84e+00,
744,4.40e+00,2.80e+00,
745,4.60e+00,3.04e+00,
746,4.52e+00,3.00e+00,
747,4.68e+00,3.16e+00,
748,4.60e+00,3.16e+00,
749,4.76e+00,3.04e+00,
750,4.72e+00,3.08e+00,
751,4.80e+00,2.20e+00,
752,4.72e+00,2.24e+00,
753,4.88e+00,1.76e+00,
754,4.76e+00,1.56e+00,
755,4.92e+00,2.00e+00,
756,4.84e+00,2.16e+00,
757,4.92e+00,2.64e+00,
758,4.84e+00,2.68e+00,
759,4.96e+00,2.96e+00,
760,4.88e+00,2.92e+00,
761,5.00e+00,3.08e+00,
762,4.96e+00,3.04e+00,
763,4.88e+00,3.20e+00,
764,4.92e+00,3.12e+00,
765,4.84e+00,3.20e+00,
766,4.84e+00,3.20e+00,
767,4.92e+00,3.08e+00,
768,4.88e+00,2.96e+00,
769,4.76e+00,2.16e+00,
770,4.84e+00,2.20e+00,
771,4.72e+00,1.72e+00,
772,4.80e+00,1.72e+00,
773,4.64e+00,2.80e+00,
774,4.72e+00,2.72e+00,
775,4.60e+00,3.04e+00,
776,4.64e+00,2.92e+00,
777,4.48e+00,3.16e+00,
778,4.56e+00,3.12e+00,
779,4.36e+00,3.28e+00,
780,4.44e+00,3.28e+00,
781,4.28e+00,3.16e+00,
782,4.36e+00,3.16e+00,
783,4.16e+00,3.32e+00,
784,4.24e+00,3.28e+00,
785,4.04e+00,2.40e+00,
786,4.12e+00,2.44e+00,
787,3.92e+00,1.92e+00,
788,3.96e+00,1.80e+00,
789,3.76e+00,2.68e+00,
790,3.84e+00,2.68e+00,
791,3.64e+00,3.04e+00,
792,3.72e+00,2.96e+00,
793,3.48e+00,3.16e+00,
794,3.52e+00,3.12e+00,
795,3.32e+00,3.28e+00,
796,3.40e+00,3.28e+00,
797,3.16e+00,3.16e+00,
798,3.24e+00,3.28e+00,
799,3.00e+00,3.20e+00,
800,3.08e+00,3.24e+00,
801,2.80e+00,2.40e+00,
802,2.88e+00,2.44e+00,
803,2.68e+00,1.92e+00,
804,2.76e+00,2.00e+00,
805,2.48e+00,1.60e+00,
806,2.60e+00,1.68e+00,
807,2.32e+00,2.72e+00,
808,2.40e+00,2.72e+00,
809,2.16e+00,3.04e+00,
810,2.24e+00,3.00e+00,
811,2.00e+00,3.20e+00,
812,2.04e+00,3.12e+00,
813,1.84e+00,3.28e+00,
814,1.92e+00,3.28e+00,
815,1.68e+00,3.16e+00,
816,1.76e+00,3.16e+00,
817,1.48e+00,2.28e+00,
818,1.56e+00,2.32e+00,
819,1.36e+00,1.88e+00,
820,1.44e+00,1.88e+00,
821,1.20e+00,1.56e+00,
822,1.28e+00,1.44e+00,
823,1.08e+00,2.48e+00,
824,1.16e+00,2.48e+00,
825,9.60e-01,2.84e+00,
826,1.04e+00,2.80e+00,
827,8.40e-01,3.04e+00,
828,9.20e-01,3.04e+00,
829,7.20e-01,3.16e+00,
830,8.00e-01,3.16e+00,
831,6.00e-01,2.56e+00,
832,6.80e-01,2.48e+00,
833,5.20e-01,1.96e+00,
834,5.60e-01,2.00e+00,
835,4.00e-01,1.64e+00,
836,4.80e-01,1.64e+00,
837,3.60e-01,1.36e+00,
838,4.40e-01,1.40e+00,
839,2.40e-01,1.16e+00,
840,3.60e-01,1.28e+00,
841,2.40e-01,2.36e+00,
842,3.20e-01,2.36e+00,
843,1.60e-01,2.80e+00,
844,2.80e-01,2.68e+00,
845,1.20e-01,2.96e+00,
846,1.20e-01,2.96e+00,
847,2.00e-01,2.12e+00,
848,2.00e-01,2.12e+00,
849,4.00e-02,1.68e+00,
850,2.00e-01,1.76e+00,
851,1.20e-01,1.36e+00,
852,2.00e-01,1.48e+00,
853,8.00e-02,1.20e+00,
854,2.40e-01,1.24e+00,
855,4.00e-02,1.04e+00,
856,1.20e-01,9.20e-01,
857,2.80e-01,2.00e+00,
858,1.60e-01,1.96e+00,
859,3.20e-01,2.48e+00,
860,2.40e-01,2.48e+00,
861,3.60e-01,2.76e+00,
862,4.40e-01,2.84e+00,
863,2.80e-01,2.16e+00,
864,3.60e-01,2.12e+00,
865,5.20e-01,1.64e+00,
866,4.80e-01,1.64e+00,
867,6.00e-01,1.32e+00,
868,5.20e-01,1.36e+00,
869,7.60e-01,1.08e+00,
870,6.40e-01,1.12e+00,
