Code/Open_Loop_Bode_Data/Open_Loop_Frequency_Response_Signals_3/NewFile9.csv

X,CH3,CH4,Start,Increment,
Sequence,Volt,Volt,-1.210000e+01,2.000000e-02
0,3.96e+00,3.08e+00,
1,3.76e+00,3.40e+00,
2,3.80e+00,3.00e+00,
3,3.56e+00,3.36e+00,
4,3.60e+00,3.28e+00,
5,3.40e+00,2.84e+00,
6,3.48e+00,3.04e+00,
7,3.24e+00,2.68e+00,
8,3.32e+00,2.96e+00,
9,3.08e+00,2.60e+00,
10,3.12e+00,2.80e+00,
11,2.84e+00,2.44e+00,
12,2.96e+00,2.68e+00,
13,2.68e+00,2.36e+00,
14,2.76e+00,2.60e+00,
15,2.52e+00,2.24e+00,
16,2.60e+00,2.52e+00,
17,2.32e+00,2.16e+00,
18,2.40e+00,2.20e+00,
19,2.16e+00,1.88e+00,
20,2.24e+00,1.80e+00,
21,1.96e+00,2.12e+00,
22,2.04e+00,1.84e+00,
23,1.84e+00,1.60e+00,
24,1.88e+00,1.92e+00,
25,1.68e+00,1.40e+00,
26,1.68e+00,1.48e+00,
27,1.48e+00,1.28e+00,
28,1.56e+00,1.52e+00,
29,1.32e+00,1.12e+00,
30,1.40e+00,1.24e+00,
31,1.20e+00,9.60e-01,
32,1.28e+00,9.20e-01,
33,1.08e+00,1.16e+00,
34,1.16e+00,1.00e+00,
35,9.60e-01,6.80e-01,
36,1.04e+00,6.40e-01,
37,8.40e-01,9.60e-01,
38,9.20e-01,7.60e-01,
39,7.60e-01,5.60e-01,
40,8.00e-01,6.40e-01,
41,6.40e-01,4.40e-01,
42,7.20e-01,6.40e-01,
43,6.00e-01,4.00e-01,
44,6.00e-01,3.20e-01,
45,6.80e-01,6.00e-01,
46,5.20e-01,4.80e-01,
47,6.40e-01,3.20e-01,
48,5.20e-01,2.40e-01,
49,6.40e-01,6.00e-01,
50,5.20e-01,5.20e-01,
51,6.40e-01,3.20e-01,
52,6.40e-01,2.40e-01,
53,5.20e-01,4.00e-01,
54,5.20e-01,3.60e-01,
55,6.00e-01,5.60e-01,
56,6.00e-01,2.80e-01,
57,6.80e-01,4.80e-01,
58,6.00e-01,5.60e-01,
59,7.20e-01,4.00e-01,
60,6.80e-01,6.80e-01,
61,8.40e-01,4.40e-01,
62,7.60e-01,4.40e-01,
63,9.20e-01,7.60e-01,
64,8.80e-01,5.20e-01,
65,1.04e+00,7.60e-01,
66,9.60e-01,5.60e-01,
67,1.16e+00,1.00e+00,
68,1.08e+00,9.60e-01,
69,1.28e+00,6.80e-01,
70,1.24e+00,7.60e-01,
71,1.44e+00,1.12e+00,
72,1.36e+00,8.80e-01,
73,1.56e+00,1.36e+00,
74,1.48e+00,1.12e+00,
75,1.76e+00,1.44e+00,
76,1.68e+00,1.20e+00,
77,1.92e+00,1.56e+00,
78,1.84e+00,1.28e+00,
79,2.12e+00,1.68e+00,
80,2.00e+00,1.40e+00,
81,2.24e+00,1.68e+00,
82,2.20e+00,1.40e+00,
83,2.44e+00,1.88e+00,
84,2.36e+00,1.64e+00,
85,2.64e+00,2.08e+00,
86,2.56e+00,1.84e+00,
87,2.80e+00,2.20e+00,
88,2.72e+00,1.88e+00,
89,3.00e+00,2.32e+00,
90,2.92e+00,2.08e+00,
91,3.16e+00,2.44e+00,
92,3.12e+00,2.24e+00,
93,3.36e+00,2.64e+00,
94,3.28e+00,2.36e+00,
95,3.48e+00,2.88e+00,
96,3.44e+00,2.60e+00,
97,3.68e+00,2.92e+00,
98,3.56e+00,2.80e+00,
99,3.84e+00,3.16e+00,
100,3.76e+00,3.16e+00,
101,3.96e+00,2.84e+00,
102,3.88e+00,2.88e+00,
103,4.08e+00,3.28e+00,
104,4.00e+00,3.20e+00,
105,4.20e+00,3.48e+00,
106,4.16e+00,3.32e+00,
107,4.32e+00,3.60e+00,
108,4.20e+00,3.56e+00,
109,4.44e+00,3.72e+00,
110,4.36e+00,3.60e+00,
111,4.48e+00,3.76e+00,
112,4.40e+00,3.76e+00,
113,4.56e+00,3.56e+00,
114,4.48e+00,3.76e+00,
115,4.64e+00,3.64e+00,
116,4.52e+00,3.64e+00,
117,4.64e+00,3.84e+00,
118,4.60e+00,3.84e+00,
119,4.68e+00,3.72e+00,
120,4.68e+00,3.72e+00,
121,4.56e+00,3.88e+00,
122,4.68e+00,3.72e+00,
123,4.52e+00,3.88e+00,
124,4.52e+00,3.80e+00,
125,4.64e+00,3.88e+00,
126,4.64e+00,3.88e+00,
127,4.48e+00,3.72e+00,
128,4.56e+00,3.88e+00,
129,4.40e+00,3.56e+00,
130,4.52e+00,3.48e+00,
131,4.36e+00,3.84e+00,
132,4.44e+00,3.76e+00,
133,4.24e+00,3.44e+00,
134,4.32e+00,3.72e+00,
135,4.16e+00,3.36e+00,
136,4.20e+00,3.64e+00,
137,4.00e+00,3.32e+00,
138,4.08e+00,3.52e+00,
139,3.88e+00,3.20e+00,
140,3.96e+00,3.48e+00,
141,3.76e+00,3.08e+00,
142,3.84e+00,3.32e+00,
143,3.56e+00,2.96e+00,
144,3.68e+00,3.28e+00,
145,3.44e+00,2.84e+00,
146,3.48e+00,2.76e+00,
147,3.24e+00,3.12e+00,
148,3.36e+00,2.92e+00,
149,3.08e+00,2.60e+00,
150,3.20e+00,2.88e+00,
151,2.92e+00,2.52e+00,
152,3.00e+00,2.76e+00,
153,2.72e+00,2.40e+00,
154,2.84e+00,2.76e+00,
155,2.56e+00,2.36e+00,
156,2.60e+00,2.64e+00,
157,2.36e+00,2.12e+00,
158,2.48e+00,2.28e+00,
159,2.20e+00,1.96e+00,
160,2.28e+00,2.16e+00,
161,2.04e+00,1.72e+00,
162,2.08e+00,1.96e+00,
163,1.80e+00,1.64e+00,
164,1.92e+00,1.48e+00,
165,1.68e+00,1.76e+00,
166,1.76e+00,1.32e+00,
167,1.56e+00,1.60e+00,
168,1.56e+00,1.44e+00,
169,1.36e+00,1.12e+00,
170,1.44e+00,1.28e+00,
171,1.24e+00,9.60e-01,
172,1.28e+00,9.20e-01,
173,1.08e+00,1.24e+00,
174,1.16e+00,1.00e+00,
175,9.60e-01,7.60e-01,
176,1.04e+00,9.60e-01,
177,8.80e-01,6.40e-01,
178,9.20e-01,5.60e-01,
179,7.60e-01,7.60e-01,
180,8.40e-01,6.40e-01,
181,7.20e-01,4.80e-01,
182,7.20e-01,6.80e-01,
183,6.00e-01,4.00e-01,
184,6.80e-01,5.20e-01,
185,5.60e-01,3.20e-01,
186,6.40e-01,3.20e-01,
187,5.20e-01,5.20e-01,
188,5.20e-01,2.80e-01,
189,6.40e-01,4.80e-01,
190,5.20e-01,4.00e-01,
191,6.40e-01,2.80e-01,
192,6.40e-01,2.40e-01,
193,4.80e-01,4.80e-01,
194,6.00e-01,4.80e-01,
195,4.80e-01,3.20e-01,
196,6.80e-01,3.20e-01,
197,5.60e-01,5.20e-01,
198,6.00e-01,4.00e-01,
199,7.60e-01,6.40e-01,
200,6.40e-01,4.40e-01,
201,8.00e-01,6.40e-01,
202,7.60e-01,4.80e-01,
203,9.20e-01,7.20e-01,
204,8.40e-01,4.80e-01,
205,1.04e+00,7.20e-01,
206,9.60e-01,6.80e-01,
207,1.16e+00,9.60e-01,
208,1.08e+00,6.40e-01,
209,1.28e+00,8.80e-01,
210,1.20e+00,7.20e-01,
211,1.40e+00,1.04e+00,
212,1.32e+00,9.20e-01,
213,1.56e+00,1.24e+00,
214,1.48e+00,1.04e+00,
215,1.68e+00,1.36e+00,
216,1.60e+00,1.12e+00,
217,1.88e+00,1.44e+00,
218,1.80e+00,1.24e+00,
219,2.04e+00,1.60e+00,
220,1.96e+00,1.32e+00,
221,2.24e+00,1.68e+00,
222,2.16e+00,1.40e+00,
223,2.40e+00,1.84e+00,
224,2.32e+00,1.64e+00,
225,2.60e+00,1.96e+00,
226,2.48e+00,1.80e+00,
227,2.76e+00,2.20e+00,
228,2.68e+00,1.96e+00,
229,2.96e+00,2.32e+00,
230,2.88e+00,2.08e+00,
231,3.12e+00,2.44e+00,
232,3.04e+00,2.20e+00,
233,3.28e+00,2.64e+00,
234,3.24e+00,2.36e+00,
235,3.48e+00,2.80e+00,
236,3.40e+00,2.60e+00,
237,3.60e+00,3.00e+00,
238,3.56e+00,2.64e+00,
239,3.80e+00,3.08e+00,
240,3.72e+00,2.96e+00,
241,3.96e+00,3.24e+00,
242,3.88e+00,2.96e+00,
243,4.08e+00,3.36e+00,
244,4.00e+00,3.52e+00,
245,4.20e+00,3.20e+00,
246,4.12e+00,3.20e+00,
247,4.32e+00,3.48e+00,
248,4.24e+00,3.28e+00,
249,4.40e+00,3.60e+00,
250,4.32e+00,3.48e+00,
251,4.48e+00,3.72e+00,
252,4.40e+00,3.60e+00,
253,4.56e+00,3.76e+00,
254,4.48e+00,3.76e+00,
255,4.60e+00,3.68e+00,
256,4.52e+00,3.84e+00,
257,4.64e+00,3.68e+00,
258,4.52e+00,3.84e+00,
259,4.68e+00,3.72e+00,
260,4.68e+00,3.72e+00,
261,4.52e+00,3.88e+00,
262,4.68e+00,3.88e+00,
263,4.52e+00,3.76e+00,
264,4.52e+00,3.88e+00,
265,4.64e+00,3.80e+00,
266,4.64e+00,3.88e+00,
267,4.48e+00,3.68e+00,
268,4.56e+00,3.88e+00,
269,4.40e+00,3.48e+00,
270,4.52e+00,3.52e+00,
271,4.36e+00,3.80e+00,
272,4.44e+00,3.80e+00,
273,4.28e+00,3.52e+00,
274,4.32e+00,3.72e+00,
275,4.16e+00,3.36e+00,
276,4.24e+00,3.64e+00,
277,4.04e+00,3.32e+00,
278,4.12e+00,3.52e+00,
279,3.92e+00,3.20e+00,
280,3.96e+00,3.44e+00,
281,3.76e+00,3.08e+00,
282,3.84e+00,3.40e+00,
283,3.64e+00,2.96e+00,
284,3.72e+00,3.16e+00,
285,3.44e+00,2.80e+00,
286,3.56e+00,3.08e+00,
287,3.28e+00,2.72e+00,
288,3.36e+00,2.96e+00,
289,3.16e+00,2.60e+00,
290,3.20e+00,2.88e+00,
291,2.96e+00,2.48e+00,
292,3.00e+00,2.76e+00,
293,2.80e+00,2.40e+00,
294,2.84e+00,2.64e+00,
295,2.60e+00,2.32e+00,
296,2.64e+00,2.56e+00,
297,2.44e+00,2.20e+00,
298,2.48e+00,2.44e+00,
299,2.24e+00,1.92e+00,
300,2.28e+00,2.16e+00,
301,2.08e+00,1.84e+00,
302,2.12e+00,2.12e+00,
303,1.92e+00,1.60e+00,
304,1.92e+00,1.48e+00,
305,1.72e+00,1.76e+00,
306,1.76e+00,1.68e+00,
307,1.56e+00,1.32e+00,
308,1.64e+00,1.60e+00,
309,1.36e+00,1.20e+00,
310,1.44e+00,1.24e+00,
311,1.24e+00,1.04e+00,
312,1.32e+00,1.24e+00,
313,1.12e+00,8.80e-01,
314,1.16e+00,8.00e-01,
315,1.00e+00,1.04e+00,
316,1.04e+00,9.60e-01,
317,8.80e-01,6.80e-01,
318,9.20e-01,5.60e-01,
319,7.60e-01,8.00e-01,
320,8.40e-01,6.40e-01,
321,7.20e-01,4.80e-01,
322,8.00e-01,6.00e-01,
323,6.40e-01,4.40e-01,
324,6.80e-01,4.00e-01,
325,6.00e-01,5.20e-01,
326,6.80e-01,3.20e-01,
327,5.20e-01,4.80e-01,
328,5.20e-01,3.20e-01,
329,6.40e-01,4.40e-01,
330,6.40e-01,2.40e-01,
331,5.60e-01,4.40e-01,
332,4.80e-01,4.80e-01,
333,6.40e-01,2.40e-01,
334,6.40e-01,2.80e-01,
335,5.20e-01,5.20e-01,
336,5.20e-01,3.20e-01,
337,6.80e-01,6.00e-01,
338,6.00e-01,3.20e-01,
339,7.60e-01,6.40e-01,
340,6.40e-01,6.00e-01,
341,8.00e-01,3.60e-01,
342,7.20e-01,4.00e-01,
343,9.20e-01,7.20e-01,
344,8.40e-01,5.60e-01,
345,1.00e+00,8.40e-01,
346,9.60e-01,5.60e-01,
347,1.08e+00,8.80e-01,
348,1.00e+00,6.80e-01,
349,1.20e+00,1.04e+00,
350,1.20e+00,1.16e+00,
351,1.40e+00,8.00e-01,
352,1.32e+00,7.20e-01,
353,1.52e+00,9.60e-01,
354,1.44e+00,8.00e-01,
355,1.68e+00,1.08e+00,
356,1.60e+00,9.20e-01,
357,1.80e+00,1.32e+00,
358,1.80e+00,1.12e+00,
359,2.00e+00,1.52e+00,
360,1.96e+00,1.28e+00,
361,2.16e+00,1.68e+00,
362,2.12e+00,1.40e+00,
363,2.36e+00,1.84e+00,
364,2.32e+00,1.64e+00,
365,2.52e+00,2.04e+00,
366,2.52e+00,1.76e+00,
367,2.72e+00,2.12e+00,
368,2.68e+00,1.88e+00,
369,2.92e+00,2.32e+00,
370,2.84e+00,2.00e+00,
371,3.12e+00,2.44e+00,
372,3.04e+00,2.16e+00,
373,3.24e+00,2.56e+00,
374,3.16e+00,2.32e+00,
375,3.44e+00,2.68e+00,
376,3.40e+00,2.48e+00,
377,3.60e+00,2.96e+00,
378,3.52e+00,3.12e+00,
379,3.76e+00,2.84e+00,
380,3.68e+00,2.80e+00,
381,3.92e+00,3.16e+00,
382,3.80e+00,2.96e+00,
383,4.04e+00,3.36e+00,
384,3.96e+00,3.40e+00,
385,4.16e+00,3.12e+00,
386,4.12e+00,3.16e+00,
387,4.28e+00,3.52e+00,
388,4.24e+00,3.40e+00,
389,4.40e+00,3.64e+00,
390,4.28e+00,3.56e+00,
391,4.44e+00,3.72e+00,
392,4.52e+00,3.64e+00,
393,4.40e+00,3.76e+00,
394,4.56e+00,3.68e+00,
395,4.48e+00,3.80e+00,
396,4.52e+00,3.68e+00,
397,4.64e+00,3.84e+00,
398,4.52e+00,3.84e+00,
399,4.68e+00,3.72e+00,
400,4.68e+00,3.72e+00,
401,4.52e+00,3.84e+00,
402,4.68e+00,3.80e+00,
403,4.56e+00,3.88e+00,
404,4.60e+00,3.88e+00,
405,4.52e+00,3.80e+00,
406,4.52e+00,3.88e+00,
407,4.64e+00,3.80e+00,
408,4.48e+00,3.88e+00,
409,4.56e+00,3.56e+00,
410,4.48e+00,3.84e+00,
411,4.36e+00,3.64e+00,
412,4.44e+00,3.76e+00,
413,4.28e+00,3.44e+00,
414,4.36e+00,3.72e+00,
415,4.16e+00,3.44e+00,
416,4.28e+00,3.64e+00,
417,4.00e+00,3.24e+00,
418,4.12e+00,3.32e+00,
419,3.92e+00,3.60e+00,
420,4.00e+00,3.52e+00,
421,3.80e+00,3.16e+00,
422,3.88e+00,3.40e+00,
423,3.64e+00,2.96e+00,
424,3.72e+00,3.20e+00,
425,3.52e+00,2.84e+00,
426,3.56e+00,3.08e+00,
427,3.32e+00,2.72e+00,
428,3.40e+00,3.00e+00,
429,3.16e+00,2.60e+00,
430,3.24e+00,2.88e+00,
431,3.00e+00,2.52e+00,
432,3.04e+00,2.76e+00,
433,2.80e+00,2.40e+00,
434,2.88e+00,2.68e+00,
435,2.64e+00,2.36e+00,
436,2.72e+00,2.56e+00,
437,2.44e+00,2.24e+00,
438,2.52e+00,2.44e+00,
439,2.28e+00,1.92e+00,
440,2.28e+00,1.88e+00,
441,2.08e+00,2.20e+00,
442,2.16e+00,2.00e+00,
443,1.92e+00,1.64e+00,
444,1.96e+00,1.96e+00,
445,1.72e+00,1.52e+00,
446,1.80e+00,1.76e+00,
447,1.60e+00,1.36e+00,
448,1.64e+00,1.36e+00,
449,1.44e+00,1.16e+00,
450,1.52e+00,1.16e+00,
451,1.24e+00,1.48e+00,
452,1.32e+00,1.24e+00,
453,1.12e+00,9.20e-01,
454,1.20e+00,1.08e+00,
455,1.00e+00,8.00e-01,
456,1.08e+00,9.60e-01,
457,8.80e-01,6.80e-01,
458,9.60e-01,7.60e-01,
459,8.00e-01,5.60e-01,
460,8.40e-01,7.20e-01,
461,7.20e-01,5.20e-01,
462,8.00e-01,4.40e-01,
463,6.00e-01,7.20e-01,
464,7.60e-01,6.00e-01,
465,6.00e-01,3.60e-01,
466,6.80e-01,3.20e-01,
467,5.20e-01,5.60e-01,
468,5.20e-01,4.80e-01,
469,6.40e-01,2.80e-01,
470,6.40e-01,2.40e-01,
471,5.20e-01,5.20e-01,
472,6.00e-01,4.40e-01,
473,5.60e-01,2.80e-01,
474,6.40e-01,4.80e-01,
475,5.20e-01,3.20e-01,
476,5.20e-01,3.20e-01,
477,6.80e-01,6.40e-01,
478,5.20e-01,3.60e-01,
479,7.60e-01,6.00e-01,
480,6.40e-01,3.60e-01,
481,8.00e-01,6.40e-01,
482,7.20e-01,6.00e-01,
483,8.40e-01,4.40e-01,
484,8.40e-01,5.20e-01,
485,9.60e-01,8.00e-01,
486,8.80e-01,5.60e-01,
487,1.08e+00,7.60e-01,
488,1.00e+00,6.40e-01,
489,1.20e+00,9.60e-01,
490,1.12e+00,1.04e+00,
491,1.32e+00,7.20e-01,
492,1.32e+00,8.00e-01,
493,1.52e+00,1.12e+00,
494,1.44e+00,8.80e-01,
495,1.60e+00,1.24e+00,
496,1.60e+00,1.08e+00,
497,1.80e+00,1.44e+00,
498,1.72e+00,1.16e+00,
499,2.00e+00,1.60e+00,
500,1.92e+00,1.36e+00,
501,2.16e+00,1.68e+00,
502,2.12e+00,1.40e+00,
503,2.36e+00,1.76e+00,
504,2.28e+00,1.48e+00,
505,2.52e+00,1.96e+00,
506,2.44e+00,1.76e+00,
507,2.72e+00,2.08e+00,
508,2.60e+00,1.96e+00,
509,2.88e+00,2.32e+00,
510,2.80e+00,2.00e+00,
511,3.08e+00,2.40e+00,
512,2.96e+00,2.20e+00,
513,3.24e+00,2.56e+00,
514,3.16e+00,2.24e+00,
515,3.40e+00,2.80e+00,
516,3.36e+00,2.84e+00,
517,3.60e+00,2.52e+00,
518,3.52e+00,2.60e+00,
519,3.72e+00,3.00e+00,
520,3.68e+00,2.80e+00,
521,3.88e+00,3.24e+00,
522,3.80e+00,3.24e+00,
523,4.04e+00,2.92e+00,
524,3.92e+00,3.08e+00,
525,4.16e+00,3.40e+00,
526,4.04e+00,3.52e+00,
527,4.28e+00,3.32e+00,
528,4.16e+00,3.20e+00,
529,4.36e+00,3.60e+00,
530,4.24e+00,3.44e+00,
531,4.44e+00,3.64e+00,
532,4.36e+00,3.56e+00,
533,4.48e+00,3.72e+00,
534,4.48e+00,3.68e+00,
535,4.56e+00,3.76e+00,
536,4.52e+00,3.68e+00,
537,4.64e+00,3.80e+00,
538,4.52e+00,3.72e+00,
539,4.64e+00,3.84e+00,
540,4.60e+00,3.72e+00,
541,4.68e+00,3.88e+00,
542,4.68e+00,3.76e+00,
543,4.60e+00,3.88e+00,
544,4.68e+00,3.76e+00,
545,4.48e+00,3.88e+00,
546,4.64e+00,3.88e+00,
547,4.52e+00,3.80e+00,
548,4.48e+00,3.88e+00,
549,4.56e+00,3.64e+00,
550,4.52e+00,3.80e+00,
551,4.40e+00,3.48e+00,
552,4.44e+00,3.80e+00,
553,4.28e+00,3.60e+00,
554,4.40e+00,3.76e+00,
555,4.20e+00,3.44e+00,
556,4.24e+00,3.64e+00,
557,4.12e+00,3.32e+00,
558,4.16e+00,3.60e+00,
559,4.00e+00,3.24e+00,
560,4.00e+00,3.48e+00,
561,3.80e+00,3.20e+00,
562,3.92e+00,3.44e+00,
563,3.68e+00,3.08e+00,
564,3.72e+00,3.36e+00,
565,3.52e+00,2.92e+00,
566,3.60e+00,3.24e+00,
567,3.36e+00,2.76e+00,
568,3.40e+00,3.04e+00,
569,3.20e+00,2.68e+00,
570,3.24e+00,3.00e+00,
571,3.04e+00,2.52e+00,
572,3.08e+00,2.88e+00,
573,2.84e+00,2.48e+00,
574,2.88e+00,2.72e+00,
575,2.68e+00,2.36e+00,
576,2.72e+00,2.68e+00,
577,2.48e+00,2.32e+00,
578,2.52e+00,2.32e+00,
579,2.32e+00,2.00e+00,
580,2.36e+00,1.88e+00,
581,2.08e+00,2.20e+00,
582,2.16e+00,2.20e+00,
583,1.96e+00,1.68e+00,
584,2.00e+00,1.72e+00,
585,1.80e+00,1.48e+00,
586,1.80e+00,1.80e+00,
587,1.60e+00,1.44e+00,
588,1.64e+00,1.48e+00,
589,1.44e+00,1.24e+00,
590,1.52e+00,1.36e+00,
591,1.32e+00,1.08e+00,
592,1.40e+00,9.20e-01,
593,1.20e+00,1.16e+00,
594,1.24e+00,1.24e+00,
595,1.00e+00,8.80e-01,
596,1.08e+00,8.80e-01,
597,8.80e-01,6.80e-01,
598,9.60e-01,6.80e-01,
599,8.40e-01,9.60e-01,
600,8.80e-01,7.60e-01,
601,7.20e-01,4.80e-01,
602,8.00e-01,7.20e-01,
603,6.40e-01,4.40e-01,
604,7.60e-01,5.20e-01,
605,6.00e-01,3.60e-01,
606,6.80e-01,3.60e-01,
607,5.20e-01,6.00e-01,
608,5.20e-01,4.00e-01,
609,6.40e-01,2.80e-01,
610,6.40e-01,4.80e-01,
611,4.80e-01,3.20e-01,
612,4.80e-01,4.00e-01,
613,6.40e-01,2.80e-01,
614,6.40e-01,2.80e-01,
615,5.20e-01,5.20e-01,
616,5.20e-01,2.80e-01,
617,6.80e-01,6.00e-01,
618,6.80e-01,3.60e-01,
619,6.00e-01,5.60e-01,
620,6.40e-01,6.40e-01,
621,8.00e-01,4.40e-01,
622,7.20e-01,6.80e-01,
623,8.40e-01,4.40e-01,
624,7.60e-01,4.40e-01,
625,9.60e-01,8.40e-01,
626,8.80e-01,5.60e-01,
627,1.04e+00,8.40e-01,
628,1.00e+00,6.40e-01,
629,1.20e+00,1.00e+00,
630,1.12e+00,6.80e-01,
631,1.32e+00,9.60e-01,
632,1.24e+00,8.00e-01,
633,1.44e+00,1.20e+00,
634,1.44e+00,9.20e-01,
635,1.64e+00,1.32e+00,
636,1.56e+00,1.08e+00,
637,1.76e+00,1.40e+00,
638,1.72e+00,1.16e+00,
639,1.92e+00,1.56e+00,
640,1.92e+00,1.28e+00,
641,2.12e+00,1.64e+00,
642,2.08e+00,1.40e+00,
643,2.28e+00,1.68e+00,
644,2.24e+00,1.52e+00,
645,2.48e+00,1.96e+00,
646,2.44e+00,1.64e+00,
647,2.64e+00,2.08e+00,
648,2.60e+00,1.88e+00,
649,2.84e+00,2.20e+00,
650,2.80e+00,1.88e+00,
651,3.00e+00,2.36e+00,
652,2.96e+00,2.08e+00,
653,3.20e+00,2.44e+00,
654,3.16e+00,2.44e+00,
655,3.36e+00,2.76e+00,
656,3.32e+00,2.48e+00,
657,3.56e+00,2.88e+00,
658,3.44e+00,2.60e+00,
659,3.72e+00,2.92e+00,
660,3.64e+00,2.68e+00,
661,3.84e+00,3.12e+00,
662,3.76e+00,3.36e+00,
663,4.00e+00,3.08e+00,
664,3.96e+00,3.00e+00,
665,4.16e+00,3.40e+00,
666,4.04e+00,3.32e+00,
667,4.24e+00,3.56e+00,
668,4.16e+00,3.56e+00,
669,4.32e+00,3.28e+00,
670,4.28e+00,3.44e+00,
671,4.44e+00,3.64e+00,
672,4.36e+00,3.56e+00,
673,4.48e+00,3.72e+00,
674,4.40e+00,3.76e+00,
675,4.56e+00,3.60e+00,
676,4.48e+00,3.68e+00,
677,4.60e+00,3.76e+00,
678,4.52e+00,3.68e+00,
679,4.64e+00,3.84e+00,
680,4.52e+00,3.88e+00,
681,4.68e+00,3.72e+00,
682,4.68e+00,3.76e+00,
683,4.52e+00,3.88e+00,
684,4.68e+00,3.88e+00,
685,4.52e+00,3.80e+00,
686,4.52e+00,3.88e+00,
687,4.60e+00,3.76e+00,
688,4.60e+00,3.88e+00,
689,4.48e+00,3.76e+00,
690,4.56e+00,3.88e+00,
691,4.40e+00,3.48e+00,
692,4.36e+00,3.52e+00,
693,4.48e+00,3.80e+00,
694,4.40e+00,3.76e+00,
695,4.24e+00,3.44e+00,
696,4.32e+00,3.64e+00,
697,4.12e+00,3.32e+00,
698,4.20e+00,3.64e+00,
699,4.00e+00,3.24e+00,
700,4.08e+00,3.48e+00,
701,3.88e+00,3.12e+00,
702,3.92e+00,3.40e+00,
703,3.68e+00,3.04e+00,
704,3.80e+00,3.28e+00,
705,3.56e+00,2.96e+00,
706,3.60e+00,3.24e+00,
707,3.40e+00,2.84e+00,
708,3.48e+00,3.16e+00,
709,3.20e+00,2.76e+00,
710,3.28e+00,3.04e+00,
711,3.04e+00,2.64e+00,
712,3.12e+00,2.96e+00,
713,2.88e+00,2.60e+00,
714,2.92e+00,2.84e+00,
715,2.68e+00,2.48e+00,
716,2.76e+00,2.56e+00,
717,2.52e+00,2.12e+00,
718,2.60e+00,2.40e+00,
719,2.32e+00,2.00e+00,
720,2.40e+00,2.36e+00,
721,2.16e+00,1.96e+00,
722,2.24e+00,2.08e+00,
723,1.96e+00,1.76e+00,
724,2.04e+00,1.84e+00,
725,1.80e+00,1.60e+00,
726,1.88e+00,1.92e+00,
727,1.64e+00,1.44e+00,
728,1.68e+00,1.48e+00,
729,1.48e+00,1.24e+00,
730,1.56e+00,1.48e+00,
731,1.32e+00,1.12e+00,
732,1.40e+00,8.80e-01,
733,1.20e+00,1.24e+00,
734,1.28e+00,1.24e+00,
735,1.08e+00,8.80e-01,
736,1.12e+00,7.20e-01,
737,9.60e-01,1.00e+00,
738,9.60e-01,8.40e-01,
739,8.40e-01,6.00e-01,
740,9.20e-01,8.40e-01,
741,7.60e-01,5.60e-01,
742,8.00e-01,6.40e-01,
743,6.40e-01,4.40e-01,
744,7.20e-01,4.40e-01,
745,6.00e-01,7.20e-01,
746,6.80e-01,5.20e-01,
747,5.20e-01,3.20e-01,
748,5.20e-01,2.80e-01,
749,6.40e-01,5.20e-01,
750,5.20e-01,4.00e-01,
751,6.40e-01,2.40e-01,
752,6.40e-01,5.20e-01,
753,5.20e-01,3.20e-01,
754,6.40e-01,2.40e-01,
755,4.80e-01,4.80e-01,
756,5.20e-01,5.20e-01,
757,6.40e-01,2.80e-01,
758,6.00e-01,3.20e-01,
759,6.80e-01,5.20e-01,
760,6.40e-01,3.20e-01,
761,7.60e-01,6.40e-01,
762,6.80e-01,4.00e-01,
763,8.40e-01,6.40e-01,
764,7.60e-01,7.60e-01,
765,9.20e-01,4.80e-01,
766,8.80e-01,5.60e-01,
767,1.04e+00,8.80e-01,
768,9.60e-01,9.20e-01,
769,1.16e+00,6.80e-01,
770,1.08e+00,6.40e-01,
771,1.28e+00,1.08e+00,
772,1.24e+00,8.40e-01,
773,1.44e+00,1.24e+00,
774,1.32e+00,1.04e+00,
775,1.56e+00,1.44e+00,
776,1.56e+00,1.16e+00,
777,1.76e+00,1.60e+00,
778,1.68e+00,1.32e+00,
779,1.92e+00,1.68e+00,
780,1.84e+00,1.40e+00,
781,2.12e+00,1.72e+00,
782,2.04e+00,1.48e+00,
783,2.28e+00,1.84e+00,
784,2.20e+00,1.52e+00,
785,2.48e+00,1.84e+00,
786,2.40e+00,1.60e+00,
787,2.64e+00,2.04e+00,
788,2.56e+00,1.76e+00,
789,2.80e+00,2.24e+00,
790,2.72e+00,2.40e+00,
791,3.00e+00,2.04e+00,
792,2.92e+00,2.04e+00,
793,3.20e+00,2.52e+00,
794,3.12e+00,2.24e+00,
795,3.36e+00,2.64e+00,
796,3.28e+00,2.48e+00,
797,3.48e+00,2.80e+00,
798,3.44e+00,2.48e+00,
799,3.68e+00,2.88e+00,
800,3.56e+00,2.72e+00,
801,3.84e+00,3.16e+00,
802,3.76e+00,3.00e+00,
803,3.96e+00,3.28e+00,
804,3.88e+00,2.96e+00,
805,4.08e+00,3.32e+00,
806,4.04e+00,3.24e+00,
807,4.20e+00,3.52e+00,
808,4.16e+00,3.60e+00,
809,4.32e+00,3.28e+00,
810,4.24e+00,3.28e+00,
811,4.44e+00,3.64e+00,
812,4.36e+00,3.48e+00,
813,4.48e+00,3.72e+00,
814,4.40e+00,3.56e+00,
815,4.56e+00,3.76e+00,
816,4.48e+00,3.76e+00,
817,4.60e+00,3.64e+00,
818,4.48e+00,3.72e+00,
819,4.64e+00,3.84e+00,
820,4.68e+00,3.84e+00,
821,4.52e+00,3.72e+00,
822,4.68e+00,3.72e+00,
823,4.60e+00,3.88e+00,
824,4.68e+00,3.88e+00,
825,4.52e+00,3.76e+00,
826,4.60e+00,3.72e+00,
827,4.52e+00,3.92e+00,
828,4.60e+00,3.88e+00,
829,4.48e+00,3.68e+00,
830,4.56e+00,3.88e+00,
831,4.40e+00,3.52e+00,
832,4.52e+00,3.52e+00,
833,4.36e+00,3.84e+00,
834,4.36e+00,3.76e+00,
835,4.24e+00,3.36e+00,
836,4.32e+00,3.76e+00,
837,4.12e+00,3.40e+00,
838,4.20e+00,3.64e+00,
839,4.00e+00,3.28e+00,
840,4.08e+00,3.56e+00,
841,3.88e+00,3.32e+00,
842,3.96e+00,3.52e+00,
843,3.72e+00,3.16e+00,
844,3.80e+00,3.40e+00,
845,3.56e+00,3.04e+00,
846,3.68e+00,3.28e+00,
847,3.44e+00,2.88e+00,
848,3.48e+00,3.16e+00,
849,3.28e+00,2.72e+00,
850,3.32e+00,2.96e+00,
851,3.08e+00,2.60e+00,
852,3.16e+00,2.88e+00,
853,2.92e+00,2.48e+00,
854,3.00e+00,2.80e+00,
855,2.76e+00,2.40e+00,
856,2.80e+00,2.68e+00,
857,2.56e+00,2.36e+00,
858,2.60e+00,2.64e+00,
859,2.36e+00,2.00e+00,
860,2.40e+00,2.20e+00,
861,2.20e+00,1.92e+00,
862,2.24e+00,2.20e+00,
863,2.00e+00,1.76e+00,
864,2.04e+00,1.56e+00,
865,1.88e+00,1.84e+00,
866,1.88e+00,1.84e+00,
867,1.68e+00,1.44e+00,
868,1.76e+00,1.64e+00,
869,1.48e+00,1.36e+00,
870,1.56e+00,1.32e+00,
