Code/Matlab/Analysis/BPA_OL_Bode_Analysis/Open_Loop_Frequency_Response_Signals_2/NewFile27.csv

X,CH3,CH4,Start,Increment,
Sequence,Volt,Volt,-6.000000e-01,1.000000e-03
0,4.00e-01,9.60e-01,
1,3.20e-01,8.40e-01,
2,3.20e-01,8.80e-01,
3,4.00e-01,8.00e-01,
4,3.20e-01,8.40e-01,
5,4.00e-01,7.20e-01,
6,3.60e-01,8.40e-01,
7,4.80e-01,7.20e-01,
8,3.60e-01,7.60e-01,
9,5.20e-01,6.80e-01,
10,4.40e-01,7.60e-01,
11,6.00e-01,6.80e-01,
12,4.80e-01,7.20e-01,
13,6.40e-01,6.00e-01,
14,5.60e-01,6.00e-01,
15,7.60e-01,7.20e-01,
16,6.80e-01,5.60e-01,
17,8.40e-01,7.20e-01,
18,8.00e-01,6.00e-01,
19,9.20e-01,7.60e-01,
20,8.40e-01,7.60e-01,
21,1.04e+00,6.00e-01,
22,1.04e+00,6.40e-01,
23,1.24e+00,5.20e-01,
24,1.16e+00,6.40e-01,
25,1.36e+00,5.20e-01,
26,1.28e+00,6.00e-01,
27,1.48e+00,4.80e-01,
28,1.40e+00,5.20e-01,
29,1.64e+00,4.40e-01,
30,1.56e+00,4.40e-01,
31,1.84e+00,5.20e-01,
32,1.72e+00,4.40e-01,
33,1.96e+00,5.20e-01,
34,1.92e+00,4.80e-01,
35,2.12e+00,3.60e-01,
36,2.04e+00,4.40e-01,
37,2.32e+00,1.20e+00,
38,2.20e+00,1.16e+00,
39,2.48e+00,1.44e+00,
40,2.40e+00,1.40e+00,
41,2.68e+00,1.80e+00,
42,2.60e+00,1.76e+00,
43,2.84e+00,2.04e+00,
44,2.76e+00,2.00e+00,
45,3.04e+00,2.20e+00,
46,2.92e+00,2.20e+00,
47,3.20e+00,1.76e+00,
48,3.12e+00,1.80e+00,
49,3.32e+00,1.36e+00,
50,3.24e+00,1.36e+00,
51,3.52e+00,1.16e+00,
52,3.40e+00,1.08e+00,
53,3.68e+00,1.36e+00,
54,3.52e+00,1.36e+00,
55,3.80e+00,1.96e+00,
56,3.72e+00,1.88e+00,
57,4.00e+00,2.20e+00,
58,3.88e+00,2.12e+00,
59,4.12e+00,2.44e+00,
60,4.00e+00,2.36e+00,
61,4.24e+00,2.56e+00,
62,4.12e+00,2.52e+00,
63,4.36e+00,2.76e+00,
64,4.24e+00,2.64e+00,
65,4.48e+00,2.80e+00,
66,4.36e+00,2.80e+00,
67,4.52e+00,2.72e+00,
68,4.44e+00,2.80e+00,
69,4.64e+00,2.48e+00,
70,4.56e+00,2.52e+00,
71,4.72e+00,2.88e+00,
72,4.60e+00,2.88e+00,
73,4.76e+00,3.00e+00,
74,4.68e+00,2.88e+00,
75,4.84e+00,3.04e+00,
76,4.72e+00,3.00e+00,
77,4.84e+00,3.12e+00,
78,4.72e+00,3.08e+00,
79,4.84e+00,3.16e+00,
80,4.88e+00,3.16e+00,
81,4.72e+00,3.08e+00,
82,4.88e+00,3.24e+00,
83,4.72e+00,3.08e+00,
84,4.72e+00,3.24e+00,
85,4.88e+00,3.08e+00,
86,4.84e+00,3.16e+00,
87,4.68e+00,2.76e+00,
88,4.76e+00,2.76e+00,
89,4.68e+00,3.16e+00,
90,4.72e+00,3.08e+00,
91,4.60e+00,3.24e+00,
92,4.68e+00,3.16e+00,
93,4.52e+00,3.08e+00,
94,4.60e+00,3.08e+00,
95,4.44e+00,3.24e+00,
96,4.52e+00,3.16e+00,
97,4.32e+00,3.24e+00,
98,4.40e+00,3.20e+00,
99,4.24e+00,3.28e+00,
100,4.28e+00,3.28e+00,
101,4.08e+00,3.24e+00,
102,4.16e+00,3.28e+00,
103,3.96e+00,3.20e+00,
104,4.04e+00,3.28e+00,
105,3.84e+00,2.96e+00,
106,3.92e+00,2.88e+00,
107,3.72e+00,3.24e+00,
108,3.76e+00,3.20e+00,
109,3.52e+00,3.36e+00,
110,3.64e+00,3.28e+00,
111,3.40e+00,3.20e+00,
112,3.44e+00,3.28e+00,
113,3.24e+00,3.20e+00,
114,3.32e+00,3.24e+00,
115,3.04e+00,3.36e+00,
116,3.16e+00,3.24e+00,
117,2.88e+00,3.36e+00,
118,2.96e+00,3.24e+00,
119,2.68e+00,3.40e+00,
120,2.80e+00,3.36e+00,
121,2.52e+00,2.88e+00,
122,2.60e+00,2.92e+00,
123,2.32e+00,2.48e+00,
124,2.44e+00,2.56e+00,
125,2.20e+00,2.28e+00,
126,2.24e+00,2.24e+00,
127,2.04e+00,3.08e+00,
128,2.08e+00,3.08e+00,
129,1.84e+00,3.16e+00,
130,1.96e+00,3.08e+00,
131,1.68e+00,3.28e+00,
132,1.76e+00,3.12e+00,
133,1.52e+00,3.28e+00,
134,1.60e+00,3.28e+00,
135,1.40e+00,3.12e+00,
136,1.48e+00,3.16e+00,
137,1.20e+00,2.44e+00,
138,1.28e+00,2.52e+00,
139,1.08e+00,2.28e+00,
140,1.16e+00,2.32e+00,
141,9.60e-01,2.00e+00,
142,1.04e+00,2.00e+00,
143,8.00e-01,1.84e+00,
144,9.20e-01,1.92e+00,
145,7.20e-01,1.68e+00,
146,8.00e-01,1.72e+00,
147,6.00e-01,1.56e+00,
148,7.20e-01,1.60e+00,
149,5.60e-01,1.40e+00,
150,6.40e-01,1.48e+00,
151,4.40e-01,1.32e+00,
152,5.60e-01,1.36e+00,
153,4.40e-01,1.20e+00,
154,5.20e-01,1.32e+00,
155,3.60e-01,1.16e+00,
156,4.80e-01,1.20e+00,
157,2.80e-01,1.04e+00,
158,3.20e-01,1.12e+00,
159,4.00e-01,1.04e+00,
160,4.00e-01,1.08e+00,
161,3.20e-01,9.60e-01,
162,4.00e-01,1.00e+00,
163,3.20e-01,9.20e-01,
164,4.00e-01,9.60e-01,
165,3.20e-01,8.40e-01,
166,3.20e-01,8.80e-01,
167,4.80e-01,8.00e-01,
168,4.80e-01,8.80e-01,
169,3.60e-01,7.60e-01,
170,4.40e-01,8.40e-01,
171,5.20e-01,7.20e-01,
172,4.40e-01,7.60e-01,
173,6.00e-01,6.80e-01,
174,5.20e-01,7.60e-01,
175,7.20e-01,6.40e-01,
176,6.00e-01,7.20e-01,
177,8.00e-01,6.00e-01,
178,7.20e-01,6.00e-01,
179,8.80e-01,7.20e-01,
180,8.40e-01,6.40e-01,
181,1.00e+00,5.60e-01,
182,9.20e-01,5.60e-01,
183,1.12e+00,7.60e-01,
184,1.08e+00,7.60e-01,
185,1.28e+00,1.00e+00,
186,1.20e+00,1.00e+00,
187,1.40e+00,7.20e-01,
188,1.32e+00,8.40e-01,
189,1.60e+00,7.20e-01,
190,1.52e+00,7.60e-01,
191,1.72e+00,6.40e-01,
192,1.64e+00,6.80e-01,
193,1.88e+00,5.60e-01,
194,1.80e+00,6.40e-01,
195,2.08e+00,5.20e-01,
196,1.96e+00,4.80e-01,
197,2.24e+00,6.00e-01,
198,2.16e+00,5.20e-01,
199,2.36e+00,4.40e-01,
200,2.32e+00,4.40e-01,
201,2.56e+00,6.40e-01,
202,2.52e+00,6.00e-01,
203,2.72e+00,1.32e+00,
204,2.68e+00,1.28e+00,
205,2.92e+00,1.68e+00,
206,2.84e+00,1.60e+00,
207,3.08e+00,1.96e+00,
208,3.00e+00,1.88e+00,
209,3.28e+00,2.16e+00,
210,3.16e+00,2.12e+00,
211,3.44e+00,2.32e+00,
212,3.36e+00,2.32e+00,
213,3.56e+00,2.04e+00,
214,3.44e+00,2.08e+00,
215,3.76e+00,1.52e+00,
216,3.64e+00,1.56e+00,
217,3.88e+00,1.32e+00,
218,3.84e+00,1.28e+00,
219,4.04e+00,2.04e+00,
220,3.96e+00,2.00e+00,
221,4.16e+00,2.20e+00,
222,4.08e+00,2.12e+00,
223,4.28e+00,2.52e+00,
224,4.20e+00,2.48e+00,
225,4.40e+00,2.64e+00,
226,4.32e+00,2.60e+00,
227,4.48e+00,2.76e+00,
228,4.44e+00,2.72e+00,
229,4.60e+00,2.88e+00,
230,4.48e+00,2.76e+00,
231,4.64e+00,2.92e+00,
232,4.56e+00,2.92e+00,
233,4.72e+00,2.76e+00,
234,4.76e+00,2.80e+00,
235,4.60e+00,2.64e+00,
236,4.68e+00,2.80e+00,
237,4.84e+00,3.12e+00,
238,4.72e+00,3.00e+00,
239,4.84e+00,3.08e+00,
240,4.72e+00,3.00e+00,
241,4.88e+00,3.16e+00,
242,4.88e+00,3.08e+00,
243,4.72e+00,3.20e+00,
244,4.88e+00,3.12e+00,
245,4.72e+00,3.24e+00,
246,4.72e+00,3.12e+00,
247,4.84e+00,3.24e+00,
248,4.84e+00,3.24e+00,
249,4.68e+00,3.20e+00,
250,4.76e+00,3.24e+00,
251,4.60e+00,3.08e+00,
252,4.72e+00,3.12e+00,
253,4.56e+00,2.84e+00,
254,4.64e+00,2.88e+00,
255,4.48e+00,3.24e+00,
256,4.56e+00,3.24e+00,
257,4.36e+00,3.12e+00,
258,4.48e+00,3.12e+00,
259,4.28e+00,3.24e+00,
260,4.36e+00,3.24e+00,
261,4.20e+00,3.12e+00,
262,4.28e+00,3.20e+00,
263,4.04e+00,3.28e+00,
264,4.16e+00,3.20e+00,
265,3.88e+00,3.36e+00,
266,4.00e+00,3.36e+00,
267,3.76e+00,3.24e+00,
268,3.88e+00,3.20e+00,
269,3.60e+00,3.36e+00,
270,3.68e+00,3.28e+00,
271,3.48e+00,3.00e+00,
272,3.56e+00,3.08e+00,
273,3.28e+00,3.28e+00,
274,3.40e+00,3.24e+00,
275,3.12e+00,3.36e+00,
276,3.20e+00,3.36e+00,
277,3.00e+00,3.24e+00,
278,3.04e+00,3.24e+00,
279,2.80e+00,3.36e+00,
280,2.84e+00,3.28e+00,
281,2.64e+00,3.40e+00,
282,2.68e+00,3.40e+00,
283,2.44e+00,3.28e+00,
284,2.56e+00,3.36e+00,
285,2.28e+00,3.24e+00,
286,2.36e+00,3.28e+00,
287,2.08e+00,2.60e+00,
288,2.20e+00,2.64e+00,
289,1.92e+00,2.40e+00,
290,2.00e+00,2.44e+00,
291,1.72e+00,2.16e+00,
292,1.84e+00,2.16e+00,
293,1.60e+00,3.04e+00,
294,1.64e+00,3.00e+00,
295,1.44e+00,3.12e+00,
296,1.52e+00,2.96e+00,
297,1.32e+00,3.24e+00,
298,1.40e+00,3.16e+00,
299,1.16e+00,2.56e+00,
300,1.24e+00,2.56e+00,
301,1.04e+00,2.28e+00,
302,1.12e+00,2.32e+00,
303,9.20e-01,2.04e+00,
304,1.00e+00,2.08e+00,
305,8.00e-01,1.84e+00,
306,8.80e-01,1.92e+00,
307,6.80e-01,1.68e+00,
308,7.60e-01,1.72e+00,
309,6.00e-01,1.52e+00,
310,6.80e-01,1.60e+00,
311,4.80e-01,1.44e+00,
312,6.00e-01,1.48e+00,
313,4.40e-01,1.28e+00,
314,5.20e-01,1.36e+00,
315,3.60e-01,1.20e+00,
316,4.80e-01,1.28e+00,
317,3.20e-01,1.16e+00,
318,3.20e-01,1.20e+00,
319,4.80e-01,1.08e+00,
320,3.20e-01,1.12e+00,
321,4.00e-01,9.60e-01,
322,3.20e-01,9.60e-01,
323,4.00e-01,1.08e+00,
324,4.00e-01,1.00e+00,
325,3.20e-01,8.80e-01,
326,3.20e-01,9.60e-01,
327,4.40e-01,8.40e-01,
328,4.80e-01,8.80e-01,
329,3.20e-01,8.00e-01,
330,3.60e-01,8.40e-01,
331,5.20e-01,7.20e-01,
332,4.40e-01,8.40e-01,
333,6.00e-01,6.80e-01,
334,4.80e-01,7.60e-01,
335,6.40e-01,6.80e-01,
336,5.60e-01,7.60e-01,
337,7.60e-01,6.00e-01,
338,6.80e-01,6.00e-01,
339,8.40e-01,7.20e-01,
340,7.20e-01,6.40e-01,
341,9.60e-01,5.60e-01,
342,8.40e-01,6.40e-01,
343,1.08e+00,5.60e-01,
344,1.04e+00,6.40e-01,
345,1.24e+00,5.20e-01,
346,1.16e+00,6.00e-01,
347,1.36e+00,4.80e-01,
348,1.28e+00,4.80e-01,
349,1.48e+00,1.08e+00,
350,1.44e+00,1.04e+00,
351,1.64e+00,1.32e+00,
352,1.56e+00,1.20e+00,
353,1.76e+00,1.44e+00,
354,1.76e+00,1.36e+00,
355,1.96e+00,9.60e-01,
356,1.92e+00,1.00e+00,
357,2.12e+00,8.40e-01,
358,2.04e+00,9.20e-01,
359,2.32e+00,7.20e-01,
360,2.20e+00,7.60e-01,
361,2.48e+00,6.80e-01,
362,2.40e+00,7.20e-01,
363,2.68e+00,6.00e-01,
364,2.56e+00,6.40e-01,
365,2.84e+00,5.20e-01,
366,2.76e+00,5.60e-01,
367,3.00e+00,1.20e+00,
368,2.92e+00,1.20e+00,
369,3.20e+00,1.56e+00,
370,3.12e+00,1.44e+00,
371,3.32e+00,1.92e+00,
372,3.28e+00,1.84e+00,
373,3.52e+00,2.08e+00,
374,3.40e+00,2.08e+00,
375,3.68e+00,2.36e+00,
376,3.60e+00,2.28e+00,
377,3.80e+00,2.52e+00,
378,3.72e+00,2.52e+00,
379,3.96e+00,2.28e+00,
380,3.88e+00,2.32e+00,
381,4.12e+00,1.68e+00,
382,4.00e+00,1.64e+00,
383,4.24e+00,2.20e+00,
384,4.12e+00,2.20e+00,
385,4.36e+00,2.44e+00,
386,4.24e+00,2.36e+00,
387,4.44e+00,2.64e+00,
388,4.36e+00,2.60e+00,
389,4.52e+00,2.80e+00,
390,4.44e+00,2.72e+00,
391,4.64e+00,2.88e+00,
392,4.56e+00,2.84e+00,
393,4.68e+00,3.00e+00,
394,4.60e+00,2.88e+00,
395,4.76e+00,3.04e+00,
396,4.68e+00,3.04e+00,
397,4.84e+00,2.96e+00,
398,4.72e+00,3.04e+00,
399,4.84e+00,2.80e+00,
400,4.72e+00,2.76e+00,
401,4.88e+00,3.04e+00,
402,4.72e+00,2.96e+00,
403,4.88e+00,3.16e+00,
404,4.72e+00,3.08e+00,
405,4.88e+00,3.16e+00,
406,4.72e+00,3.08e+00,
407,4.88e+00,3.24e+00,
408,4.84e+00,3.12e+00,
409,4.64e+00,3.28e+00,
410,4.76e+00,3.24e+00,
411,4.68e+00,3.20e+00,
412,4.76e+00,3.20e+00,
413,4.60e+00,3.28e+00,
414,4.68e+00,3.20e+00,
415,4.48e+00,3.28e+00,
416,4.56e+00,3.24e+00,
417,4.44e+00,2.96e+00,
418,4.52e+00,2.88e+00,
419,4.36e+00,3.12e+00,
420,4.40e+00,3.04e+00,
421,4.24e+00,3.28e+00,
422,4.28e+00,3.28e+00,
423,4.12e+00,3.12e+00,
424,4.16e+00,3.16e+00,
425,4.00e+00,3.28e+00,
426,4.08e+00,3.28e+00,
427,3.84e+00,3.20e+00,
428,3.92e+00,3.36e+00,
429,3.72e+00,3.20e+00,
430,3.80e+00,3.36e+00,
431,3.52e+00,3.24e+00,
432,3.60e+00,3.40e+00,
433,3.36e+00,3.20e+00,
434,3.44e+00,3.36e+00,
435,3.24e+00,2.84e+00,
436,3.32e+00,2.64e+00,
437,3.04e+00,2.92e+00,
438,3.16e+00,2.92e+00,
439,2.84e+00,3.36e+00,
440,2.96e+00,3.36e+00,
441,2.68e+00,3.20e+00,
442,2.80e+00,3.20e+00,
443,2.52e+00,3.28e+00,
444,2.60e+00,3.36e+00,
445,2.36e+00,3.24e+00,
446,2.44e+00,3.24e+00,
447,2.16e+00,3.40e+00,
448,2.24e+00,3.40e+00,
449,2.04e+00,3.24e+00,
450,2.08e+00,3.28e+00,
451,1.88e+00,2.56e+00,
452,1.96e+00,2.64e+00,
453,1.68e+00,2.40e+00,
454,1.76e+00,2.44e+00,
455,1.52e+00,2.08e+00,
456,1.60e+00,2.00e+00,
457,1.40e+00,2.20e+00,
458,1.48e+00,2.20e+00,
459,1.28e+00,2.64e+00,
460,1.28e+00,2.56e+00,
461,1.08e+00,2.12e+00,
462,1.20e+00,2.16e+00,
463,9.60e-01,1.92e+00,
464,1.04e+00,2.04e+00,
465,8.40e-01,1.76e+00,
466,9.60e-01,1.80e+00,
467,7.20e-01,1.56e+00,
468,8.40e-01,1.68e+00,
469,6.80e-01,1.44e+00,
470,5.60e-01,1.48e+00,
471,7.20e-01,1.36e+00,
472,6.40e-01,1.44e+00,
473,4.80e-01,1.24e+00,
474,6.00e-01,1.32e+00,
475,4.40e-01,1.16e+00,
476,5.20e-01,1.24e+00,
477,3.60e-01,1.08e+00,
478,4.80e-01,1.12e+00,
479,3.20e-01,1.04e+00,
480,3.20e-01,1.08e+00,
481,4.00e-01,9.60e-01,
482,4.00e-01,1.00e+00,
483,3.20e-01,9.20e-01,
484,4.00e-01,9.60e-01,
485,2.40e-01,8.00e-01,
486,4.00e-01,8.80e-01,
487,2.40e-01,8.00e-01,
488,3.20e-01,8.40e-01,
489,4.80e-01,7.20e-01,
490,3.60e-01,8.40e-01,
491,4.80e-01,7.20e-01,
492,3.60e-01,8.40e-01,
493,5.60e-01,6.80e-01,
494,4.40e-01,6.80e-01,
495,6.00e-01,7.60e-01,
496,5.60e-01,6.80e-01,
497,7.20e-01,7.60e-01,
498,6.00e-01,7.20e-01,
499,8.00e-01,6.00e-01,
500,7.20e-01,6.40e-01,
501,8.80e-01,5.60e-01,
502,8.00e-01,5.20e-01,
503,1.00e+00,6.40e-01,
504,9.20e-01,6.00e-01,
505,1.12e+00,4.80e-01,
506,1.04e+00,6.00e-01,
507,1.28e+00,4.40e-01,
508,1.20e+00,5.20e-01,
509,1.40e+00,4.80e-01,
510,1.32e+00,5.20e-01,
511,1.60e+00,4.40e-01,
512,1.52e+00,5.20e-01,
513,1.72e+00,4.00e-01,
514,1.64e+00,4.40e-01,
515,1.88e+00,1.24e+00,
516,1.80e+00,1.16e+00,
517,2.08e+00,1.48e+00,
518,1.96e+00,1.40e+00,
519,2.20e+00,1.84e+00,
520,2.16e+00,1.80e+00,
521,2.36e+00,1.96e+00,
522,2.32e+00,1.96e+00,
523,2.56e+00,1.56e+00,
524,2.48e+00,1.60e+00,
525,2.72e+00,1.20e+00,
526,2.64e+00,1.24e+00,
527,2.92e+00,1.04e+00,
528,2.80e+00,1.12e+00,
529,3.08e+00,9.20e-01,
530,3.00e+00,8.40e-01,
531,3.28e+00,1.20e+00,
532,3.16e+00,1.20e+00,
533,3.44e+00,1.80e+00,
534,3.36e+00,1.68e+00,
535,3.56e+00,2.08e+00,
536,3.52e+00,2.00e+00,
537,3.76e+00,2.32e+00,
538,3.64e+00,2.24e+00,
539,3.88e+00,2.52e+00,
540,3.80e+00,2.48e+00,
541,4.04e+00,2.68e+00,
542,3.92e+00,2.60e+00,
543,4.16e+00,2.68e+00,
544,4.08e+00,2.68e+00,
545,4.28e+00,2.28e+00,
546,4.20e+00,2.32e+00,
547,4.40e+00,1.92e+00,
548,4.32e+00,2.00e+00,
549,4.48e+00,2.64e+00,
550,4.40e+00,2.60e+00,
551,4.60e+00,2.68e+00,
552,4.48e+00,2.64e+00,
553,4.64e+00,2.92e+00,
554,4.72e+00,2.84e+00,
555,4.56e+00,3.00e+00,
556,4.76e+00,2.88e+00,
557,4.64e+00,3.04e+00,
558,4.68e+00,2.96e+00,
559,4.84e+00,3.12e+00,
560,4.68e+00,3.04e+00,
561,4.88e+00,3.16e+00,
562,4.72e+00,3.16e+00,
563,4.88e+00,3.04e+00,
564,4.88e+00,3.12e+00,
565,4.72e+00,2.96e+00,
566,4.88e+00,2.96e+00,
567,4.72e+00,3.16e+00,
568,4.72e+00,3.16e+00,
569,4.84e+00,3.08e+00,
570,4.84e+00,3.00e+00,
571,4.68e+00,3.20e+00,
572,4.76e+00,3.12e+00,
573,4.60e+00,3.24e+00,
574,4.72e+00,3.20e+00,
575,4.56e+00,3.28e+00,
576,4.64e+00,3.20e+00,
577,4.48e+00,3.28e+00,
578,4.60e+00,3.28e+00,
579,4.36e+00,3.20e+00,
580,4.48e+00,3.28e+00,
581,4.32e+00,3.20e+00,
582,4.40e+00,3.28e+00,
583,4.20e+00,3.00e+00,
584,4.28e+00,3.00e+00,
585,4.00e+00,3.28e+00,
586,4.12e+00,3.20e+00,
587,3.88e+00,3.32e+00,
588,4.00e+00,3.28e+00,
589,3.76e+00,3.20e+00,
590,3.88e+00,3.28e+00,
591,3.64e+00,3.20e+00,
592,3.68e+00,3.24e+00,
593,3.48e+00,3.36e+00,
594,3.56e+00,3.24e+00,
595,3.28e+00,3.40e+00,
596,3.40e+00,3.40e+00,
597,3.12e+00,3.28e+00,
598,3.20e+00,3.40e+00,
599,3.00e+00,3.20e+00,
600,3.04e+00,3.20e+00,
601,2.80e+00,2.56e+00,
602,2.84e+00,2.48e+00,
603,2.64e+00,2.84e+00,
604,2.72e+00,2.84e+00,
605,2.44e+00,3.28e+00,
606,2.56e+00,3.20e+00,
607,2.28e+00,3.28e+00,
608,2.36e+00,3.36e+00,
609,2.12e+00,3.12e+00,
610,2.20e+00,3.36e+00,
611,1.92e+00,3.20e+00,
612,2.00e+00,3.36e+00,
613,1.76e+00,3.20e+00,
614,1.84e+00,3.24e+00,
615,1.60e+00,2.52e+00,
616,1.72e+00,2.56e+00,
617,1.44e+00,2.36e+00,
618,1.52e+00,2.40e+00,
619,1.32e+00,2.04e+00,
620,1.40e+00,2.08e+00,
621,1.16e+00,1.88e+00,
622,1.24e+00,1.84e+00,
623,1.04e+00,2.04e+00,
624,1.12e+00,2.08e+00,
625,9.20e-01,1.88e+00,
626,1.00e+00,1.96e+00,
627,8.00e-01,1.64e+00,
628,8.80e-01,1.68e+00,
629,6.80e-01,1.52e+00,
630,7.60e-01,1.60e+00,
631,6.00e-01,1.40e+00,
632,6.80e-01,1.44e+00,
633,4.80e-01,1.28e+00,
634,6.00e-01,1.36e+00,
635,4.40e-01,1.20e+00,
636,5.20e-01,1.24e+00,
637,3.60e-01,1.16e+00,
638,4.80e-01,1.20e+00,
639,3.60e-01,1.04e+00,
640,4.40e-01,1.12e+00,
641,3.20e-01,9.60e-01,
642,4.00e-01,1.08e+00,
643,2.40e-01,9.20e-01,
644,4.00e-01,1.00e+00,
645,3.20e-01,8.80e-01,
646,4.00e-01,9.60e-01,
647,3.20e-01,8.40e-01,
648,4.00e-01,8.80e-01,
649,3.20e-01,8.00e-01,
650,3.20e-01,8.40e-01,
651,4.80e-01,7.20e-01,
652,3.60e-01,8.00e-01,
653,5.20e-01,6.80e-01,
654,4.40e-01,7.60e-01,
655,6.00e-01,6.80e-01,
656,4.80e-01,7.20e-01,
657,6.40e-01,6.00e-01,
658,5.60e-01,7.20e-01,
659,7.60e-01,6.00e-01,
660,6.80e-01,6.00e-01,
661,8.00e-01,8.40e-01,
662,7.20e-01,8.80e-01,
663,9.60e-01,6.80e-01,
664,8.40e-01,7.60e-01,
665,1.08e+00,6.00e-01,
666,9.60e-01,7.20e-01,
667,1.20e+00,6.00e-01,
668,1.16e+00,6.40e-01,
669,1.36e+00,5.60e-01,
670,1.28e+00,6.00e-01,
671,1.48e+00,4.80e-01,
672,1.40e+00,4.80e-01,
673,1.64e+00,6.00e-01,
674,1.56e+00,6.00e-01,
675,1.76e+00,4.40e-01,
676,1.72e+00,5.20e-01,
677,1.96e+00,4.40e-01,
678,1.88e+00,4.40e-01,
679,2.12e+00,8.80e-01,
680,2.04e+00,8.80e-01,
681,2.32e+00,1.36e+00,
682,2.20e+00,1.28e+00,
683,2.48e+00,1.68e+00,
684,2.40e+00,1.64e+00,
685,2.64e+00,1.96e+00,
686,2.56e+00,1.92e+00,
687,2.84e+00,2.20e+00,
688,2.76e+00,2.12e+00,
689,3.04e+00,2.20e+00,
690,2.92e+00,2.16e+00,
691,3.16e+00,1.52e+00,
692,3.12e+00,1.56e+00,
693,3.32e+00,1.28e+00,
694,3.24e+00,1.36e+00,
695,3.52e+00,1.08e+00,
696,3.40e+00,1.12e+00,
697,3.68e+00,1.92e+00,
698,3.60e+00,1.88e+00,
699,3.80e+00,2.08e+00,
700,3.72e+00,2.00e+00,
701,3.96e+00,2.40e+00,
702,3.88e+00,2.36e+00,
703,4.08e+00,2.56e+00,
704,4.00e+00,2.48e+00,
705,4.24e+00,2.68e+00,
706,4.12e+00,2.64e+00,
707,4.36e+00,2.80e+00,
708,4.24e+00,2.76e+00,
709,4.48e+00,2.88e+00,
710,4.36e+00,2.80e+00,
711,4.52e+00,2.24e+00,
712,4.44e+00,2.16e+00,
713,4.64e+00,2.44e+00,
714,4.56e+00,2.40e+00,
715,4.72e+00,2.88e+00,
716,4.60e+00,2.76e+00,
717,4.76e+00,2.88e+00,
718,4.68e+00,2.84e+00,
719,4.80e+00,3.04e+00,
720,4.72e+00,2.96e+00,
721,4.84e+00,3.08e+00,
722,4.72e+00,3.00e+00,
723,4.88e+00,3.16e+00,
724,4.72e+00,3.08e+00,
725,4.88e+00,3.16e+00,
726,4.88e+00,3.12e+00,
727,4.72e+00,3.24e+00,
728,4.72e+00,3.16e+00,
729,4.88e+00,3.08e+00,
730,4.72e+00,3.12e+00,
731,4.84e+00,3.00e+00,
732,4.76e+00,3.08e+00,
733,4.68e+00,3.24e+00,
734,4.76e+00,3.24e+00,
735,4.56e+00,3.08e+00,
736,4.68e+00,3.12e+00,
737,4.56e+00,3.24e+00,
738,4.64e+00,3.16e+00,
739,4.44e+00,3.28e+00,
740,4.52e+00,3.20e+00,
741,4.32e+00,3.32e+00,
742,4.40e+00,3.20e+00,
743,4.24e+00,3.36e+00,
744,4.32e+00,3.36e+00,
745,4.12e+00,3.24e+00,
746,4.20e+00,3.28e+00,
747,3.96e+00,3.20e+00,
748,4.04e+00,3.24e+00,
749,3.84e+00,3.08e+00,
750,3.92e+00,3.08e+00,
751,3.72e+00,3.36e+00,
752,3.80e+00,3.40e+00,
753,3.56e+00,3.24e+00,
754,3.64e+00,3.24e+00,
755,3.40e+00,3.36e+00,
756,3.44e+00,3.24e+00,
757,3.24e+00,3.40e+00,
758,3.32e+00,3.28e+00,
759,3.04e+00,3.40e+00,
760,3.16e+00,3.32e+00,
761,2.88e+00,3.40e+00,
762,2.96e+00,3.40e+00,
763,2.72e+00,3.24e+00,
764,2.80e+00,3.28e+00,
765,2.52e+00,2.60e+00,
766,2.60e+00,2.64e+00,
767,2.36e+00,2.40e+00,
768,2.44e+00,2.28e+00,
769,2.20e+00,2.80e+00,
770,2.24e+00,2.76e+00,
771,2.04e+00,3.24e+00,
772,2.12e+00,3.12e+00,
773,1.84e+00,3.24e+00,
774,1.96e+00,3.20e+00,
775,1.68e+00,3.28e+00,
776,1.76e+00,3.28e+00,
777,1.56e+00,3.20e+00,
778,1.60e+00,3.28e+00,
779,1.40e+00,2.72e+00,
780,1.48e+00,2.76e+00,
781,1.28e+00,2.36e+00,
782,1.32e+00,2.44e+00,
783,1.08e+00,2.16e+00,
784,1.16e+00,2.20e+00,
785,9.60e-01,1.92e+00,
786,1.08e+00,1.96e+00,
787,8.40e-01,1.76e+00,
788,9.60e-01,1.84e+00,
789,7.20e-01,1.64e+00,
790,8.40e-01,1.68e+00,
791,6.80e-01,1.52e+00,
792,7.20e-01,1.56e+00,
793,5.60e-01,1.40e+00,
794,6.40e-01,1.44e+00,
795,4.80e-01,1.28e+00,
796,6.00e-01,1.36e+00,
797,4.40e-01,1.20e+00,
798,5.20e-01,1.24e+00,
799,3.60e-01,1.08e+00,
800,4.80e-01,1.20e+00,
801,3.20e-01,1.04e+00,
802,4.00e-01,1.12e+00,
803,3.20e-01,9.60e-01,
804,4.00e-01,1.08e+00,
805,3.20e-01,9.20e-01,
806,4.00e-01,1.00e+00,
807,3.20e-01,8.40e-01,
808,4.00e-01,8.40e-01,
809,3.20e-01,9.60e-01,
810,3.20e-01,8.80e-01,
811,4.80e-01,8.00e-01,
812,3.60e-01,8.40e-01,
813,4.80e-01,7.20e-01,
814,5.20e-01,8.40e-01,
815,4.00e-01,6.80e-01,
816,4.40e-01,7.60e-01,
817,6.40e-01,6.80e-01,
818,5.60e-01,7.20e-01,
819,7.20e-01,6.00e-01,
820,6.00e-01,7.20e-01,
821,8.00e-01,5.60e-01,
822,7.20e-01,6.80e-01,
823,8.80e-01,6.00e-01,
824,8.00e-01,6.40e-01,
825,1.00e+00,5.60e-01,
826,9.20e-01,5.60e-01,
827,1.12e+00,7.20e-01,
828,1.04e+00,7.60e-01,
829,1.28e+00,6.00e-01,
830,1.16e+00,5.60e-01,
831,1.40e+00,6.80e-01,
832,1.32e+00,6.00e-01,
833,1.52e+00,5.20e-01,
834,1.44e+00,6.40e-01,
835,1.72e+00,4.80e-01,
836,1.64e+00,5.20e-01,
837,1.88e+00,4.40e-01,
838,1.80e+00,5.20e-01,
839,2.08e+00,4.40e-01,
840,1.96e+00,4.80e-01,
841,2.24e+00,4.00e-01,
842,2.16e+00,4.80e-01,
843,2.36e+00,3.60e-01,
844,2.28e+00,4.00e-01,
845,2.56e+00,1.12e+00,
846,2.48e+00,1.12e+00,
847,2.72e+00,1.44e+00,
848,2.64e+00,1.36e+00,
849,2.92e+00,1.80e+00,
850,2.80e+00,1.76e+00,
851,3.08e+00,2.00e+00,
852,3.00e+00,1.96e+00,
853,3.28e+00,2.24e+00,
854,3.16e+00,2.28e+00,
855,3.44e+00,2.16e+00,
856,3.36e+00,2.20e+00,
857,3.56e+00,1.56e+00,
858,3.48e+00,1.60e+00,
859,3.76e+00,1.36e+00,
860,3.64e+00,1.20e+00,
861,3.88e+00,1.60e+00,
862,3.76e+00,1.56e+00,
863,4.04e+00,2.08e+00,
864,3.96e+00,2.04e+00,
865,4.16e+00,2.32e+00,
866,4.08e+00,2.28e+00,
867,4.28e+00,2.56e+00,
868,4.20e+00,2.52e+00,
869,4.40e+00,2.68e+00,
870,4.32e+00,2.60e+00,
