Code/Matlab/Analysis/BPA_OL_Bode_Analysis/Open_Loop_Frequency_Response_Signals_2/NewFile11.csv

X,CH3,CH4,Start,Increment,
Sequence,Volt,Volt,-5.990000e+00,1.000000e-02
0,2.16e+00,1.44e+00,
1,2.36e+00,2.80e+00,
2,2.32e+00,1.48e+00,
3,2.56e+00,2.84e+00,
4,2.44e+00,1.52e+00,
5,2.68e+00,2.84e+00,
6,2.56e+00,1.60e+00,
7,2.80e+00,2.84e+00,
8,2.76e+00,1.60e+00,
9,2.96e+00,2.92e+00,
10,2.88e+00,1.72e+00,
11,3.08e+00,3.00e+00,
12,3.00e+00,3.04e+00,
13,3.20e+00,1.80e+00,
14,3.12e+00,3.04e+00,
15,3.32e+00,1.84e+00,
16,3.24e+00,3.12e+00,
17,3.44e+00,2.00e+00,
18,3.56e+00,3.16e+00,
19,3.40e+00,2.12e+00,
20,3.48e+00,3.16e+00,
21,3.68e+00,2.20e+00,
22,3.60e+00,3.24e+00,
23,3.80e+00,2.16e+00,
24,3.76e+00,2.28e+00,
25,3.92e+00,3.28e+00,
26,3.84e+00,2.48e+00,
27,4.04e+00,3.36e+00,
28,3.96e+00,2.60e+00,
29,4.16e+00,3.40e+00,
30,4.08e+00,2.48e+00,
31,4.24e+00,3.36e+00,
32,4.16e+00,2.64e+00,
33,4.36e+00,3.40e+00,
34,4.24e+00,3.44e+00,
35,4.44e+00,2.68e+00,
36,4.36e+00,3.48e+00,
37,4.52e+00,2.68e+00,
38,4.40e+00,3.48e+00,
39,4.56e+00,2.72e+00,
40,4.48e+00,3.04e+00,
41,4.64e+00,3.52e+00,
42,4.56e+00,3.04e+00,
43,4.72e+00,3.60e+00,
44,4.60e+00,2.92e+00,
45,4.76e+00,3.60e+00,
46,4.76e+00,3.60e+00,
47,4.68e+00,3.24e+00,
48,4.68e+00,3.60e+00,
49,4.84e+00,2.76e+00,
50,4.72e+00,3.20e+00,
51,4.84e+00,3.64e+00,
52,4.72e+00,3.04e+00,
53,4.80e+00,3.64e+00,
54,4.88e+00,3.64e+00,
55,4.72e+00,2.92e+00,
56,4.88e+00,2.96e+00,
57,4.76e+00,3.64e+00,
58,4.88e+00,3.72e+00,
59,4.72e+00,2.88e+00,
60,4.72e+00,3.36e+00,
61,4.88e+00,3.72e+00,
62,4.72e+00,3.72e+00,
63,4.84e+00,2.92e+00,
64,4.84e+00,3.72e+00,
65,4.68e+00,3.36e+00,
66,4.76e+00,3.72e+00,
67,4.60e+00,2.92e+00,
68,4.72e+00,3.72e+00,
69,4.56e+00,3.40e+00,
70,4.64e+00,3.72e+00,
71,4.48e+00,2.92e+00,
72,4.60e+00,2.96e+00,
73,4.44e+00,3.72e+00,
74,4.52e+00,3.00e+00,
75,4.36e+00,3.72e+00,
76,4.48e+00,3.72e+00,
77,4.32e+00,2.92e+00,
78,4.40e+00,2.76e+00,
79,4.20e+00,3.72e+00,
80,4.28e+00,3.72e+00,
81,4.12e+00,2.84e+00,
82,4.24e+00,3.64e+00,
83,4.00e+00,2.76e+00,
84,4.12e+00,3.64e+00,
85,3.88e+00,2.72e+00,
86,4.00e+00,3.64e+00,
87,3.76e+00,2.68e+00,
88,3.88e+00,3.60e+00,
89,3.72e+00,2.44e+00,
90,3.76e+00,2.56e+00,
91,3.56e+00,3.56e+00,
92,3.60e+00,3.52e+00,
93,3.40e+00,2.28e+00,
94,3.52e+00,3.44e+00,
95,3.28e+00,2.24e+00,
96,3.40e+00,2.20e+00,
97,3.16e+00,3.40e+00,
98,3.28e+00,2.16e+00,
99,3.04e+00,3.36e+00,
100,3.12e+00,2.00e+00,
101,2.92e+00,3.28e+00,
102,2.96e+00,3.24e+00,
103,2.76e+00,1.88e+00,
104,2.84e+00,3.24e+00,
105,2.64e+00,1.88e+00,
106,2.72e+00,3.16e+00,
107,2.52e+00,1.80e+00,
108,2.60e+00,3.16e+00,
109,2.36e+00,1.72e+00,
110,2.44e+00,3.04e+00,
111,2.20e+00,1.72e+00,
112,2.32e+00,2.92e+00,
113,2.08e+00,1.52e+00,
114,2.20e+00,1.28e+00,
115,1.96e+00,2.68e+00,
116,2.00e+00,1.40e+00,
117,1.80e+00,2.64e+00,
118,1.88e+00,1.28e+00,
119,1.68e+00,2.40e+00,
120,1.76e+00,1.12e+00,
121,1.56e+00,2.20e+00,
122,1.64e+00,1.00e+00,
123,1.44e+00,2.08e+00,
124,1.52e+00,8.80e-01,
125,1.32e+00,2.20e+00,
126,1.40e+00,1.80e+00,
127,1.24e+00,7.60e-01,
128,1.28e+00,1.48e+00,
129,1.08e+00,5.60e-01,
130,1.24e+00,1.76e+00,
131,1.04e+00,7.60e-01,
132,1.08e+00,1.72e+00,
133,9.20e-01,6.80e-01,
134,1.00e+00,1.60e+00,
135,8.40e-01,6.40e-01,
136,8.80e-01,1.36e+00,
137,7.20e-01,5.60e-01,
138,8.40e-01,4.80e-01,
139,6.80e-01,1.24e+00,
140,7.60e-01,4.80e-01,
141,6.00e-01,1.24e+00,
142,7.20e-01,4.00e-01,
143,4.80e-01,1.20e+00,
144,6.40e-01,6.40e-01,
145,4.40e-01,2.80e-01,
146,6.00e-01,2.00e-01,
147,4.40e-01,6.00e-01,
148,5.20e-01,2.00e-01,
149,3.60e-01,7.60e-01,
150,3.60e-01,2.00e-01,
151,4.80e-01,9.20e-01,
152,4.80e-01,1.20e-01,
153,3.20e-01,5.20e-01,
154,3.20e-01,2.00e-01,
155,4.00e-01,7.60e-01,
156,4.00e-01,8.40e-01,
157,3.20e-01,2.00e-01,
158,4.00e-01,1.60e-01,
159,2.40e-01,5.60e-01,
160,3.20e-01,2.00e-01,
161,4.00e-01,8.40e-01,
162,3.20e-01,4.80e-01,
163,4.00e-01,2.00e-01,
164,3.20e-01,1.60e-01,
165,4.80e-01,6.00e-01,
166,3.60e-01,1.60e-01,
167,5.20e-01,8.00e-01,
168,3.60e-01,2.00e-01,
169,5.20e-01,1.00e+00,
170,4.40e-01,2.40e-01,
171,6.00e-01,1.12e+00,
172,4.80e-01,6.00e-01,
173,6.40e-01,2.00e-01,
174,5.60e-01,6.40e-01,
175,7.20e-01,2.00e-01,
176,6.00e-01,2.00e-01,
177,7.60e-01,8.40e-01,
178,6.80e-01,4.00e-01,
179,8.40e-01,1.28e+00,
180,7.20e-01,1.36e+00,
181,9.20e-01,4.40e-01,
182,8.40e-01,4.40e-01,
183,1.04e+00,1.28e+00,
184,9.60e-01,4.40e-01,
185,1.12e+00,1.72e+00,
186,1.04e+00,6.80e-01,
187,1.24e+00,1.80e+00,
188,1.16e+00,6.80e-01,
189,1.36e+00,1.60e+00,
190,1.28e+00,6.00e-01,
191,1.48e+00,1.96e+00,
192,1.40e+00,8.80e-01,
193,1.60e+00,2.00e+00,
194,1.48e+00,8.00e-01,
195,1.72e+00,2.24e+00,
196,1.64e+00,2.24e+00,
197,1.84e+00,1.00e+00,
198,1.72e+00,2.44e+00,
199,1.96e+00,1.24e+00,
200,1.88e+00,2.40e+00,
201,2.08e+00,1.08e+00,
202,2.00e+00,1.20e+00,
203,2.24e+00,2.56e+00,
204,2.16e+00,1.36e+00,
205,2.36e+00,2.72e+00,
206,2.28e+00,1.48e+00,
207,2.48e+00,2.80e+00,
208,2.40e+00,1.48e+00,
209,2.60e+00,2.88e+00,
210,2.56e+00,1.56e+00,
211,2.80e+00,2.88e+00,
212,2.68e+00,1.60e+00,
213,2.92e+00,2.92e+00,
214,2.80e+00,1.68e+00,
215,3.04e+00,3.00e+00,
216,2.96e+00,1.80e+00,
217,3.20e+00,3.04e+00,
218,3.12e+00,3.04e+00,
219,3.32e+00,1.84e+00,
220,3.24e+00,3.08e+00,
221,3.44e+00,2.00e+00,
222,3.36e+00,3.16e+00,
223,3.56e+00,2.12e+00,
224,3.48e+00,3.20e+00,
225,3.68e+00,2.16e+00,
226,3.60e+00,3.24e+00,
227,3.80e+00,2.24e+00,
228,3.72e+00,3.24e+00,
229,3.92e+00,2.24e+00,
230,3.84e+00,2.48e+00,
231,4.04e+00,3.36e+00,
232,3.96e+00,2.44e+00,
233,4.16e+00,3.36e+00,
234,4.08e+00,2.56e+00,
235,4.20e+00,3.36e+00,
236,4.16e+00,2.60e+00,
237,4.32e+00,3.40e+00,
238,4.24e+00,3.40e+00,
239,4.40e+00,2.64e+00,
240,4.32e+00,3.48e+00,
241,4.48e+00,2.72e+00,
242,4.44e+00,3.48e+00,
243,4.56e+00,2.72e+00,
244,4.48e+00,3.08e+00,
245,4.64e+00,3.52e+00,
246,4.56e+00,3.00e+00,
247,4.68e+00,3.60e+00,
248,4.60e+00,3.60e+00,
249,4.76e+00,2.96e+00,
250,4.76e+00,3.60e+00,
251,4.68e+00,2.92e+00,
252,4.68e+00,3.40e+00,
253,4.84e+00,3.64e+00,
254,4.72e+00,3.64e+00,
255,4.84e+00,2.84e+00,
256,4.72e+00,3.32e+00,
257,4.88e+00,3.64e+00,
258,4.72e+00,3.16e+00,
259,4.88e+00,3.72e+00,
260,4.88e+00,3.04e+00,
261,4.72e+00,3.68e+00,
262,4.88e+00,3.72e+00,
263,4.72e+00,2.88e+00,
264,4.72e+00,3.72e+00,
265,4.80e+00,3.44e+00,
266,4.72e+00,3.72e+00,
267,4.84e+00,2.92e+00,
268,4.80e+00,3.72e+00,
269,4.68e+00,3.40e+00,
270,4.68e+00,3.72e+00,
271,4.76e+00,2.92e+00,
272,4.56e+00,3.72e+00,
273,4.72e+00,3.36e+00,
274,4.68e+00,3.72e+00,
275,4.48e+00,2.92e+00,
276,4.64e+00,2.96e+00,
277,4.44e+00,3.72e+00,
278,4.52e+00,3.72e+00,
279,4.36e+00,3.08e+00,
280,4.48e+00,3.04e+00,
281,4.32e+00,3.72e+00,
282,4.40e+00,3.72e+00,
283,4.24e+00,2.84e+00,
284,4.32e+00,2.80e+00,
285,4.12e+00,3.64e+00,
286,4.20e+00,3.68e+00,
287,4.00e+00,2.76e+00,
288,4.12e+00,3.64e+00,
289,3.96e+00,2.72e+00,
290,4.00e+00,3.64e+00,
291,3.84e+00,2.68e+00,
292,3.88e+00,3.60e+00,
293,3.72e+00,2.60e+00,
294,3.80e+00,3.60e+00,
295,3.60e+00,2.40e+00,
296,3.68e+00,3.52e+00,
297,3.48e+00,2.24e+00,
298,3.56e+00,2.24e+00,
299,3.36e+00,3.48e+00,
300,3.40e+00,3.40e+00,
301,3.16e+00,2.12e+00,
302,3.28e+00,2.16e+00,
303,3.04e+00,3.36e+00,
304,3.16e+00,2.04e+00,
305,2.92e+00,3.28e+00,
306,3.04e+00,1.92e+00,
307,2.84e+00,3.20e+00,
308,2.88e+00,3.24e+00,
309,2.68e+00,1.84e+00,
310,2.72e+00,3.16e+00,
311,2.52e+00,1.80e+00,
312,2.60e+00,3.12e+00,
313,2.40e+00,1.64e+00,
314,2.48e+00,3.00e+00,
315,2.28e+00,1.68e+00,
316,2.36e+00,2.92e+00,
317,2.12e+00,1.52e+00,
318,2.20e+00,1.28e+00,
319,1.96e+00,2.68e+00,
320,2.08e+00,2.68e+00,
321,1.88e+00,1.40e+00,
322,1.96e+00,1.28e+00,
323,1.68e+00,2.40e+00,
324,1.76e+00,1.12e+00,
325,1.56e+00,2.52e+00,
326,1.64e+00,2.20e+00,
327,1.44e+00,1.16e+00,
328,1.52e+00,1.72e+00,
329,1.32e+00,8.40e-01,
330,1.40e+00,7.60e-01,
331,1.28e+00,1.96e+00,
332,1.28e+00,1.92e+00,
333,1.16e+00,8.00e-01,
334,1.24e+00,1.80e+00,
335,1.04e+00,6.80e-01,
336,1.12e+00,1.68e+00,
337,9.20e-01,6.40e-01,
338,1.00e+00,1.52e+00,
339,8.40e-01,5.60e-01,
340,9.20e-01,1.48e+00,
341,7.20e-01,5.60e-01,
342,8.40e-01,5.20e-01,
343,6.80e-01,1.24e+00,
344,7.60e-01,4.40e-01,
345,6.00e-01,1.12e+00,
346,7.20e-01,3.60e-01,
347,5.20e-01,1.00e+00,
348,6.40e-01,3.20e-01,
349,4.80e-01,1.00e+00,
350,5.60e-01,3.20e-01,
351,4.40e-01,8.80e-01,
352,5.20e-01,2.80e-01,
353,3.60e-01,8.80e-01,
354,3.60e-01,2.80e-01,
355,4.80e-01,8.80e-01,
356,4.40e-01,4.00e-01,
357,3.20e-01,1.60e-01,
358,4.00e-01,1.60e-01,
359,2.40e-01,6.00e-01,
360,4.00e-01,2.00e-01,
361,3.20e-01,7.60e-01,
362,4.00e-01,8.40e-01,
363,2.80e-01,2.00e-01,
364,3.20e-01,1.20e-01,
365,4.00e-01,5.20e-01,
366,4.00e-01,1.20e-01,
367,3.20e-01,7.60e-01,
368,3.20e-01,2.00e-01,
369,4.80e-01,9.20e-01,
370,4.80e-01,4.40e-01,
371,3.20e-01,2.00e-01,
372,3.60e-01,1.20e-01,
373,5.20e-01,5.60e-01,
374,4.40e-01,1.60e-01,
375,5.60e-01,8.00e-01,
376,4.80e-01,2.00e-01,
377,6.40e-01,9.20e-01,
378,5.60e-01,2.80e-01,
379,7.20e-01,1.00e+00,
380,6.00e-01,1.04e+00,
381,7.60e-01,3.20e-01,
382,6.80e-01,1.12e+00,
383,8.40e-01,3.20e-01,
384,7.20e-01,3.20e-01,
385,9.20e-01,1.20e+00,
386,8.40e-01,3.60e-01,
387,1.00e+00,1.48e+00,
388,9.20e-01,6.00e-01,
389,1.12e+00,1.64e+00,
390,1.04e+00,5.60e-01,
391,1.24e+00,1.48e+00,
392,1.16e+00,5.20e-01,
393,1.36e+00,1.96e+00,
394,1.28e+00,8.80e-01,
395,1.40e+00,2.08e+00,
396,1.40e+00,8.80e-01,
397,1.52e+00,1.92e+00,
398,1.52e+00,7.20e-01,
399,1.64e+00,2.20e+00,
400,1.64e+00,2.20e+00,
401,1.80e+00,1.00e+00,
402,1.72e+00,2.40e+00,
403,1.96e+00,1.16e+00,
404,1.84e+00,2.32e+00,
405,2.08e+00,1.04e+00,
406,2.00e+00,2.32e+00,
407,2.20e+00,1.12e+00,
408,2.12e+00,1.36e+00,
409,2.36e+00,2.64e+00,
410,2.28e+00,1.40e+00,
411,2.48e+00,2.76e+00,
412,2.40e+00,2.76e+00,
413,2.60e+00,1.48e+00,
414,2.48e+00,1.52e+00,
415,2.72e+00,2.88e+00,
416,2.72e+00,1.64e+00,
417,2.92e+00,2.96e+00,
418,2.80e+00,1.76e+00,
419,3.04e+00,3.00e+00,
420,2.96e+00,1.76e+00,
421,3.16e+00,3.04e+00,
422,3.08e+00,1.84e+00,
423,3.28e+00,3.04e+00,
424,3.24e+00,3.12e+00,
425,3.44e+00,2.00e+00,
426,3.36e+00,3.16e+00,
427,3.56e+00,2.12e+00,
428,3.48e+00,3.16e+00,
429,3.68e+00,2.20e+00,
430,3.60e+00,3.24e+00,
431,3.80e+00,2.24e+00,
432,3.72e+00,3.24e+00,
433,3.92e+00,2.28e+00,
434,3.80e+00,3.28e+00,
435,4.04e+00,2.48e+00,
436,3.96e+00,3.36e+00,
437,4.12e+00,2.40e+00,
438,4.00e+00,2.60e+00,
439,4.20e+00,3.40e+00,
440,4.12e+00,2.64e+00,
441,4.32e+00,3.40e+00,
442,4.20e+00,2.68e+00,
443,4.40e+00,3.40e+00,
444,4.32e+00,2.68e+00,
445,4.44e+00,3.48e+00,
446,4.36e+00,3.48e+00,
447,4.60e+00,2.72e+00,
448,4.48e+00,3.08e+00,
449,4.64e+00,3.52e+00,
450,4.56e+00,2.96e+00,
451,4.68e+00,3.60e+00,
452,4.56e+00,3.60e+00,
453,4.72e+00,2.96e+00,
454,4.76e+00,3.60e+00,
455,4.56e+00,2.88e+00,
456,4.68e+00,3.36e+00,
457,4.80e+00,3.64e+00,
458,4.84e+00,3.64e+00,
459,4.72e+00,2.84e+00,
460,4.72e+00,3.24e+00,
461,4.84e+00,3.64e+00,
462,4.88e+00,3.20e+00,
463,4.72e+00,3.72e+00,
464,4.88e+00,3.08e+00,
465,4.72e+00,3.68e+00,
466,4.88e+00,3.04e+00,
467,4.72e+00,3.72e+00,
468,4.72e+00,3.72e+00,
469,4.84e+00,2.96e+00,
470,4.80e+00,3.52e+00,
471,4.72e+00,3.72e+00,
472,4.68e+00,2.96e+00,
473,4.84e+00,3.76e+00,
474,4.68e+00,3.72e+00,
475,4.76e+00,3.48e+00,
476,4.76e+00,2.96e+00,
477,4.56e+00,3.76e+00,
478,4.72e+00,3.04e+00,
479,4.52e+00,3.76e+00,
480,4.64e+00,2.96e+00,
481,4.44e+00,3.72e+00,
482,4.56e+00,3.12e+00,
483,4.44e+00,3.76e+00,
484,4.44e+00,3.00e+00,
485,4.32e+00,3.76e+00,
486,4.40e+00,3.72e+00,
487,4.24e+00,2.80e+00,
488,4.36e+00,3.72e+00,
489,4.12e+00,2.84e+00,
490,4.24e+00,2.80e+00,
491,4.08e+00,3.64e+00,
492,4.12e+00,3.64e+00,
493,3.96e+00,2.72e+00,
494,4.04e+00,3.64e+00,
495,3.84e+00,2.64e+00,
496,3.92e+00,3.60e+00,
497,3.72e+00,2.40e+00,
498,3.80e+00,3.56e+00,
499,3.60e+00,2.52e+00,
500,3.68e+00,3.52e+00,
501,3.48e+00,2.32e+00,
502,3.56e+00,3.48e+00,
503,3.36e+00,2.24e+00,
504,3.44e+00,3.48e+00,
505,3.24e+00,2.20e+00,
506,3.32e+00,2.12e+00,
507,3.12e+00,3.36e+00,
508,3.16e+00,2.00e+00,
509,3.00e+00,3.28e+00,
510,3.00e+00,1.96e+00,
511,2.80e+00,3.24e+00,
512,2.88e+00,1.88e+00,
513,2.68e+00,3.16e+00,
514,2.80e+00,1.84e+00,
515,2.52e+00,3.16e+00,
516,2.60e+00,3.12e+00,
517,2.40e+00,1.64e+00,
518,2.48e+00,3.00e+00,
519,2.28e+00,1.72e+00,
520,2.36e+00,2.92e+00,
521,2.12e+00,1.48e+00,
522,2.24e+00,2.84e+00,
523,1.96e+00,1.60e+00,
524,2.08e+00,2.88e+00,
525,1.88e+00,1.48e+00,
526,1.96e+00,2.44e+00,
527,1.76e+00,1.24e+00,
528,1.84e+00,1.04e+00,
529,1.64e+00,2.40e+00,
530,1.72e+00,1.16e+00,
531,1.52e+00,2.32e+00,
532,1.60e+00,1.04e+00,
533,1.40e+00,2.08e+00,
534,1.48e+00,1.88e+00,
535,1.20e+00,8.80e-01,
536,1.36e+00,1.72e+00,
537,1.16e+00,7.60e-01,
538,1.24e+00,1.52e+00,
539,1.04e+00,6.00e-01,
540,1.12e+00,1.36e+00,
541,9.60e-01,5.20e-01,
542,1.04e+00,1.24e+00,
543,8.40e-01,4.40e-01,
544,9.20e-01,1.12e+00,
545,8.00e-01,4.00e-01,
546,8.40e-01,3.20e-01,
547,6.80e-01,9.20e-01,
548,7.60e-01,3.20e-01,
549,6.00e-01,1.00e+00,
550,7.20e-01,3.20e-01,
551,5.60e-01,1.00e+00,
552,6.40e-01,3.20e-01,
553,4.40e-01,1.04e+00,
554,5.60e-01,3.20e-01,
555,4.40e-01,1.08e+00,
556,5.20e-01,5.20e-01,
557,3.60e-01,2.00e-01,
558,3.60e-01,2.00e-01,
559,4.80e-01,5.20e-01,
560,4.80e-01,2.00e-01,
561,3.20e-01,7.60e-01,
562,3.20e-01,2.80e-01,
563,4.00e-01,9.20e-01,
564,3.20e-01,1.60e-01,
565,4.00e-01,5.20e-01,
566,4.00e-01,2.00e-01,
567,3.20e-01,7.60e-01,
568,4.00e-01,8.40e-01,
569,3.20e-01,2.00e-01,
570,4.00e-01,1.60e-01,
571,2.40e-01,6.40e-01,
572,4.40e-01,2.00e-01,
573,2.80e-01,9.20e-01,
574,3.20e-01,4.80e-01,
575,4.80e-01,2.40e-01,
576,3.20e-01,1.20e-01,
577,5.20e-01,7.20e-01,
578,4.40e-01,2.00e-01,
579,5.60e-01,8.80e-01,
580,4.80e-01,2.80e-01,
581,6.40e-01,1.08e+00,
582,5.20e-01,2.80e-01,
583,7.20e-01,1.12e+00,
584,6.00e-01,1.20e+00,
585,7.60e-01,3.20e-01,
586,6.80e-01,1.20e+00,
587,8.40e-01,4.00e-01,
588,7.20e-01,1.20e+00,
589,8.80e-01,4.00e-01,
590,8.00e-01,3.60e-01,
591,1.00e+00,1.44e+00,
592,9.20e-01,4.80e-01,
593,1.12e+00,1.56e+00,
594,1.04e+00,5.60e-01,
595,1.16e+00,1.44e+00,
596,1.08e+00,5.20e-01,
597,1.32e+00,1.76e+00,
598,1.24e+00,7.60e-01,
599,1.40e+00,1.84e+00,
600,1.32e+00,6.80e-01,
601,1.52e+00,2.08e+00,
602,1.44e+00,9.60e-01,
603,1.64e+00,2.08e+00,
604,1.56e+00,8.80e-01,
605,1.76e+00,2.28e+00,
606,1.68e+00,2.28e+00,
607,1.88e+00,9.60e-01,
608,1.88e+00,2.40e+00,
609,2.08e+00,1.16e+00,
610,1.96e+00,2.60e+00,
611,2.20e+00,1.36e+00,
612,2.08e+00,2.52e+00,
613,2.32e+00,1.16e+00,
614,2.24e+00,1.44e+00,
615,2.44e+00,2.68e+00,
616,2.40e+00,2.80e+00,
617,2.60e+00,1.48e+00,
618,2.52e+00,1.52e+00,
619,2.72e+00,2.84e+00,
620,2.64e+00,1.60e+00,
621,2.84e+00,2.92e+00,
622,2.80e+00,1.64e+00,
623,3.04e+00,2.96e+00,
624,2.92e+00,1.76e+00,
625,3.16e+00,3.04e+00,
626,3.04e+00,1.84e+00,
627,3.28e+00,3.04e+00,
628,3.16e+00,1.84e+00,
629,3.40e+00,3.04e+00,
630,3.28e+00,3.08e+00,
631,3.52e+00,2.04e+00,
632,3.40e+00,3.16e+00,
633,3.64e+00,2.12e+00,
634,3.60e+00,3.20e+00,
635,3.80e+00,2.20e+00,
636,3.72e+00,3.24e+00,
637,3.84e+00,2.20e+00,
638,3.76e+00,2.48e+00,
639,4.00e+00,3.28e+00,
640,3.88e+00,3.28e+00,
641,4.12e+00,2.36e+00,
642,4.00e+00,2.60e+00,
643,4.24e+00,3.36e+00,
644,4.12e+00,2.60e+00,
645,4.28e+00,3.40e+00,
646,4.20e+00,2.68e+00,
647,4.40e+00,3.40e+00,
648,4.32e+00,2.72e+00,
649,4.48e+00,3.48e+00,
650,4.36e+00,2.72e+00,
651,4.52e+00,3.48e+00,
652,4.44e+00,3.48e+00,
653,4.64e+00,2.72e+00,
654,4.64e+00,3.04e+00,
655,4.56e+00,3.60e+00,
656,4.60e+00,2.96e+00,
657,4.72e+00,3.60e+00,
658,4.60e+00,3.00e+00,
659,4.76e+00,3.60e+00,
660,4.68e+00,2.96e+00,
661,4.80e+00,3.64e+00,
662,4.72e+00,3.48e+00,
663,4.84e+00,3.64e+00,
664,4.72e+00,3.64e+00,
665,4.84e+00,2.88e+00,
666,4.72e+00,3.24e+00,
667,4.88e+00,3.64e+00,
668,4.76e+00,3.72e+00,
669,4.88e+00,3.16e+00,
670,4.88e+00,3.08e+00,
671,4.72e+00,3.72e+00,
672,4.84e+00,3.72e+00,
673,4.72e+00,2.96e+00,
674,4.84e+00,3.72e+00,
675,4.68e+00,3.48e+00,
676,4.84e+00,3.72e+00,
677,4.68e+00,2.92e+00,
678,4.76e+00,3.72e+00,
679,4.68e+00,3.44e+00,
680,4.76e+00,3.76e+00,
681,4.60e+00,2.92e+00,
682,4.72e+00,3.72e+00,
683,4.56e+00,2.96e+00,
684,4.64e+00,3.04e+00,
685,4.48e+00,3.76e+00,
686,4.56e+00,2.96e+00,
687,4.44e+00,3.76e+00,
688,4.52e+00,3.08e+00,
689,4.32e+00,3.76e+00,
690,4.40e+00,3.72e+00,
691,4.24e+00,2.88e+00,
692,4.36e+00,2.88e+00,
693,4.12e+00,3.72e+00,
694,4.24e+00,3.72e+00,
695,4.08e+00,2.80e+00,
696,4.16e+00,3.64e+00,
697,3.96e+00,2.72e+00,
698,4.04e+00,3.64e+00,
699,3.84e+00,2.64e+00,
700,3.92e+00,3.60e+00,
701,3.72e+00,2.64e+00,
702,3.80e+00,3.56e+00,
703,3.64e+00,2.36e+00,
704,3.68e+00,3.52e+00,
705,3.48e+00,2.24e+00,
706,3.56e+00,3.48e+00,
707,3.36e+00,2.24e+00,
708,3.44e+00,3.44e+00,
709,3.24e+00,2.20e+00,
710,3.32e+00,3.36e+00,
711,3.12e+00,2.12e+00,
712,3.20e+00,2.12e+00,
713,3.00e+00,3.36e+00,
714,3.08e+00,2.00e+00,
715,2.84e+00,3.28e+00,
716,2.96e+00,1.88e+00,
717,2.68e+00,3.24e+00,
718,2.80e+00,1.88e+00,
719,2.56e+00,3.16e+00,
720,2.68e+00,3.12e+00,
721,2.44e+00,1.64e+00,
722,2.48e+00,3.00e+00,
723,2.28e+00,1.72e+00,
724,2.36e+00,2.92e+00,
725,2.16e+00,1.52e+00,
726,2.24e+00,2.84e+00,
727,2.04e+00,1.56e+00,
728,2.12e+00,2.80e+00,
729,1.92e+00,1.44e+00,
730,1.96e+00,1.24e+00,
731,1.72e+00,2.64e+00,
732,1.84e+00,2.56e+00,
733,1.64e+00,1.36e+00,
734,1.72e+00,1.00e+00,
735,1.52e+00,2.20e+00,
736,1.60e+00,1.04e+00,
737,1.40e+00,2.16e+00,
738,1.48e+00,9.20e-01,
739,1.28e+00,1.96e+00,
740,1.36e+00,8.00e-01,
741,1.16e+00,1.80e+00,
742,1.24e+00,1.56e+00,
743,1.08e+00,6.40e-01,
744,1.12e+00,1.36e+00,
745,9.60e-01,5.20e-01,
746,1.08e+00,1.24e+00,
747,8.40e-01,4.40e-01,
748,9.20e-01,1.12e+00,
749,8.00e-01,4.00e-01,
750,8.80e-01,8.80e-01,
751,6.80e-01,3.20e-01,
752,8.00e-01,2.80e-01,
753,6.00e-01,8.80e-01,
754,6.80e-01,2.80e-01,
755,5.60e-01,8.80e-01,
756,6.40e-01,2.80e-01,
757,4.80e-01,1.00e+00,
758,5.60e-01,2.80e-01,
759,4.40e-01,1.00e+00,
760,5.20e-01,3.20e-01,
761,3.60e-01,1.08e+00,
762,3.60e-01,5.20e-01,
763,4.80e-01,2.00e-01,
764,4.80e-01,2.00e-01,
765,3.20e-01,5.20e-01,
766,3.20e-01,2.00e-01,
767,4.00e-01,7.60e-01,
768,4.00e-01,8.40e-01,
769,3.20e-01,2.40e-01,
770,4.00e-01,1.20e-01,
771,2.40e-01,5.20e-01,
772,4.00e-01,1.60e-01,
773,2.80e-01,7.60e-01,
774,3.20e-01,2.00e-01,
775,4.00e-01,8.80e-01,
776,3.20e-01,5.60e-01,
777,4.80e-01,2.00e-01,
778,3.20e-01,1.20e-01,
779,4.80e-01,5.20e-01,
780,3.60e-01,1.60e-01,
781,5.20e-01,8.00e-01,
782,4.40e-01,2.00e-01,
783,5.60e-01,8.40e-01,
784,6.00e-01,2.80e-01,
785,4.80e-01,1.04e+00,
786,4.80e-01,2.80e-01,
787,6.80e-01,1.12e+00,
788,5.60e-01,3.20e-01,
789,7.60e-01,1.24e+00,
790,6.80e-01,1.32e+00,
791,8.00e-01,4.00e-01,
792,7.20e-01,1.28e+00,
793,8.80e-01,4.40e-01,
794,8.00e-01,1.32e+00,
795,1.00e+00,4.40e-01,
796,9.20e-01,4.00e-01,
797,1.08e+00,1.44e+00,
798,9.60e-01,5.60e-01,
799,1.16e+00,1.52e+00,
800,1.08e+00,5.20e-01,
801,1.28e+00,1.92e+00,
802,1.20e+00,8.40e-01,
803,1.40e+00,2.08e+00,
804,1.32e+00,8.80e-01,
805,1.52e+00,1.92e+00,
806,1.44e+00,8.40e-01,
807,1.64e+00,2.32e+00,
808,1.56e+00,1.12e+00,
809,1.76e+00,2.32e+00,
810,1.68e+00,2.08e+00,
811,1.88e+00,8.40e-01,
812,1.80e+00,1.00e+00,
813,2.00e+00,2.44e+00,
814,1.96e+00,2.52e+00,
815,2.20e+00,1.20e+00,
816,2.08e+00,2.56e+00,
817,2.32e+00,1.28e+00,
818,2.20e+00,2.68e+00,
819,2.44e+00,1.44e+00,
820,2.36e+00,2.80e+00,
821,2.56e+00,1.52e+00,
822,2.52e+00,1.52e+00,
823,2.72e+00,2.88e+00,
824,2.64e+00,1.52e+00,
825,2.84e+00,2.88e+00,
826,2.76e+00,1.68e+00,
827,2.96e+00,3.00e+00,
828,2.88e+00,1.76e+00,
829,3.16e+00,3.04e+00,
830,3.04e+00,1.76e+00,
831,3.28e+00,3.04e+00,
832,3.16e+00,1.80e+00,
833,3.40e+00,3.08e+00,
834,3.28e+00,1.84e+00,
835,3.48e+00,3.12e+00,
836,3.40e+00,3.16e+00,
837,3.64e+00,2.16e+00,
838,3.52e+00,3.24e+00,
839,3.76e+00,2.20e+00,
840,3.64e+00,3.24e+00,
841,3.88e+00,2.20e+00,
842,3.80e+00,2.48e+00,
843,4.00e+00,3.28e+00,
844,3.88e+00,3.28e+00,
845,4.08e+00,2.40e+00,
846,4.04e+00,2.56e+00,
847,4.16e+00,3.36e+00,
848,4.12e+00,2.68e+00,
849,4.28e+00,3.40e+00,
850,4.20e+00,3.40e+00,
851,4.40e+00,2.68e+00,
852,4.28e+00,2.68e+00,
853,4.48e+00,3.48e+00,
854,4.36e+00,3.48e+00,
855,4.52e+00,2.72e+00,
856,4.44e+00,3.48e+00,
857,4.60e+00,2.72e+00,
858,4.48e+00,3.08e+00,
859,4.64e+00,3.56e+00,
860,4.56e+00,2.92e+00,
861,4.72e+00,3.60e+00,
862,4.60e+00,3.60e+00,
863,4.76e+00,2.92e+00,
864,4.68e+00,3.60e+00,
865,4.80e+00,3.40e+00,
866,4.84e+00,3.64e+00,
867,4.68e+00,2.84e+00,
868,4.72e+00,3.64e+00,
869,4.84e+00,3.24e+00,
870,4.72e+00,3.04e+00,
