Code/Matlab/Analysis/BPA_OL_Bode_Analysis/Open_Loop_Frequency_Response_Signals_1/OLBD11.csv

X,CH3,CH4,Start,Increment,
Sequence,Volt,Volt,-5.990000e+00,1.000000e-02
0,3.96e+00,1.68e+00,
1,3.76e+00,3.20e+00,
2,3.84e+00,3.32e+00,
3,3.60e+00,2.00e+00,
4,3.72e+00,1.72e+00,
5,3.44e+00,3.28e+00,
6,3.56e+00,3.32e+00,
7,3.32e+00,1.64e+00,
8,3.44e+00,2.76e+00,
9,3.20e+00,3.32e+00,
10,3.32e+00,1.56e+00,
11,3.08e+00,3.08e+00,
12,3.12e+00,3.28e+00,
13,2.92e+00,1.84e+00,
14,3.00e+00,1.52e+00,
15,2.76e+00,3.20e+00,
16,2.88e+00,3.28e+00,
17,2.64e+00,1.44e+00,
18,2.72e+00,2.40e+00,
19,2.48e+00,3.24e+00,
20,2.60e+00,1.40e+00,
21,2.36e+00,2.84e+00,
22,2.40e+00,3.20e+00,
23,2.20e+00,1.68e+00,
24,2.28e+00,1.32e+00,
25,2.04e+00,3.16e+00,
26,2.12e+00,3.16e+00,
27,1.92e+00,1.28e+00,
28,2.00e+00,1.88e+00,
29,1.80e+00,3.08e+00,
30,1.88e+00,1.20e+00,
31,1.64e+00,2.68e+00,
32,1.68e+00,3.00e+00,
33,1.48e+00,1.52e+00,
34,1.56e+00,1.08e+00,
35,1.36e+00,2.92e+00,
36,1.44e+00,3.04e+00,
37,1.24e+00,1.08e+00,
38,1.32e+00,1.08e+00,
39,1.12e+00,2.96e+00,
40,1.20e+00,1.04e+00,
41,1.00e+00,2.40e+00,
42,1.08e+00,2.88e+00,
43,8.80e-01,1.32e+00,
44,1.00e+00,9.60e-01,
45,7.60e-01,2.80e+00,
46,8.40e-01,2.84e+00,
47,7.20e-01,9.60e-01,
48,8.00e-01,9.20e-01,
49,6.00e-01,2.80e+00,
50,6.80e-01,8.80e-01,
51,5.20e-01,2.12e+00,
52,6.00e-01,2.80e+00,
53,4.00e-01,1.20e+00,
54,4.80e-01,8.40e-01,
55,3.60e-01,2.68e+00,
56,4.40e-01,2.68e+00,
57,2.80e-01,8.80e-01,
58,4.00e-01,7.60e-01,
59,2.40e-01,2.60e+00,
60,3.20e-01,7.20e-01,
61,1.20e-01,1.80e+00,
62,1.60e-01,2.60e+00,
63,2.80e-01,1.08e+00,
64,1.20e-01,7.60e-01,
65,2.80e-01,2.56e+00,
66,1.20e-01,2.56e+00,
67,2.00e-01,8.00e-01,
68,2.00e-01,6.80e-01,
69,1.20e-01,2.56e+00,
70,2.00e-01,6.80e-01,
71,8.00e-02,1.60e+00,
72,2.00e-01,2.48e+00,
73,1.20e-01,1.04e+00,
74,2.00e-01,6.40e-01,
75,1.20e-01,2.44e+00,
76,1.20e-01,2.48e+00,
77,2.40e-01,7.20e-01,
78,2.80e-01,6.80e-01,
79,1.60e-01,2.48e+00,
80,1.60e-01,1.60e+00,
81,3.20e-01,6.80e-01,
82,2.40e-01,2.52e+00,
83,4.00e-01,1.16e+00,
84,2.80e-01,6.80e-01,
85,4.40e-01,2.32e+00,
86,3.60e-01,2.52e+00,
87,4.80e-01,8.40e-01,
88,4.00e-01,6.80e-01,
89,5.60e-01,2.56e+00,
90,4.80e-01,1.76e+00,
91,6.80e-01,6.80e-01,
92,6.00e-01,2.60e+00,
93,7.20e-01,1.32e+00,
94,6.40e-01,7.20e-01,
95,8.40e-01,2.32e+00,
96,7.60e-01,2.64e+00,
97,1.00e+00,1.00e+00,
98,8.80e-01,8.00e-01,
99,1.04e+00,2.68e+00,
100,1.00e+00,2.52e+00,
101,1.16e+00,7.60e-01,
102,1.12e+00,1.52e+00,
103,1.28e+00,2.72e+00,
104,1.24e+00,8.40e-01,
105,1.40e+00,2.32e+00,
106,1.36e+00,2.80e+00,
107,1.56e+00,1.20e+00,
108,1.48e+00,8.80e-01,
109,1.68e+00,2.80e+00,
110,1.60e+00,2.84e+00,
111,1.80e+00,9.60e-01,
112,1.80e+00,1.52e+00,
113,2.00e+00,2.92e+00,
114,1.88e+00,1.04e+00,
115,2.12e+00,2.40e+00,
116,2.04e+00,2.96e+00,
117,2.28e+00,1.44e+00,
118,2.20e+00,1.08e+00,
119,2.40e+00,2.92e+00,
120,2.32e+00,2.96e+00,
121,2.52e+00,1.16e+00,
122,2.44e+00,1.20e+00,
123,2.72e+00,3.04e+00,
124,2.64e+00,2.56e+00,
125,2.84e+00,1.20e+00,
126,2.76e+00,3.04e+00,
127,3.00e+00,1.80e+00,
128,2.92e+00,1.28e+00,
129,3.12e+00,2.96e+00,
130,3.04e+00,3.08e+00,
131,3.28e+00,1.40e+00,
132,3.20e+00,1.36e+00,
133,3.44e+00,3.16e+00,
134,3.32e+00,3.08e+00,
135,3.56e+00,1.40e+00,
136,3.48e+00,3.16e+00,
137,3.68e+00,2.20e+00,
138,3.56e+00,1.44e+00,
139,3.80e+00,3.08e+00,
140,3.68e+00,3.16e+00,
141,3.88e+00,1.56e+00,
142,3.88e+00,1.48e+00,
143,4.04e+00,3.16e+00,
144,4.00e+00,3.20e+00,
145,4.16e+00,1.56e+00,
146,4.04e+00,3.20e+00,
147,4.28e+00,2.40e+00,
148,4.16e+00,1.60e+00,
149,4.36e+00,3.16e+00,
150,4.28e+00,3.28e+00,
151,4.44e+00,1.84e+00,
152,4.36e+00,1.72e+00,
153,4.56e+00,3.28e+00,
154,4.48e+00,3.24e+00,
155,4.60e+00,1.72e+00,
156,4.52e+00,2.92e+00,
157,4.68e+00,3.32e+00,
158,4.60e+00,1.80e+00,
159,4.76e+00,3.20e+00,
160,4.64e+00,3.32e+00,
161,4.80e+00,2.00e+00,
162,4.72e+00,1.88e+00,
163,4.88e+00,3.32e+00,
164,4.76e+00,3.32e+00,
165,4.92e+00,1.84e+00,
166,4.84e+00,2.96e+00,
167,4.92e+00,3.32e+00,
168,4.92e+00,3.28e+00,
169,4.84e+00,1.92e+00,
170,4.84e+00,3.40e+00,
171,4.96e+00,2.20e+00,
172,4.96e+00,1.96e+00,
173,4.84e+00,3.40e+00,
174,4.96e+00,3.40e+00,
175,4.84e+00,1.96e+00,
176,4.84e+00,3.00e+00,
177,4.96e+00,3.40e+00,
178,4.84e+00,3.32e+00,
179,4.92e+00,1.92e+00,
180,4.92e+00,3.40e+00,
181,4.76e+00,2.36e+00,
182,4.76e+00,1.92e+00,
183,4.84e+00,3.40e+00,
184,4.80e+00,3.40e+00,
185,4.68e+00,1.96e+00,
186,4.80e+00,3.00e+00,
187,4.64e+00,3.40e+00,
188,4.68e+00,3.40e+00,
189,4.60e+00,1.92e+00,
190,4.64e+00,3.40e+00,
191,4.48e+00,2.40e+00,
192,4.56e+00,1.92e+00,
193,4.40e+00,3.40e+00,
194,4.52e+00,3.40e+00,
195,4.28e+00,1.92e+00,
196,4.36e+00,2.92e+00,
197,4.24e+00,3.40e+00,
198,4.32e+00,3.40e+00,
199,4.12e+00,1.88e+00,
200,4.20e+00,3.44e+00,
201,4.00e+00,2.40e+00,
202,4.08e+00,1.80e+00,
203,3.88e+00,3.32e+00,
204,3.96e+00,3.40e+00,
205,3.76e+00,1.76e+00,
206,3.84e+00,2.60e+00,
207,3.64e+00,3.40e+00,
208,3.72e+00,3.32e+00,
209,3.52e+00,1.76e+00,
210,3.60e+00,3.40e+00,
211,3.36e+00,2.28e+00,
212,3.44e+00,1.68e+00,
213,3.20e+00,3.28e+00,
214,3.32e+00,3.32e+00,
215,3.08e+00,1.64e+00,
216,3.20e+00,1.68e+00,
217,2.96e+00,3.32e+00,
218,3.00e+00,3.24e+00,
219,2.80e+00,1.56e+00,
220,2.88e+00,3.28e+00,
221,2.68e+00,2.12e+00,
222,2.76e+00,1.44e+00,
223,2.48e+00,3.12e+00,
224,2.60e+00,3.28e+00,
225,2.36e+00,1.44e+00,
226,2.44e+00,1.40e+00,
227,2.20e+00,3.20e+00,
228,2.28e+00,3.08e+00,
229,2.08e+00,1.36e+00,
230,2.16e+00,3.16e+00,
231,1.92e+00,1.88e+00,
232,2.00e+00,1.24e+00,
233,1.76e+00,3.04e+00,
234,1.88e+00,3.16e+00,
235,1.64e+00,1.32e+00,
236,1.76e+00,1.16e+00,
237,1.48e+00,3.08e+00,
238,1.56e+00,2.56e+00,
239,1.36e+00,1.16e+00,
240,1.44e+00,3.04e+00,
241,1.24e+00,1.64e+00,
242,1.32e+00,1.08e+00,
243,1.12e+00,2.76e+00,
244,1.24e+00,2.96e+00,
245,1.00e+00,1.20e+00,
246,1.08e+00,1.04e+00,
247,8.80e-01,2.88e+00,
248,9.60e-01,2.24e+00,
249,8.40e-01,9.60e-01,
250,8.40e-01,2.84e+00,
251,7.20e-01,1.48e+00,
252,7.60e-01,8.80e-01,
253,6.00e-01,2.60e+00,
254,6.80e-01,2.76e+00,
255,5.20e-01,1.04e+00,
256,6.80e-01,8.40e-01,
257,4.80e-01,2.76e+00,
258,5.20e-01,2.00e+00,
259,3.60e-01,8.40e-01,
260,4.40e-01,2.72e+00,
261,2.80e-01,1.32e+00,
262,4.00e-01,8.00e-01,
263,2.40e-01,2.40e+00,
264,2.40e-01,2.64e+00,
265,3.20e-01,9.20e-01,
266,1.60e-01,8.00e-01,
267,2.80e-01,2.68e+00,
268,2.80e-01,1.96e+00,
269,1.20e-01,7.20e-01,
270,2.40e-01,2.60e+00,
271,1.20e-01,1.28e+00,
272,2.00e-01,7.20e-01,
273,1.20e-01,2.24e+00,
274,2.00e-01,2.56e+00,
275,1.20e-01,8.80e-01,
276,2.00e-01,6.80e-01,
277,1.20e-01,2.56e+00,
278,2.00e-01,1.88e+00,
279,1.20e-01,6.80e-01,
280,1.20e-01,1.28e+00,
281,2.40e-01,2.56e+00,
282,2.80e-01,6.80e-01,
283,1.20e-01,2.12e+00,
284,1.60e-01,2.48e+00,
285,3.20e-01,9.20e-01,
286,2.40e-01,6.80e-01,
287,4.00e-01,2.56e+00,
288,2.80e-01,2.48e+00,
289,4.00e-01,6.80e-01,
290,3.20e-01,8.00e-01,
291,4.80e-01,2.60e+00,
292,4.00e-01,7.20e-01,
293,5.60e-01,2.08e+00,
294,4.80e-01,2.60e+00,
295,6.80e-01,1.04e+00,
296,6.00e-01,7.20e-01,
297,7.20e-01,2.64e+00,
298,6.40e-01,2.60e+00,
299,8.40e-01,7.60e-01,
300,7.60e-01,8.00e-01,
301,9.20e-01,2.72e+00,
302,8.80e-01,8.00e-01,
303,1.04e+00,2.08e+00,
304,9.60e-01,2.72e+00,
305,1.16e+00,1.20e+00,
306,1.08e+00,8.40e-01,
307,1.28e+00,2.64e+00,
308,1.20e+00,2.80e+00,
309,1.40e+00,9.20e-01,
310,1.32e+00,8.40e-01,
311,1.52e+00,2.80e+00,
312,1.48e+00,8.40e-01,
313,1.68e+00,2.08e+00,
314,1.60e+00,2.92e+00,
315,1.80e+00,1.52e+00,
316,1.72e+00,1.00e+00,
317,1.92e+00,2.72e+00,
318,1.88e+00,2.92e+00,
319,2.12e+00,1.16e+00,
320,2.04e+00,1.00e+00,
321,2.24e+00,2.96e+00,
322,2.12e+00,2.84e+00,
323,2.40e+00,1.08e+00,
324,2.32e+00,3.04e+00,
325,2.52e+00,1.88e+00,
326,2.44e+00,1.20e+00,
327,2.64e+00,2.84e+00,
328,2.64e+00,3.04e+00,
329,2.84e+00,1.36e+00,
330,2.72e+00,1.20e+00,
331,2.96e+00,3.08e+00,
332,2.88e+00,3.08e+00,
333,3.12e+00,1.28e+00,
334,3.04e+00,3.08e+00,
335,3.24e+00,2.20e+00,
336,3.16e+00,1.40e+00,
337,3.36e+00,2.92e+00,
338,3.32e+00,3.16e+00,
339,3.56e+00,1.68e+00,
340,3.44e+00,1.44e+00,
341,3.68e+00,3.16e+00,
342,3.56e+00,3.16e+00,
343,3.80e+00,1.52e+00,
344,3.72e+00,2.48e+00,
345,3.92e+00,3.20e+00,
346,3.80e+00,1.56e+00,
347,4.00e+00,3.04e+00,
348,3.96e+00,3.20e+00,
349,4.16e+00,1.84e+00,
350,4.04e+00,1.56e+00,
351,4.28e+00,3.20e+00,
352,4.16e+00,3.20e+00,
353,4.32e+00,1.64e+00,
354,4.24e+00,2.68e+00,
355,4.44e+00,3.28e+00,
356,4.36e+00,3.20e+00,
357,4.56e+00,1.76e+00,
358,4.40e+00,3.28e+00,
359,4.64e+00,2.16e+00,
360,4.52e+00,1.76e+00,
361,4.68e+00,3.28e+00,
362,4.60e+00,3.32e+00,
363,4.72e+00,1.80e+00,
364,4.64e+00,2.76e+00,
365,4.80e+00,3.32e+00,
366,4.72e+00,3.28e+00,
367,4.88e+00,1.88e+00,
368,4.84e+00,3.32e+00,
369,4.76e+00,2.48e+00,
370,4.76e+00,1.92e+00,
371,4.92e+00,3.32e+00,
372,4.80e+00,3.40e+00,
373,4.92e+00,1.92e+00,
374,4.84e+00,2.88e+00,
375,4.96e+00,3.40e+00,
376,4.96e+00,3.32e+00,
377,4.88e+00,1.92e+00,
378,4.88e+00,3.40e+00,
379,4.96e+00,2.52e+00,
380,4.84e+00,2.00e+00,
381,4.96e+00,3.36e+00,
382,4.84e+00,3.40e+00,
383,4.92e+00,1.96e+00,
384,4.92e+00,2.80e+00,
385,4.76e+00,3.40e+00,
386,4.76e+00,3.40e+00,
387,4.88e+00,1.96e+00,
388,4.80e+00,3.44e+00,
389,4.72e+00,2.72e+00,
390,4.80e+00,1.96e+00,
391,4.64e+00,3.40e+00,
392,4.72e+00,3.44e+00,
393,4.60e+00,2.00e+00,
394,4.68e+00,1.92e+00,
395,4.48e+00,3.44e+00,
396,4.56e+00,3.40e+00,
397,4.40e+00,1.92e+00,
398,4.48e+00,3.40e+00,
399,4.36e+00,2.64e+00,
400,4.44e+00,1.84e+00,
401,4.24e+00,3.32e+00,
402,4.32e+00,3.44e+00,
403,4.12e+00,1.96e+00,
404,4.20e+00,1.88e+00,
405,4.00e+00,3.40e+00,
406,4.08e+00,3.40e+00,
407,3.92e+00,1.80e+00,
408,3.96e+00,3.36e+00,
409,3.80e+00,2.60e+00,
410,3.84e+00,1.76e+00,
411,3.68e+00,3.28e+00,
412,3.72e+00,3.40e+00,
413,3.52e+00,1.92e+00,
414,3.60e+00,1.72e+00,
415,3.40e+00,3.32e+00,
416,3.48e+00,3.32e+00,
417,3.28e+00,1.68e+00,
418,3.36e+00,3.32e+00,
419,3.08e+00,2.48e+00,
420,3.20e+00,1.64e+00,
421,2.96e+00,3.20e+00,
422,3.08e+00,3.32e+00,
423,2.80e+00,1.76e+00,
424,2.88e+00,1.56e+00,
425,2.68e+00,3.28e+00,
426,2.76e+00,3.28e+00,
427,2.56e+00,1.52e+00,
428,2.56e+00,3.28e+00,
429,2.36e+00,2.32e+00,
430,2.48e+00,1.44e+00,
431,2.28e+00,3.04e+00,
432,2.36e+00,3.20e+00,
433,2.12e+00,1.60e+00,
434,2.16e+00,1.32e+00,
435,1.96e+00,3.20e+00,
436,2.04e+00,3.20e+00,
437,1.84e+00,1.28e+00,
438,1.88e+00,3.16e+00,
439,1.64e+00,2.08e+00,
440,1.76e+00,1.20e+00,
441,1.52e+00,2.76e+00,
442,1.64e+00,3.08e+00,
443,1.44e+00,1.36e+00,
444,1.52e+00,1.12e+00,
445,1.32e+00,3.00e+00,
446,1.32e+00,3.00e+00,
447,1.20e+00,1.08e+00,
448,1.20e+00,2.96e+00,
449,1.08e+00,1.80e+00,
450,1.08e+00,1.00e+00,
451,9.60e-01,2.56e+00,
452,1.00e+00,2.92e+00,
453,8.40e-01,1.28e+00,
454,9.20e-01,1.00e+00,
455,7.20e-01,2.88e+00,
456,8.00e-01,2.84e+00,
457,6.40e-01,9.60e-01,
458,6.80e-01,1.44e+00,
459,5.20e-01,2.84e+00,
460,6.00e-01,8.80e-01,
461,4.80e-01,2.36e+00,
462,5.20e-01,2.80e+00,
463,3.60e-01,1.16e+00,
464,4.40e-01,8.40e-01,
465,2.80e-01,2.72e+00,
466,4.00e-01,2.72e+00,
467,2.40e-01,8.00e-01,
468,3.20e-01,8.80e-01,
469,2.40e-01,2.64e+00,
470,3.20e-01,7.60e-01,
471,1.60e-01,2.12e+00,
472,2.80e-01,2.68e+00,
473,1.20e-01,1.04e+00,
474,1.20e-01,8.00e-01,
475,2.40e-01,2.56e+00,
476,2.00e-01,2.60e+00,
477,4.00e-02,7.20e-01,
478,1.20e-01,7.20e-01,
479,2.00e-01,2.56e+00,
480,2.00e-01,7.20e-01,
481,8.00e-02,1.96e+00,
482,2.00e-01,2.52e+00,
483,4.00e-02,9.60e-01,
484,2.00e-01,6.40e-01,
485,1.20e-01,2.56e+00,
486,1.60e-01,2.48e+00,
487,2.80e-01,7.60e-01,
488,1.60e-01,6.80e-01,
489,3.20e-01,2.60e+00,
490,2.40e-01,7.20e-01,
491,3.60e-01,1.68e+00,
492,4.00e-01,2.60e+00,
493,2.80e-01,1.08e+00,
494,3.60e-01,7.20e-01,
495,5.20e-01,2.56e+00,
496,4.00e-01,2.60e+00,
497,5.60e-01,8.00e-01,
498,4.80e-01,7.20e-01,
499,6.40e-01,2.68e+00,
500,5.20e-01,1.76e+00,
501,7.20e-01,7.60e-01,
502,6.40e-01,2.68e+00,
503,8.00e-01,1.24e+00,
504,7.20e-01,7.60e-01,
505,9.20e-01,2.48e+00,
506,8.40e-01,2.72e+00,
507,1.04e+00,9.60e-01,
508,9.60e-01,8.00e-01,
509,1.12e+00,2.76e+00,
510,1.08e+00,2.16e+00,
511,1.28e+00,8.80e-01,
512,1.20e+00,2.80e+00,
513,1.40e+00,1.44e+00,
514,1.32e+00,9.20e-01,
515,1.52e+00,2.56e+00,
516,1.44e+00,2.84e+00,
517,1.64e+00,1.12e+00,
518,1.60e+00,9.60e-01,
519,1.80e+00,2.92e+00,
520,1.72e+00,2.88e+00,
521,1.92e+00,1.04e+00,
522,1.84e+00,1.84e+00,
523,2.04e+00,2.92e+00,
524,1.96e+00,1.08e+00,
525,2.24e+00,2.56e+00,
526,2.16e+00,2.96e+00,
527,2.36e+00,1.40e+00,
528,2.28e+00,1.16e+00,
529,2.48e+00,2.96e+00,
530,2.44e+00,3.04e+00,
531,2.64e+00,1.20e+00,
532,2.56e+00,2.12e+00,
533,2.80e+00,3.08e+00,
534,2.76e+00,1.24e+00,
535,2.96e+00,2.72e+00,
536,2.84e+00,3.08e+00,
537,3.04e+00,1.68e+00,
538,3.04e+00,1.28e+00,
539,3.24e+00,3.00e+00,
540,3.16e+00,3.08e+00,
541,3.36e+00,1.40e+00,
542,3.28e+00,2.12e+00,
543,3.48e+00,3.16e+00,
544,3.44e+00,2.96e+00,
545,3.64e+00,1.44e+00,
546,3.56e+00,3.16e+00,
547,3.76e+00,2.00e+00,
548,3.68e+00,1.52e+00,
549,3.92e+00,3.12e+00,
550,3.80e+00,3.20e+00,
551,4.04e+00,1.60e+00,
552,3.92e+00,2.24e+00,
553,4.16e+00,3.20e+00,
554,4.04e+00,3.20e+00,
555,4.20e+00,1.60e+00,
556,4.16e+00,3.28e+00,
557,4.32e+00,2.36e+00,
558,4.24e+00,1.68e+00,
559,4.44e+00,3.20e+00,
560,4.36e+00,3.28e+00,
561,4.52e+00,1.76e+00,
562,4.40e+00,1.88e+00,
563,4.64e+00,3.28e+00,
564,4.52e+00,3.28e+00,
565,4.68e+00,1.80e+00,
566,4.60e+00,3.32e+00,
567,4.76e+00,2.52e+00,
568,4.64e+00,1.84e+00,
569,4.80e+00,3.28e+00,
570,4.72e+00,3.32e+00,
571,4.88e+00,1.92e+00,
572,4.84e+00,1.88e+00,
573,4.76e+00,3.32e+00,
574,4.92e+00,3.40e+00,
575,4.76e+00,1.96e+00,
576,4.84e+00,3.08e+00,
577,4.92e+00,3.40e+00,
578,4.84e+00,1.92e+00,
579,4.96e+00,3.32e+00,
580,4.88e+00,3.40e+00,
581,5.00e+00,2.04e+00,
582,5.00e+00,2.00e+00,
583,4.84e+00,3.40e+00,
584,4.84e+00,3.40e+00,
585,4.96e+00,2.00e+00,
586,4.92e+00,3.16e+00,
587,4.76e+00,3.40e+00,
588,4.92e+00,2.00e+00,
589,4.76e+00,3.32e+00,
590,4.76e+00,3.44e+00,
591,4.84e+00,2.16e+00,
592,4.84e+00,1.96e+00,
593,4.72e+00,3.40e+00,
594,4.80e+00,3.44e+00,
595,4.64e+00,2.00e+00,
596,4.72e+00,3.12e+00,
597,4.60e+00,3.44e+00,
598,4.68e+00,3.32e+00,
599,4.52e+00,2.00e+00,
600,4.60e+00,3.44e+00,
601,4.40e+00,2.20e+00,
602,4.52e+00,1.92e+00,
603,4.36e+00,3.44e+00,
604,4.44e+00,3.44e+00,
605,4.24e+00,1.88e+00,
606,4.32e+00,2.96e+00,
607,4.16e+00,3.40e+00,
608,4.20e+00,3.32e+00,
609,4.04e+00,1.88e+00,
610,4.16e+00,3.44e+00,
611,3.92e+00,2.16e+00,
612,4.04e+00,1.80e+00,
613,3.80e+00,3.36e+00,
614,3.88e+00,3.40e+00,
615,3.68e+00,1.76e+00,
616,3.76e+00,2.84e+00,
617,3.56e+00,3.40e+00,
618,3.60e+00,1.68e+00,
619,3.40e+00,3.16e+00,
620,3.48e+00,3.32e+00,
621,3.28e+00,2.04e+00,
622,3.36e+00,1.68e+00,
623,3.16e+00,3.32e+00,
624,3.24e+00,3.32e+00,
625,2.96e+00,1.64e+00,
626,3.12e+00,2.60e+00,
627,2.84e+00,3.32e+00,
628,2.92e+00,1.56e+00,
629,2.72e+00,3.00e+00,
630,2.76e+00,3.28e+00,
631,2.56e+00,1.92e+00,
632,2.64e+00,1.52e+00,
633,2.44e+00,3.20e+00,
634,2.48e+00,3.24e+00,
635,2.24e+00,1.44e+00,
636,2.36e+00,2.12e+00,
637,2.12e+00,3.20e+00,
638,2.20e+00,1.40e+00,
639,2.00e+00,2.84e+00,
640,2.04e+00,3.20e+00,
641,1.84e+00,1.76e+00,
642,1.92e+00,1.28e+00,
643,1.72e+00,3.08e+00,
644,1.76e+00,3.16e+00,
645,1.52e+00,1.28e+00,
646,1.64e+00,1.24e+00,
647,1.44e+00,3.08e+00,
648,1.52e+00,1.16e+00,
649,1.32e+00,2.56e+00,
650,1.40e+00,3.00e+00,
651,1.20e+00,1.52e+00,
652,1.28e+00,1.08e+00,
653,1.08e+00,2.92e+00,
654,1.16e+00,2.96e+00,
655,9.60e-01,1.08e+00,
656,1.04e+00,1.04e+00,
657,8.40e-01,2.92e+00,
658,9.20e-01,1.00e+00,
659,7.20e-01,2.16e+00,
660,8.00e-01,2.92e+00,
661,6.40e-01,1.36e+00,
662,7.20e-01,9.60e-01,
663,5.20e-01,2.80e+00,
664,6.00e-01,2.84e+00,
665,4.80e-01,9.60e-01,
666,5.60e-01,9.20e-01,
667,4.00e-01,2.80e+00,
668,4.80e-01,8.80e-01,
669,3.60e-01,1.88e+00,
670,4.40e-01,2.72e+00,
671,2.80e-01,1.20e+00,
672,3.20e-01,8.00e-01,
673,2.40e-01,2.52e+00,
674,3.20e-01,2.72e+00,
675,1.60e-01,9.20e-01,
676,2.80e-01,7.60e-01,
677,1.60e-01,2.68e+00,
678,2.00e-01,1.76e+00,
679,1.20e-01,7.60e-01,
680,1.20e-01,2.60e+00,
681,2.00e-01,1.16e+00,
682,8.00e-02,7.20e-01,
683,2.00e-01,2.44e+00,
684,1.20e-01,2.56e+00,
685,2.00e-01,8.40e-01,
686,1.20e-01,7.20e-01,
687,2.00e-01,2.52e+00,
688,1.20e-01,1.64e+00,
689,2.00e-01,6.80e-01,
690,2.80e-01,2.56e+00,
691,1.20e-01,1.16e+00,
692,1.60e-01,6.40e-01,
693,3.20e-01,2.32e+00,
694,3.20e-01,2.60e+00,
695,1.60e-01,9.20e-01,
696,2.80e-01,7.20e-01,
697,4.00e-01,2.60e+00,
698,4.40e-01,1.88e+00,
699,2.80e-01,7.20e-01,
700,4.00e-01,2.56e+00,
701,5.60e-01,1.24e+00,
702,4.80e-01,7.20e-01,
703,6.00e-01,2.24e+00,
704,5.20e-01,2.68e+00,
705,7.20e-01,9.60e-01,
706,6.40e-01,8.00e-01,
707,8.00e-01,2.64e+00,
708,7.20e-01,2.48e+00,
709,9.20e-01,7.60e-01,
710,8.40e-01,1.40e+00,
711,9.60e-01,2.68e+00,
712,9.60e-01,8.00e-01,
713,1.12e+00,2.32e+00,
714,1.08e+00,2.76e+00,
715,1.20e+00,1.16e+00,
716,1.20e+00,8.40e-01,
717,1.40e+00,2.76e+00,
718,1.32e+00,2.80e+00,
719,1.52e+00,8.80e-01,
720,1.44e+00,1.28e+00,
721,1.64e+00,2.84e+00,
722,1.56e+00,9.60e-01,
723,1.76e+00,2.36e+00,
724,1.68e+00,2.92e+00,
725,1.88e+00,1.40e+00,
726,1.84e+00,1.04e+00,
727,2.04e+00,2.84e+00,
728,1.96e+00,2.96e+00,
729,2.16e+00,1.08e+00,
730,2.12e+00,1.04e+00,
731,2.36e+00,2.96e+00,
732,2.24e+00,1.12e+00,
733,2.48e+00,2.40e+00,
734,2.36e+00,3.04e+00,
735,2.60e+00,1.68e+00,
736,2.56e+00,1.24e+00,
737,2.76e+00,2.92e+00,
738,2.68e+00,3.04e+00,
739,2.96e+00,1.32e+00,
740,2.84e+00,1.24e+00,
741,3.04e+00,3.08e+00,
742,2.96e+00,3.00e+00,
743,3.20e+00,1.32e+00,
744,3.08e+00,3.08e+00,
745,3.36e+00,2.04e+00,
746,3.28e+00,1.40e+00,
747,3.48e+00,3.00e+00,
748,3.40e+00,3.12e+00,
749,3.60e+00,1.56e+00,
750,3.52e+00,1.44e+00,
751,3.72e+00,3.16e+00,
752,3.68e+00,3.12e+00,
753,3.88e+00,1.52e+00,
754,3.80e+00,3.20e+00,
755,3.96e+00,2.36e+00,
756,3.92e+00,1.56e+00,
757,4.08e+00,3.08e+00,
758,4.04e+00,3.20e+00,
759,4.20e+00,1.80e+00,
760,4.12e+00,1.60e+00,
761,4.32e+00,3.20e+00,
762,4.24e+00,3.28e+00,
763,4.44e+00,1.72e+00,
764,4.36e+00,2.84e+00,
765,4.48e+00,3.28e+00,
766,4.40e+00,1.76e+00,
767,4.56e+00,3.16e+00,
768,4.48e+00,3.32e+00,
769,4.68e+00,2.04e+00,
770,4.60e+00,1.80e+00,
771,4.76e+00,3.32e+00,
772,4.64e+00,3.32e+00,
773,4.80e+00,1.88e+00,
774,4.72e+00,2.88e+00,
775,4.84e+00,3.32e+00,
776,4.84e+00,3.32e+00,
777,4.76e+00,1.96e+00,
778,4.76e+00,3.40e+00,
779,4.92e+00,2.32e+00,
780,4.92e+00,2.00e+00,
781,4.84e+00,3.40e+00,
782,4.96e+00,3.40e+00,
783,4.76e+00,2.00e+00,
784,4.96e+00,3.00e+00,
785,4.84e+00,3.40e+00,
786,4.88e+00,3.40e+00,
787,5.00e+00,1.96e+00,
788,4.96e+00,3.40e+00,
789,4.84e+00,2.48e+00,
790,4.84e+00,2.00e+00,
791,4.92e+00,3.40e+00,
792,4.92e+00,3.44e+00,
793,4.76e+00,2.00e+00,
794,4.76e+00,2.92e+00,
795,4.92e+00,3.44e+00,
796,4.84e+00,3.44e+00,
797,4.72e+00,1.96e+00,
798,4.80e+00,3.44e+00,
799,4.64e+00,2.52e+00,
800,4.72e+00,2.00e+00,
801,4.60e+00,3.44e+00,
802,4.68e+00,3.44e+00,
803,4.52e+00,2.00e+00,
804,4.64e+00,2.96e+00,
805,4.44e+00,3.44e+00,
806,4.52e+00,3.44e+00,
807,4.36e+00,2.00e+00,
808,4.44e+00,3.44e+00,
809,4.24e+00,2.52e+00,
810,4.32e+00,1.92e+00,
811,4.16e+00,3.40e+00,
812,4.24e+00,3.44e+00,
813,4.00e+00,1.84e+00,
814,4.12e+00,2.72e+00,
815,3.92e+00,3.40e+00,
816,4.04e+00,3.40e+00,
817,3.80e+00,1.80e+00,
818,3.88e+00,3.40e+00,
819,3.72e+00,2.48e+00,
820,3.80e+00,1.80e+00,
821,3.56e+00,3.32e+00,
822,3.68e+00,3.40e+00,
823,3.44e+00,1.68e+00,
824,3.52e+00,1.68e+00,
825,3.32e+00,3.32e+00,
826,3.36e+00,3.32e+00,
827,3.12e+00,1.60e+00,
828,3.24e+00,3.32e+00,
829,3.04e+00,2.36e+00,
830,3.12e+00,1.64e+00,
831,2.84e+00,3.20e+00,
832,2.92e+00,3.32e+00,
833,2.72e+00,1.60e+00,
834,2.84e+00,1.56e+00,
835,2.56e+00,3.32e+00,
836,2.64e+00,3.24e+00,
837,2.44e+00,1.48e+00,
838,2.52e+00,3.32e+00,
839,2.32e+00,2.20e+00,
840,2.36e+00,1.44e+00,
841,2.16e+00,3.08e+00,
842,2.24e+00,3.24e+00,
843,2.04e+00,1.52e+00,
844,2.12e+00,1.36e+00,
845,1.84e+00,3.20e+00,
846,1.92e+00,3.12e+00,
847,1.72e+00,1.28e+00,
848,1.80e+00,3.16e+00,
849,1.60e+00,1.88e+00,
850,1.68e+00,1.28e+00,
851,1.48e+00,2.92e+00,
852,1.52e+00,3.08e+00,
853,1.24e+00,1.32e+00,
854,1.40e+00,1.16e+00,
855,1.20e+00,3.04e+00,
856,1.28e+00,2.72e+00,
857,1.08e+00,1.12e+00,
858,1.16e+00,2.96e+00,
859,9.60e-01,1.64e+00,
860,1.04e+00,1.04e+00,
861,8.40e-01,2.72e+00,
862,9.20e-01,2.88e+00,
863,7.60e-01,1.16e+00,
864,8.40e-01,9.60e-01,
865,6.40e-01,2.84e+00,
866,7.60e-01,2.44e+00,
867,6.00e-01,8.80e-01,
868,6.00e-01,2.80e+00,
869,4.80e-01,1.44e+00,
870,5.60e-01,8.80e-01,
