Code/Matlab/Analysis/BPA_OL_Bode_Analysis/Open_Loop_Frequency_Response_Signals_1/OLBD28.csv

X,CH3,CH4,Start,Increment,
Sequence,Volt,Volt,-3.000000e-01,5.000000e-04
0,4.76e+00,2.36e+00,
1,4.88e+00,2.12e+00,
2,4.84e+00,2.20e+00,
3,4.92e+00,1.96e+00,
4,4.84e+00,2.08e+00,
5,4.92e+00,1.92e+00,
6,4.84e+00,1.96e+00,
7,4.96e+00,1.80e+00,
8,4.84e+00,1.84e+00,
9,4.96e+00,1.68e+00,
10,4.84e+00,1.72e+00,
11,4.96e+00,1.60e+00,
12,4.96e+00,1.64e+00,
13,4.84e+00,1.52e+00,
14,4.96e+00,1.60e+00,
15,4.84e+00,1.44e+00,
16,4.96e+00,1.52e+00,
17,4.80e+00,1.32e+00,
18,4.84e+00,1.40e+00,
19,4.92e+00,1.32e+00,
20,4.92e+00,1.40e+00,
21,4.76e+00,1.20e+00,
22,4.88e+00,1.24e+00,
23,4.72e+00,1.40e+00,
24,4.72e+00,1.40e+00,
25,4.88e+00,2.08e+00,
26,4.84e+00,1.96e+00,
27,4.68e+00,2.24e+00,
28,4.80e+00,2.20e+00,
29,4.64e+00,2.32e+00,
30,4.64e+00,2.20e+00,
31,4.76e+00,2.44e+00,
32,4.72e+00,2.32e+00,
33,4.52e+00,2.60e+00,
34,4.68e+00,2.52e+00,
35,4.52e+00,2.68e+00,
36,4.60e+00,2.56e+00,
37,4.44e+00,2.72e+00,
38,4.56e+00,2.72e+00,
39,4.40e+00,2.64e+00,
40,4.52e+00,2.68e+00,
41,4.36e+00,2.84e+00,
42,4.44e+00,2.76e+00,
43,4.28e+00,2.92e+00,
44,4.32e+00,2.80e+00,
45,4.16e+00,2.96e+00,
46,4.28e+00,2.88e+00,
47,4.12e+00,2.96e+00,
48,4.20e+00,2.88e+00,
49,4.04e+00,3.04e+00,
50,4.16e+00,2.92e+00,
51,3.92e+00,3.04e+00,
52,4.04e+00,3.08e+00,
53,3.88e+00,2.96e+00,
54,3.96e+00,3.08e+00,
55,3.76e+00,3.00e+00,
56,3.84e+00,3.08e+00,
57,3.68e+00,3.00e+00,
58,3.76e+00,3.12e+00,
59,3.56e+00,3.00e+00,
60,3.68e+00,3.16e+00,
61,3.48e+00,3.00e+00,
62,3.60e+00,3.16e+00,
63,3.40e+00,3.04e+00,
64,3.48e+00,3.16e+00,
65,3.28e+00,3.04e+00,
66,3.36e+00,3.08e+00,
67,3.20e+00,3.00e+00,
68,3.24e+00,3.08e+00,
69,3.08e+00,2.92e+00,
70,3.12e+00,2.96e+00,
71,2.96e+00,2.44e+00,
72,3.08e+00,2.48e+00,
73,2.84e+00,2.20e+00,
74,2.96e+00,2.28e+00,
75,2.72e+00,2.16e+00,
76,2.84e+00,2.24e+00,
77,2.64e+00,2.08e+00,
78,2.72e+00,2.12e+00,
79,2.56e+00,1.92e+00,
80,2.60e+00,1.96e+00,
81,2.44e+00,1.80e+00,
82,2.52e+00,1.88e+00,
83,2.32e+00,1.72e+00,
84,2.40e+00,1.76e+00,
85,2.20e+00,1.68e+00,
86,2.28e+00,1.72e+00,
87,2.08e+00,1.56e+00,
88,2.16e+00,1.56e+00,
89,2.00e+00,1.64e+00,
90,2.04e+00,1.60e+00,
91,1.88e+00,2.36e+00,
92,2.00e+00,2.28e+00,
93,1.80e+00,2.60e+00,
94,1.88e+00,2.52e+00,
95,1.64e+00,2.56e+00,
96,1.76e+00,2.48e+00,
97,1.60e+00,2.60e+00,
98,1.64e+00,2.56e+00,
99,1.48e+00,2.80e+00,
100,1.56e+00,2.68e+00,
101,1.36e+00,2.84e+00,
102,1.44e+00,2.92e+00,
103,1.24e+00,2.76e+00,
104,1.32e+00,2.92e+00,
105,1.20e+00,2.80e+00,
106,1.28e+00,2.88e+00,
107,1.12e+00,2.96e+00,
108,1.20e+00,2.92e+00,
109,1.00e+00,3.04e+00,
110,1.12e+00,3.08e+00,
111,9.60e-01,2.92e+00,
112,1.04e+00,3.08e+00,
113,8.40e-01,3.00e+00,
114,9.20e-01,3.04e+00,
115,7.60e-01,3.16e+00,
116,8.80e-01,3.04e+00,
117,6.40e-01,3.20e+00,
118,8.00e-01,3.12e+00,
119,6.40e-01,3.16e+00,
120,6.80e-01,3.20e+00,
121,5.20e-01,3.08e+00,
122,6.40e-01,3.12e+00,
123,4.80e-01,3.16e+00,
124,5.60e-01,3.16e+00,
125,4.40e-01,3.04e+00,
126,4.00e-01,3.16e+00,
127,5.20e-01,2.88e+00,
128,4.80e-01,2.96e+00,
129,3.20e-01,2.40e+00,
130,4.40e-01,2.48e+00,
131,2.80e-01,2.28e+00,
132,4.00e-01,2.32e+00,
133,2.40e-01,2.20e+00,
134,2.40e-01,2.24e+00,
135,3.20e-01,2.12e+00,
136,3.20e-01,2.20e+00,
137,1.60e-01,1.92e+00,
138,2.80e-01,2.00e+00,
139,1.20e-01,1.80e+00,
140,2.80e-01,1.88e+00,
141,1.20e-01,1.72e+00,
142,1.20e-01,1.84e+00,
143,2.40e-01,1.68e+00,
144,2.00e-01,1.76e+00,
145,4.00e-02,1.60e+00,
146,1.20e-01,1.64e+00,
147,2.00e-01,1.48e+00,
148,2.00e-01,1.60e+00,
149,1.20e-01,1.44e+00,
150,2.00e-01,1.52e+00,
151,1.20e-01,1.36e+00,
152,2.00e-01,1.36e+00,
153,1.20e-01,1.48e+00,
154,2.00e-01,1.40e+00,
155,1.20e-01,1.28e+00,
156,1.20e-01,1.36e+00,
157,2.40e-01,1.24e+00,
158,1.20e-01,1.20e+00,
159,2.80e-01,2.00e+00,
160,2.80e-01,1.96e+00,
161,1.60e-01,2.32e+00,
162,2.40e-01,2.20e+00,
163,3.20e-01,2.36e+00,
164,2.40e-01,2.28e+00,
165,3.60e-01,2.44e+00,
166,4.00e-01,2.32e+00,
167,2.40e-01,2.60e+00,
168,2.80e-01,2.52e+00,
169,4.40e-01,2.72e+00,
170,3.60e-01,2.72e+00,
171,5.20e-01,2.64e+00,
172,4.00e-01,2.68e+00,
173,5.60e-01,2.80e+00,
174,4.80e-01,2.76e+00,
175,6.40e-01,2.84e+00,
176,5.20e-01,2.80e+00,
177,6.80e-01,2.92e+00,
178,6.00e-01,2.88e+00,
179,7.60e-01,2.96e+00,
180,6.40e-01,2.96e+00,
181,8.00e-01,2.84e+00,
182,7.60e-01,2.92e+00,
183,8.80e-01,2.76e+00,
184,8.40e-01,2.80e+00,
185,9.60e-01,2.36e+00,
186,8.40e-01,2.36e+00,
187,1.04e+00,2.08e+00,
188,9.60e-01,2.12e+00,
189,1.16e+00,2.04e+00,
190,1.08e+00,2.08e+00,
191,1.24e+00,1.96e+00,
192,1.12e+00,2.00e+00,
193,1.32e+00,1.80e+00,
194,1.24e+00,1.84e+00,
195,1.44e+00,1.64e+00,
196,1.32e+00,1.72e+00,
197,1.52e+00,1.60e+00,
198,1.44e+00,1.64e+00,
199,1.64e+00,1.56e+00,
200,1.52e+00,1.60e+00,
201,1.68e+00,1.44e+00,
202,1.60e+00,1.52e+00,
203,1.80e+00,1.36e+00,
204,1.72e+00,1.40e+00,
205,1.92e+00,1.32e+00,
206,1.84e+00,1.40e+00,
207,2.00e+00,1.24e+00,
208,1.92e+00,1.36e+00,
209,2.12e+00,1.20e+00,
210,2.04e+00,1.28e+00,
211,2.24e+00,1.08e+00,
212,2.12e+00,1.24e+00,
213,2.36e+00,1.08e+00,
214,2.24e+00,1.08e+00,
215,2.48e+00,1.16e+00,
216,2.28e+00,1.12e+00,
217,2.52e+00,1.00e+00,
218,2.44e+00,1.12e+00,
219,2.64e+00,1.00e+00,
220,2.56e+00,1.04e+00,
221,2.76e+00,9.60e-01,
222,2.68e+00,1.04e+00,
223,2.88e+00,9.20e-01,
224,2.80e+00,1.00e+00,
225,3.00e+00,8.80e-01,
226,2.92e+00,9.60e-01,
227,3.08e+00,1.64e+00,
228,3.04e+00,1.56e+00,
229,3.20e+00,1.92e+00,
230,3.12e+00,1.80e+00,
231,3.32e+00,2.00e+00,
232,3.20e+00,1.92e+00,
233,3.44e+00,2.08e+00,
234,3.32e+00,2.00e+00,
235,3.48e+00,2.24e+00,
236,3.40e+00,2.20e+00,
237,3.60e+00,2.40e+00,
238,3.52e+00,2.32e+00,
239,3.72e+00,2.48e+00,
240,3.64e+00,2.40e+00,
241,3.80e+00,2.56e+00,
242,3.76e+00,2.52e+00,
243,3.92e+00,2.64e+00,
244,3.80e+00,2.56e+00,
245,3.96e+00,2.72e+00,
246,3.92e+00,2.64e+00,
247,4.08e+00,2.80e+00,
248,4.00e+00,2.68e+00,
249,4.16e+00,2.84e+00,
250,4.04e+00,2.76e+00,
251,4.20e+00,2.92e+00,
252,4.16e+00,2.80e+00,
253,4.32e+00,2.92e+00,
254,4.24e+00,2.96e+00,
255,4.40e+00,2.84e+00,
256,4.28e+00,2.88e+00,
257,4.44e+00,2.96e+00,
258,4.36e+00,2.96e+00,
259,4.52e+00,2.92e+00,
260,4.40e+00,2.92e+00,
261,4.56e+00,3.04e+00,
262,4.48e+00,2.96e+00,
263,4.64e+00,2.88e+00,
264,4.52e+00,2.96e+00,
265,4.68e+00,2.76e+00,
266,4.60e+00,2.80e+00,
267,4.76e+00,2.28e+00,
268,4.64e+00,2.32e+00,
269,4.80e+00,2.08e+00,
270,4.72e+00,2.16e+00,
271,4.80e+00,1.96e+00,
272,4.72e+00,2.08e+00,
273,4.88e+00,1.84e+00,
274,4.76e+00,1.96e+00,
275,4.92e+00,1.80e+00,
276,4.76e+00,1.84e+00,
277,4.92e+00,1.68e+00,
278,4.84e+00,1.72e+00,
279,4.92e+00,1.56e+00,
280,4.84e+00,1.64e+00,
281,4.96e+00,1.48e+00,
282,4.84e+00,1.60e+00,
283,4.96e+00,1.44e+00,
284,4.96e+00,1.48e+00,
285,4.84e+00,1.36e+00,
286,4.88e+00,1.40e+00,
287,4.96e+00,1.32e+00,
288,4.96e+00,1.36e+00,
289,4.84e+00,1.24e+00,
290,4.92e+00,1.28e+00,
291,4.84e+00,1.20e+00,
292,4.84e+00,1.24e+00,
293,4.92e+00,1.88e+00,
294,4.92e+00,1.88e+00,
295,4.84e+00,2.20e+00,
296,4.92e+00,2.24e+00,
297,4.76e+00,2.16e+00,
298,4.76e+00,2.12e+00,
299,4.88e+00,2.32e+00,
300,4.88e+00,2.24e+00,
301,4.72e+00,2.48e+00,
302,4.72e+00,2.40e+00,
303,4.80e+00,2.60e+00,
304,4.80e+00,2.52e+00,
305,4.64e+00,2.68e+00,
306,4.76e+00,2.56e+00,
307,4.60e+00,2.72e+00,
308,4.68e+00,2.64e+00,
309,4.52e+00,2.80e+00,
310,4.64e+00,2.76e+00,
311,4.48e+00,2.84e+00,
312,4.56e+00,2.80e+00,
313,4.40e+00,2.92e+00,
314,4.36e+00,2.80e+00,
315,4.52e+00,2.96e+00,
316,4.44e+00,2.88e+00,
317,4.28e+00,2.96e+00,
318,4.40e+00,2.92e+00,
319,4.24e+00,3.04e+00,
320,4.32e+00,2.96e+00,
321,4.16e+00,3.04e+00,
322,4.20e+00,3.00e+00,
323,4.04e+00,3.08e+00,
324,4.16e+00,3.08e+00,
325,3.92e+00,3.00e+00,
326,4.08e+00,3.08e+00,
327,3.88e+00,2.92e+00,
328,3.96e+00,3.08e+00,
329,3.80e+00,3.04e+00,
330,3.92e+00,3.04e+00,
331,3.72e+00,3.16e+00,
332,3.80e+00,3.04e+00,
333,3.56e+00,3.16e+00,
334,3.72e+00,3.04e+00,
335,3.52e+00,3.16e+00,
336,3.60e+00,3.08e+00,
337,3.44e+00,3.00e+00,
338,3.48e+00,3.08e+00,
339,3.32e+00,2.80e+00,
340,3.44e+00,2.88e+00,
341,3.20e+00,2.36e+00,
342,3.32e+00,2.40e+00,
343,3.08e+00,2.20e+00,
344,3.20e+00,2.24e+00,
345,2.96e+00,2.12e+00,
346,3.08e+00,2.20e+00,
347,2.92e+00,2.04e+00,
348,3.00e+00,2.12e+00,
349,2.80e+00,1.88e+00,
350,2.88e+00,1.96e+00,
351,2.68e+00,1.80e+00,
352,2.76e+00,1.84e+00,
353,2.56e+00,1.68e+00,
354,2.64e+00,1.76e+00,
355,2.48e+00,1.60e+00,
356,2.52e+00,1.72e+00,
357,2.36e+00,1.56e+00,
358,2.40e+00,1.60e+00,
359,2.24e+00,2.32e+00,
360,2.36e+00,2.28e+00,
361,2.12e+00,2.60e+00,
362,2.24e+00,2.60e+00,
363,2.00e+00,2.52e+00,
364,2.12e+00,2.64e+00,
365,1.92e+00,2.48e+00,
366,2.00e+00,2.52e+00,
367,1.84e+00,2.76e+00,
368,1.88e+00,2.68e+00,
369,1.72e+00,2.84e+00,
370,1.80e+00,2.80e+00,
371,1.60e+00,2.92e+00,
372,1.68e+00,2.88e+00,
373,1.56e+00,2.96e+00,
374,1.56e+00,2.88e+00,
375,1.36e+00,3.00e+00,
376,1.52e+00,2.92e+00,
377,1.32e+00,3.04e+00,
378,1.40e+00,3.00e+00,
379,1.24e+00,3.08e+00,
380,1.28e+00,3.00e+00,
381,1.12e+00,3.12e+00,
382,1.20e+00,3.16e+00,
383,1.08e+00,3.00e+00,
384,1.16e+00,3.16e+00,
385,9.60e-01,3.04e+00,
386,1.04e+00,3.16e+00,
387,8.40e-01,3.08e+00,
388,9.60e-01,3.20e+00,
389,8.00e-01,3.08e+00,
390,8.80e-01,3.20e+00,
391,7.20e-01,3.12e+00,
392,8.00e-01,3.12e+00,
393,6.40e-01,3.20e+00,
394,7.60e-01,3.16e+00,
395,6.00e-01,3.04e+00,
396,6.80e-01,3.16e+00,
397,5.20e-01,2.92e+00,
398,6.40e-01,2.96e+00,
399,4.80e-01,2.44e+00,
400,5.60e-01,2.52e+00,
401,4.00e-01,2.28e+00,
402,5.20e-01,2.36e+00,
403,3.60e-01,2.20e+00,
404,4.40e-01,2.32e+00,
405,2.80e-01,2.16e+00,
406,2.80e-01,2.20e+00,
407,4.00e-01,1.96e+00,
408,3.60e-01,2.00e+00,
409,2.00e-01,1.84e+00,
410,3.20e-01,1.88e+00,
411,2.40e-01,1.76e+00,
412,2.80e-01,1.72e+00,
413,1.60e-01,1.88e+00,
414,2.80e-01,1.76e+00,
415,1.20e-01,1.60e+00,
416,2.00e-01,1.64e+00,
417,1.20e-01,1.56e+00,
418,1.20e-01,1.64e+00,
419,2.00e-01,1.48e+00,
420,2.00e-01,1.52e+00,
421,1.20e-01,1.44e+00,
422,2.00e-01,1.48e+00,
423,1.20e-01,1.36e+00,
424,2.00e-01,1.40e+00,
425,8.00e-02,1.32e+00,
426,2.00e-01,1.32e+00,
427,8.00e-02,1.76e+00,
428,1.20e-01,1.72e+00,
429,2.00e-01,2.24e+00,
430,1.20e-01,2.16e+00,
431,2.40e-01,2.40e+00,
432,1.20e-01,2.28e+00,
433,2.80e-01,2.44e+00,
434,2.80e-01,2.32e+00,
435,1.20e-01,2.56e+00,
436,1.60e-01,2.52e+00,
437,3.20e-01,2.72e+00,
438,2.40e-01,2.64e+00,
439,3.20e-01,2.80e+00,
440,4.00e-01,2.68e+00,
441,2.40e-01,2.84e+00,
442,2.80e-01,2.76e+00,
443,4.40e-01,2.84e+00,
444,3.60e-01,2.92e+00,
445,4.80e-01,2.80e+00,
446,4.00e-01,2.88e+00,
447,5.60e-01,2.96e+00,
448,4.80e-01,2.96e+00,
449,5.60e-01,2.88e+00,
450,5.20e-01,2.96e+00,
451,6.40e-01,2.88e+00,
452,6.00e-01,2.96e+00,
453,7.60e-01,2.56e+00,
454,6.40e-01,2.60e+00,
455,8.00e-01,2.16e+00,
456,7.20e-01,2.24e+00,
457,8.80e-01,2.04e+00,
458,7.60e-01,2.12e+00,
459,9.20e-01,2.04e+00,
460,8.40e-01,2.08e+00,
461,1.04e+00,1.88e+00,
462,9.60e-01,1.96e+00,
463,1.08e+00,1.72e+00,
464,1.00e+00,1.84e+00,
465,1.20e+00,1.64e+00,
466,1.12e+00,1.60e+00,
467,1.28e+00,1.72e+00,
468,1.20e+00,1.64e+00,
469,1.40e+00,1.48e+00,
470,1.32e+00,1.60e+00,
471,1.44e+00,1.44e+00,
472,1.36e+00,1.36e+00,
473,1.56e+00,1.52e+00,
474,1.48e+00,1.40e+00,
475,1.64e+00,1.32e+00,
476,1.60e+00,1.36e+00,
477,1.76e+00,1.24e+00,
478,1.64e+00,1.28e+00,
479,1.88e+00,1.20e+00,
480,1.76e+00,1.24e+00,
481,2.00e+00,1.12e+00,
482,1.88e+00,1.24e+00,
483,2.04e+00,1.08e+00,
484,2.00e+00,1.08e+00,
485,2.16e+00,1.16e+00,
486,2.12e+00,1.12e+00,
487,2.28e+00,1.00e+00,
488,2.20e+00,1.04e+00,
489,2.40e+00,9.60e-01,
490,2.32e+00,1.04e+00,
491,2.52e+00,9.20e-01,
492,2.44e+00,9.20e-01,
493,2.60e+00,1.04e+00,
494,2.52e+00,9.20e-01,
495,2.72e+00,1.36e+00,
496,2.68e+00,1.36e+00,
497,2.84e+00,1.84e+00,
498,2.72e+00,1.80e+00,
499,2.96e+00,2.00e+00,
500,2.84e+00,2.00e+00,
501,3.08e+00,1.92e+00,
502,2.96e+00,1.96e+00,
503,3.12e+00,2.24e+00,
504,3.08e+00,2.16e+00,
505,3.24e+00,2.36e+00,
506,3.16e+00,2.32e+00,
507,3.36e+00,2.48e+00,
508,3.28e+00,2.40e+00,
509,3.48e+00,2.56e+00,
510,3.40e+00,2.44e+00,
511,3.56e+00,2.60e+00,
512,3.52e+00,2.56e+00,
513,3.68e+00,2.68e+00,
514,3.56e+00,2.64e+00,
515,3.76e+00,2.80e+00,
516,3.68e+00,2.68e+00,
517,3.84e+00,2.84e+00,
518,3.76e+00,2.84e+00,
519,3.96e+00,2.76e+00,
520,3.88e+00,2.92e+00,
521,4.04e+00,2.76e+00,
522,3.92e+00,2.88e+00,
523,4.12e+00,2.96e+00,
524,4.04e+00,2.88e+00,
525,4.20e+00,2.96e+00,
526,4.12e+00,2.92e+00,
527,4.28e+00,3.04e+00,
528,4.20e+00,2.96e+00,
529,4.36e+00,2.88e+00,
530,4.28e+00,2.96e+00,
531,4.44e+00,2.80e+00,
532,4.36e+00,2.92e+00,
533,4.52e+00,2.44e+00,
534,4.36e+00,2.48e+00,
535,4.56e+00,2.16e+00,
536,4.48e+00,2.20e+00,
537,4.60e+00,2.00e+00,
538,4.52e+00,2.08e+00,
539,4.68e+00,1.92e+00,
540,4.68e+00,2.00e+00,
541,4.60e+00,1.80e+00,
542,4.64e+00,1.88e+00,
543,4.76e+00,1.68e+00,
544,4.64e+00,1.72e+00,
545,4.80e+00,1.56e+00,
546,4.72e+00,1.64e+00,
547,4.84e+00,1.52e+00,
548,4.76e+00,1.60e+00,
549,4.88e+00,1.44e+00,
550,4.76e+00,1.52e+00,
551,4.92e+00,1.36e+00,
552,4.84e+00,1.40e+00,
553,4.92e+00,1.32e+00,
554,4.92e+00,1.36e+00,
555,4.84e+00,1.24e+00,
556,4.84e+00,1.28e+00,
557,4.96e+00,1.20e+00,
558,4.84e+00,1.24e+00,
559,4.96e+00,1.12e+00,
560,4.88e+00,1.12e+00,
561,5.00e+00,1.36e+00,
562,4.96e+00,1.32e+00,
563,4.84e+00,1.96e+00,
564,4.96e+00,1.92e+00,
565,4.84e+00,2.20e+00,
566,4.84e+00,2.08e+00,
567,4.96e+00,2.20e+00,
568,4.84e+00,2.12e+00,
569,4.92e+00,2.36e+00,
570,4.84e+00,2.28e+00,
571,4.92e+00,2.48e+00,
572,4.88e+00,2.44e+00,
573,4.76e+00,2.60e+00,
574,4.76e+00,2.52e+00,
575,4.88e+00,2.68e+00,
576,4.84e+00,2.56e+00,
577,4.72e+00,2.72e+00,
578,4.80e+00,2.64e+00,
579,4.64e+00,2.80e+00,
580,4.72e+00,2.84e+00,
581,4.60e+00,2.68e+00,
582,4.68e+00,2.80e+00,
583,4.60e+00,2.92e+00,
584,4.68e+00,2.92e+00,
585,4.48e+00,2.80e+00,
586,4.56e+00,2.88e+00,
587,4.48e+00,2.96e+00,
588,4.56e+00,2.92e+00,
589,4.40e+00,3.04e+00,
590,4.44e+00,2.92e+00,
591,4.36e+00,3.04e+00,
592,4.40e+00,3.08e+00,
593,4.24e+00,2.96e+00,
594,4.32e+00,3.08e+00,
595,4.16e+00,3.00e+00,
596,4.28e+00,3.00e+00,
597,4.12e+00,3.16e+00,
598,4.20e+00,3.08e+00,
599,4.00e+00,3.04e+00,
600,4.08e+00,3.12e+00,
601,3.92e+00,3.00e+00,
602,4.00e+00,3.08e+00,
603,3.88e+00,3.04e+00,
604,3.92e+00,3.08e+00,
605,3.76e+00,3.00e+00,
606,3.84e+00,3.08e+00,
607,3.64e+00,2.92e+00,
608,3.72e+00,2.96e+00,
609,3.56e+00,2.44e+00,
610,3.68e+00,2.56e+00,
611,3.44e+00,2.20e+00,
612,3.52e+00,2.32e+00,
613,3.32e+00,2.12e+00,
614,3.44e+00,2.24e+00,
615,3.28e+00,2.08e+00,
616,3.36e+00,2.12e+00,
617,3.16e+00,1.92e+00,
618,3.24e+00,2.00e+00,
619,2.96e+00,1.76e+00,
620,3.12e+00,1.84e+00,
621,2.96e+00,1.72e+00,
622,3.00e+00,1.76e+00,
623,2.84e+00,1.68e+00,
624,2.88e+00,1.72e+00,
625,2.72e+00,1.56e+00,
626,2.84e+00,1.56e+00,
627,2.60e+00,1.92e+00,
628,2.72e+00,1.92e+00,
629,2.48e+00,2.44e+00,
630,2.60e+00,2.40e+00,
631,2.40e+00,2.56e+00,
632,2.48e+00,2.60e+00,
633,2.32e+00,2.44e+00,
634,2.36e+00,2.52e+00,
635,2.20e+00,2.68e+00,
636,2.28e+00,2.64e+00,
637,2.04e+00,2.80e+00,
638,2.16e+00,2.76e+00,
639,1.96e+00,2.84e+00,
640,2.04e+00,2.80e+00,
641,1.84e+00,2.92e+00,
642,1.92e+00,2.84e+00,
643,1.76e+00,2.96e+00,
644,1.80e+00,2.88e+00,
645,1.68e+00,3.04e+00,
646,1.76e+00,2.92e+00,
647,1.56e+00,3.04e+00,
648,1.64e+00,3.00e+00,
649,1.48e+00,3.08e+00,
650,1.52e+00,3.00e+00,
651,1.36e+00,3.08e+00,
652,1.44e+00,3.04e+00,
653,1.24e+00,3.16e+00,
654,1.32e+00,3.16e+00,
655,1.20e+00,3.04e+00,
656,1.24e+00,3.12e+00,
657,1.08e+00,3.16e+00,
658,1.16e+00,3.12e+00,
659,1.00e+00,3.20e+00,
660,1.08e+00,3.20e+00,
661,8.80e-01,3.12e+00,
662,9.60e-01,3.20e+00,
663,8.40e-01,3.08e+00,
664,9.20e-01,3.20e+00,
665,7.60e-01,3.04e+00,
666,8.40e-01,3.20e+00,
667,7.20e-01,2.88e+00,
668,7.60e-01,2.92e+00,
669,6.00e-01,2.40e+00,
670,6.80e-01,2.48e+00,
671,5.60e-01,2.28e+00,
672,6.40e-01,2.36e+00,
673,4.80e-01,2.20e+00,
674,5.60e-01,2.32e+00,
675,4.00e-01,2.08e+00,
676,5.20e-01,2.20e+00,
677,3.60e-01,1.92e+00,
678,3.60e-01,2.00e+00,
679,4.40e-01,1.84e+00,
680,4.00e-01,1.88e+00,
681,2.80e-01,1.80e+00,
682,4.00e-01,1.84e+00,
683,2.40e-01,1.68e+00,
684,2.40e-01,1.76e+00,
685,3.20e-01,1.60e+00,
686,1.60e-01,1.64e+00,
687,3.20e-01,1.56e+00,
688,1.60e-01,1.60e+00,
689,2.80e-01,1.44e+00,
690,2.80e-01,1.52e+00,
691,1.20e-01,1.40e+00,
692,2.00e-01,1.48e+00,
693,1.20e-01,1.36e+00,
694,2.00e-01,1.32e+00,
695,1.20e-01,1.52e+00,
696,1.20e-01,1.52e+00,
697,2.00e-01,2.20e+00,
698,1.20e-01,2.08e+00,
699,2.00e-01,2.44e+00,
700,2.00e-01,2.28e+00,
701,1.20e-01,2.44e+00,
702,2.00e-01,2.36e+00,
703,1.20e-01,2.56e+00,
704,1.20e-01,2.52e+00,
705,2.40e-01,2.72e+00,
706,1.20e-01,2.56e+00,
707,2.00e-01,2.80e+00,
708,1.60e-01,2.68e+00,
709,2.80e-01,2.84e+00,
710,1.60e-01,2.76e+00,
711,2.80e-01,2.84e+00,
712,3.20e-01,2.80e+00,
713,2.00e-01,2.92e+00,
714,2.40e-01,2.88e+00,
715,4.00e-01,2.96e+00,
716,2.80e-01,2.96e+00,
717,4.00e-01,2.92e+00,
718,3.60e-01,2.96e+00,
719,4.40e-01,2.88e+00,
720,3.60e-01,2.96e+00,
721,5.20e-01,2.76e+00,
722,5.60e-01,2.80e+00,
723,3.60e-01,2.28e+00,
724,4.80e-01,2.36e+00,
725,6.40e-01,2.08e+00,
726,5.20e-01,2.12e+00,
727,6.80e-01,2.04e+00,
728,6.00e-01,2.12e+00,
729,7.60e-01,1.96e+00,
730,7.20e-01,2.00e+00,
731,8.40e-01,1.80e+00,
732,7.60e-01,1.88e+00,
733,9.20e-01,1.68e+00,
734,8.40e-01,1.76e+00,
735,1.00e+00,1.60e+00,
736,8.80e-01,1.64e+00,
737,1.04e+00,1.56e+00,
738,1.00e+00,1.60e+00,
739,1.16e+00,1.48e+00,
740,1.08e+00,1.52e+00,
741,1.24e+00,1.36e+00,
742,1.16e+00,1.48e+00,
743,1.32e+00,1.32e+00,
744,1.24e+00,1.40e+00,
745,1.40e+00,1.24e+00,
746,1.36e+00,1.24e+00,
747,1.52e+00,1.36e+00,
748,1.40e+00,1.28e+00,
749,1.64e+00,1.20e+00,
750,1.56e+00,1.24e+00,
751,1.76e+00,1.12e+00,
752,1.64e+00,1.16e+00,
753,1.80e+00,1.08e+00,
754,1.72e+00,1.16e+00,
755,1.92e+00,1.00e+00,
756,1.84e+00,1.12e+00,
757,2.04e+00,1.00e+00,
758,1.96e+00,1.04e+00,
759,2.16e+00,9.60e-01,
760,2.08e+00,1.04e+00,
761,2.24e+00,9.60e-01,
762,2.20e+00,9.20e-01,
763,2.36e+00,1.12e+00,
764,2.24e+00,1.04e+00,
765,2.48e+00,1.72e+00,
766,2.36e+00,1.64e+00,
767,2.60e+00,1.96e+00,
768,2.48e+00,1.84e+00,
769,2.72e+00,2.00e+00,
770,2.60e+00,1.92e+00,
771,2.76e+00,2.20e+00,
772,2.72e+00,2.12e+00,
773,2.88e+00,2.36e+00,
774,2.80e+00,2.28e+00,
775,3.00e+00,2.48e+00,
776,2.92e+00,2.40e+00,
777,3.12e+00,2.56e+00,
778,3.04e+00,2.44e+00,
779,3.24e+00,2.60e+00,
780,3.12e+00,2.52e+00,
781,3.32e+00,2.68e+00,
782,3.28e+00,2.64e+00,
783,3.44e+00,2.80e+00,
784,3.32e+00,2.68e+00,
785,3.56e+00,2.80e+00,
786,3.44e+00,2.76e+00,
787,3.60e+00,2.84e+00,
788,3.52e+00,2.92e+00,
789,3.72e+00,2.76e+00,
790,3.64e+00,2.88e+00,
791,3.84e+00,3.04e+00,
792,3.76e+00,2.88e+00,
793,3.92e+00,2.96e+00,
794,3.80e+00,2.96e+00,
795,4.04e+00,2.88e+00,
796,3.92e+00,2.96e+00,
797,4.08e+00,2.88e+00,
798,4.00e+00,2.92e+00,
799,4.20e+00,2.80e+00,
800,4.12e+00,2.84e+00,
801,4.28e+00,2.32e+00,
802,4.16e+00,2.36e+00,
803,4.32e+00,2.08e+00,
804,4.24e+00,2.12e+00,
805,4.40e+00,1.96e+00,
806,4.28e+00,2.08e+00,
807,4.44e+00,1.92e+00,
808,4.40e+00,1.96e+00,
809,4.52e+00,1.80e+00,
810,4.56e+00,1.84e+00,
811,4.40e+00,1.68e+00,
812,4.64e+00,1.72e+00,
813,4.48e+00,1.56e+00,
814,4.52e+00,1.64e+00,
815,4.72e+00,1.48e+00,
816,4.60e+00,1.60e+00,
817,4.76e+00,1.44e+00,
818,4.64e+00,1.48e+00,
819,4.80e+00,1.36e+00,
820,4.80e+00,1.40e+00,
821,4.72e+00,1.24e+00,
822,4.72e+00,1.36e+00,
823,4.88e+00,1.24e+00,
824,4.76e+00,1.28e+00,
825,4.88e+00,1.20e+00,
826,4.92e+00,1.24e+00,
827,4.76e+00,1.12e+00,
828,4.92e+00,1.20e+00,
829,4.84e+00,1.08e+00,
830,4.92e+00,1.12e+00,
831,4.84e+00,1.84e+00,
832,4.84e+00,1.80e+00,
833,4.96e+00,2.12e+00,
834,4.88e+00,2.04e+00,
835,5.00e+00,2.20e+00,
836,4.96e+00,2.20e+00,
837,4.84e+00,2.04e+00,
838,5.00e+00,2.16e+00,
839,4.84e+00,2.44e+00,
840,4.92e+00,2.40e+00,
841,4.84e+00,2.56e+00,
842,4.84e+00,2.52e+00,
843,4.92e+00,2.60e+00,
844,4.84e+00,2.56e+00,
845,4.92e+00,2.68e+00,
846,4.92e+00,2.60e+00,
847,4.76e+00,2.72e+00,
848,4.76e+00,2.68e+00,
849,4.88e+00,2.84e+00,
850,4.84e+00,2.84e+00,
851,4.72e+00,2.76e+00,
852,4.72e+00,2.80e+00,
853,4.80e+00,2.92e+00,
854,4.76e+00,2.80e+00,
855,4.64e+00,2.96e+00,
856,4.72e+00,2.88e+00,
857,4.60e+00,3.04e+00,
858,4.68e+00,2.92e+00,
859,4.52e+00,3.04e+00,
860,4.64e+00,3.08e+00,
861,4.48e+00,2.92e+00,
862,4.56e+00,3.00e+00,
863,4.40e+00,3.08e+00,
864,4.48e+00,3.08e+00,
865,4.36e+00,3.00e+00,
866,4.44e+00,3.08e+00,
867,4.28e+00,3.00e+00,
868,4.36e+00,3.04e+00,
869,4.16e+00,3.08e+00,
870,4.28e+00,3.08e+00,
