Code/Matlab/Analysis/BPA_OL_Bode_Analysis/Open_Loop_Frequency_Response_Signals_1/OLBD19.csv

X,CH3,CH4,Start,Increment,
Sequence,Volt,Volt,-6.980000e-01,2.000000e-03
0,1.92e+00,1.24e+00,
1,2.04e+00,9.60e-01,
2,1.96e+00,8.80e-01,
3,2.16e+00,1.64e+00,
4,2.08e+00,1.68e+00,
5,2.28e+00,2.24e+00,
6,2.20e+00,2.20e+00,
7,2.36e+00,2.60e+00,
8,2.28e+00,2.56e+00,
9,2.48e+00,2.84e+00,
10,2.36e+00,2.84e+00,
11,2.60e+00,2.92e+00,
12,2.52e+00,2.92e+00,
13,2.64e+00,1.92e+00,
14,2.64e+00,1.92e+00,
15,2.76e+00,1.52e+00,
16,2.72e+00,1.52e+00,
17,2.88e+00,1.24e+00,
18,2.80e+00,1.28e+00,
19,3.00e+00,1.00e+00,
20,2.92e+00,1.08e+00,
21,3.12e+00,2.12e+00,
22,3.04e+00,2.04e+00,
23,3.20e+00,2.60e+00,
24,3.08e+00,2.52e+00,
25,3.32e+00,2.84e+00,
26,3.20e+00,2.80e+00,
27,3.44e+00,3.04e+00,
28,3.32e+00,3.04e+00,
29,3.48e+00,2.76e+00,
30,3.40e+00,2.84e+00,
31,3.60e+00,1.92e+00,
32,3.52e+00,1.96e+00,
33,3.68e+00,1.48e+00,
34,3.56e+00,1.56e+00,
35,3.80e+00,1.24e+00,
36,3.68e+00,1.20e+00,
37,3.88e+00,2.24e+00,
38,3.80e+00,2.16e+00,
39,3.96e+00,2.60e+00,
40,3.88e+00,2.60e+00,
41,4.04e+00,2.84e+00,
42,3.96e+00,2.80e+00,
43,4.08e+00,3.00e+00,
44,4.04e+00,3.00e+00,
45,4.20e+00,3.16e+00,
46,4.12e+00,3.08e+00,
47,4.28e+00,2.64e+00,
48,4.16e+00,2.56e+00,
49,4.32e+00,2.00e+00,
50,4.20e+00,1.96e+00,
51,4.40e+00,1.60e+00,
52,4.28e+00,1.40e+00,
53,4.48e+00,2.20e+00,
54,4.40e+00,2.24e+00,
55,4.56e+00,2.72e+00,
56,4.48e+00,2.64e+00,
57,4.60e+00,2.92e+00,
58,4.60e+00,2.88e+00,
59,4.52e+00,3.08e+00,
60,4.68e+00,3.00e+00,
61,4.48e+00,3.16e+00,
62,4.60e+00,3.12e+00,
63,4.76e+00,3.20e+00,
64,4.64e+00,3.16e+00,
65,4.80e+00,2.28e+00,
66,4.64e+00,2.32e+00,
67,4.84e+00,1.88e+00,
68,4.72e+00,1.88e+00,
69,4.88e+00,1.56e+00,
70,4.84e+00,1.64e+00,
71,4.76e+00,2.60e+00,
72,4.76e+00,2.60e+00,
73,4.92e+00,2.96e+00,
74,4.92e+00,2.88e+00,
75,4.84e+00,3.08e+00,
76,4.92e+00,3.08e+00,
77,4.80e+00,3.20e+00,
78,4.92e+00,3.20e+00,
79,4.76e+00,3.12e+00,
80,4.88e+00,3.20e+00,
81,4.96e+00,3.12e+00,
82,4.96e+00,3.16e+00,
83,4.84e+00,2.32e+00,
84,4.84e+00,2.28e+00,
85,4.96e+00,1.84e+00,
86,5.00e+00,1.72e+00,
87,4.84e+00,2.72e+00,
88,4.84e+00,2.68e+00,
89,4.92e+00,3.04e+00,
90,4.84e+00,2.92e+00,
91,4.92e+00,3.16e+00,
92,4.84e+00,3.12e+00,
93,4.92e+00,3.20e+00,
94,4.92e+00,3.28e+00,
95,4.76e+00,3.16e+00,
96,4.76e+00,3.16e+00,
97,4.88e+00,3.28e+00,
98,4.84e+00,3.24e+00,
99,4.72e+00,2.48e+00,
100,4.80e+00,2.48e+00,
101,4.64e+00,2.00e+00,
102,4.64e+00,1.80e+00,
103,4.76e+00,2.60e+00,
104,4.72e+00,2.60e+00,
105,4.60e+00,3.04e+00,
106,4.68e+00,2.96e+00,
107,4.52e+00,3.16e+00,
108,4.64e+00,3.12e+00,
109,4.48e+00,3.28e+00,
110,4.56e+00,3.20e+00,
111,4.40e+00,3.28e+00,
112,4.48e+00,3.24e+00,
113,4.36e+00,3.32e+00,
114,4.44e+00,3.32e+00,
115,4.28e+00,2.76e+00,
116,4.40e+00,2.72e+00,
117,4.24e+00,2.24e+00,
118,4.32e+00,2.20e+00,
119,4.12e+00,1.80e+00,
120,4.24e+00,1.80e+00,
121,4.04e+00,2.84e+00,
122,4.16e+00,2.76e+00,
123,4.00e+00,3.16e+00,
124,4.08e+00,3.04e+00,
125,3.92e+00,3.20e+00,
126,3.96e+00,3.16e+00,
127,3.80e+00,3.32e+00,
128,3.92e+00,3.24e+00,
129,3.76e+00,3.32e+00,
130,3.84e+00,3.32e+00,
131,3.64e+00,3.16e+00,
132,3.72e+00,3.16e+00,
133,3.56e+00,2.36e+00,
134,3.64e+00,2.36e+00,
135,3.44e+00,1.88e+00,
136,3.56e+00,1.68e+00,
137,3.40e+00,2.60e+00,
138,3.44e+00,2.64e+00,
139,3.28e+00,3.04e+00,
140,3.36e+00,2.92e+00,
141,3.16e+00,3.20e+00,
142,3.24e+00,3.12e+00,
143,3.04e+00,3.28e+00,
144,3.12e+00,3.24e+00,
145,2.96e+00,3.32e+00,
146,3.08e+00,3.32e+00,
147,2.84e+00,3.12e+00,
148,2.96e+00,3.16e+00,
149,2.72e+00,2.36e+00,
150,2.84e+00,2.32e+00,
151,2.68e+00,1.88e+00,
152,2.72e+00,1.92e+00,
153,2.56e+00,1.60e+00,
154,2.64e+00,1.60e+00,
155,2.44e+00,2.72e+00,
156,2.52e+00,2.68e+00,
157,2.36e+00,3.04e+00,
158,2.40e+00,3.00e+00,
159,2.24e+00,3.20e+00,
160,2.28e+00,3.12e+00,
161,2.12e+00,3.28e+00,
162,2.24e+00,3.28e+00,
163,2.00e+00,3.12e+00,
164,2.12e+00,3.12e+00,
165,1.96e+00,2.28e+00,
166,2.00e+00,2.28e+00,
167,1.84e+00,1.80e+00,
168,1.92e+00,1.84e+00,
169,1.72e+00,1.48e+00,
170,1.80e+00,1.44e+00,
171,1.56e+00,2.48e+00,
172,1.68e+00,2.44e+00,
173,1.52e+00,2.84e+00,
174,1.64e+00,2.80e+00,
175,1.44e+00,3.08e+00,
176,1.52e+00,3.00e+00,
177,1.32e+00,3.20e+00,
178,1.40e+00,3.20e+00,
179,1.24e+00,3.00e+00,
180,1.32e+00,2.92e+00,
181,1.20e+00,2.16e+00,
182,1.24e+00,2.16e+00,
183,1.08e+00,1.76e+00,
184,1.16e+00,1.72e+00,
185,1.00e+00,1.44e+00,
186,1.08e+00,1.44e+00,
187,9.20e-01,1.24e+00,
188,1.00e+00,1.40e+00,
189,8.40e-01,2.44e+00,
190,9.20e-01,2.44e+00,
191,7.60e-01,2.84e+00,
192,8.40e-01,2.80e+00,
193,7.20e-01,3.08e+00,
194,8.00e-01,3.08e+00,
195,6.40e-01,2.68e+00,
196,7.60e-01,2.68e+00,
197,6.00e-01,1.96e+00,
198,6.80e-01,2.04e+00,
199,5.20e-01,1.60e+00,
200,6.00e-01,1.64e+00,
201,4.80e-01,1.32e+00,
202,4.00e-01,1.36e+00,
203,5.20e-01,1.08e+00,
204,5.20e-01,1.08e+00,
205,3.60e-01,2.12e+00,
206,4.40e-01,2.12e+00,
207,2.80e-01,2.60e+00,
208,2.80e-01,2.52e+00,
209,4.00e-01,2.88e+00,
210,3.20e-01,2.92e+00,
211,2.40e-01,2.60e+00,
212,3.20e-01,2.56e+00,
213,1.60e-01,1.88e+00,
214,1.60e-01,1.88e+00,
215,2.80e-01,1.48e+00,
216,2.80e-01,1.52e+00,
217,1.60e-01,1.20e+00,
218,2.80e-01,1.28e+00,
219,1.20e-01,1.00e+00,
220,1.20e-01,9.20e-01,
221,2.80e-01,1.40e+00,
222,2.00e-01,1.48e+00,
223,1.20e-01,2.24e+00,
224,1.20e-01,2.24e+00,
225,2.00e-01,2.60e+00,
226,2.00e-01,2.64e+00,
227,1.20e-01,2.80e+00,
228,8.00e-02,2.68e+00,
229,2.00e-01,1.80e+00,
230,2.00e-01,1.76e+00,
231,1.20e-01,1.40e+00,
232,1.20e-01,1.40e+00,
233,2.00e-01,1.16e+00,
234,1.20e-01,1.16e+00,
235,2.40e-01,9.60e-01,
236,1.60e-01,1.00e+00,
237,2.80e-01,7.60e-01,
238,2.40e-01,8.00e-01,
239,1.60e-01,1.84e+00,
240,3.20e-01,1.80e+00,
241,2.40e-01,2.36e+00,
242,2.40e-01,2.36e+00,
243,4.00e-01,2.68e+00,
244,4.00e-01,2.68e+00,
245,2.80e-01,1.88e+00,
246,2.80e-01,1.84e+00,
247,4.40e-01,1.44e+00,
248,3.60e-01,1.44e+00,
249,5.20e-01,1.12e+00,
250,4.00e-01,1.24e+00,
251,5.60e-01,9.60e-01,
252,4.80e-01,1.00e+00,
253,6.00e-01,8.00e-01,
254,5.20e-01,7.20e-01,
255,6.80e-01,1.52e+00,
256,6.00e-01,1.56e+00,
257,7.60e-01,2.12e+00,
258,6.40e-01,2.12e+00,
259,8.00e-01,2.56e+00,
260,6.40e-01,2.48e+00,
261,8.80e-01,2.72e+00,
262,7.60e-01,2.68e+00,
263,9.20e-01,1.76e+00,
264,8.40e-01,1.84e+00,
265,9.60e-01,1.32e+00,
266,9.60e-01,1.40e+00,
267,1.08e+00,1.08e+00,
268,1.00e+00,1.12e+00,
269,1.16e+00,8.80e-01,
270,1.08e+00,9.20e-01,
271,1.28e+00,8.00e-01,
272,1.20e+00,8.00e-01,
273,1.32e+00,1.84e+00,
274,1.24e+00,1.88e+00,
275,1.44e+00,2.36e+00,
276,1.36e+00,2.40e+00,
277,1.52e+00,2.72e+00,
278,1.48e+00,2.80e+00,
279,1.64e+00,2.48e+00,
280,1.56e+00,2.48e+00,
281,1.68e+00,1.68e+00,
282,1.68e+00,1.64e+00,
283,1.80e+00,1.32e+00,
284,1.68e+00,1.36e+00,
285,1.92e+00,1.08e+00,
286,1.84e+00,1.12e+00,
287,2.04e+00,9.20e-01,
288,1.96e+00,8.40e-01,
289,2.12e+00,1.84e+00,
290,2.04e+00,1.72e+00,
291,2.24e+00,2.28e+00,
292,2.16e+00,2.32e+00,
293,2.32e+00,2.64e+00,
294,2.24e+00,2.64e+00,
295,2.40e+00,2.88e+00,
296,2.40e+00,2.92e+00,
297,2.52e+00,2.68e+00,
298,2.44e+00,2.68e+00,
299,2.64e+00,1.80e+00,
300,2.56e+00,1.84e+00,
301,2.76e+00,1.44e+00,
302,2.68e+00,1.44e+00,
303,2.84e+00,1.16e+00,
304,2.80e+00,1.04e+00,
305,2.96e+00,1.72e+00,
306,2.80e+00,1.72e+00,
307,3.08e+00,2.32e+00,
308,2.96e+00,2.28e+00,
309,3.20e+00,2.68e+00,
310,3.08e+00,2.64e+00,
311,3.24e+00,2.92e+00,
312,3.16e+00,2.88e+00,
313,3.36e+00,3.04e+00,
314,3.28e+00,3.04e+00,
315,3.44e+00,2.44e+00,
316,3.40e+00,2.32e+00,
317,3.56e+00,1.80e+00,
318,3.44e+00,1.84e+00,
319,3.68e+00,1.44e+00,
320,3.52e+00,1.48e+00,
321,3.72e+00,1.20e+00,
322,3.64e+00,1.20e+00,
323,3.84e+00,2.24e+00,
324,3.76e+00,2.16e+00,
325,3.92e+00,2.68e+00,
326,3.84e+00,2.64e+00,
327,4.00e+00,2.92e+00,
328,3.92e+00,2.88e+00,
329,4.08e+00,3.04e+00,
330,4.00e+00,3.08e+00,
331,4.12e+00,3.00e+00,
332,4.12e+00,3.08e+00,
333,4.28e+00,2.28e+00,
334,4.16e+00,2.28e+00,
335,4.32e+00,1.88e+00,
336,4.24e+00,1.84e+00,
337,4.36e+00,1.52e+00,
338,4.28e+00,1.36e+00,
339,4.44e+00,2.44e+00,
340,4.36e+00,2.36e+00,
341,4.52e+00,2.80e+00,
342,4.40e+00,2.72e+00,
343,4.56e+00,2.96e+00,
344,4.48e+00,2.92e+00,
345,4.64e+00,3.08e+00,
346,4.52e+00,3.04e+00,
347,4.68e+00,3.16e+00,
348,4.60e+00,3.20e+00,
349,4.72e+00,3.08e+00,
350,4.72e+00,3.16e+00,
351,4.64e+00,2.28e+00,
352,4.64e+00,2.32e+00,
353,4.80e+00,1.80e+00,
354,4.72e+00,1.60e+00,
355,4.84e+00,2.24e+00,
356,4.88e+00,2.32e+00,
357,4.76e+00,2.76e+00,
358,4.76e+00,2.76e+00,
359,4.92e+00,3.04e+00,
360,4.92e+00,2.96e+00,
361,4.84e+00,3.16e+00,
362,4.84e+00,3.08e+00,
363,4.96e+00,3.28e+00,
364,4.84e+00,3.12e+00,
365,4.92e+00,3.20e+00,
366,4.84e+00,3.24e+00,
367,4.96e+00,2.84e+00,
368,4.88e+00,2.80e+00,
369,5.00e+00,2.16e+00,
370,4.96e+00,2.16e+00,
371,4.84e+00,1.76e+00,
372,4.84e+00,1.72e+00,
373,4.96e+00,2.80e+00,
374,4.96e+00,2.72e+00,
375,4.84e+00,3.04e+00,
376,4.84e+00,3.00e+00,
377,4.92e+00,3.20e+00,
378,4.92e+00,3.12e+00,
379,4.84e+00,3.28e+00,
380,4.92e+00,3.28e+00,
381,4.76e+00,3.16e+00,
382,4.76e+00,3.28e+00,
383,4.88e+00,3.16e+00,
384,4.84e+00,3.28e+00,
385,4.72e+00,2.40e+00,
386,4.68e+00,2.44e+00,
387,4.80e+00,1.96e+00,
388,4.80e+00,1.80e+00,
389,4.64e+00,2.84e+00,
390,4.76e+00,2.76e+00,
391,4.60e+00,3.04e+00,
392,4.68e+00,3.00e+00,
393,4.56e+00,3.20e+00,
394,4.52e+00,3.16e+00,
395,4.64e+00,3.28e+00,
396,4.56e+00,3.24e+00,
397,4.48e+00,3.32e+00,
398,4.36e+00,3.32e+00,
399,4.48e+00,3.24e+00,
400,4.44e+00,3.28e+00,
401,4.32e+00,2.52e+00,
402,4.36e+00,2.56e+00,
403,4.24e+00,2.08e+00,
404,4.32e+00,2.08e+00,
405,4.16e+00,1.80e+00,
406,4.24e+00,2.04e+00,
407,4.12e+00,2.92e+00,
408,4.20e+00,2.92e+00,
409,4.00e+00,3.12e+00,
410,4.08e+00,3.08e+00,
411,3.92e+00,3.28e+00,
412,4.04e+00,3.16e+00,
413,3.88e+00,3.32e+00,
414,3.96e+00,3.32e+00,
415,3.76e+00,3.24e+00,
416,3.84e+00,3.32e+00,
417,3.68e+00,2.68e+00,
418,3.80e+00,2.64e+00,
419,3.56e+00,2.16e+00,
420,3.68e+00,2.16e+00,
421,3.52e+00,1.80e+00,
422,3.60e+00,1.76e+00,
423,3.40e+00,2.80e+00,
424,3.48e+00,2.76e+00,
425,3.32e+00,3.04e+00,
426,3.36e+00,3.00e+00,
427,3.20e+00,3.16e+00,
428,3.28e+00,3.16e+00,
429,3.08e+00,3.28e+00,
430,3.20e+00,3.24e+00,
431,3.04e+00,3.32e+00,
432,3.08e+00,3.32e+00,
433,2.92e+00,2.76e+00,
434,3.00e+00,2.72e+00,
435,2.80e+00,2.16e+00,
436,2.88e+00,2.20e+00,
437,2.68e+00,1.80e+00,
438,2.76e+00,1.56e+00,
439,2.60e+00,2.12e+00,
440,2.64e+00,2.32e+00,
441,2.48e+00,2.80e+00,
442,2.60e+00,2.88e+00,
443,2.40e+00,3.08e+00,
444,2.48e+00,3.00e+00,
445,2.24e+00,3.20e+00,
446,2.36e+00,3.16e+00,
447,2.20e+00,3.28e+00,
448,2.24e+00,3.28e+00,
449,2.08e+00,2.76e+00,
450,2.16e+00,2.68e+00,
451,1.92e+00,2.08e+00,
452,2.04e+00,2.12e+00,
453,1.84e+00,1.72e+00,
454,2.00e+00,1.76e+00,
455,1.80e+00,1.44e+00,
456,1.88e+00,1.44e+00,
457,1.64e+00,2.56e+00,
458,1.76e+00,2.48e+00,
459,1.60e+00,2.92e+00,
460,1.64e+00,2.88e+00,
461,1.48e+00,3.08e+00,
462,1.56e+00,3.20e+00,
463,1.36e+00,3.04e+00,
464,1.44e+00,3.20e+00,
465,1.32e+00,2.60e+00,
466,1.40e+00,2.56e+00,
467,1.20e+00,2.04e+00,
468,1.28e+00,2.00e+00,
469,1.12e+00,1.68e+00,
470,1.20e+00,1.68e+00,
471,1.00e+00,1.40e+00,
472,1.12e+00,1.24e+00,
473,9.60e-01,2.04e+00,
474,1.04e+00,2.00e+00,
475,8.80e-01,2.68e+00,
476,9.60e-01,2.60e+00,
477,8.40e-01,2.92e+00,
478,8.40e-01,2.88e+00,
479,6.80e-01,3.08e+00,
480,8.00e-01,3.08e+00,
481,6.40e-01,2.36e+00,
482,7.60e-01,2.32e+00,
483,6.00e-01,1.88e+00,
484,6.80e-01,1.84e+00,
485,5.20e-01,1.52e+00,
486,6.40e-01,1.60e+00,
487,4.80e-01,1.28e+00,
488,5.60e-01,1.36e+00,
489,4.00e-01,1.08e+00,
490,5.20e-01,1.12e+00,
491,3.60e-01,2.24e+00,
492,4.40e-01,2.12e+00,
493,3.20e-01,2.64e+00,
494,3.60e-01,2.60e+00,
495,2.80e-01,2.92e+00,
496,4.00e-01,2.96e+00,
497,2.40e-01,2.56e+00,
498,3.20e-01,2.56e+00,
499,2.40e-01,1.88e+00,
500,3.20e-01,1.88e+00,
501,1.60e-01,1.48e+00,
502,2.80e-01,1.52e+00,
503,1.60e-01,1.20e+00,
504,1.20e-01,1.24e+00,
505,2.80e-01,1.04e+00,
506,2.00e-01,9.60e-01,
507,8.00e-02,1.88e+00,
508,2.00e-01,1.92e+00,
509,1.20e-01,2.40e+00,
510,1.20e-01,2.36e+00,
511,2.00e-01,2.72e+00,
512,2.00e-01,2.84e+00,
513,8.00e-02,2.44e+00,
514,2.00e-01,2.36e+00,
515,1.20e-01,1.68e+00,
516,2.00e-01,1.72e+00,
517,1.20e-01,1.32e+00,
518,2.00e-01,1.36e+00,
519,1.20e-01,1.08e+00,
520,1.20e-01,1.16e+00,
521,2.00e-01,9.60e-01,
522,1.20e-01,1.00e+00,
523,2.80e-01,8.40e-01,
524,2.80e-01,8.80e-01,
525,1.60e-01,1.96e+00,
526,1.60e-01,1.96e+00,
527,3.20e-01,2.48e+00,
528,3.20e-01,2.44e+00,
529,1.60e-01,2.68e+00,
530,2.40e-01,2.64e+00,
531,4.00e-01,1.72e+00,
532,2.80e-01,1.84e+00,
533,4.40e-01,1.36e+00,
534,4.40e-01,1.40e+00,
535,3.60e-01,1.12e+00,
536,4.00e-01,1.16e+00,
537,5.20e-01,9.20e-01,
538,4.00e-01,1.00e+00,
539,6.00e-01,8.00e-01,
540,4.80e-01,7.60e-01,
541,6.40e-01,1.72e+00,
542,5.60e-01,1.68e+00,
543,6.80e-01,2.24e+00,
544,6.00e-01,2.24e+00,
545,7.60e-01,2.60e+00,
546,6.40e-01,2.60e+00,
547,8.00e-01,2.72e+00,
548,7.60e-01,2.52e+00,
549,9.20e-01,1.68e+00,
550,8.40e-01,1.64e+00,
551,1.00e+00,1.32e+00,
552,8.80e-01,1.28e+00,
553,1.04e+00,1.04e+00,
554,9.60e-01,1.12e+00,
555,1.16e+00,8.80e-01,
556,1.08e+00,8.00e-01,
557,1.20e+00,1.36e+00,
558,1.12e+00,1.40e+00,
559,1.32e+00,2.08e+00,
560,1.24e+00,2.08e+00,
561,1.40e+00,2.52e+00,
562,1.32e+00,2.44e+00,
563,1.48e+00,2.72e+00,
564,1.44e+00,2.84e+00,
565,1.56e+00,2.16e+00,
566,1.48e+00,2.08e+00,
567,1.68e+00,1.60e+00,
568,1.60e+00,1.60e+00,
569,1.76e+00,1.28e+00,
570,1.68e+00,1.28e+00,
571,1.88e+00,1.00e+00,
572,1.80e+00,1.12e+00,
573,2.00e+00,8.40e-01,
574,1.88e+00,8.40e-01,
575,2.08e+00,1.84e+00,
576,2.00e+00,1.80e+00,
577,2.16e+00,2.44e+00,
578,2.08e+00,2.36e+00,
579,2.28e+00,2.72e+00,
580,2.20e+00,2.68e+00,
581,2.40e+00,2.92e+00,
582,2.32e+00,2.92e+00,
583,2.48e+00,2.16e+00,
584,2.44e+00,2.12e+00,
585,2.60e+00,1.64e+00,
586,2.52e+00,1.64e+00,
587,2.72e+00,1.32e+00,
588,2.64e+00,1.40e+00,
589,2.84e+00,1.08e+00,
590,2.68e+00,1.00e+00,
591,2.88e+00,1.92e+00,
592,2.84e+00,1.92e+00,
593,3.00e+00,2.36e+00,
594,2.84e+00,2.28e+00,
595,3.12e+00,2.72e+00,
596,3.04e+00,2.68e+00,
597,3.24e+00,2.92e+00,
598,3.16e+00,2.88e+00,
599,3.32e+00,3.04e+00,
600,3.20e+00,3.00e+00,
601,3.44e+00,2.16e+00,
602,3.36e+00,2.16e+00,
603,3.52e+00,1.68e+00,
604,3.44e+00,1.64e+00,
605,3.60e+00,1.36e+00,
606,3.52e+00,1.20e+00,
607,3.72e+00,1.48e+00,
608,3.64e+00,1.64e+00,
609,3.80e+00,2.36e+00,
610,3.68e+00,2.32e+00,
611,3.92e+00,2.72e+00,
612,3.80e+00,2.68e+00,
613,3.96e+00,2.96e+00,
614,3.88e+00,2.88e+00,
615,4.08e+00,3.08e+00,
616,4.00e+00,3.16e+00,
617,4.16e+00,3.00e+00,
618,4.04e+00,3.08e+00,
619,4.20e+00,2.12e+00,
620,4.12e+00,2.12e+00,
621,4.28e+00,1.68e+00,
622,4.16e+00,1.76e+00,
623,4.32e+00,1.36e+00,
624,4.24e+00,1.40e+00,
625,4.44e+00,2.44e+00,
626,4.36e+00,2.40e+00,
627,4.52e+00,2.80e+00,
628,4.40e+00,2.72e+00,
629,4.56e+00,2.96e+00,
630,4.48e+00,2.96e+00,
631,4.64e+00,3.08e+00,
632,4.52e+00,3.04e+00,
633,4.68e+00,3.16e+00,
634,4.68e+00,3.16e+00,
635,4.60e+00,3.00e+00,
636,4.60e+00,2.92e+00,
637,4.76e+00,2.16e+00,
638,4.64e+00,2.12e+00,
639,4.80e+00,1.72e+00,
640,4.72e+00,1.56e+00,
641,4.80e+00,2.52e+00,
642,4.76e+00,2.52e+00,
643,4.88e+00,2.84e+00,
644,4.76e+00,2.80e+00,
645,4.92e+00,3.04e+00,
646,4.84e+00,3.00e+00,
647,4.92e+00,3.16e+00,
648,4.92e+00,3.12e+00,
649,4.84e+00,3.20e+00,
650,4.84e+00,3.12e+00,
651,4.96e+00,3.28e+00,
652,4.84e+00,3.20e+00,
653,4.92e+00,2.48e+00,
654,4.84e+00,2.48e+00,
655,4.96e+00,2.04e+00,
656,4.84e+00,2.00e+00,
657,5.00e+00,1.76e+00,
658,4.96e+00,2.16e+00,
659,4.88e+00,2.84e+00,
660,4.96e+00,2.84e+00,
661,4.84e+00,3.08e+00,
662,4.84e+00,3.00e+00,
663,4.92e+00,3.20e+00,
664,4.92e+00,3.12e+00,
665,4.84e+00,3.28e+00,
666,4.92e+00,3.16e+00,
667,4.84e+00,3.28e+00,
668,4.88e+00,3.20e+00,
669,4.76e+00,3.28e+00,
670,4.76e+00,3.12e+00,
671,4.88e+00,2.36e+00,
672,4.80e+00,2.36e+00,
673,4.72e+00,1.88e+00,
674,4.80e+00,1.80e+00,
675,4.60e+00,2.84e+00,
676,4.80e+00,2.76e+00,
677,4.64e+00,3.08e+00,
678,4.68e+00,3.04e+00,
679,4.60e+00,3.20e+00,
680,4.68e+00,3.12e+00,
681,4.52e+00,3.32e+00,
682,4.64e+00,3.20e+00,
683,4.48e+00,3.32e+00,
684,4.56e+00,3.32e+00,
685,4.36e+00,3.16e+00,
686,4.48e+00,3.28e+00,
687,4.32e+00,2.44e+00,
688,4.44e+00,2.48e+00,
689,4.24e+00,2.00e+00,
690,4.36e+00,1.80e+00,
691,4.24e+00,2.68e+00,
692,4.12e+00,2.64e+00,
693,4.28e+00,3.08e+00,
694,4.20e+00,3.00e+00,
695,4.04e+00,3.12e+00,
696,4.16e+00,3.12e+00,
697,4.00e+00,3.28e+00,
698,4.08e+00,3.24e+00,
699,3.88e+00,3.32e+00,
700,3.96e+00,3.32e+00,
701,3.80e+00,3.24e+00,
702,3.92e+00,3.32e+00,
703,3.68e+00,2.52e+00,
704,3.80e+00,2.56e+00,
705,3.64e+00,2.04e+00,
706,3.72e+00,2.08e+00,
707,3.52e+00,1.76e+00,
708,3.60e+00,1.76e+00,
709,3.44e+00,2.84e+00,
710,3.56e+00,2.76e+00,
711,3.32e+00,3.08e+00,
712,3.40e+00,3.04e+00,
713,3.28e+00,3.24e+00,
714,3.32e+00,3.16e+00,
715,3.16e+00,3.32e+00,
716,3.24e+00,3.24e+00,
717,3.04e+00,3.32e+00,
718,3.12e+00,3.32e+00,
719,3.00e+00,2.60e+00,
720,3.00e+00,2.60e+00,
721,2.84e+00,2.12e+00,
722,2.96e+00,2.16e+00,
723,2.72e+00,1.76e+00,
724,2.84e+00,1.60e+00,
725,2.60e+00,2.60e+00,
726,2.72e+00,2.56e+00,
727,2.56e+00,2.96e+00,
728,2.60e+00,2.88e+00,
729,2.44e+00,3.12e+00,
730,2.52e+00,3.12e+00,
731,2.32e+00,3.28e+00,
732,2.40e+00,3.16e+00,
733,2.20e+00,3.28e+00,
734,2.28e+00,3.28e+00,
735,2.08e+00,2.48e+00,
736,2.16e+00,2.52e+00,
737,2.04e+00,2.00e+00,
738,2.12e+00,2.08e+00,
739,1.88e+00,1.68e+00,
740,2.00e+00,1.72e+00,
741,1.80e+00,1.44e+00,
742,1.88e+00,1.48e+00,
743,1.72e+00,2.60e+00,
744,1.80e+00,2.52e+00,
745,1.60e+00,2.96e+00,
746,1.68e+00,2.88e+00,
747,1.56e+00,3.16e+00,
748,1.56e+00,3.12e+00,
749,1.44e+00,3.20e+00,
750,1.52e+00,3.20e+00,
751,1.32e+00,2.32e+00,
752,1.40e+00,2.36e+00,
753,1.24e+00,1.92e+00,
754,1.32e+00,1.92e+00,
755,1.08e+00,1.56e+00,
756,1.20e+00,1.64e+00,
757,1.08e+00,1.32e+00,
758,1.16e+00,1.24e+00,
759,1.00e+00,2.36e+00,
760,1.04e+00,2.28e+00,
761,8.80e-01,2.72e+00,
762,9.60e-01,2.72e+00,
763,8.40e-01,2.96e+00,
764,9.20e-01,3.00e+00,
765,7.60e-01,3.08e+00,
766,8.40e-01,3.08e+00,
767,7.20e-01,2.16e+00,
768,7.60e-01,2.24e+00,
769,6.00e-01,1.76e+00,
770,6.80e-01,1.76e+00,
771,5.60e-01,1.44e+00,
772,5.20e-01,1.48e+00,
773,6.40e-01,1.24e+00,
774,4.80e-01,1.28e+00,
775,5.60e-01,1.08e+00,
776,4.00e-01,1.36e+00,
777,4.80e-01,2.32e+00,
778,4.40e-01,2.28e+00,
779,3.60e-01,2.72e+00,
780,4.40e-01,2.68e+00,
781,2.80e-01,2.96e+00,
782,4.00e-01,2.96e+00,
783,2.40e-01,2.16e+00,
784,3.20e-01,2.16e+00,
785,2.40e-01,1.68e+00,
786,3.20e-01,1.72e+00,
787,1.60e-01,1.40e+00,
788,2.80e-01,1.40e+00,
789,1.60e-01,1.16e+00,
790,2.80e-01,1.20e+00,
791,1.20e-01,9.60e-01,
792,2.00e-01,9.60e-01,
793,1.20e-01,2.00e+00,
794,1.20e-01,1.92e+00,
795,2.00e-01,2.48e+00,
796,1.20e-01,2.48e+00,
797,2.00e-01,2.84e+00,
798,2.00e-01,2.80e+00,
799,8.00e-02,2.04e+00,
800,1.20e-01,2.00e+00,
801,2.00e-01,1.56e+00,
802,2.00e-01,1.64e+00,
803,1.20e-01,1.24e+00,
804,2.00e-01,1.28e+00,
805,1.20e-01,1.08e+00,
806,1.20e-01,1.12e+00,
807,2.00e-01,8.80e-01,
808,2.40e-01,7.60e-01,
809,1.20e-01,1.44e+00,
810,2.80e-01,1.48e+00,
811,1.60e-01,2.20e+00,
812,1.60e-01,2.12e+00,
813,2.80e-01,2.56e+00,
814,2.00e-01,2.52e+00,
815,3.20e-01,2.68e+00,
816,2.40e-01,2.64e+00,
817,3.60e-01,1.68e+00,
818,4.00e-01,1.72e+00,
819,2.80e-01,1.32e+00,
820,4.40e-01,1.36e+00,
821,2.80e-01,1.08e+00,
822,3.60e-01,1.12e+00,
823,4.80e-01,8.80e-01,
824,4.00e-01,9.20e-01,
825,5.60e-01,8.00e-01,
826,4.80e-01,8.00e-01,
827,6.00e-01,1.76e+00,
828,4.80e-01,1.80e+00,
829,6.80e-01,2.32e+00,
830,6.00e-01,2.36e+00,
831,7.20e-01,2.68e+00,
832,6.40e-01,2.76e+00,
833,8.00e-01,2.24e+00,
834,7.20e-01,2.16e+00,
835,8.40e-01,1.56e+00,
836,7.60e-01,1.60e+00,
837,9.20e-01,1.28e+00,
838,8.80e-01,1.28e+00,
839,1.04e+00,1.00e+00,
840,9.60e-01,1.04e+00,
841,1.12e+00,8.40e-01,
842,1.00e+00,7.60e-01,
843,1.20e+00,1.68e+00,
844,1.12e+00,1.68e+00,
845,1.28e+00,2.24e+00,
846,1.20e+00,2.16e+00,
847,1.32e+00,2.60e+00,
848,1.32e+00,2.52e+00,
849,1.44e+00,2.80e+00,
850,1.36e+00,2.80e+00,
851,1.56e+00,1.92e+00,
852,1.48e+00,2.00e+00,
853,1.64e+00,1.48e+00,
854,1.56e+00,1.52e+00,
855,1.76e+00,1.20e+00,
856,1.60e+00,1.24e+00,
857,1.80e+00,9.60e-01,
858,1.80e+00,1.04e+00,
859,1.92e+00,8.40e-01,
860,1.88e+00,1.04e+00,
861,2.04e+00,1.96e+00,
862,1.96e+00,2.04e+00,
863,2.12e+00,2.48e+00,
864,2.08e+00,2.44e+00,
865,2.24e+00,2.76e+00,
866,2.12e+00,2.68e+00,
867,2.36e+00,2.96e+00,
868,2.24e+00,2.92e+00,
869,2.48e+00,2.00e+00,
870,2.36e+00,2.00e+00,
