Code/Matlab/Analysis/BPA_OL_Bode_Analysis/Open_Loop_Frequency_Response_Signals_1/OLBD2.csv

X,CH3,CH4,Start,Increment,
Sequence,Volt,Volt,-2.995000e+01,5.000000e-02
0,2.24e+00,1.20e+00,
1,2.56e+00,3.04e+00,
2,2.48e+00,3.20e+00,
3,2.72e+00,1.28e+00,
4,2.64e+00,1.36e+00,
5,2.88e+00,3.20e+00,
6,2.80e+00,1.28e+00,
7,3.04e+00,3.20e+00,
8,2.96e+00,1.44e+00,
9,3.28e+00,3.20e+00,
10,3.12e+00,1.44e+00,
11,3.36e+00,3.20e+00,
12,3.28e+00,3.28e+00,
13,3.60e+00,1.52e+00,
14,3.44e+00,3.28e+00,
15,3.76e+00,1.60e+00,
16,3.68e+00,3.28e+00,
17,3.84e+00,1.52e+00,
18,3.76e+00,3.28e+00,
19,4.00e+00,1.68e+00,
20,3.92e+00,3.28e+00,
21,4.24e+00,1.68e+00,
22,4.00e+00,3.36e+00,
23,4.32e+00,1.76e+00,
24,4.16e+00,3.44e+00,
25,4.40e+00,1.76e+00,
26,4.24e+00,3.44e+00,
27,4.56e+00,1.84e+00,
28,4.56e+00,3.44e+00,
29,4.40e+00,1.92e+00,
30,4.48e+00,3.44e+00,
31,4.64e+00,1.92e+00,
32,4.64e+00,1.92e+00,
33,4.80e+00,3.44e+00,
34,4.80e+00,3.44e+00,
35,4.64e+00,2.08e+00,
36,4.72e+00,3.52e+00,
37,4.88e+00,2.08e+00,
38,4.88e+00,3.52e+00,
39,4.72e+00,2.08e+00,
40,4.72e+00,3.52e+00,
41,4.96e+00,2.08e+00,
42,4.88e+00,3.52e+00,
43,4.96e+00,2.08e+00,
44,4.88e+00,3.52e+00,
45,4.88e+00,2.00e+00,
46,4.88e+00,3.52e+00,
47,5.04e+00,2.08e+00,
48,4.96e+00,3.52e+00,
49,4.72e+00,2.08e+00,
50,4.72e+00,3.52e+00,
51,4.88e+00,2.00e+00,
52,4.88e+00,3.52e+00,
53,4.72e+00,2.00e+00,
54,4.80e+00,3.52e+00,
55,4.64e+00,2.00e+00,
56,4.80e+00,3.52e+00,
57,4.64e+00,1.92e+00,
58,4.48e+00,3.52e+00,
59,4.72e+00,1.92e+00,
60,4.56e+00,3.44e+00,
61,4.40e+00,2.08e+00,
62,4.48e+00,3.44e+00,
63,4.24e+00,1.92e+00,
64,4.40e+00,3.44e+00,
65,4.16e+00,2.00e+00,
66,4.32e+00,1.92e+00,
67,4.00e+00,3.44e+00,
68,4.08e+00,3.44e+00,
69,3.92e+00,1.84e+00,
70,4.00e+00,3.44e+00,
71,3.76e+00,1.68e+00,
72,3.84e+00,1.68e+00,
73,3.68e+00,3.44e+00,
74,3.76e+00,1.68e+00,
75,3.44e+00,3.28e+00,
76,3.60e+00,3.28e+00,
77,3.28e+00,1.60e+00,
78,3.36e+00,3.28e+00,
79,3.04e+00,1.52e+00,
80,3.20e+00,3.28e+00,
81,2.96e+00,1.60e+00,
82,3.04e+00,3.28e+00,
83,2.80e+00,1.44e+00,
84,2.88e+00,1.44e+00,
85,2.56e+00,3.28e+00,
86,2.64e+00,3.20e+00,
87,2.32e+00,1.36e+00,
88,2.56e+00,3.20e+00,
89,2.24e+00,1.28e+00,
90,2.40e+00,3.20e+00,
91,2.08e+00,1.36e+00,
92,2.16e+00,3.12e+00,
93,1.84e+00,1.20e+00,
94,2.08e+00,1.20e+00,
95,1.76e+00,3.04e+00,
96,1.84e+00,3.04e+00,
97,1.52e+00,1.12e+00,
98,1.36e+00,3.04e+00,
99,1.68e+00,1.12e+00,
100,1.52e+00,1.04e+00,
101,1.28e+00,2.96e+00,
102,1.36e+00,9.60e-01,
103,1.12e+00,2.96e+00,
104,1.20e+00,9.60e-01,
105,8.80e-01,2.88e+00,
106,1.12e+00,2.96e+00,
107,8.00e-01,8.80e-01,
108,9.60e-01,2.80e+00,
109,6.40e-01,8.00e-01,
110,8.80e-01,2.80e+00,
111,5.60e-01,8.80e-01,
112,7.20e-01,2.80e+00,
113,4.80e-01,8.00e-01,
114,6.40e-01,2.72e+00,
115,3.20e-01,8.80e-01,
116,4.80e-01,2.72e+00,
117,3.20e-01,7.20e-01,
118,4.00e-01,2.72e+00,
119,1.60e-01,7.20e-01,
120,4.00e-01,2.64e+00,
121,1.60e-01,7.20e-01,
122,2.40e-01,2.64e+00,
123,8.00e-02,7.20e-01,
124,8.00e-02,2.56e+00,
125,2.40e-01,7.20e-01,
126,2.40e-01,2.56e+00,
127,-8.00e-02,6.40e-01,
128,2.40e-01,2.56e+00,
129,8.00e-02,6.40e-01,
130,8.00e-02,2.56e+00,
131,2.40e-01,7.20e-01,
132,8.00e-02,2.56e+00,
133,2.40e-01,6.40e-01,
134,2.40e-01,5.60e-01,
135,8.00e-02,2.56e+00,
136,2.40e-01,2.56e+00,
137,8.00e-02,7.20e-01,
138,1.60e-01,2.72e+00,
139,4.00e-01,7.20e-01,
140,1.60e-01,7.20e-01,
141,4.00e-01,2.56e+00,
142,3.20e-01,2.64e+00,
143,4.80e-01,7.20e-01,
144,3.20e-01,2.72e+00,
145,6.40e-01,7.20e-01,
146,4.00e-01,7.20e-01,
147,7.20e-01,2.72e+00,
148,5.60e-01,7.20e-01,
149,7.20e-01,2.72e+00,
150,6.40e-01,8.80e-01,
151,8.80e-01,2.80e+00,
152,8.00e-01,2.80e+00,
153,1.12e+00,8.00e-01,
154,8.80e-01,2.80e+00,
155,1.20e+00,8.80e-01,
156,1.04e+00,8.80e-01,
157,1.36e+00,2.80e+00,
158,1.12e+00,2.88e+00,
159,1.44e+00,9.60e-01,
160,1.36e+00,1.04e+00,
161,1.68e+00,2.96e+00,
162,1.52e+00,1.04e+00,
163,1.84e+00,2.96e+00,
164,1.60e+00,1.12e+00,
165,1.92e+00,3.04e+00,
166,1.84e+00,3.04e+00,
167,2.16e+00,1.12e+00,
168,2.00e+00,3.04e+00,
169,2.24e+00,1.20e+00,
170,2.24e+00,1.20e+00,
171,2.56e+00,3.12e+00,
172,2.32e+00,1.20e+00,
173,2.64e+00,3.20e+00,
174,2.56e+00,1.36e+00,
175,2.88e+00,3.20e+00,
176,2.72e+00,1.36e+00,
177,3.04e+00,3.20e+00,
178,2.96e+00,1.44e+00,
179,3.12e+00,3.20e+00,
180,3.04e+00,1.44e+00,
181,3.36e+00,3.28e+00,
182,3.20e+00,1.52e+00,
183,3.52e+00,3.28e+00,
184,3.44e+00,1.60e+00,
185,3.68e+00,3.28e+00,
186,3.52e+00,3.28e+00,
187,3.84e+00,1.68e+00,
188,3.68e+00,3.28e+00,
189,4.00e+00,1.68e+00,
190,3.92e+00,3.28e+00,
191,4.08e+00,1.68e+00,
192,4.00e+00,1.68e+00,
193,4.24e+00,3.44e+00,
194,4.16e+00,3.44e+00,
195,4.32e+00,1.76e+00,
196,4.24e+00,3.44e+00,
197,4.48e+00,1.84e+00,
198,4.40e+00,3.44e+00,
199,4.56e+00,1.84e+00,
200,4.40e+00,3.44e+00,
201,4.72e+00,2.00e+00,
202,4.48e+00,3.44e+00,
203,4.80e+00,1.92e+00,
204,4.80e+00,3.44e+00,
205,4.64e+00,1.92e+00,
206,4.72e+00,2.08e+00,
207,4.88e+00,3.52e+00,
208,4.88e+00,3.52e+00,
209,4.72e+00,2.00e+00,
210,4.72e+00,3.52e+00,
211,4.88e+00,2.08e+00,
212,4.88e+00,3.52e+00,
213,4.88e+00,2.08e+00,
214,4.88e+00,3.52e+00,
215,4.88e+00,2.08e+00,
216,4.88e+00,3.52e+00,
217,4.88e+00,2.08e+00,
218,4.88e+00,3.52e+00,
219,4.80e+00,2.08e+00,
220,4.88e+00,3.52e+00,
221,4.72e+00,2.00e+00,
222,4.88e+00,3.52e+00,
223,4.64e+00,2.00e+00,
224,4.80e+00,3.52e+00,
225,4.64e+00,2.08e+00,
226,4.64e+00,3.52e+00,
227,4.80e+00,2.00e+00,
228,4.72e+00,3.52e+00,
229,4.48e+00,2.00e+00,
230,4.64e+00,3.52e+00,
231,4.40e+00,1.92e+00,
232,4.56e+00,3.44e+00,
233,4.24e+00,1.92e+00,
234,4.48e+00,3.44e+00,
235,4.16e+00,2.00e+00,
236,4.32e+00,3.44e+00,
237,4.00e+00,1.92e+00,
238,4.24e+00,1.84e+00,
239,3.92e+00,3.44e+00,
240,4.08e+00,1.84e+00,
241,3.76e+00,3.44e+00,
242,3.92e+00,1.84e+00,
243,3.52e+00,3.44e+00,
244,3.76e+00,3.44e+00,
245,3.52e+00,1.76e+00,
246,3.60e+00,3.36e+00,
247,3.28e+00,1.76e+00,
248,3.52e+00,1.52e+00,
249,3.20e+00,3.28e+00,
250,3.04e+00,1.52e+00,
251,3.28e+00,3.28e+00,
252,3.12e+00,1.60e+00,
253,2.80e+00,3.28e+00,
254,2.88e+00,1.52e+00,
255,2.72e+00,3.28e+00,
256,2.72e+00,3.28e+00,
257,2.48e+00,1.44e+00,
258,2.64e+00,1.28e+00,
259,2.24e+00,3.20e+00,
260,2.40e+00,1.36e+00,
261,2.08e+00,3.20e+00,
262,2.24e+00,3.12e+00,
263,2.00e+00,1.20e+00,
264,2.08e+00,3.12e+00,
265,1.76e+00,1.20e+00,
266,1.92e+00,1.20e+00,
267,1.60e+00,3.04e+00,
268,1.68e+00,3.04e+00,
269,1.52e+00,1.12e+00,
270,1.60e+00,1.04e+00,
271,1.28e+00,3.04e+00,
272,1.44e+00,9.60e-01,
273,1.12e+00,2.96e+00,
274,1.20e+00,1.04e+00,
275,1.04e+00,2.96e+00,
276,8.80e-01,9.60e-01,
277,1.12e+00,2.96e+00,
278,9.60e-01,8.80e-01,
279,8.00e-01,2.80e+00,
280,8.80e-01,8.00e-01,
281,6.40e-01,2.80e+00,
282,7.20e-01,2.80e+00,
283,5.60e-01,8.00e-01,
284,6.40e-01,2.80e+00,
285,4.00e-01,8.00e-01,
286,4.80e-01,8.80e-01,
287,3.20e-01,2.72e+00,
288,4.80e-01,2.72e+00,
289,1.60e-01,7.20e-01,
290,1.60e-01,7.20e-01,
291,4.00e-01,2.72e+00,
292,1.60e-01,2.64e+00,
293,2.40e-01,7.20e-01,
294,2.40e-01,2.56e+00,
295,8.00e-02,7.20e-01,
296,8.00e-02,2.56e+00,
297,2.40e-01,7.20e-01,
298,2.40e-01,5.60e-01,
299,8.00e-02,2.56e+00,
300,8.00e-02,2.56e+00,
301,1.60e-01,6.40e-01,
302,8.00e-02,2.56e+00,
303,2.40e-01,7.20e-01,
304,2.40e-01,2.56e+00,
305,8.00e-02,5.60e-01,
306,2.40e-01,2.56e+00,
307,8.00e-02,7.20e-01,
308,1.60e-01,2.56e+00,
309,4.00e-01,7.20e-01,
310,4.00e-01,2.72e+00,
311,1.60e-01,7.20e-01,
312,3.20e-01,7.20e-01,
313,4.80e-01,2.64e+00,
314,4.80e-01,2.64e+00,
315,3.20e-01,7.20e-01,
316,4.00e-01,2.64e+00,
317,6.40e-01,8.00e-01,
318,7.20e-01,2.72e+00,
319,5.60e-01,8.00e-01,
320,6.40e-01,8.80e-01,
321,8.80e-01,2.80e+00,
322,8.00e-01,8.80e-01,
323,9.60e-01,2.80e+00,
324,8.80e-01,8.00e-01,
325,1.12e+00,2.80e+00,
326,1.04e+00,9.60e-01,
327,1.20e+00,2.80e+00,
328,1.12e+00,9.60e-01,
329,1.44e+00,2.88e+00,
330,1.28e+00,2.96e+00,
331,1.60e+00,9.60e-01,
332,1.52e+00,1.04e+00,
333,1.68e+00,2.96e+00,
334,1.60e+00,1.12e+00,
335,1.92e+00,3.04e+00,
336,1.76e+00,1.12e+00,
337,2.08e+00,3.04e+00,
338,2.00e+00,3.04e+00,
339,2.32e+00,1.20e+00,
340,2.16e+00,1.20e+00,
341,2.40e+00,3.20e+00,
342,2.32e+00,1.20e+00,
343,2.64e+00,3.20e+00,
344,2.48e+00,3.12e+00,
345,2.72e+00,1.28e+00,
346,2.72e+00,1.28e+00,
347,3.04e+00,3.12e+00,
348,2.80e+00,1.44e+00,
349,3.12e+00,3.20e+00,
350,3.04e+00,1.44e+00,
351,3.28e+00,3.28e+00,
352,3.20e+00,3.28e+00,
353,3.44e+00,1.60e+00,
354,3.36e+00,1.60e+00,
355,3.60e+00,3.28e+00,
356,3.52e+00,3.28e+00,
357,3.76e+00,1.52e+00,
358,3.68e+00,1.68e+00,
359,4.00e+00,3.28e+00,
360,3.76e+00,3.28e+00,
361,4.08e+00,1.68e+00,
362,3.92e+00,3.36e+00,
363,4.16e+00,1.76e+00,
364,4.16e+00,1.76e+00,
365,4.32e+00,3.44e+00,
366,4.24e+00,3.44e+00,
367,4.48e+00,1.76e+00,
368,4.24e+00,3.44e+00,
369,4.56e+00,1.84e+00,
370,4.40e+00,3.44e+00,
371,4.64e+00,1.92e+00,
372,4.48e+00,3.44e+00,
373,4.72e+00,1.92e+00,
374,4.64e+00,1.92e+00,
375,4.80e+00,3.52e+00,
376,4.64e+00,3.52e+00,
377,4.80e+00,2.00e+00,
378,4.72e+00,3.52e+00,
379,4.88e+00,2.08e+00,
380,4.88e+00,3.52e+00,
381,4.72e+00,2.08e+00,
382,4.88e+00,3.52e+00,
383,4.96e+00,2.08e+00,
384,4.88e+00,3.52e+00,
385,4.96e+00,2.08e+00,
386,4.88e+00,3.52e+00,
387,4.96e+00,2.00e+00,
388,4.88e+00,3.52e+00,
389,4.88e+00,2.08e+00,
390,4.96e+00,3.52e+00,
391,4.72e+00,2.00e+00,
392,4.72e+00,3.52e+00,
393,4.88e+00,2.16e+00,
394,4.88e+00,3.52e+00,
395,4.64e+00,2.08e+00,
396,4.64e+00,3.52e+00,
397,4.80e+00,2.16e+00,
398,4.72e+00,3.52e+00,
399,4.48e+00,2.00e+00,
400,4.48e+00,3.52e+00,
401,4.72e+00,2.08e+00,
402,4.56e+00,3.52e+00,
403,4.40e+00,2.08e+00,
404,4.24e+00,3.52e+00,
405,4.48e+00,2.00e+00,
406,4.40e+00,3.52e+00,
407,4.16e+00,1.92e+00,
408,4.24e+00,3.44e+00,
409,4.00e+00,1.84e+00,
410,4.08e+00,1.84e+00,
411,3.92e+00,3.44e+00,
412,3.92e+00,3.44e+00,
413,3.68e+00,1.68e+00,
414,3.84e+00,3.44e+00,
415,3.52e+00,1.68e+00,
416,3.68e+00,3.44e+00,
417,3.36e+00,1.68e+00,
418,3.52e+00,3.36e+00,
419,3.20e+00,1.60e+00,
420,3.36e+00,1.52e+00,
421,3.04e+00,3.28e+00,
422,3.12e+00,1.60e+00,
423,2.80e+00,3.28e+00,
424,3.04e+00,3.28e+00,
425,2.72e+00,1.44e+00,
426,2.72e+00,3.28e+00,
427,2.56e+00,1.44e+00,
428,2.64e+00,3.20e+00,
429,2.40e+00,1.44e+00,
430,2.48e+00,1.36e+00,
431,2.24e+00,3.20e+00,
432,2.32e+00,1.20e+00,
433,2.00e+00,3.20e+00,
434,2.16e+00,3.12e+00,
435,1.84e+00,1.20e+00,
436,1.92e+00,3.04e+00,
437,1.60e+00,1.20e+00,
438,1.84e+00,3.04e+00,
439,1.52e+00,1.28e+00,
440,1.36e+00,1.12e+00,
441,1.60e+00,3.04e+00,
442,1.44e+00,2.96e+00,
443,1.20e+00,1.04e+00,
444,1.36e+00,2.96e+00,
445,1.04e+00,9.60e-01,
446,1.20e+00,2.96e+00,
447,8.80e-01,9.60e-01,
448,9.60e-01,2.80e+00,
449,8.00e-01,9.60e-01,
450,8.80e-01,8.80e-01,
451,6.40e-01,2.80e+00,
452,7.20e-01,2.80e+00,
453,5.60e-01,8.00e-01,
454,6.40e-01,2.80e+00,
455,4.00e-01,8.00e-01,
456,6.40e-01,2.72e+00,
457,3.20e-01,8.00e-01,
458,3.20e-01,7.20e-01,
459,4.80e-01,2.72e+00,
460,4.00e-01,2.72e+00,
461,1.60e-01,7.20e-01,
462,4.00e-01,7.20e-01,
463,1.60e-01,2.72e+00,
464,2.40e-01,2.64e+00,
465,8.00e-02,7.20e-01,
466,8.00e-02,7.20e-01,
467,2.40e-01,2.56e+00,
468,2.40e-01,2.56e+00,
469,8.00e-02,7.20e-01,
470,8.00e-02,6.40e-01,
471,2.40e-01,2.56e+00,
472,8.00e-02,2.56e+00,
473,2.40e-01,6.40e-01,
474,8.00e-02,2.56e+00,
475,2.40e-01,7.20e-01,
476,2.40e-01,2.56e+00,
477,8.00e-02,7.20e-01,
478,2.40e-01,2.56e+00,
479,1.60e-01,7.20e-01,
480,1.60e-01,2.72e+00,
481,4.00e-01,7.20e-01,
482,2.40e-01,7.20e-01,
483,4.80e-01,2.72e+00,
484,3.20e-01,2.72e+00,
485,4.80e-01,7.20e-01,
486,4.00e-01,2.72e+00,
487,6.40e-01,7.20e-01,
488,4.80e-01,2.72e+00,
489,7.20e-01,8.80e-01,
490,5.60e-01,8.80e-01,
491,8.80e-01,2.80e+00,
492,6.40e-01,2.72e+00,
493,9.60e-01,8.80e-01,
494,8.00e-01,8.00e-01,
495,1.12e+00,2.80e+00,
496,9.60e-01,2.80e+00,
497,1.20e+00,8.00e-01,
498,1.12e+00,9.60e-01,
499,1.36e+00,2.88e+00,
500,1.28e+00,9.60e-01,
501,1.60e+00,2.96e+00,
502,1.36e+00,2.88e+00,
503,1.68e+00,9.60e-01,
504,1.60e+00,1.04e+00,
505,1.84e+00,3.04e+00,
506,1.76e+00,1.12e+00,
507,2.08e+00,3.04e+00,
508,1.84e+00,1.04e+00,
509,2.16e+00,3.04e+00,
510,2.08e+00,1.20e+00,
511,2.40e+00,3.04e+00,
512,2.24e+00,1.20e+00,
513,2.56e+00,3.12e+00,
514,2.48e+00,1.36e+00,
515,2.72e+00,3.20e+00,
516,2.56e+00,1.28e+00,
517,2.88e+00,3.20e+00,
518,2.80e+00,1.44e+00,
519,3.12e+00,3.20e+00,
520,2.96e+00,1.44e+00,
521,3.28e+00,3.28e+00,
522,3.04e+00,3.28e+00,
523,3.44e+00,1.44e+00,
524,3.28e+00,3.28e+00,
525,3.60e+00,1.60e+00,
526,3.44e+00,3.28e+00,
527,3.68e+00,1.52e+00,
528,3.68e+00,3.28e+00,
529,3.84e+00,1.60e+00,
530,3.76e+00,1.68e+00,
531,3.92e+00,3.28e+00,
532,3.92e+00,1.84e+00,
533,4.16e+00,3.36e+00,
534,4.00e+00,3.44e+00,
535,4.32e+00,1.68e+00,
536,4.16e+00,3.44e+00,
537,4.48e+00,1.84e+00,
538,4.24e+00,1.84e+00,
539,4.56e+00,3.44e+00,
540,4.56e+00,1.92e+00,
541,4.40e+00,3.44e+00,
542,4.48e+00,3.44e+00,
543,4.64e+00,1.92e+00,
544,4.64e+00,1.92e+00,
545,4.80e+00,3.52e+00,
546,4.80e+00,3.52e+00,
547,4.64e+00,2.08e+00,
548,4.72e+00,3.52e+00,
549,4.88e+00,2.00e+00,
550,4.88e+00,2.08e+00,
551,4.72e+00,3.52e+00,
552,4.88e+00,3.52e+00,
553,4.72e+00,2.08e+00,
554,4.88e+00,3.52e+00,
555,4.88e+00,2.00e+00,
556,4.88e+00,3.52e+00,
557,4.96e+00,2.00e+00,
558,4.88e+00,3.52e+00,
559,4.96e+00,2.00e+00,
560,4.96e+00,3.52e+00,
561,4.72e+00,2.08e+00,
562,4.72e+00,3.52e+00,
563,4.88e+00,2.08e+00,
564,4.96e+00,3.52e+00,
565,4.64e+00,2.00e+00,
566,4.80e+00,3.52e+00,
567,4.64e+00,2.08e+00,
568,4.80e+00,3.52e+00,
569,4.64e+00,2.08e+00,
570,4.48e+00,3.52e+00,
571,4.72e+00,2.00e+00,
572,4.56e+00,3.52e+00,
573,4.40e+00,2.00e+00,
574,4.48e+00,3.52e+00,
575,4.24e+00,2.00e+00,
576,4.40e+00,3.44e+00,
577,4.16e+00,1.92e+00,
578,4.32e+00,1.92e+00,
579,4.00e+00,3.44e+00,
580,4.08e+00,1.84e+00,
581,3.92e+00,3.44e+00,
582,3.92e+00,3.44e+00,
583,3.76e+00,1.76e+00,
584,3.84e+00,1.68e+00,
585,3.68e+00,3.44e+00,
586,3.76e+00,1.68e+00,
587,3.44e+00,3.44e+00,
588,3.60e+00,3.36e+00,
589,3.28e+00,1.68e+00,
590,3.36e+00,3.28e+00,
591,3.04e+00,1.60e+00,
592,3.28e+00,3.28e+00,
593,2.96e+00,1.60e+00,
594,3.04e+00,1.52e+00,
595,2.72e+00,3.28e+00,
596,2.88e+00,1.44e+00,
597,2.56e+00,3.28e+00,
598,2.72e+00,1.44e+00,
599,2.48e+00,3.20e+00,
600,2.56e+00,3.20e+00,
601,2.24e+00,1.36e+00,
602,2.32e+00,1.36e+00,
603,2.08e+00,3.20e+00,
604,2.16e+00,1.20e+00,
605,1.84e+00,3.20e+00,
606,2.08e+00,1.20e+00,
607,1.76e+00,3.04e+00,
608,1.84e+00,1.20e+00,
609,1.52e+00,3.04e+00,
610,1.68e+00,3.04e+00,
611,1.36e+00,1.04e+00,
612,1.60e+00,1.12e+00,
613,1.28e+00,3.04e+00,
614,1.36e+00,9.60e-01,
615,1.12e+00,2.96e+00,
616,1.20e+00,9.60e-01,
617,8.80e-01,2.96e+00,
618,1.12e+00,9.60e-01,
619,8.00e-01,2.88e+00,
620,9.60e-01,2.80e+00,
621,6.40e-01,8.80e-01,
622,8.80e-01,8.80e-01,
623,5.60e-01,2.80e+00,
624,7.20e-01,8.80e-01,
625,4.00e-01,2.80e+00,
626,6.40e-01,8.80e-01,
627,4.00e-01,2.80e+00,
628,4.80e-01,2.64e+00,
629,3.20e-01,8.00e-01,
630,4.00e-01,2.72e+00,
631,1.60e-01,7.20e-01,
632,4.00e-01,7.20e-01,
633,1.60e-01,2.72e+00,
634,2.40e-01,7.20e-01,
635,8.00e-02,2.72e+00,
636,8.00e-02,7.20e-01,
637,2.40e-01,2.56e+00,
638,2.40e-01,2.56e+00,
639,8.00e-02,7.20e-01,
640,8.00e-02,2.56e+00,
641,2.40e-01,7.20e-01,
642,8.00e-02,2.56e+00,
643,2.40e-01,7.20e-01,
644,8.00e-02,2.56e+00,
645,2.40e-01,7.20e-01,
646,2.40e-01,2.56e+00,
647,8.00e-02,7.20e-01,
648,8.00e-02,7.20e-01,
649,2.40e-01,2.72e+00,
650,1.60e-01,7.20e-01,
651,4.00e-01,2.72e+00,
652,4.00e-01,2.64e+00,
653,1.60e-01,7.20e-01,
654,3.20e-01,2.72e+00,
655,4.80e-01,7.20e-01,
656,3.20e-01,2.72e+00,
657,6.40e-01,7.20e-01,
658,4.00e-01,2.72e+00,
659,7.20e-01,8.00e-01,
660,7.20e-01,2.72e+00,
661,5.60e-01,7.20e-01,
662,8.80e-01,2.80e+00,
663,6.40e-01,8.80e-01,
664,8.00e-01,2.80e+00,
665,1.12e+00,8.00e-01,
666,8.80e-01,2.80e+00,
667,1.20e+00,8.80e-01,
668,1.04e+00,8.80e-01,
669,1.36e+00,2.80e+00,
670,1.20e+00,9.60e-01,
671,1.44e+00,2.96e+00,
672,1.28e+00,1.04e+00,
673,1.68e+00,2.96e+00,
674,1.52e+00,1.12e+00,
675,1.84e+00,2.96e+00,
676,1.60e+00,3.04e+00,
677,1.92e+00,1.12e+00,
678,1.84e+00,1.12e+00,
679,2.16e+00,3.04e+00,
680,2.00e+00,1.20e+00,
681,2.32e+00,3.04e+00,
682,2.24e+00,1.20e+00,
683,2.56e+00,3.04e+00,
684,2.32e+00,1.28e+00,
685,2.64e+00,3.20e+00,
686,2.56e+00,1.36e+00,
687,2.88e+00,3.20e+00,
688,2.72e+00,1.36e+00,
689,3.04e+00,3.12e+00,
690,2.96e+00,1.44e+00,
691,3.12e+00,3.12e+00,
692,3.04e+00,1.44e+00,
693,3.36e+00,3.28e+00,
694,3.28e+00,1.60e+00,
695,3.52e+00,3.28e+00,
696,3.44e+00,3.28e+00,
697,3.68e+00,1.52e+00,
698,3.52e+00,3.28e+00,
699,3.84e+00,1.60e+00,
700,3.68e+00,3.28e+00,
701,4.00e+00,1.68e+00,
702,3.92e+00,3.28e+00,
703,4.08e+00,1.68e+00,
704,4.00e+00,3.44e+00,
705,4.16e+00,1.84e+00,
706,4.16e+00,1.84e+00,
707,4.32e+00,3.44e+00,
708,4.24e+00,3.44e+00,
709,4.48e+00,1.84e+00,
710,4.40e+00,3.44e+00,
711,4.56e+00,1.92e+00,
712,4.48e+00,3.44e+00,
713,4.64e+00,1.92e+00,
714,4.48e+00,3.44e+00,
715,4.72e+00,1.92e+00,
716,4.80e+00,3.44e+00,
717,4.64e+00,2.08e+00,
718,4.64e+00,3.52e+00,
719,4.88e+00,2.00e+00,
720,4.88e+00,3.52e+00,
721,4.72e+00,2.08e+00,
722,4.72e+00,3.52e+00,
723,4.96e+00,2.08e+00,
724,4.96e+00,3.52e+00,
725,4.72e+00,2.00e+00,
726,4.88e+00,3.52e+00,
727,4.88e+00,2.08e+00,
728,4.72e+00,3.52e+00,
729,4.96e+00,2.08e+00,
730,4.88e+00,3.52e+00,
731,4.72e+00,2.08e+00,
732,4.88e+00,3.52e+00,
733,4.72e+00,2.00e+00,
734,4.72e+00,3.52e+00,
735,4.88e+00,2.08e+00,
736,4.80e+00,3.52e+00,
737,4.64e+00,2.08e+00,
738,4.64e+00,3.52e+00,
739,4.80e+00,2.08e+00,
740,4.64e+00,3.52e+00,
741,4.48e+00,2.08e+00,
742,4.64e+00,3.52e+00,
743,4.40e+00,2.00e+00,
744,4.56e+00,3.52e+00,
745,4.24e+00,1.92e+00,
746,4.48e+00,3.44e+00,
747,4.16e+00,2.00e+00,
748,4.32e+00,3.52e+00,
749,4.08e+00,1.92e+00,
750,4.24e+00,3.44e+00,
751,3.92e+00,1.76e+00,
752,4.08e+00,3.44e+00,
753,3.76e+00,1.84e+00,
754,3.92e+00,3.44e+00,
755,3.68e+00,1.76e+00,
756,3.76e+00,1.76e+00,
757,3.52e+00,3.44e+00,
758,3.60e+00,1.68e+00,
759,3.28e+00,3.44e+00,
760,3.52e+00,3.28e+00,
761,3.20e+00,1.60e+00,
762,3.28e+00,3.28e+00,
763,2.96e+00,1.60e+00,
764,3.12e+00,3.28e+00,
765,2.80e+00,1.60e+00,
766,2.88e+00,1.44e+00,
767,2.72e+00,3.28e+00,
768,2.72e+00,1.44e+00,
769,2.48e+00,3.28e+00,
770,2.56e+00,3.20e+00,
771,2.32e+00,1.28e+00,
772,2.40e+00,3.20e+00,
773,2.16e+00,1.36e+00,
774,2.32e+00,3.20e+00,
775,2.00e+00,1.28e+00,
776,2.08e+00,1.20e+00,
777,1.76e+00,3.12e+00,
778,1.92e+00,1.20e+00,
779,1.60e+00,3.04e+00,
780,1.68e+00,3.04e+00,
781,1.52e+00,1.12e+00,
782,1.60e+00,3.04e+00,
783,1.28e+00,1.04e+00,
784,1.44e+00,2.96e+00,
785,1.04e+00,1.12e+00,
786,1.20e+00,9.60e-01,
787,1.04e+00,2.96e+00,
788,1.12e+00,9.60e-01,
789,8.80e-01,2.96e+00,
790,9.60e-01,9.60e-01,
791,8.00e-01,2.80e+00,
792,6.40e-01,2.80e+00,
793,8.80e-01,8.80e-01,
794,7.20e-01,8.00e-01,
795,5.60e-01,2.80e+00,
796,6.40e-01,8.80e-01,
797,4.80e-01,2.80e+00,
798,4.80e-01,2.72e+00,
799,3.20e-01,7.20e-01,
800,4.80e-01,8.00e-01,
801,3.20e-01,2.72e+00,
802,4.00e-01,7.20e-01,
803,1.60e-01,2.72e+00,
804,2.40e-01,2.64e+00,
805,1.60e-01,7.20e-01,
806,2.40e-01,2.64e+00,
807,8.00e-02,7.20e-01,
808,2.40e-01,2.56e+00,
809,8.00e-02,7.20e-01,
810,2.40e-01,2.56e+00,
811,8.00e-02,7.20e-01,
812,8.00e-02,2.56e+00,
813,1.60e-01,7.20e-01,
814,8.00e-02,2.56e+00,
815,2.40e-01,7.20e-01,
816,2.40e-01,2.56e+00,
817,8.00e-02,7.20e-01,
818,8.00e-02,2.56e+00,
819,2.40e-01,6.40e-01,
820,8.00e-02,7.20e-01,
821,3.20e-01,2.72e+00,
822,4.00e-01,7.20e-01,
823,1.60e-01,2.72e+00,
824,3.20e-01,2.72e+00,
825,4.80e-01,7.20e-01,
826,3.20e-01,7.20e-01,
827,4.80e-01,2.72e+00,
828,6.40e-01,7.20e-01,
829,4.00e-01,2.72e+00,
830,5.60e-01,2.72e+00,
831,7.20e-01,8.00e-01,
832,6.40e-01,8.00e-01,
833,8.80e-01,2.80e+00,
834,8.00e-01,2.80e+00,
835,9.60e-01,8.80e-01,
836,8.80e-01,2.80e+00,
837,1.12e+00,8.80e-01,
838,1.04e+00,2.80e+00,
839,1.28e+00,8.00e-01,
840,1.12e+00,8.00e-01,
841,1.44e+00,2.96e+00,
842,1.28e+00,9.60e-01,
843,1.60e+00,2.88e+00,
844,1.52e+00,1.12e+00,
845,1.68e+00,2.88e+00,
846,1.60e+00,1.04e+00,
847,1.92e+00,3.04e+00,
848,1.76e+00,3.04e+00,
849,2.08e+00,1.12e+00,
850,2.00e+00,3.04e+00,
851,2.24e+00,1.28e+00,
852,2.08e+00,1.20e+00,
853,2.40e+00,3.20e+00,
854,2.32e+00,1.20e+00,
855,2.64e+00,3.20e+00,
856,2.48e+00,1.28e+00,
857,2.80e+00,3.20e+00,
858,2.72e+00,3.12e+00,
859,3.04e+00,1.36e+00,
860,2.80e+00,3.20e+00,
861,3.12e+00,1.52e+00,
862,3.04e+00,1.44e+00,
863,3.20e+00,3.28e+00,
864,3.20e+00,3.28e+00,
865,3.44e+00,1.52e+00,
866,3.36e+00,1.60e+00,
867,3.60e+00,3.28e+00,
868,3.44e+00,3.28e+00,
869,3.76e+00,1.60e+00,
870,3.68e+00,3.28e+00,
