Code/Matlab/Analysis/BPA_OL_Bode_Analysis/Open_Loop_Frequency_Response_Signals_1/OLBD10.csv

X,CH3,CH4,Start,Increment,
Sequence,Volt,Volt,-5.990000e+00,1.000000e-02
0,1.64e+00,1.84e+00,
1,1.44e+00,3.00e+00,
2,1.52e+00,1.12e+00,
3,1.32e+00,2.60e+00,
4,1.40e+00,2.96e+00,
5,1.20e+00,1.32e+00,
6,1.28e+00,1.04e+00,
7,1.00e+00,2.84e+00,
8,1.16e+00,2.88e+00,
9,9.60e-01,9.60e-01,
10,1.08e+00,1.08e+00,
11,8.80e-01,2.84e+00,
12,9.60e-01,9.20e-01,
13,8.40e-01,2.36e+00,
14,9.20e-01,2.80e+00,
15,7.20e-01,1.20e+00,
16,8.00e-01,9.20e-01,
17,6.40e-01,2.72e+00,
18,7.60e-01,2.80e+00,
19,6.00e-01,8.40e-01,
20,6.80e-01,8.40e-01,
21,4.80e-01,2.72e+00,
22,5.60e-01,7.60e-01,
23,4.00e-01,2.12e+00,
24,5.20e-01,2.68e+00,
25,3.60e-01,1.16e+00,
26,3.60e-01,7.60e-01,
27,4.40e-01,2.60e+00,
28,4.00e-01,2.68e+00,
29,2.40e-01,7.60e-01,
30,3.20e-01,7.20e-01,
31,2.40e-01,2.60e+00,
32,3.20e-01,7.20e-01,
33,1.60e-01,1.80e+00,
34,2.80e-01,2.56e+00,
35,4.00e-02,9.60e-01,
36,2.80e-01,7.20e-01,
37,1.20e-01,2.48e+00,
38,8.00e-02,2.52e+00,
39,2.00e-01,7.20e-01,
40,2.00e-01,6.00e-01,
41,4.00e-02,2.48e+00,
42,2.00e-01,6.80e-01,
43,8.00e-02,1.64e+00,
44,1.20e-01,2.48e+00,
45,2.00e-01,9.60e-01,
46,2.00e-01,6.00e-01,
47,4.00e-02,2.40e+00,
48,1.20e-01,2.48e+00,
49,2.00e-01,7.20e-01,
50,1.20e-01,6.00e-01,
51,2.40e-01,2.48e+00,
52,2.80e-01,6.00e-01,
53,1.60e-01,1.52e+00,
54,1.60e-01,2.48e+00,
55,3.20e-01,1.04e+00,
56,3.20e-01,6.00e-01,
57,2.40e-01,2.36e+00,
58,2.80e-01,2.52e+00,
59,4.00e-01,7.60e-01,
60,2.80e-01,6.80e-01,
61,4.40e-01,2.56e+00,
62,3.60e-01,1.68e+00,
63,5.20e-01,6.80e-01,
64,4.00e-01,2.56e+00,
65,5.60e-01,1.20e+00,
66,4.80e-01,6.80e-01,
67,6.40e-01,2.28e+00,
68,5.20e-01,2.60e+00,
69,7.20e-01,9.20e-01,
70,6.00e-01,7.20e-01,
71,8.00e-01,2.60e+00,
72,7.20e-01,2.08e+00,
73,8.80e-01,7.20e-01,
74,7.60e-01,2.64e+00,
75,9.60e-01,1.40e+00,
76,8.80e-01,8.00e-01,
77,1.04e+00,2.28e+00,
78,1.00e+00,2.68e+00,
79,1.16e+00,1.00e+00,
80,1.08e+00,8.00e-01,
81,1.28e+00,2.72e+00,
82,1.20e+00,2.64e+00,
83,1.40e+00,8.40e-01,
84,1.32e+00,1.52e+00,
85,1.44e+00,2.80e+00,
86,1.36e+00,9.20e-01,
87,1.56e+00,2.36e+00,
88,1.52e+00,2.84e+00,
89,1.68e+00,1.28e+00,
90,1.60e+00,9.60e-01,
91,1.80e+00,2.84e+00,
92,1.72e+00,2.84e+00,
93,1.92e+00,9.60e-01,
94,1.84e+00,1.28e+00,
95,2.04e+00,2.88e+00,
96,1.96e+00,1.04e+00,
97,2.16e+00,2.44e+00,
98,2.08e+00,2.96e+00,
99,2.28e+00,1.52e+00,
100,2.24e+00,1.08e+00,
101,2.40e+00,2.92e+00,
102,2.36e+00,2.96e+00,
103,2.52e+00,1.16e+00,
104,2.52e+00,1.24e+00,
105,2.68e+00,3.04e+00,
106,2.64e+00,2.68e+00,
107,2.80e+00,1.20e+00,
108,2.76e+00,3.04e+00,
109,2.96e+00,1.80e+00,
110,2.88e+00,1.28e+00,
111,3.08e+00,2.96e+00,
112,3.00e+00,3.08e+00,
113,3.20e+00,1.40e+00,
114,3.08e+00,1.32e+00,
115,3.32e+00,3.08e+00,
116,3.20e+00,3.08e+00,
117,3.44e+00,1.36e+00,
118,3.32e+00,3.16e+00,
119,3.56e+00,2.16e+00,
120,3.44e+00,1.44e+00,
121,3.68e+00,3.00e+00,
122,3.56e+00,3.16e+00,
123,3.76e+00,1.60e+00,
124,3.68e+00,1.52e+00,
125,3.84e+00,3.16e+00,
126,3.76e+00,3.20e+00,
127,3.96e+00,1.56e+00,
128,3.88e+00,3.20e+00,
129,4.08e+00,2.36e+00,
130,4.00e+00,1.56e+00,
131,4.16e+00,3.08e+00,
132,4.08e+00,3.20e+00,
133,4.24e+00,1.80e+00,
134,4.16e+00,1.60e+00,
135,4.32e+00,3.20e+00,
136,4.24e+00,3.24e+00,
137,4.44e+00,1.68e+00,
138,4.36e+00,2.88e+00,
139,4.52e+00,3.28e+00,
140,4.40e+00,1.68e+00,
141,4.56e+00,3.12e+00,
142,4.48e+00,3.28e+00,
143,4.64e+00,2.00e+00,
144,4.52e+00,1.80e+00,
145,4.68e+00,3.28e+00,
146,4.60e+00,3.32e+00,
147,4.76e+00,1.84e+00,
148,4.64e+00,2.88e+00,
149,4.80e+00,3.32e+00,
150,4.72e+00,3.28e+00,
151,4.84e+00,1.80e+00,
152,4.88e+00,3.32e+00,
153,4.76e+00,2.24e+00,
154,4.76e+00,1.88e+00,
155,4.92e+00,3.32e+00,
156,4.92e+00,3.32e+00,
157,4.84e+00,1.92e+00,
158,4.84e+00,2.92e+00,
159,4.96e+00,3.40e+00,
160,4.84e+00,3.40e+00,
161,4.96e+00,1.92e+00,
162,4.88e+00,3.40e+00,
163,5.00e+00,2.40e+00,
164,4.84e+00,1.92e+00,
165,4.96e+00,3.36e+00,
166,4.96e+00,3.36e+00,
167,4.84e+00,1.92e+00,
168,4.84e+00,2.88e+00,
169,4.92e+00,3.40e+00,
170,4.92e+00,3.40e+00,
171,4.72e+00,2.00e+00,
172,4.92e+00,3.44e+00,
173,4.76e+00,2.48e+00,
174,4.76e+00,1.96e+00,
175,4.88e+00,3.36e+00,
176,4.84e+00,3.40e+00,
177,4.72e+00,2.00e+00,
178,4.80e+00,2.92e+00,
179,4.64e+00,3.40e+00,
180,4.76e+00,3.40e+00,
181,4.60e+00,2.00e+00,
182,4.68e+00,3.44e+00,
183,4.52e+00,2.52e+00,
184,4.64e+00,1.92e+00,
185,4.48e+00,3.40e+00,
186,4.56e+00,3.44e+00,
187,4.40e+00,1.96e+00,
188,4.48e+00,2.72e+00,
189,4.36e+00,3.40e+00,
190,4.44e+00,3.44e+00,
191,4.24e+00,1.88e+00,
192,4.32e+00,3.40e+00,
193,4.16e+00,2.52e+00,
194,4.28e+00,1.80e+00,
195,4.08e+00,3.32e+00,
196,4.16e+00,3.36e+00,
197,4.00e+00,1.80e+00,
198,4.08e+00,1.76e+00,
199,3.88e+00,3.40e+00,
200,3.96e+00,3.40e+00,
201,3.76e+00,1.72e+00,
202,3.84e+00,3.40e+00,
203,3.68e+00,2.48e+00,
204,3.72e+00,1.68e+00,
205,3.56e+00,3.28e+00,
206,3.68e+00,3.32e+00,
207,3.44e+00,1.76e+00,
208,3.56e+00,1.64e+00,
209,3.32e+00,3.32e+00,
210,3.40e+00,3.24e+00,
211,3.20e+00,1.56e+00,
212,3.32e+00,3.32e+00,
213,3.12e+00,2.40e+00,
214,3.16e+00,1.56e+00,
215,2.96e+00,3.20e+00,
216,3.08e+00,3.32e+00,
217,2.84e+00,1.64e+00,
218,2.92e+00,1.52e+00,
219,2.76e+00,3.28e+00,
220,2.84e+00,3.28e+00,
221,2.60e+00,1.48e+00,
222,2.72e+00,3.20e+00,
223,2.48e+00,2.24e+00,
224,2.52e+00,1.40e+00,
225,2.36e+00,3.04e+00,
226,2.40e+00,3.20e+00,
227,2.20e+00,1.52e+00,
228,2.28e+00,1.32e+00,
229,2.12e+00,3.16e+00,
230,2.16e+00,3.12e+00,
231,1.96e+00,1.32e+00,
232,2.04e+00,3.16e+00,
233,1.84e+00,2.08e+00,
234,1.92e+00,1.28e+00,
235,1.72e+00,2.84e+00,
236,1.84e+00,3.08e+00,
237,1.60e+00,1.40e+00,
238,1.68e+00,1.20e+00,
239,1.48e+00,3.04e+00,
240,1.56e+00,2.92e+00,
241,1.40e+00,1.12e+00,
242,1.44e+00,2.96e+00,
243,1.32e+00,1.76e+00,
244,1.40e+00,1.08e+00,
245,1.20e+00,2.60e+00,
246,1.28e+00,2.96e+00,
247,1.08e+00,1.28e+00,
248,1.16e+00,1.04e+00,
249,9.60e-01,2.92e+00,
250,1.04e+00,2.84e+00,
251,8.80e-01,9.60e-01,
252,1.00e+00,2.84e+00,
253,7.60e-01,1.64e+00,
254,8.40e-01,8.80e-01,
255,7.20e-01,2.44e+00,
256,8.00e-01,2.84e+00,
257,6.40e-01,1.16e+00,
258,7.60e-01,9.20e-01,
259,5.60e-01,2.80e+00,
260,6.40e-01,2.68e+00,
261,4.80e-01,8.40e-01,
262,5.60e-01,1.32e+00,
263,4.00e-01,2.72e+00,
264,4.80e-01,8.00e-01,
265,3.60e-01,2.32e+00,
266,4.40e-01,2.68e+00,
267,2.80e-01,1.04e+00,
268,2.40e-01,7.60e-01,
269,4.00e-01,2.68e+00,
270,2.40e-01,2.60e+00,
271,3.20e-01,7.20e-01,
272,3.20e-01,8.00e-01,
273,1.60e-01,2.60e+00,
274,1.60e-01,7.20e-01,
275,2.80e-01,2.12e+00,
276,2.80e-01,2.60e+00,
277,1.20e-01,9.60e-01,
278,1.20e-01,7.20e-01,
279,2.00e-01,2.56e+00,
280,2.00e-01,2.48e+00,
281,1.20e-01,7.20e-01,
282,2.00e-01,6.80e-01,
283,8.00e-02,2.56e+00,
284,2.00e-01,6.40e-01,
285,1.20e-01,1.88e+00,
286,2.00e-01,2.48e+00,
287,1.20e-01,9.60e-01,
288,2.00e-01,6.80e-01,
289,1.20e-01,2.48e+00,
290,1.20e-01,2.48e+00,
291,2.80e-01,7.20e-01,
292,2.40e-01,6.80e-01,
293,1.60e-01,2.48e+00,
294,1.60e-01,6.40e-01,
295,3.20e-01,1.68e+00,
296,2.40e-01,2.56e+00,
297,3.60e-01,1.08e+00,
298,4.00e-01,6.80e-01,
299,2.80e-01,2.44e+00,
300,2.80e-01,2.60e+00,
301,4.40e-01,8.00e-01,
302,3.60e-01,7.20e-01,
303,5.20e-01,2.60e+00,
304,4.00e-01,7.20e-01,
305,5.60e-01,1.64e+00,
306,4.80e-01,2.60e+00,
307,6.80e-01,1.20e+00,
308,6.00e-01,7.20e-01,
309,7.20e-01,2.48e+00,
310,6.40e-01,2.64e+00,
311,8.00e-01,8.40e-01,
312,7.20e-01,7.60e-01,
313,9.20e-01,2.72e+00,
314,8.40e-01,1.92e+00,
315,9.60e-01,8.00e-01,
316,8.80e-01,2.72e+00,
317,1.08e+00,1.40e+00,
318,1.00e+00,7.60e-01,
319,1.16e+00,2.48e+00,
320,1.12e+00,2.72e+00,
321,1.28e+00,1.04e+00,
322,1.20e+00,9.20e-01,
323,1.40e+00,2.80e+00,
324,1.32e+00,2.80e+00,
325,1.52e+00,9.20e-01,
326,1.44e+00,2.84e+00,
327,1.64e+00,1.68e+00,
328,1.52e+00,9.60e-01,
329,1.76e+00,2.52e+00,
330,1.64e+00,2.92e+00,
331,1.88e+00,1.20e+00,
332,1.76e+00,1.00e+00,
333,1.96e+00,2.92e+00,
334,1.92e+00,2.84e+00,
335,2.12e+00,1.04e+00,
336,2.04e+00,1.92e+00,
337,2.24e+00,2.96e+00,
338,2.12e+00,1.08e+00,
339,2.36e+00,2.60e+00,
340,2.24e+00,3.04e+00,
341,2.48e+00,1.48e+00,
342,2.36e+00,1.20e+00,
343,2.60e+00,2.96e+00,
344,2.52e+00,3.04e+00,
345,2.72e+00,1.20e+00,
346,2.60e+00,1.92e+00,
347,2.84e+00,3.04e+00,
348,2.76e+00,1.28e+00,
349,2.96e+00,2.64e+00,
350,2.88e+00,3.08e+00,
351,3.08e+00,1.76e+00,
352,3.00e+00,1.32e+00,
353,3.20e+00,3.04e+00,
354,3.16e+00,3.08e+00,
355,3.32e+00,1.40e+00,
356,3.24e+00,1.80e+00,
357,3.44e+00,3.16e+00,
358,3.40e+00,3.08e+00,
359,3.56e+00,1.44e+00,
360,3.44e+00,3.16e+00,
361,3.68e+00,2.08e+00,
362,3.56e+00,1.48e+00,
363,3.80e+00,3.08e+00,
364,3.68e+00,3.20e+00,
365,3.92e+00,1.52e+00,
366,3.80e+00,1.52e+00,
367,3.96e+00,3.20e+00,
368,3.92e+00,3.16e+00,
369,4.08e+00,1.56e+00,
370,4.00e+00,3.20e+00,
371,4.20e+00,2.36e+00,
372,4.12e+00,1.60e+00,
373,4.28e+00,3.16e+00,
374,4.16e+00,3.28e+00,
375,4.40e+00,1.76e+00,
376,4.28e+00,1.72e+00,
377,4.44e+00,3.24e+00,
378,4.36e+00,3.28e+00,
379,4.52e+00,1.72e+00,
380,4.40e+00,3.32e+00,
381,4.56e+00,2.52e+00,
382,4.48e+00,1.76e+00,
383,4.60e+00,3.20e+00,
384,4.68e+00,3.32e+00,
385,4.60e+00,1.92e+00,
386,4.64e+00,1.88e+00,
387,4.76e+00,3.32e+00,
388,4.64e+00,3.32e+00,
389,4.80e+00,1.88e+00,
390,4.72e+00,3.00e+00,
391,4.84e+00,3.32e+00,
392,4.84e+00,1.92e+00,
393,4.72e+00,3.28e+00,
394,4.76e+00,3.40e+00,
395,4.92e+00,2.12e+00,
396,4.92e+00,1.92e+00,
397,4.84e+00,3.40e+00,
398,4.84e+00,3.40e+00,
399,4.92e+00,1.96e+00,
400,4.96e+00,3.12e+00,
401,4.84e+00,3.40e+00,
402,4.88e+00,1.96e+00,
403,4.96e+00,3.32e+00,
404,5.00e+00,3.40e+00,
405,4.84e+00,2.24e+00,
406,4.96e+00,2.00e+00,
407,4.84e+00,3.40e+00,
408,4.84e+00,3.44e+00,
409,4.92e+00,2.00e+00,
410,4.92e+00,2.96e+00,
411,4.76e+00,3.44e+00,
412,4.92e+00,3.40e+00,
413,4.72e+00,1.96e+00,
414,4.72e+00,3.44e+00,
415,4.84e+00,2.36e+00,
416,4.80e+00,2.00e+00,
417,4.72e+00,3.40e+00,
418,4.80e+00,3.44e+00,
419,4.64e+00,1.96e+00,
420,4.72e+00,3.00e+00,
421,4.60e+00,3.44e+00,
422,4.52e+00,3.44e+00,
423,4.68e+00,1.92e+00,
424,4.60e+00,3.44e+00,
425,4.48e+00,2.40e+00,
426,4.56e+00,1.92e+00,
427,4.40e+00,3.36e+00,
428,4.48e+00,3.40e+00,
429,4.28e+00,1.88e+00,
430,4.40e+00,2.88e+00,
431,4.24e+00,3.40e+00,
432,4.32e+00,3.40e+00,
433,4.16e+00,1.88e+00,
434,4.24e+00,3.40e+00,
435,4.04e+00,2.32e+00,
436,4.16e+00,1.80e+00,
437,3.92e+00,3.36e+00,
438,4.04e+00,3.40e+00,
439,3.88e+00,1.84e+00,
440,3.96e+00,2.64e+00,
441,3.76e+00,3.40e+00,
442,3.80e+00,3.36e+00,
443,3.64e+00,1.76e+00,
444,3.72e+00,3.40e+00,
445,3.52e+00,2.28e+00,
446,3.60e+00,1.72e+00,
447,3.40e+00,3.32e+00,
448,3.48e+00,3.32e+00,
449,3.32e+00,1.68e+00,
450,3.44e+00,1.92e+00,
451,3.20e+00,3.32e+00,
452,3.24e+00,3.32e+00,
453,3.12e+00,1.60e+00,
454,3.12e+00,3.32e+00,
455,2.96e+00,2.16e+00,
456,3.00e+00,1.56e+00,
457,2.80e+00,3.20e+00,
458,2.88e+00,3.28e+00,
459,2.68e+00,1.52e+00,
460,2.76e+00,1.52e+00,
461,2.56e+00,3.28e+00,
462,2.64e+00,3.20e+00,
463,2.44e+00,1.48e+00,
464,2.52e+00,3.20e+00,
465,2.32e+00,2.04e+00,
466,2.40e+00,1.44e+00,
467,2.20e+00,3.08e+00,
468,2.28e+00,3.20e+00,
469,2.08e+00,1.48e+00,
470,2.16e+00,1.32e+00,
471,1.96e+00,3.16e+00,
472,2.04e+00,3.04e+00,
473,1.84e+00,1.24e+00,
474,1.92e+00,3.16e+00,
475,1.72e+00,1.80e+00,
476,1.80e+00,1.20e+00,
477,1.60e+00,2.88e+00,
478,1.68e+00,3.08e+00,
479,1.48e+00,1.28e+00,
480,1.56e+00,1.16e+00,
481,1.36e+00,3.04e+00,
482,1.44e+00,2.80e+00,
483,1.24e+00,1.12e+00,
484,1.32e+00,3.04e+00,
485,1.12e+00,1.72e+00,
486,1.20e+00,1.08e+00,
487,1.08e+00,2.72e+00,
488,1.16e+00,2.96e+00,
489,9.60e-01,1.16e+00,
490,1.04e+00,1.04e+00,
491,8.80e-01,2.92e+00,
492,9.60e-01,2.40e+00,
493,7.60e-01,9.60e-01,
494,8.80e-01,2.84e+00,
495,7.20e-01,1.52e+00,
496,8.00e-01,9.20e-01,
497,6.00e-01,2.56e+00,
498,6.80e-01,2.80e+00,
499,5.20e-01,1.04e+00,
500,6.00e-01,8.40e-01,
501,4.00e-01,2.80e+00,
502,5.60e-01,2.24e+00,
503,4.00e-01,8.40e-01,
504,4.80e-01,2.72e+00,
505,3.60e-01,1.40e+00,
506,4.40e-01,8.00e-01,
507,2.80e-01,2.36e+00,
508,4.00e-01,2.68e+00,
509,2.40e-01,9.60e-01,
510,2.40e-01,7.60e-01,
511,3.60e-01,2.68e+00,
512,3.20e-01,2.08e+00,
513,1.60e-01,7.20e-01,
514,2.80e-01,2.68e+00,
515,1.60e-01,1.32e+00,
516,2.00e-01,7.20e-01,
517,1.20e-01,2.24e+00,
518,8.00e-02,2.60e+00,
519,2.00e-01,9.20e-01,
520,1.20e-01,7.20e-01,
521,2.00e-01,2.56e+00,
522,1.20e-01,2.16e+00,
523,2.00e-01,6.80e-01,
524,1.20e-01,9.20e-01,
525,2.00e-01,2.56e+00,
526,2.00e-01,6.80e-01,
527,1.20e-01,2.04e+00,
528,1.20e-01,2.52e+00,
529,2.40e-01,9.20e-01,
530,1.20e-01,6.80e-01,
531,2.80e-01,2.60e+00,
532,1.60e-01,2.48e+00,
533,3.20e-01,6.80e-01,
534,1.60e-01,7.60e-01,
535,3.20e-01,2.60e+00,
536,2.40e-01,7.20e-01,
537,3.60e-01,1.96e+00,
538,2.80e-01,2.60e+00,
539,4.00e-01,1.04e+00,
540,2.80e-01,6.80e-01,
541,4.40e-01,2.60e+00,
542,3.60e-01,2.56e+00,
543,5.60e-01,8.00e-01,
544,4.40e-01,7.20e-01,
545,6.00e-01,2.64e+00,
546,5.20e-01,7.20e-01,
547,6.80e-01,1.96e+00,
548,6.00e-01,2.68e+00,
549,8.00e-01,1.12e+00,
550,6.40e-01,7.60e-01,
551,8.00e-01,2.56e+00,
552,7.60e-01,2.72e+00,
553,9.20e-01,8.80e-01,
554,8.40e-01,8.00e-01,
555,1.04e+00,2.72e+00,
556,9.60e-01,8.40e-01,
557,1.08e+00,1.88e+00,
558,1.00e+00,2.80e+00,
559,1.20e+00,1.36e+00,
560,1.08e+00,8.80e-01,
561,1.28e+00,2.60e+00,
562,1.24e+00,2.80e+00,
563,1.40e+00,9.60e-01,
564,1.36e+00,9.20e-01,
565,1.52e+00,2.84e+00,
566,1.44e+00,2.24e+00,
567,1.64e+00,9.20e-01,
568,1.56e+00,2.92e+00,
569,1.76e+00,1.64e+00,
570,1.68e+00,1.04e+00,
571,1.88e+00,2.72e+00,
572,1.76e+00,2.92e+00,
573,2.00e+00,1.24e+00,
574,1.92e+00,1.04e+00,
575,2.12e+00,2.96e+00,
576,2.04e+00,2.92e+00,
577,2.24e+00,1.08e+00,
578,2.16e+00,2.96e+00,
579,2.36e+00,1.92e+00,
580,2.28e+00,1.12e+00,
581,2.48e+00,2.72e+00,
582,2.44e+00,3.04e+00,
583,2.60e+00,1.44e+00,
584,2.56e+00,1.20e+00,
585,2.76e+00,3.04e+00,
586,2.68e+00,3.04e+00,
587,2.88e+00,1.28e+00,
588,2.80e+00,2.24e+00,
589,3.00e+00,3.08e+00,
590,2.92e+00,1.32e+00,
591,3.12e+00,2.76e+00,
592,3.04e+00,3.08e+00,
593,3.24e+00,1.68e+00,
594,3.16e+00,1.40e+00,
595,3.36e+00,3.08e+00,
596,3.28e+00,3.16e+00,
597,3.48e+00,1.48e+00,
598,3.40e+00,2.44e+00,
599,3.60e+00,3.16e+00,
600,3.48e+00,1.44e+00,
601,3.72e+00,2.84e+00,
602,3.64e+00,3.20e+00,
603,3.80e+00,1.96e+00,
604,3.72e+00,1.52e+00,
605,3.92e+00,3.12e+00,
606,3.80e+00,3.20e+00,
607,4.00e+00,1.56e+00,
608,3.92e+00,2.40e+00,
609,4.08e+00,3.20e+00,
610,4.04e+00,3.20e+00,
611,4.20e+00,1.64e+00,
612,4.12e+00,3.28e+00,
613,4.32e+00,2.28e+00,
614,4.24e+00,1.68e+00,
615,4.36e+00,3.20e+00,
616,4.28e+00,3.28e+00,
617,4.44e+00,1.76e+00,
618,4.36e+00,2.48e+00,
619,4.56e+00,3.28e+00,
620,4.48e+00,3.32e+00,
621,4.60e+00,1.80e+00,
622,4.52e+00,3.32e+00,
623,4.68e+00,2.44e+00,
624,4.60e+00,1.88e+00,
625,4.76e+00,3.28e+00,
626,4.64e+00,3.32e+00,
627,4.80e+00,1.88e+00,
628,4.72e+00,2.00e+00,
629,4.80e+00,3.32e+00,
630,4.72e+00,3.32e+00,
631,4.88e+00,1.92e+00,
632,4.76e+00,3.40e+00,
633,4.88e+00,2.76e+00,
634,4.84e+00,2.00e+00,
635,4.92e+00,3.32e+00,
636,4.84e+00,3.40e+00,
637,4.92e+00,2.00e+00,
638,4.92e+00,2.00e+00,
639,4.76e+00,3.40e+00,
640,4.84e+00,3.40e+00,
641,4.96e+00,2.00e+00,
642,4.88e+00,3.12e+00,
643,4.96e+00,3.40e+00,
644,4.96e+00,2.00e+00,
645,4.84e+00,3.32e+00,
646,4.92e+00,3.44e+00,
647,4.84e+00,2.12e+00,
648,4.84e+00,2.00e+00,
649,4.92e+00,3.40e+00,
650,4.92e+00,3.44e+00,
651,4.76e+00,1.96e+00,
652,4.76e+00,3.16e+00,
653,4.92e+00,3.44e+00,
654,4.84e+00,2.00e+00,
655,4.72e+00,3.40e+00,
656,4.72e+00,3.44e+00,
657,4.80e+00,2.16e+00,
658,4.80e+00,2.04e+00,
659,4.60e+00,3.44e+00,
660,4.72e+00,3.44e+00,
661,4.60e+00,2.00e+00,
662,4.68e+00,3.12e+00,
663,4.52e+00,3.44e+00,
664,4.60e+00,3.40e+00,
665,4.44e+00,1.96e+00,
666,4.56e+00,3.44e+00,
667,4.36e+00,2.24e+00,
668,4.52e+00,1.96e+00,
669,4.28e+00,3.44e+00,
670,4.24e+00,3.44e+00,
671,4.40e+00,1.92e+00,
672,4.32e+00,2.96e+00,
673,4.12e+00,3.44e+00,
674,4.24e+00,3.36e+00,
675,4.04e+00,1.92e+00,
676,4.12e+00,3.40e+00,
677,3.92e+00,2.16e+00,
678,4.04e+00,1.88e+00,
679,3.84e+00,3.40e+00,
680,3.96e+00,3.44e+00,
681,3.76e+00,1.80e+00,
682,3.80e+00,2.76e+00,
683,3.64e+00,3.44e+00,
684,3.72e+00,3.36e+00,
685,3.52e+00,1.72e+00,
686,3.60e+00,3.40e+00,
687,3.40e+00,2.08e+00,
688,3.48e+00,1.68e+00,
689,3.28e+00,3.32e+00,
690,3.36e+00,3.40e+00,
691,3.16e+00,1.64e+00,
692,3.24e+00,2.60e+00,
693,3.04e+00,3.32e+00,
694,3.12e+00,3.04e+00,
695,2.92e+00,1.56e+00,
696,3.00e+00,3.32e+00,
697,2.80e+00,2.00e+00,
698,2.88e+00,1.48e+00,
699,2.68e+00,3.28e+00,
700,2.76e+00,3.28e+00,
701,2.56e+00,1.48e+00,
702,2.64e+00,2.04e+00,
703,2.44e+00,3.24e+00,
704,2.48e+00,1.44e+00,
705,2.32e+00,2.84e+00,
706,2.36e+00,3.20e+00,
707,2.20e+00,1.80e+00,
708,2.24e+00,1.36e+00,
709,2.04e+00,3.12e+00,
710,2.12e+00,3.20e+00,
711,1.92e+00,1.32e+00,
712,2.04e+00,1.28e+00,
713,1.84e+00,3.16e+00,
714,1.88e+00,1.24e+00,
715,1.68e+00,2.60e+00,
716,1.76e+00,3.08e+00,
717,1.52e+00,1.68e+00,
718,1.60e+00,1.20e+00,
719,1.48e+00,2.92e+00,
720,1.52e+00,3.08e+00,
721,1.36e+00,1.20e+00,
722,1.44e+00,1.16e+00,
723,1.24e+00,3.04e+00,
724,1.32e+00,1.08e+00,
725,1.12e+00,2.32e+00,
726,1.20e+00,2.96e+00,
727,1.00e+00,1.52e+00,
728,1.08e+00,1.04e+00,
729,9.60e-01,2.80e+00,
730,1.04e+00,2.88e+00,
731,8.40e-01,1.08e+00,
732,9.20e-01,1.00e+00,
733,7.60e-01,2.84e+00,
734,8.40e-01,2.00e+00,
735,6.40e-01,8.80e-01,
736,7.20e-01,2.84e+00,
737,6.00e-01,1.40e+00,
738,6.80e-01,9.60e-01,
739,5.20e-01,2.68e+00,
740,6.00e-01,2.80e+00,
741,4.80e-01,9.60e-01,
742,5.60e-01,8.40e-01,
743,4.00e-01,2.76e+00,
744,5.20e-01,1.88e+00,
745,2.80e-01,8.40e-01,
746,4.40e-01,2.72e+00,
747,2.80e-01,1.32e+00,
748,3.60e-01,8.00e-01,
749,2.40e-01,2.52e+00,
750,2.40e-01,2.68e+00,
751,3.20e-01,9.20e-01,
752,1.20e-01,8.00e-01,
753,2.80e-01,2.68e+00,
754,2.80e-01,1.88e+00,
755,1.20e-01,7.60e-01,
756,2.00e-01,2.60e+00,
757,1.20e-01,1.20e+00,
758,1.20e-01,7.20e-01,
759,2.00e-01,2.36e+00,
760,2.00e-01,2.56e+00,
761,8.00e-02,8.40e-01,
762,2.00e-01,6.80e-01,
763,4.00e-02,2.56e+00,
764,2.00e-01,1.76e+00,
765,1.20e-01,6.80e-01,
766,2.00e-01,2.56e+00,
767,1.20e-01,1.24e+00,
768,1.20e-01,6.40e-01,
769,2.00e-01,2.24e+00,
770,2.80e-01,2.56e+00,
771,1.20e-01,8.40e-01,
772,2.80e-01,6.80e-01,
773,1.20e-01,2.60e+00,
774,3.20e-01,2.32e+00,
775,2.00e-01,7.20e-01,
776,2.40e-01,1.32e+00,
777,4.00e-01,2.60e+00,
778,2.80e-01,7.20e-01,
779,4.40e-01,2.20e+00,
780,3.60e-01,2.60e+00,
781,5.20e-01,9.60e-01,
782,4.00e-01,7.20e-01,
783,5.60e-01,2.60e+00,
784,4.80e-01,2.56e+00,
785,6.40e-01,7.20e-01,
786,5.20e-01,8.40e-01,
787,6.80e-01,2.64e+00,
788,6.00e-01,8.00e-01,
789,7.20e-01,2.12e+00,
790,7.20e-01,2.64e+00,
791,8.40e-01,1.08e+00,
792,7.60e-01,8.00e-01,
793,9.20e-01,2.68e+00,
794,8.40e-01,2.72e+00,
795,1.04e+00,8.40e-01,
796,9.60e-01,8.00e-01,
797,1.16e+00,2.76e+00,
798,1.08e+00,8.40e-01,
799,1.20e+00,2.20e+00,
800,1.16e+00,2.76e+00,
801,1.32e+00,1.28e+00,
802,1.24e+00,8.40e-01,
803,1.44e+00,2.72e+00,
804,1.36e+00,2.84e+00,
805,1.56e+00,1.00e+00,
806,1.48e+00,9.20e-01,
807,1.68e+00,2.92e+00,
808,1.60e+00,2.24e+00,
809,1.80e+00,1.04e+00,
810,1.72e+00,2.92e+00,
811,1.92e+00,1.52e+00,
812,1.84e+00,1.00e+00,
813,2.04e+00,2.76e+00,
814,1.96e+00,2.92e+00,
815,2.16e+00,1.16e+00,
816,2.08e+00,1.08e+00,
817,2.28e+00,3.04e+00,
818,2.20e+00,2.92e+00,
819,2.40e+00,1.16e+00,
820,2.32e+00,3.04e+00,
821,2.52e+00,1.92e+00,
822,2.44e+00,1.20e+00,
823,2.64e+00,2.84e+00,
824,2.56e+00,3.04e+00,
825,2.76e+00,1.40e+00,
826,2.68e+00,1.28e+00,
827,2.88e+00,3.04e+00,
828,2.80e+00,3.08e+00,
829,3.00e+00,1.32e+00,
830,2.92e+00,3.08e+00,
831,3.12e+00,2.16e+00,
832,3.04e+00,1.36e+00,
833,3.24e+00,2.88e+00,
834,3.16e+00,3.16e+00,
835,3.36e+00,1.64e+00,
836,3.28e+00,1.36e+00,
837,3.48e+00,3.12e+00,
838,3.40e+00,3.16e+00,
839,3.60e+00,1.44e+00,
840,3.52e+00,2.44e+00,
841,3.72e+00,3.20e+00,
842,3.64e+00,1.52e+00,
843,3.84e+00,3.04e+00,
844,3.76e+00,3.20e+00,
845,3.92e+00,1.88e+00,
846,3.88e+00,1.56e+00,
847,4.04e+00,3.20e+00,
848,3.92e+00,3.20e+00,
849,4.16e+00,1.64e+00,
850,4.04e+00,2.56e+00,
851,4.20e+00,3.28e+00,
852,4.16e+00,3.20e+00,
853,4.32e+00,1.68e+00,
854,4.24e+00,3.28e+00,
855,4.36e+00,2.16e+00,
856,4.28e+00,1.76e+00,
857,4.48e+00,3.24e+00,
858,4.36e+00,3.32e+00,
859,4.56e+00,1.80e+00,
860,4.48e+00,2.76e+00,
861,4.64e+00,3.32e+00,
862,4.52e+00,3.32e+00,
863,4.68e+00,1.88e+00,
864,4.60e+00,3.32e+00,
865,4.72e+00,2.40e+00,
866,4.60e+00,1.88e+00,
867,4.80e+00,3.32e+00,
868,4.84e+00,3.32e+00,
869,4.64e+00,1.92e+00,
870,4.76e+00,2.84e+00,
