Code/Control_Methods_Testing/Bang_Bang_Control_Testing/Pressure_Data3/NewFile2.csv

X,CH1,CH2,Start,Increment,
Sequence,Volt,Volt,-2.989620e+01,5.000000e-02
0,6.40e-01,4.80e-01,
1,8.00e-01,6.40e-01,
2,6.40e-01,4.80e-01,
3,7.20e-01,6.40e-01,
4,6.40e-01,6.40e-01,
5,7.20e-01,4.80e-01,
6,6.40e-01,6.40e-01,
7,7.20e-01,4.80e-01,
8,6.40e-01,6.40e-01,
9,7.20e-01,4.80e-01,
10,6.40e-01,4.80e-01,
11,6.40e-01,6.40e-01,
12,6.40e-01,6.40e-01,
13,7.20e-01,4.80e-01,
14,6.40e-01,4.80e-01,
15,7.20e-01,6.40e-01,
16,6.40e-01,4.80e-01,
17,7.20e-01,6.40e-01,
18,6.40e-01,4.80e-01,
19,7.20e-01,6.40e-01,
20,6.40e-01,4.80e-01,
21,8.00e-01,6.40e-01,
22,6.40e-01,6.40e-01,
23,7.20e-01,4.80e-01,
24,6.40e-01,4.80e-01,
25,7.20e-01,6.40e-01,
26,6.40e-01,4.80e-01,
27,7.20e-01,6.40e-01,
28,6.40e-01,4.80e-01,
29,7.20e-01,6.40e-01,
30,7.20e-01,6.40e-01,
31,6.40e-01,4.80e-01,
32,6.40e-01,6.40e-01,
33,7.20e-01,4.80e-01,
34,6.40e-01,6.40e-01,
35,7.20e-01,4.80e-01,
36,7.20e-01,6.40e-01,
37,6.40e-01,4.80e-01,
38,6.40e-01,6.40e-01,
39,7.20e-01,4.80e-01,
40,6.40e-01,6.40e-01,
41,8.00e-01,4.80e-01,
42,6.40e-01,6.40e-01,
43,7.20e-01,4.80e-01,
44,6.40e-01,4.80e-01,
45,3.76e+00,1.12e+00,
46,3.76e+00,1.04e+00,
47,3.60e+00,1.52e+00,
48,3.76e+00,1.52e+00,
49,3.68e+00,2.00e+00,
50,3.68e+00,1.92e+00,
51,3.76e+00,2.32e+00,
52,3.68e+00,2.24e+00,
53,3.76e+00,2.56e+00,
54,3.76e+00,2.48e+00,
55,3.60e+00,2.80e+00,
56,3.76e+00,2.72e+00,
57,3.68e+00,3.04e+00,
58,3.76e+00,3.04e+00,
59,3.60e+00,3.36e+00,
60,3.76e+00,3.20e+00,
61,3.68e+00,3.52e+00,
62,3.76e+00,3.36e+00,
63,3.60e+00,3.60e+00,
64,3.76e+00,3.52e+00,
65,3.60e+00,3.76e+00,
66,3.76e+00,3.76e+00,
67,3.60e+00,3.60e+00,
68,3.60e+00,3.68e+00,
69,3.76e+00,3.84e+00,
70,3.60e+00,3.76e+00,
71,3.76e+00,3.84e+00,
72,3.76e+00,3.76e+00,
73,3.60e+00,3.92e+00,
74,3.76e+00,3.92e+00,
75,3.60e+00,3.76e+00,
76,3.60e+00,3.76e+00,
77,3.76e+00,3.92e+00,
78,3.68e+00,3.92e+00,
79,3.76e+00,3.68e+00,
80,3.60e+00,3.84e+00,
81,3.76e+00,3.28e+00,
82,3.76e+00,3.36e+00,
83,3.60e+00,3.68e+00,
84,3.68e+00,3.60e+00,
85,3.76e+00,3.84e+00,
86,3.68e+00,3.68e+00,
87,3.76e+00,3.92e+00,
88,3.76e+00,3.76e+00,
89,3.60e+00,3.92e+00,
90,3.60e+00,3.92e+00,
91,3.76e+00,3.76e+00,
92,3.76e+00,3.92e+00,
93,3.60e+00,3.52e+00,
94,3.76e+00,3.60e+00,
95,3.60e+00,3.28e+00,
96,3.76e+00,3.44e+00,
97,3.60e+00,3.68e+00,
98,3.76e+00,3.60e+00,
99,3.60e+00,3.84e+00,
100,3.76e+00,3.68e+00,
101,3.60e+00,3.92e+00,
102,3.68e+00,3.92e+00,
103,3.76e+00,3.76e+00,
104,3.60e+00,3.92e+00,
105,3.76e+00,3.84e+00,
106,3.76e+00,3.92e+00,
107,3.60e+00,3.44e+00,
108,3.76e+00,3.28e+00,
109,3.60e+00,3.60e+00,
110,3.68e+00,3.44e+00,
111,3.76e+00,3.76e+00,
112,3.68e+00,3.60e+00,
113,3.76e+00,3.84e+00,
114,3.76e+00,3.76e+00,
115,3.60e+00,3.92e+00,
116,3.60e+00,3.92e+00,
117,3.76e+00,3.76e+00,
118,3.60e+00,3.92e+00,
119,3.76e+00,3.68e+00,
120,3.76e+00,3.84e+00,
121,3.60e+00,3.36e+00,
122,3.76e+00,3.36e+00,
123,3.60e+00,3.68e+00,
124,3.68e+00,3.60e+00,
125,3.76e+00,3.84e+00,
126,3.76e+00,3.68e+00,
127,3.60e+00,3.92e+00,
128,3.76e+00,3.92e+00,
129,3.60e+00,3.76e+00,
130,3.60e+00,3.92e+00,
131,3.76e+00,3.84e+00,
132,3.60e+00,3.92e+00,
133,3.76e+00,3.44e+00,
134,3.76e+00,3.36e+00,
135,3.60e+00,3.60e+00,
136,3.76e+00,3.52e+00,
137,3.60e+00,3.76e+00,
138,3.76e+00,3.68e+00,
139,3.60e+00,3.84e+00,
140,3.60e+00,3.76e+00,
141,3.76e+00,3.92e+00,
142,3.76e+00,3.76e+00,
143,3.60e+00,3.92e+00,
144,3.68e+00,3.92e+00,
145,6.40e-01,3.52e+00,
146,6.40e-01,3.60e+00,
147,7.20e-01,3.20e+00,
148,6.40e-01,3.20e+00,
149,8.00e-01,2.80e+00,
150,6.40e-01,2.88e+00,
151,7.20e-01,2.56e+00,
152,6.40e-01,2.64e+00,
153,7.20e-01,2.32e+00,
154,6.40e-01,2.40e+00,
155,7.20e-01,2.16e+00,
156,6.40e-01,2.24e+00,
157,7.20e-01,2.00e+00,
158,6.40e-01,2.08e+00,
159,7.20e-01,1.84e+00,
160,6.40e-01,1.92e+00,
161,8.00e-01,1.68e+00,
162,6.40e-01,1.76e+00,
163,7.20e-01,1.52e+00,
164,6.40e-01,1.60e+00,
165,7.20e-01,1.36e+00,
166,6.40e-01,1.52e+00,
167,7.20e-01,1.28e+00,
168,6.40e-01,1.44e+00,
169,7.20e-01,1.20e+00,
170,6.40e-01,1.28e+00,
171,7.20e-01,1.04e+00,
172,6.40e-01,1.20e+00,
173,7.20e-01,9.60e-01,
174,6.40e-01,1.12e+00,
175,7.20e-01,8.80e-01,
176,6.40e-01,1.04e+00,
177,7.20e-01,8.00e-01,
178,6.40e-01,8.00e-01,
179,8.00e-01,8.80e-01,
180,6.40e-01,7.20e-01,
181,7.20e-01,8.80e-01,
182,6.40e-01,7.20e-01,
183,8.00e-01,5.60e-01,
184,6.40e-01,7.20e-01,
185,8.00e-01,5.60e-01,
186,6.40e-01,6.40e-01,
187,7.20e-01,5.60e-01,
188,6.40e-01,6.40e-01,
189,7.20e-01,4.80e-01,
190,6.40e-01,4.80e-01,
191,7.20e-01,6.40e-01,
192,6.40e-01,6.40e-01,
193,7.20e-01,4.80e-01,
194,6.40e-01,6.40e-01,
195,8.00e-01,4.80e-01,
196,6.40e-01,6.40e-01,
197,7.20e-01,4.80e-01,
198,6.40e-01,6.40e-01,
199,8.00e-01,4.80e-01,
200,6.40e-01,6.40e-01,
201,8.00e-01,4.80e-01,
202,6.40e-01,6.40e-01,
203,7.20e-01,4.80e-01,
204,6.40e-01,4.80e-01,
205,7.20e-01,6.40e-01,
206,6.40e-01,6.40e-01,
207,8.00e-01,4.80e-01,
208,6.40e-01,6.40e-01,
209,7.20e-01,4.80e-01,
210,6.40e-01,6.40e-01,
211,7.20e-01,4.80e-01,
212,6.40e-01,6.40e-01,
213,7.20e-01,4.80e-01,
214,6.40e-01,6.40e-01,
215,7.20e-01,4.80e-01,
216,6.40e-01,6.40e-01,
217,8.00e-01,4.80e-01,
218,6.40e-01,6.40e-01,
219,7.20e-01,4.80e-01,
220,6.40e-01,4.80e-01,
221,8.00e-01,6.40e-01,
222,6.40e-01,6.40e-01,
223,7.20e-01,4.80e-01,
224,6.40e-01,6.40e-01,
225,8.00e-01,4.80e-01,
226,6.40e-01,6.40e-01,
227,7.20e-01,4.80e-01,
228,6.40e-01,6.40e-01,
229,7.20e-01,4.80e-01,
230,6.40e-01,6.40e-01,
231,7.20e-01,4.80e-01,
232,6.40e-01,6.40e-01,
233,8.00e-01,4.80e-01,
234,6.40e-01,6.40e-01,
235,8.00e-01,4.80e-01,
236,6.40e-01,4.80e-01,
237,7.20e-01,6.40e-01,
238,6.40e-01,6.40e-01,
239,7.20e-01,4.80e-01,
240,6.40e-01,6.40e-01,
241,7.20e-01,4.80e-01,
242,6.40e-01,6.40e-01,
243,7.20e-01,4.80e-01,
244,6.40e-01,4.80e-01,
245,3.76e+00,1.12e+00,
246,3.76e+00,1.04e+00,
247,3.60e+00,1.60e+00,
248,3.60e+00,1.44e+00,
249,3.76e+00,1.92e+00,
250,3.68e+00,1.92e+00,
251,3.76e+00,2.32e+00,
252,3.76e+00,2.24e+00,
253,3.60e+00,2.56e+00,
254,3.76e+00,2.48e+00,
255,3.60e+00,2.80e+00,
256,3.76e+00,2.80e+00,
257,3.60e+00,3.12e+00,
258,3.76e+00,3.04e+00,
259,3.60e+00,3.36e+00,
260,3.68e+00,3.20e+00,
261,3.76e+00,3.52e+00,
262,3.68e+00,3.36e+00,
263,3.76e+00,3.68e+00,
264,3.60e+00,3.52e+00,
265,3.76e+00,3.76e+00,
266,3.76e+00,3.60e+00,
267,3.60e+00,3.84e+00,
268,3.76e+00,3.84e+00,
269,3.60e+00,3.68e+00,
270,3.68e+00,3.84e+00,
271,3.76e+00,3.76e+00,
272,3.76e+00,3.76e+00,
273,3.60e+00,3.92e+00,
274,3.76e+00,3.92e+00,
275,3.60e+00,3.76e+00,
276,3.68e+00,3.76e+00,
277,3.76e+00,3.92e+00,
278,3.76e+00,3.92e+00,
279,3.60e+00,3.68e+00,
280,3.76e+00,3.84e+00,
281,3.60e+00,3.28e+00,
282,3.76e+00,3.36e+00,
283,3.60e+00,3.68e+00,
284,3.76e+00,3.60e+00,
285,3.60e+00,3.84e+00,
286,3.68e+00,3.68e+00,
287,3.76e+00,3.84e+00,
288,3.68e+00,3.92e+00,
289,3.76e+00,3.76e+00,
290,3.60e+00,3.76e+00,
291,3.76e+00,3.92e+00,
292,3.60e+00,3.92e+00,
293,3.76e+00,3.52e+00,
294,3.76e+00,3.60e+00,
295,3.60e+00,3.28e+00,
296,3.68e+00,3.44e+00,
297,3.76e+00,3.68e+00,
298,3.76e+00,3.60e+00,
299,3.60e+00,3.84e+00,
300,3.60e+00,3.68e+00,
301,3.76e+00,3.92e+00,
302,3.60e+00,3.92e+00,
303,3.76e+00,3.76e+00,
304,3.76e+00,3.92e+00,
305,3.60e+00,3.84e+00,
306,3.68e+00,3.92e+00,
307,3.76e+00,3.44e+00,
308,3.60e+00,3.36e+00,
309,3.76e+00,3.60e+00,
310,3.76e+00,3.52e+00,
311,3.68e+00,3.76e+00,
312,3.60e+00,3.68e+00,
313,3.76e+00,3.84e+00,
314,3.76e+00,3.76e+00,
315,3.60e+00,3.92e+00,
316,3.76e+00,3.92e+00,
317,3.60e+00,3.76e+00,
318,3.76e+00,3.92e+00,
319,3.60e+00,3.52e+00,
320,3.76e+00,3.68e+00,
321,3.60e+00,3.36e+00,
322,3.76e+00,3.44e+00,
323,3.60e+00,3.76e+00,
324,3.76e+00,3.60e+00,
325,3.60e+00,3.84e+00,
326,3.76e+00,3.76e+00,
327,3.60e+00,3.92e+00,
328,3.76e+00,3.92e+00,
329,3.60e+00,3.76e+00,
330,3.76e+00,3.92e+00,
331,3.60e+00,3.68e+00,
332,3.76e+00,3.76e+00,
333,3.60e+00,3.36e+00,
334,3.68e+00,3.36e+00,
335,3.76e+00,3.68e+00,
336,3.76e+00,3.60e+00,
337,3.60e+00,3.84e+00,
338,3.76e+00,3.76e+00,
339,3.60e+00,3.92e+00,
340,3.68e+00,3.92e+00,
341,3.76e+00,3.76e+00,
342,3.76e+00,3.92e+00,
343,3.60e+00,3.76e+00,
344,3.76e+00,3.84e+00,
345,6.40e-01,3.36e+00,
346,6.40e-01,3.52e+00,
347,8.00e-01,3.04e+00,
348,6.40e-01,3.12e+00,
349,8.00e-01,2.72e+00,
350,6.40e-01,2.80e+00,
351,7.20e-01,2.48e+00,
352,6.40e-01,2.56e+00,
353,8.00e-01,2.24e+00,
354,6.40e-01,2.40e+00,
355,7.20e-01,2.08e+00,
356,6.40e-01,2.24e+00,
357,7.20e-01,1.92e+00,
358,6.40e-01,2.08e+00,
359,8.00e-01,1.84e+00,
360,6.40e-01,1.84e+00,
361,7.20e-01,1.60e+00,
362,6.40e-01,1.68e+00,
363,8.00e-01,1.52e+00,
364,6.40e-01,1.60e+00,
365,7.20e-01,1.36e+00,
366,6.40e-01,1.44e+00,
367,8.00e-01,1.28e+00,
368,6.40e-01,1.36e+00,
369,7.20e-01,1.12e+00,
370,6.40e-01,1.28e+00,
371,7.20e-01,1.04e+00,
372,6.40e-01,1.12e+00,
373,7.20e-01,9.60e-01,
374,6.40e-01,1.04e+00,
375,8.00e-01,8.80e-01,
376,6.40e-01,9.60e-01,
377,8.00e-01,8.00e-01,
378,6.40e-01,9.60e-01,
379,8.00e-01,7.20e-01,
380,6.40e-01,8.80e-01,
381,7.20e-01,6.40e-01,
382,6.40e-01,7.20e-01,
383,7.20e-01,5.60e-01,
384,6.40e-01,5.60e-01,
385,8.00e-01,7.20e-01,
386,6.40e-01,6.40e-01,
387,8.00e-01,4.80e-01,
388,6.40e-01,4.80e-01,
389,7.20e-01,6.40e-01,
390,6.40e-01,6.40e-01,
391,8.00e-01,5.60e-01,
392,6.40e-01,6.40e-01,
393,8.00e-01,4.80e-01,
394,6.40e-01,6.40e-01,
395,7.20e-01,4.80e-01,
396,6.40e-01,6.40e-01,
397,8.00e-01,4.80e-01,
398,6.40e-01,6.40e-01,
399,8.00e-01,4.80e-01,
400,6.40e-01,6.40e-01,
401,7.20e-01,4.80e-01,
402,6.40e-01,6.40e-01,
403,7.20e-01,4.80e-01,
404,6.40e-01,4.80e-01,
405,7.20e-01,6.40e-01,
406,6.40e-01,6.40e-01,
407,8.00e-01,4.80e-01,
408,6.40e-01,4.80e-01,
409,8.00e-01,6.40e-01,
410,6.40e-01,4.80e-01,
411,7.20e-01,6.40e-01,
412,6.40e-01,4.80e-01,
413,7.20e-01,6.40e-01,
414,6.40e-01,4.80e-01,
415,7.20e-01,6.40e-01,
416,6.40e-01,4.80e-01,
417,7.20e-01,6.40e-01,
418,6.40e-01,6.40e-01,
419,7.20e-01,4.80e-01,
420,6.40e-01,6.40e-01,
421,8.00e-01,4.80e-01,
422,6.40e-01,6.40e-01,
423,7.20e-01,4.80e-01,
424,6.40e-01,6.40e-01,
425,7.20e-01,4.80e-01,
426,6.40e-01,4.80e-01,
427,8.00e-01,6.40e-01,
428,6.40e-01,6.40e-01,
429,7.20e-01,4.80e-01,
430,6.40e-01,6.40e-01,
431,7.20e-01,4.80e-01,
432,6.40e-01,6.40e-01,
433,7.20e-01,4.80e-01,
434,6.40e-01,6.40e-01,
435,8.00e-01,4.80e-01,
436,6.40e-01,6.40e-01,
437,8.00e-01,4.80e-01,
438,6.40e-01,6.40e-01,
439,7.20e-01,4.80e-01,
440,6.40e-01,4.80e-01,
441,7.20e-01,6.40e-01,
442,6.40e-01,6.40e-01,
443,7.20e-01,4.80e-01,
444,6.40e-01,4.80e-01,
445,3.76e+00,1.12e+00,
446,3.76e+00,1.04e+00,
447,3.60e+00,1.52e+00,
448,3.60e+00,1.44e+00,
449,3.76e+00,1.92e+00,
450,3.76e+00,1.92e+00,
451,3.60e+00,2.32e+00,
452,3.68e+00,2.16e+00,
453,3.76e+00,2.48e+00,
454,3.60e+00,2.48e+00,
455,3.76e+00,2.80e+00,
456,3.76e+00,2.64e+00,
457,3.60e+00,3.04e+00,
458,3.76e+00,3.04e+00,
459,3.60e+00,3.36e+00,
460,3.60e+00,3.20e+00,
461,3.76e+00,3.52e+00,
462,3.68e+00,3.36e+00,
463,3.76e+00,3.60e+00,
464,3.60e+00,3.52e+00,
465,3.76e+00,3.76e+00,
466,3.76e+00,3.60e+00,
467,3.60e+00,3.84e+00,
468,3.68e+00,3.84e+00,
469,3.76e+00,3.68e+00,
470,3.76e+00,3.84e+00,
471,3.60e+00,3.76e+00,
472,3.76e+00,3.76e+00,
473,3.60e+00,3.92e+00,
474,3.76e+00,3.92e+00,
475,3.60e+00,3.76e+00,
476,3.76e+00,3.76e+00,
477,3.60e+00,3.92e+00,
478,3.76e+00,3.92e+00,
479,3.60e+00,3.68e+00,
480,3.76e+00,3.84e+00,
481,3.60e+00,3.28e+00,
482,3.76e+00,3.36e+00,
483,3.60e+00,3.68e+00,
484,3.76e+00,3.52e+00,
485,3.60e+00,3.76e+00,
486,3.76e+00,3.84e+00,
487,3.60e+00,3.68e+00,
488,3.76e+00,3.76e+00,
489,3.60e+00,3.92e+00,
490,3.76e+00,3.76e+00,
491,3.60e+00,3.92e+00,
492,3.60e+00,3.92e+00,
493,3.76e+00,3.52e+00,
494,3.76e+00,3.68e+00,
495,3.60e+00,3.28e+00,
496,3.60e+00,3.44e+00,
497,3.76e+00,3.68e+00,
498,3.76e+00,3.60e+00,
499,3.60e+00,3.84e+00,
500,3.60e+00,3.68e+00,
501,3.76e+00,3.92e+00,
502,3.76e+00,3.92e+00,
503,3.60e+00,3.76e+00,
504,3.76e+00,3.84e+00,
505,3.68e+00,3.92e+00,
506,3.76e+00,3.92e+00,
507,3.60e+00,3.44e+00,
508,3.60e+00,3.28e+00,
509,3.76e+00,3.60e+00,
510,3.76e+00,3.44e+00,
511,3.60e+00,3.76e+00,
512,3.60e+00,3.68e+00,
513,3.76e+00,3.84e+00,
514,3.76e+00,3.76e+00,
515,3.60e+00,3.92e+00,
516,3.60e+00,3.92e+00,
517,3.76e+00,3.76e+00,
518,3.68e+00,3.92e+00,
519,3.76e+00,3.68e+00,
520,3.76e+00,3.84e+00,
521,3.60e+00,3.28e+00,
522,3.76e+00,3.36e+00,
523,3.60e+00,3.60e+00,
524,3.76e+00,3.52e+00,
525,3.60e+00,3.76e+00,
526,3.60e+00,3.68e+00,
527,3.76e+00,3.84e+00,
528,3.60e+00,3.76e+00,
529,3.76e+00,3.92e+00,
530,3.60e+00,3.76e+00,
531,3.76e+00,3.92e+00,
532,3.76e+00,3.92e+00,
533,3.60e+00,3.52e+00,
534,3.76e+00,3.68e+00,
535,3.60e+00,3.36e+00,
536,3.76e+00,3.44e+00,
537,3.60e+00,3.76e+00,
538,3.76e+00,3.60e+00,
539,3.60e+00,3.84e+00,
540,3.68e+00,3.76e+00,
541,3.76e+00,3.92e+00,
542,3.76e+00,3.92e+00,
543,3.60e+00,3.76e+00,
544,3.76e+00,3.92e+00,
545,6.40e-01,3.52e+00,
546,6.40e-01,3.60e+00,
547,7.20e-01,3.12e+00,
548,6.40e-01,3.20e+00,
549,7.20e-01,2.80e+00,
550,6.40e-01,2.88e+00,
551,8.00e-01,2.48e+00,
552,6.40e-01,2.64e+00,
553,7.20e-01,2.32e+00,
554,6.40e-01,2.40e+00,
555,8.00e-01,2.16e+00,
556,6.40e-01,2.24e+00,
557,7.20e-01,2.00e+00,
558,6.40e-01,2.08e+00,
559,8.00e-01,1.84e+00,
560,6.40e-01,1.84e+00,
561,8.00e-01,1.68e+00,
562,6.40e-01,1.76e+00,
563,7.20e-01,1.52e+00,
564,6.40e-01,1.60e+00,
565,8.00e-01,1.36e+00,
566,6.40e-01,1.52e+00,
567,7.20e-01,1.28e+00,
568,6.40e-01,1.36e+00,
569,8.00e-01,1.20e+00,
570,6.40e-01,1.28e+00,
571,7.20e-01,1.04e+00,
572,6.40e-01,1.20e+00,
573,7.20e-01,9.60e-01,
574,6.40e-01,1.12e+00,
575,8.00e-01,8.80e-01,
576,6.40e-01,1.04e+00,
577,7.20e-01,8.00e-01,
578,6.40e-01,8.80e-01,
579,8.00e-01,7.20e-01,
580,7.20e-01,7.20e-01,
581,6.40e-01,8.00e-01,
582,6.40e-01,7.20e-01,
583,7.20e-01,5.60e-01,
584,6.40e-01,7.20e-01,
585,8.00e-01,5.60e-01,
586,6.40e-01,6.40e-01,
587,7.20e-01,5.60e-01,
588,6.40e-01,6.40e-01,
589,8.00e-01,4.80e-01,
590,6.40e-01,6.40e-01,
591,7.20e-01,4.80e-01,
592,6.40e-01,6.40e-01,
593,6.40e-01,4.80e-01,
594,6.40e-01,6.40e-01,
595,8.00e-01,4.80e-01,
596,6.40e-01,6.40e-01,
597,7.20e-01,4.80e-01,
598,6.40e-01,6.40e-01,
599,7.20e-01,4.80e-01,
600,6.40e-01,4.80e-01,
601,8.00e-01,6.40e-01,
602,6.40e-01,6.40e-01,
603,8.00e-01,4.80e-01,
604,6.40e-01,6.40e-01,
605,8.00e-01,4.80e-01,
606,6.40e-01,6.40e-01,
607,7.20e-01,4.80e-01,
608,6.40e-01,4.80e-01,
609,7.20e-01,6.40e-01,
610,6.40e-01,6.40e-01,
611,8.00e-01,4.80e-01,
612,6.40e-01,6.40e-01,
613,8.00e-01,4.80e-01,
614,6.40e-01,6.40e-01,
615,8.00e-01,4.80e-01,
616,6.40e-01,6.40e-01,
617,8.00e-01,4.80e-01,
618,6.40e-01,4.80e-01,
619,8.00e-01,6.40e-01,
620,6.40e-01,4.80e-01,
621,7.20e-01,6.40e-01,
622,6.40e-01,6.40e-01,
623,8.00e-01,4.80e-01,
624,7.20e-01,4.80e-01,
625,6.40e-01,6.40e-01,
626,6.40e-01,6.40e-01,
627,8.00e-01,4.80e-01,
628,6.40e-01,6.40e-01,
629,7.20e-01,4.80e-01,
630,6.40e-01,6.40e-01,
631,7.20e-01,4.80e-01,
632,6.40e-01,6.40e-01,
633,8.00e-01,4.80e-01,
634,6.40e-01,4.80e-01,
635,7.20e-01,6.40e-01,
636,6.40e-01,6.40e-01,
637,8.00e-01,4.80e-01,
638,6.40e-01,6.40e-01,
639,7.20e-01,4.80e-01,
640,6.40e-01,6.40e-01,
641,8.00e-01,4.80e-01,
642,6.40e-01,6.40e-01,
643,8.00e-01,4.80e-01,
644,6.40e-01,4.80e-01,
645,3.76e+00,1.12e+00,
646,3.60e+00,1.04e+00,
647,3.76e+00,1.60e+00,
648,3.60e+00,1.44e+00,
649,3.76e+00,1.92e+00,
650,3.76e+00,1.92e+00,
651,3.60e+00,2.32e+00,
652,3.76e+00,2.24e+00,
653,3.60e+00,2.56e+00,
654,3.76e+00,2.48e+00,
655,3.60e+00,2.80e+00,
656,3.76e+00,2.72e+00,
657,3.60e+00,3.12e+00,
658,3.60e+00,3.04e+00,
659,3.76e+00,3.36e+00,
660,3.76e+00,3.20e+00,
661,3.60e+00,3.52e+00,
662,3.76e+00,3.36e+00,
663,3.60e+00,3.68e+00,
664,3.60e+00,3.52e+00,
665,3.76e+00,3.76e+00,
666,3.60e+00,3.60e+00,
667,3.76e+00,3.84e+00,
668,3.60e+00,3.84e+00,
669,3.76e+00,3.68e+00,
670,3.76e+00,3.76e+00,
671,3.60e+00,3.84e+00,
672,3.76e+00,3.76e+00,
673,3.60e+00,3.92e+00,
674,3.76e+00,3.92e+00,
675,3.60e+00,3.76e+00,
676,3.76e+00,3.76e+00,
677,3.60e+00,3.92e+00,
678,3.76e+00,3.92e+00,
679,3.60e+00,3.68e+00,
680,3.76e+00,3.84e+00,
681,3.60e+00,3.28e+00,
682,3.68e+00,3.36e+00,
683,3.76e+00,3.68e+00,
684,3.76e+00,3.60e+00,
685,3.60e+00,3.84e+00,
686,3.60e+00,3.84e+00,
687,3.76e+00,3.68e+00,
688,3.76e+00,3.76e+00,
689,3.60e+00,3.92e+00,
690,3.76e+00,3.92e+00,
691,3.60e+00,3.76e+00,
692,3.76e+00,3.92e+00,
693,3.60e+00,3.60e+00,
694,3.68e+00,3.68e+00,
695,3.76e+00,3.28e+00,
696,3.76e+00,3.44e+00,
697,3.60e+00,3.76e+00,
698,3.68e+00,3.60e+00,
699,3.76e+00,3.84e+00,
700,3.68e+00,3.76e+00,
701,3.76e+00,3.92e+00,
702,3.76e+00,3.92e+00,
703,3.60e+00,3.76e+00,
704,3.76e+00,3.92e+00,
705,3.60e+00,3.68e+00,
706,3.76e+00,3.84e+00,
707,3.60e+00,3.36e+00,
708,3.68e+00,3.28e+00,
709,3.76e+00,3.68e+00,
710,3.76e+00,3.60e+00,
711,3.60e+00,3.84e+00,
712,3.76e+00,3.84e+00,
713,3.60e+00,3.68e+00,
714,3.76e+00,3.92e+00,
715,3.60e+00,3.76e+00,
716,3.76e+00,3.76e+00,
717,3.60e+00,3.92e+00,
718,3.76e+00,3.92e+00,
719,3.60e+00,3.44e+00,
720,3.60e+00,3.36e+00,
721,3.76e+00,3.60e+00,
722,3.76e+00,3.52e+00,
723,3.60e+00,3.76e+00,
724,3.76e+00,3.68e+00,
725,3.60e+00,3.84e+00,
726,3.76e+00,3.76e+00,
727,3.60e+00,3.92e+00,
728,3.60e+00,3.92e+00,
729,3.76e+00,3.76e+00,
730,3.76e+00,3.92e+00,
731,3.60e+00,3.60e+00,
732,3.68e+00,3.68e+00,
733,3.76e+00,3.36e+00,
734,3.60e+00,3.44e+00,
735,3.76e+00,3.68e+00,
736,3.76e+00,3.60e+00,
737,3.60e+00,3.84e+00,
738,3.76e+00,3.76e+00,
739,3.60e+00,3.92e+00,
740,3.60e+00,3.92e+00,
741,3.76e+00,3.76e+00,
742,3.76e+00,3.92e+00,
743,3.60e+00,3.76e+00,
744,3.68e+00,3.84e+00,
745,6.40e-01,3.36e+00,
746,6.40e-01,3.36e+00,
747,8.00e-01,3.04e+00,
748,6.40e-01,3.12e+00,
749,8.00e-01,2.72e+00,
750,6.40e-01,2.80e+00,
751,7.20e-01,2.40e+00,
752,6.40e-01,2.56e+00,
753,8.00e-01,2.24e+00,
754,6.40e-01,2.32e+00,
755,8.00e-01,2.08e+00,
756,6.40e-01,2.16e+00,
757,7.20e-01,1.92e+00,
758,6.40e-01,2.00e+00,
759,8.00e-01,1.68e+00,
760,6.40e-01,1.84e+00,
761,8.00e-01,1.60e+00,
762,6.40e-01,1.68e+00,
763,7.20e-01,1.44e+00,
764,6.40e-01,1.60e+00,
765,7.20e-01,1.36e+00,
766,6.40e-01,1.44e+00,
767,7.20e-01,1.20e+00,
768,6.40e-01,1.36e+00,
769,8.00e-01,1.12e+00,
770,6.40e-01,1.20e+00,
771,8.00e-01,1.04e+00,
772,6.40e-01,1.12e+00,
773,8.00e-01,9.60e-01,
774,6.40e-01,1.04e+00,
775,7.20e-01,8.80e-01,
776,6.40e-01,9.60e-01,
777,8.00e-01,8.00e-01,
778,6.40e-01,8.80e-01,
779,8.00e-01,7.20e-01,
780,6.40e-01,8.80e-01,
781,7.20e-01,6.40e-01,
782,6.40e-01,7.20e-01,
783,7.20e-01,5.60e-01,
784,6.40e-01,6.40e-01,
785,8.00e-01,5.60e-01,
786,6.40e-01,6.40e-01,
787,7.20e-01,4.80e-01,
788,6.40e-01,6.40e-01,
789,8.00e-01,4.80e-01,
790,6.40e-01,5.60e-01,
791,8.00e-01,6.40e-01,
792,6.40e-01,4.80e-01,
793,7.20e-01,6.40e-01,
794,6.40e-01,6.40e-01,
795,8.00e-01,4.80e-01,
796,6.40e-01,6.40e-01,
797,8.00e-01,4.80e-01,
798,6.40e-01,6.40e-01,
799,7.20e-01,4.80e-01,
800,7.20e-01,6.40e-01,
801,6.40e-01,4.80e-01,
802,6.40e-01,6.40e-01,
803,8.00e-01,4.80e-01,
804,6.40e-01,4.80e-01,
805,8.00e-01,6.40e-01,
806,6.40e-01,6.40e-01,
807,7.20e-01,4.80e-01,
808,6.40e-01,6.40e-01,
809,8.00e-01,4.80e-01,
810,6.40e-01,6.40e-01,
811,7.20e-01,4.80e-01,
812,6.40e-01,6.40e-01,
813,7.20e-01,4.80e-01,
814,6.40e-01,6.40e-01,
815,8.00e-01,4.80e-01,
816,6.40e-01,6.40e-01,
817,8.00e-01,4.80e-01,
818,6.40e-01,6.40e-01,
819,8.00e-01,4.80e-01,
820,6.40e-01,6.40e-01,
821,7.20e-01,4.80e-01,
822,6.40e-01,4.80e-01,
823,8.00e-01,6.40e-01,
824,6.40e-01,6.40e-01,
825,8.00e-01,4.80e-01,
826,6.40e-01,6.40e-01,
827,8.00e-01,4.80e-01,
828,6.40e-01,6.40e-01,
829,8.00e-01,4.80e-01,
830,6.40e-01,6.40e-01,
831,8.00e-01,4.80e-01,
832,6.40e-01,4.80e-01,
833,7.20e-01,6.40e-01,
834,7.20e-01,4.80e-01,
835,6.40e-01,6.40e-01,
836,6.40e-01,6.40e-01,
837,7.20e-01,4.80e-01,
838,6.40e-01,6.40e-01,
839,8.00e-01,4.80e-01,
840,6.40e-01,6.40e-01,
841,7.20e-01,4.80e-01,
842,6.40e-01,6.40e-01,
843,7.20e-01,4.80e-01,
844,6.40e-01,4.80e-01,
845,3.76e+00,1.12e+00,
846,3.76e+00,1.04e+00,
847,3.60e+00,1.60e+00,
848,3.76e+00,1.44e+00,
849,3.60e+00,2.00e+00,
850,3.76e+00,1.92e+00,
851,3.60e+00,2.32e+00,
852,3.76e+00,2.24e+00,
853,3.60e+00,2.56e+00,
854,3.68e+00,2.48e+00,
855,3.76e+00,2.80e+00,
856,3.76e+00,2.72e+00,
857,3.60e+00,3.04e+00,
858,3.76e+00,3.04e+00,
859,3.60e+00,3.36e+00,
860,3.76e+00,3.20e+00,
861,3.60e+00,3.52e+00,
862,3.76e+00,3.44e+00,
863,3.60e+00,3.68e+00,
864,3.76e+00,3.52e+00,
865,3.60e+00,3.76e+00,
866,3.60e+00,3.60e+00,
867,3.76e+00,3.84e+00,
868,3.76e+00,3.84e+00,
869,3.60e+00,3.68e+00,
870,3.68e+00,3.84e+00,
