Code/Matlab/Analysis/Muscles/BPAs/BPA_OL_Bode_Analysis/Open_Loop_Frequency_Response_Signals_1/OLBD8.csv

X,CH3,CH4,Start,Increment,
Sequence,Volt,Volt,-1.198000e+01,2.000000e-02
0,3.28e+00,1.36e+00,
1,3.56e+00,3.16e+00,
2,3.44e+00,3.16e+00,
3,3.68e+00,1.52e+00,
4,3.64e+00,3.20e+00,
5,3.84e+00,1.52e+00,
6,3.76e+00,1.60e+00,
7,4.00e+00,3.20e+00,
8,3.92e+00,1.56e+00,
9,4.16e+00,3.28e+00,
10,4.04e+00,1.64e+00,
11,4.28e+00,3.28e+00,
12,4.16e+00,3.28e+00,
13,4.36e+00,1.84e+00,
14,4.28e+00,3.32e+00,
15,4.52e+00,1.80e+00,
16,4.40e+00,3.32e+00,
17,4.60e+00,1.80e+00,
18,4.52e+00,1.88e+00,
19,4.68e+00,3.36e+00,
20,4.60e+00,1.92e+00,
21,4.76e+00,3.32e+00,
22,4.64e+00,3.40e+00,
23,4.84e+00,1.96e+00,
24,4.84e+00,2.00e+00,
25,4.76e+00,3.40e+00,
26,4.92e+00,3.40e+00,
27,4.76e+00,2.00e+00,
28,4.92e+00,3.40e+00,
29,4.84e+00,1.96e+00,
30,4.84e+00,2.00e+00,
31,4.96e+00,3.44e+00,
32,4.96e+00,3.44e+00,
33,4.84e+00,2.04e+00,
34,4.84e+00,3.44e+00,
35,4.92e+00,2.00e+00,
36,4.92e+00,3.44e+00,
37,4.72e+00,2.00e+00,
38,4.76e+00,3.44e+00,
39,4.88e+00,2.00e+00,
40,4.88e+00,2.00e+00,
41,4.72e+00,3.52e+00,
42,4.80e+00,2.00e+00,
43,4.64e+00,3.44e+00,
44,4.76e+00,3.44e+00,
45,4.52e+00,2.00e+00,
46,4.64e+00,3.44e+00,
47,4.48e+00,2.00e+00,
48,4.52e+00,3.44e+00,
49,4.36e+00,2.00e+00,
50,4.44e+00,1.92e+00,
51,4.24e+00,3.40e+00,
52,4.32e+00,1.92e+00,
53,4.04e+00,3.40e+00,
54,4.20e+00,3.40e+00,
55,3.92e+00,1.88e+00,
56,4.00e+00,3.40e+00,
57,3.80e+00,1.84e+00,
58,3.88e+00,3.40e+00,
59,3.64e+00,1.84e+00,
60,3.72e+00,1.76e+00,
61,3.52e+00,3.40e+00,
62,3.60e+00,3.32e+00,
63,3.32e+00,1.68e+00,
64,3.44e+00,3.32e+00,
65,3.16e+00,1.64e+00,
66,3.24e+00,3.32e+00,
67,2.96e+00,1.56e+00,
68,3.08e+00,3.28e+00,
69,2.80e+00,1.56e+00,
70,2.88e+00,1.52e+00,
71,2.60e+00,3.24e+00,
72,2.72e+00,3.20e+00,
73,2.44e+00,1.44e+00,
74,2.52e+00,3.20e+00,
75,2.28e+00,1.32e+00,
76,2.36e+00,3.16e+00,
77,2.04e+00,1.32e+00,
78,2.16e+00,3.16e+00,
79,1.92e+00,1.24e+00,
80,2.00e+00,1.28e+00,
81,1.72e+00,3.08e+00,
82,1.80e+00,1.24e+00,
83,1.56e+00,3.04e+00,
84,1.64e+00,3.00e+00,
85,1.36e+00,1.08e+00,
86,1.44e+00,2.92e+00,
87,1.20e+00,1.04e+00,
88,1.32e+00,2.96e+00,
89,1.08e+00,1.04e+00,
90,1.16e+00,9.60e-01,
91,9.60e-01,2.84e+00,
92,1.04e+00,9.60e-01,
93,7.60e-01,2.84e+00,
94,9.20e-01,9.20e-01,
95,7.20e-01,2.76e+00,
96,7.20e-01,2.80e+00,
97,6.00e-01,9.20e-01,
98,6.00e-01,2.80e+00,
99,4.80e-01,8.40e-01,
100,5.60e-01,7.60e-01,
101,3.60e-01,2.68e+00,
102,4.40e-01,8.00e-01,
103,2.80e-01,2.64e+00,
104,4.00e-01,7.20e-01,
105,2.40e-01,2.68e+00,
106,3.20e-01,2.60e+00,
107,1.60e-01,7.20e-01,
108,2.80e-01,2.60e+00,
109,1.60e-01,7.60e-01,
110,2.00e-01,7.20e-01,
111,1.20e-01,2.56e+00,
112,1.20e-01,6.80e-01,
113,2.00e-01,2.52e+00,
114,2.00e-01,6.80e-01,
115,8.00e-02,2.52e+00,
116,2.00e-01,6.80e-01,
117,1.20e-01,2.56e+00,
118,1.20e-01,2.52e+00,
119,2.80e-01,6.80e-01,
120,2.40e-01,6.40e-01,
121,1.20e-01,2.56e+00,
122,1.60e-01,6.80e-01,
123,3.60e-01,2.60e+00,
124,2.40e-01,7.20e-01,
125,4.40e-01,2.60e+00,
126,3.60e-01,2.60e+00,
127,5.20e-01,7.20e-01,
128,4.00e-01,2.60e+00,
129,6.00e-01,7.60e-01,
130,5.20e-01,2.68e+00,
131,6.80e-01,7.20e-01,
132,6.00e-01,8.00e-01,
133,8.00e-01,2.64e+00,
134,7.20e-01,8.00e-01,
135,9.20e-01,2.72e+00,
136,8.80e-01,8.00e-01,
137,1.08e+00,2.72e+00,
138,1.00e+00,2.80e+00,
139,1.20e+00,8.80e-01,
140,1.12e+00,2.80e+00,
141,1.40e+00,8.80e-01,
142,1.32e+00,8.80e-01,
143,1.56e+00,2.84e+00,
144,1.48e+00,9.60e-01,
145,1.68e+00,2.92e+00,
146,1.60e+00,1.00e+00,
147,1.88e+00,2.88e+00,
148,1.80e+00,2.96e+00,
149,2.04e+00,1.08e+00,
150,1.96e+00,2.92e+00,
151,2.24e+00,1.16e+00,
152,2.16e+00,1.16e+00,
153,2.40e+00,3.04e+00,
154,2.32e+00,1.20e+00,
155,2.60e+00,3.00e+00,
156,2.48e+00,1.28e+00,
157,2.76e+00,3.08e+00,
158,2.72e+00,3.08e+00,
159,2.96e+00,1.32e+00,
160,2.84e+00,3.08e+00,
161,3.12e+00,1.40e+00,
162,3.04e+00,3.16e+00,
163,3.32e+00,1.44e+00,
164,3.24e+00,1.44e+00,
165,3.48e+00,3.16e+00,
166,3.40e+00,1.52e+00,
167,3.64e+00,3.20e+00,
168,3.60e+00,1.56e+00,
169,3.76e+00,3.20e+00,
170,3.72e+00,3.20e+00,
171,3.96e+00,1.64e+00,
172,3.88e+00,3.28e+00,
173,4.08e+00,1.64e+00,
174,4.04e+00,1.68e+00,
175,4.24e+00,3.28e+00,
176,4.16e+00,1.72e+00,
177,4.40e+00,3.32e+00,
178,4.28e+00,1.80e+00,
179,4.48e+00,3.32e+00,
180,4.40e+00,3.32e+00,
181,4.56e+00,1.80e+00,
182,4.52e+00,3.32e+00,
183,4.68e+00,1.84e+00,
184,4.60e+00,1.92e+00,
185,4.76e+00,3.40e+00,
186,4.64e+00,1.92e+00,
187,4.80e+00,3.36e+00,
188,4.72e+00,1.96e+00,
189,4.84e+00,3.40e+00,
190,4.76e+00,3.44e+00,
191,4.92e+00,2.00e+00,
192,4.84e+00,3.44e+00,
193,4.92e+00,2.00e+00,
194,4.80e+00,3.44e+00,
195,4.96e+00,2.00e+00,
196,4.96e+00,3.44e+00,
197,4.84e+00,2.04e+00,
198,4.96e+00,1.96e+00,
199,4.84e+00,3.44e+00,
200,4.84e+00,3.44e+00,
201,4.92e+00,2.04e+00,
202,4.92e+00,3.44e+00,
203,4.76e+00,2.00e+00,
204,4.88e+00,3.48e+00,
205,4.72e+00,2.04e+00,
206,4.80e+00,3.44e+00,
207,4.60e+00,2.04e+00,
208,4.60e+00,1.96e+00,
209,4.76e+00,3.44e+00,
210,4.68e+00,2.00e+00,
211,4.48e+00,3.44e+00,
212,4.56e+00,3.48e+00,
213,4.36e+00,2.00e+00,
214,4.48e+00,3.44e+00,
215,4.24e+00,1.92e+00,
216,4.32e+00,3.44e+00,
217,4.12e+00,1.92e+00,
218,4.20e+00,1.92e+00,
219,4.00e+00,3.44e+00,
220,4.08e+00,3.40e+00,
221,3.80e+00,1.80e+00,
222,3.96e+00,3.44e+00,
223,3.68e+00,1.76e+00,
224,3.76e+00,3.36e+00,
225,3.52e+00,1.76e+00,
226,3.60e+00,3.36e+00,
227,3.40e+00,1.68e+00,
228,3.44e+00,1.68e+00,
229,3.20e+00,3.32e+00,
230,3.24e+00,3.32e+00,
231,3.04e+00,1.56e+00,
232,3.12e+00,3.32e+00,
233,2.84e+00,1.56e+00,
234,2.96e+00,3.28e+00,
235,2.68e+00,1.48e+00,
236,2.76e+00,3.32e+00,
237,2.48e+00,1.52e+00,
238,2.52e+00,1.44e+00,
239,2.32e+00,3.20e+00,
240,2.36e+00,3.20e+00,
241,2.12e+00,1.32e+00,
242,2.24e+00,3.16e+00,
243,1.88e+00,1.28e+00,
244,2.04e+00,3.16e+00,
245,1.80e+00,1.28e+00,
246,1.88e+00,3.08e+00,
247,1.60e+00,1.20e+00,
248,1.68e+00,1.16e+00,
249,1.44e+00,3.04e+00,
250,1.52e+00,1.16e+00,
251,1.24e+00,3.00e+00,
252,1.32e+00,2.96e+00,
253,1.12e+00,1.04e+00,
254,1.20e+00,2.92e+00,
255,9.60e-01,1.04e+00,
256,1.04e+00,2.92e+00,
257,8.40e-01,9.60e-01,
258,9.20e-01,8.80e-01,
259,7.20e-01,2.84e+00,
260,8.00e-01,9.20e-01,
261,6.00e-01,2.80e+00,
262,6.80e-01,2.80e+00,
263,4.80e-01,8.40e-01,
264,6.00e-01,2.72e+00,
265,4.00e-01,8.40e-01,
266,5.20e-01,2.68e+00,
267,2.80e-01,8.00e-01,
268,4.00e-01,7.60e-01,
269,2.40e-01,2.68e+00,
270,3.20e-01,8.00e-01,
271,1.60e-01,2.68e+00,
272,2.80e-01,8.00e-01,
273,1.20e-01,2.64e+00,
274,2.00e-01,2.60e+00,
275,1.20e-01,7.20e-01,
276,2.00e-01,2.52e+00,
277,1.20e-01,6.80e-01,
278,2.00e-01,6.80e-01,
279,1.20e-01,2.56e+00,
280,2.00e-01,6.80e-01,
281,1.20e-01,2.56e+00,
282,1.20e-01,2.56e+00,
283,2.40e-01,6.40e-01,
284,1.20e-01,2.56e+00,
285,2.80e-01,6.80e-01,
286,1.60e-01,6.80e-01,
287,3.20e-01,2.60e+00,
288,2.40e-01,7.20e-01,
289,4.00e-01,2.60e+00,
290,2.80e-01,7.20e-01,
291,4.80e-01,2.60e+00,
292,4.00e-01,7.20e-01,
293,5.60e-01,2.60e+00,
294,5.20e-01,7.20e-01,
295,6.80e-01,2.64e+00,
296,6.00e-01,2.64e+00,
297,8.00e-01,7.60e-01,
298,7.20e-01,7.60e-01,
299,9.20e-01,2.72e+00,
300,8.40e-01,8.40e-01,
301,1.08e+00,2.68e+00,
302,9.60e-01,8.40e-01,
303,1.20e+00,2.80e+00,
304,1.12e+00,8.40e-01,
305,1.32e+00,2.76e+00,
306,1.20e+00,2.84e+00,
307,1.52e+00,9.60e-01,
308,1.44e+00,9.60e-01,
309,1.64e+00,2.92e+00,
310,1.60e+00,1.04e+00,
311,1.80e+00,2.92e+00,
312,1.72e+00,1.04e+00,
313,2.00e+00,2.96e+00,
314,1.92e+00,1.12e+00,
315,2.16e+00,2.92e+00,
316,2.16e+00,3.04e+00,
317,2.36e+00,1.16e+00,
318,2.32e+00,3.00e+00,
319,2.52e+00,1.20e+00,
320,2.52e+00,3.08e+00,
321,2.72e+00,1.24e+00,
322,2.68e+00,1.28e+00,
323,2.88e+00,3.16e+00,
324,2.84e+00,1.32e+00,
325,3.12e+00,3.12e+00,
326,3.04e+00,3.16e+00,
327,3.24e+00,1.40e+00,
328,3.16e+00,3.16e+00,
329,3.44e+00,1.48e+00,
330,3.32e+00,3.16e+00,
331,3.60e+00,1.44e+00,
332,3.52e+00,3.20e+00,
333,3.80e+00,1.52e+00,
334,3.72e+00,1.56e+00,
335,3.92e+00,3.20e+00,
336,3.80e+00,1.60e+00,
337,4.08e+00,3.28e+00,
338,4.00e+00,3.24e+00,
339,4.20e+00,1.68e+00,
340,4.12e+00,1.68e+00,
341,4.32e+00,3.32e+00,
342,4.24e+00,3.32e+00,
343,4.44e+00,1.80e+00,
344,4.36e+00,1.88e+00,
345,4.56e+00,3.32e+00,
346,4.48e+00,1.80e+00,
347,4.68e+00,3.32e+00,
348,4.60e+00,3.40e+00,
349,4.72e+00,1.92e+00,
350,4.64e+00,3.36e+00,
351,4.80e+00,2.00e+00,
352,4.72e+00,3.40e+00,
353,4.84e+00,2.00e+00,
354,4.76e+00,2.04e+00,
355,4.92e+00,3.44e+00,
356,4.92e+00,2.04e+00,
357,4.84e+00,3.44e+00,
358,4.84e+00,3.44e+00,
359,4.96e+00,2.04e+00,
360,4.84e+00,3.44e+00,
361,4.96e+00,2.08e+00,
362,4.92e+00,3.44e+00,
363,4.84e+00,2.04e+00,
364,4.84e+00,2.08e+00,
365,4.92e+00,3.48e+00,
366,4.92e+00,2.04e+00,
367,4.76e+00,3.44e+00,
368,4.76e+00,3.44e+00,
369,4.88e+00,2.04e+00,
370,4.80e+00,3.48e+00,
371,4.64e+00,2.08e+00,
372,4.76e+00,3.44e+00,
373,4.60e+00,2.04e+00,
374,4.68e+00,3.44e+00,
375,4.48e+00,2.04e+00,
376,4.56e+00,2.04e+00,
377,4.40e+00,3.44e+00,
378,4.48e+00,3.44e+00,
379,4.28e+00,1.96e+00,
380,4.36e+00,3.44e+00,
381,4.16e+00,1.92e+00,
382,4.24e+00,3.44e+00,
383,4.04e+00,1.92e+00,
384,4.08e+00,3.44e+00,
385,3.88e+00,1.92e+00,
386,3.96e+00,1.88e+00,
387,3.72e+00,3.40e+00,
388,3.84e+00,1.80e+00,
389,3.56e+00,3.40e+00,
390,3.68e+00,3.36e+00,
391,3.44e+00,1.76e+00,
392,3.48e+00,3.40e+00,
393,3.24e+00,1.72e+00,
394,3.32e+00,3.32e+00,
395,3.04e+00,1.68e+00,
396,3.12e+00,1.60e+00,
397,2.92e+00,3.32e+00,
398,2.96e+00,3.32e+00,
399,2.72e+00,1.48e+00,
400,2.76e+00,3.28e+00,
401,2.56e+00,1.52e+00,
402,2.60e+00,3.28e+00,
403,2.32e+00,1.44e+00,
404,2.40e+00,3.20e+00,
405,2.16e+00,1.40e+00,
406,2.20e+00,1.32e+00,
407,2.00e+00,3.16e+00,
408,2.04e+00,1.28e+00,
409,1.84e+00,3.16e+00,
410,1.88e+00,3.12e+00,
411,1.64e+00,1.20e+00,
412,1.72e+00,3.08e+00,
413,1.52e+00,1.16e+00,
414,1.56e+00,3.04e+00,
415,1.32e+00,1.16e+00,
416,1.40e+00,1.16e+00,
417,1.12e+00,2.96e+00,
418,1.24e+00,1.04e+00,
419,1.00e+00,2.92e+00,
420,1.08e+00,9.60e-01,
421,8.80e-01,2.92e+00,
422,9.60e-01,2.84e+00,
423,7.20e-01,9.20e-01,
424,8.00e-01,2.84e+00,
425,6.40e-01,9.20e-01,
426,6.80e-01,9.20e-01,
427,5.20e-01,2.80e+00,
428,6.40e-01,8.40e-01,
429,4.40e-01,2.80e+00,
430,5.20e-01,2.72e+00,
431,3.60e-01,8.00e-01,
432,4.40e-01,2.64e+00,
433,2.80e-01,8.00e-01,
434,3.60e-01,2.68e+00,
435,1.20e-01,7.60e-01,
436,1.60e-01,7.60e-01,
437,2.80e-01,2.68e+00,
438,1.20e-01,7.60e-01,
439,2.80e-01,2.60e+00,
440,1.20e-01,2.56e+00,
441,2.00e-01,6.80e-01,
442,2.00e-01,2.52e+00,
443,8.00e-02,6.80e-01,
444,2.00e-01,2.56e+00,
445,1.20e-01,6.80e-01,
446,2.00e-01,6.80e-01,
447,4.00e-02,2.52e+00,
448,1.20e-01,6.80e-01,
449,2.80e-01,2.56e+00,
450,1.60e-01,6.80e-01,
451,3.20e-01,2.60e+00,
452,2.40e-01,2.60e+00,
453,4.00e-01,7.20e-01,
454,2.80e-01,2.64e+00,
455,4.40e-01,7.60e-01,
456,3.60e-01,7.20e-01,
457,5.60e-01,2.64e+00,
458,4.00e-01,7.20e-01,
459,6.40e-01,2.68e+00,
460,6.00e-01,7.60e-01,
461,7.20e-01,2.64e+00,
462,6.40e-01,7.60e-01,
463,8.40e-01,2.72e+00,
464,7.60e-01,2.72e+00,
465,9.60e-01,8.40e-01,
466,9.60e-01,2.76e+00,
467,1.16e+00,8.40e-01,
468,1.08e+00,8.40e-01,
469,1.28e+00,2.80e+00,
470,1.24e+00,9.20e-01,
471,1.44e+00,2.84e+00,
472,1.36e+00,2.84e+00,
473,1.64e+00,8.80e-01,
474,1.56e+00,2.88e+00,
475,1.80e+00,1.04e+00,
476,1.72e+00,1.04e+00,
477,2.00e+00,2.96e+00,
478,1.92e+00,1.08e+00,
479,2.16e+00,2.96e+00,
480,2.08e+00,1.16e+00,
481,2.32e+00,3.04e+00,
482,2.28e+00,1.16e+00,
483,2.48e+00,3.00e+00,
484,2.44e+00,3.04e+00,
485,2.68e+00,1.28e+00,
486,2.60e+00,3.08e+00,
487,2.88e+00,1.32e+00,
488,2.80e+00,1.40e+00,
489,3.08e+00,3.16e+00,
490,2.96e+00,1.40e+00,
491,3.24e+00,3.16e+00,
492,3.16e+00,1.44e+00,
493,3.40e+00,3.16e+00,
494,3.36e+00,3.20e+00,
495,3.56e+00,1.48e+00,
496,3.52e+00,3.20e+00,
497,3.72e+00,1.56e+00,
498,3.64e+00,3.20e+00,
499,3.88e+00,1.56e+00,
500,3.80e+00,1.64e+00,
501,4.00e+00,3.28e+00,
502,3.92e+00,1.68e+00,
503,4.16e+00,3.24e+00,
504,4.12e+00,3.28e+00,
505,4.32e+00,1.76e+00,
506,4.24e+00,3.32e+00,
507,4.44e+00,1.80e+00,
508,4.36e+00,3.32e+00,
509,4.52e+00,1.80e+00,
510,4.48e+00,1.80e+00,
511,4.60e+00,3.40e+00,
512,4.52e+00,1.88e+00,
513,4.72e+00,3.40e+00,
514,4.64e+00,3.40e+00,
515,4.80e+00,1.92e+00,
516,4.72e+00,3.40e+00,
517,4.88e+00,2.00e+00,
518,4.76e+00,3.44e+00,
519,4.88e+00,2.00e+00,
520,4.84e+00,3.44e+00,
521,4.92e+00,2.04e+00,
522,4.84e+00,1.96e+00,
523,4.92e+00,3.44e+00,
524,4.96e+00,2.04e+00,
525,4.84e+00,3.44e+00,
526,4.96e+00,3.44e+00,
527,4.84e+00,2.04e+00,
528,4.92e+00,3.44e+00,
529,4.84e+00,2.04e+00,
530,4.92e+00,3.44e+00,
531,4.80e+00,2.04e+00,
532,4.84e+00,2.04e+00,
533,4.76e+00,3.48e+00,
534,4.84e+00,3.44e+00,
535,4.64e+00,2.04e+00,
536,4.80e+00,3.44e+00,
537,4.60e+00,2.00e+00,
538,4.68e+00,3.44e+00,
539,4.52e+00,2.00e+00,
540,4.64e+00,3.44e+00,
541,4.40e+00,2.00e+00,
542,4.48e+00,3.44e+00,
543,4.28e+00,2.00e+00,
544,4.40e+00,1.92e+00,
545,4.16e+00,3.44e+00,
546,4.28e+00,3.44e+00,
547,4.04e+00,1.92e+00,
548,4.16e+00,3.44e+00,
549,3.92e+00,1.88e+00,
550,4.04e+00,3.44e+00,
551,3.76e+00,1.88e+00,
552,3.84e+00,1.84e+00,
553,3.64e+00,3.40e+00,
554,3.68e+00,1.76e+00,
555,3.44e+00,3.40e+00,
556,3.56e+00,1.68e+00,
557,3.28e+00,3.40e+00,
558,3.36e+00,3.36e+00,
559,3.08e+00,1.64e+00,
560,3.20e+00,3.32e+00,
561,2.92e+00,1.56e+00,
562,3.00e+00,3.32e+00,
563,2.76e+00,1.56e+00,
564,2.84e+00,1.52e+00,
565,2.56e+00,3.28e+00,
566,2.64e+00,3.28e+00,
567,2.40e+00,1.44e+00,
568,2.48e+00,3.20e+00,
569,2.20e+00,1.36e+00,
570,2.28e+00,3.20e+00,
571,2.00e+00,1.36e+00,
572,2.12e+00,3.16e+00,
573,1.84e+00,1.32e+00,
574,1.92e+00,1.24e+00,
575,1.64e+00,3.16e+00,
576,1.76e+00,3.08e+00,
577,1.56e+00,1.16e+00,
578,1.56e+00,3.04e+00,
579,1.36e+00,1.16e+00,
580,1.44e+00,3.04e+00,
581,1.20e+00,1.12e+00,
582,1.28e+00,3.00e+00,
583,1.08e+00,1.08e+00,
584,1.08e+00,1.04e+00,
585,8.80e-01,2.92e+00,
586,9.60e-01,9.60e-01,
587,7.60e-01,2.84e+00,
588,8.40e-01,2.84e+00,
589,6.40e-01,9.20e-01,
590,7.60e-01,2.80e+00,
591,5.20e-01,9.20e-01,
592,4.80e-01,2.80e+00,
593,6.40e-01,8.40e-01,
594,4.80e-01,8.40e-01,
595,3.60e-01,2.72e+00,
596,4.40e-01,2.72e+00,
597,2.80e-01,8.40e-01,
598,3.60e-01,7.60e-01,
599,2.40e-01,2.64e+00,
600,3.20e-01,2.68e+00,
601,1.60e-01,8.00e-01,
602,2.80e-01,2.68e+00,
603,1.20e-01,8.00e-01,
604,1.20e-01,7.20e-01,
605,2.00e-01,2.60e+00,
606,2.00e-01,7.20e-01,
607,1.20e-01,2.52e+00,
608,2.00e-01,7.20e-01,
609,1.20e-01,2.56e+00,
610,2.00e-01,2.52e+00,
611,1.20e-01,6.80e-01,
612,1.20e-01,2.60e+00,
613,2.80e-01,6.80e-01,
614,1.60e-01,6.80e-01,
615,3.20e-01,2.60e+00,
616,2.40e-01,7.20e-01,
617,3.60e-01,2.60e+00,
618,2.80e-01,7.20e-01,
619,4.40e-01,2.60e+00,
620,3.60e-01,2.68e+00,
621,5.20e-01,7.20e-01,
622,4.00e-01,7.60e-01,
623,6.40e-01,2.68e+00,
624,5.20e-01,7.60e-01,
625,7.20e-01,2.68e+00,
626,6.40e-01,8.00e-01,
627,8.40e-01,2.68e+00,
628,7.60e-01,8.00e-01,
629,9.60e-01,2.72e+00,
630,8.80e-01,2.80e+00,
631,1.08e+00,8.40e-01,
632,1.00e+00,2.76e+00,
633,1.28e+00,9.20e-01,
634,1.20e+00,9.20e-01,
635,1.40e+00,2.84e+00,
636,1.32e+00,1.00e+00,
637,1.56e+00,2.80e+00,
638,1.48e+00,9.60e-01,
639,1.76e+00,2.92e+00,
640,1.68e+00,1.04e+00,
641,1.92e+00,2.96e+00,
642,1.84e+00,2.96e+00,
643,2.12e+00,1.08e+00,
644,2.04e+00,1.16e+00,
645,2.28e+00,3.04e+00,
646,2.20e+00,1.16e+00,
647,2.48e+00,3.04e+00,
648,2.40e+00,1.20e+00,
649,2.64e+00,3.04e+00,
650,2.56e+00,1.28e+00,
651,2.80e+00,3.08e+00,
652,2.72e+00,3.08e+00,
653,3.00e+00,1.32e+00,
654,2.92e+00,3.16e+00,
655,3.20e+00,1.32e+00,
656,3.08e+00,1.40e+00,
657,3.36e+00,3.16e+00,
658,3.28e+00,1.44e+00,
659,3.56e+00,3.20e+00,
660,3.44e+00,1.52e+00,
661,3.68e+00,3.20e+00,
662,3.64e+00,3.20e+00,
663,3.84e+00,1.56e+00,
664,3.76e+00,3.20e+00,
665,3.96e+00,1.64e+00,
666,3.92e+00,3.28e+00,
667,4.16e+00,1.60e+00,
668,4.04e+00,1.68e+00,
669,4.28e+00,3.28e+00,
670,4.16e+00,3.32e+00,
671,4.40e+00,1.72e+00,
672,4.32e+00,3.32e+00,
673,4.48e+00,1.84e+00,
674,4.40e+00,3.32e+00,
675,4.60e+00,1.88e+00,
676,4.52e+00,3.40e+00,
677,4.68e+00,1.92e+00,
678,4.60e+00,2.00e+00,
679,4.80e+00,3.36e+00,
680,4.64e+00,2.00e+00,
681,4.80e+00,3.40e+00,
682,4.88e+00,3.44e+00,
683,4.76e+00,2.04e+00,
684,4.84e+00,3.44e+00,
685,4.92e+00,2.04e+00,
686,4.84e+00,3.44e+00,
687,4.92e+00,2.04e+00,
688,4.84e+00,3.44e+00,
689,4.96e+00,2.08e+00,
690,4.96e+00,2.04e+00,
691,4.88e+00,3.44e+00,
692,4.84e+00,2.04e+00,
693,4.96e+00,3.44e+00,
694,4.92e+00,3.44e+00,
695,4.76e+00,2.04e+00,
696,4.92e+00,3.44e+00,
697,4.76e+00,2.08e+00,
698,4.88e+00,2.12e+00,
699,4.72e+00,3.48e+00,
700,4.80e+00,2.12e+00,
701,4.64e+00,3.48e+00,
702,4.72e+00,2.04e+00,
703,4.52e+00,3.52e+00,
704,4.64e+00,3.44e+00,
705,4.48e+00,2.08e+00,
706,4.56e+00,3.44e+00,
707,4.36e+00,2.04e+00,
708,4.44e+00,3.44e+00,
709,4.24e+00,2.00e+00,
710,4.32e+00,2.00e+00,
711,4.12e+00,3.44e+00,
712,4.20e+00,1.88e+00,
713,4.00e+00,3.44e+00,
714,4.08e+00,3.44e+00,
715,3.80e+00,1.96e+00,
716,3.92e+00,3.40e+00,
717,3.64e+00,1.88e+00,
718,3.72e+00,3.40e+00,
719,3.52e+00,1.80e+00,
720,3.60e+00,1.80e+00,
721,3.32e+00,3.40e+00,
722,3.40e+00,1.68e+00,
723,3.16e+00,3.32e+00,
724,3.24e+00,3.32e+00,
725,2.96e+00,1.56e+00,
726,3.08e+00,3.32e+00,
727,2.80e+00,1.60e+00,
728,2.88e+00,3.32e+00,
729,2.64e+00,1.52e+00,
730,2.72e+00,1.52e+00,
731,2.44e+00,3.28e+00,
732,2.52e+00,1.44e+00,
733,2.24e+00,3.20e+00,
734,2.32e+00,3.20e+00,
735,2.08e+00,1.32e+00,
736,2.16e+00,3.16e+00,
737,1.92e+00,1.24e+00,
738,2.00e+00,3.12e+00,
739,1.72e+00,1.28e+00,
740,1.80e+00,3.08e+00,
741,1.56e+00,1.20e+00,
742,1.64e+00,1.16e+00,
743,1.36e+00,3.04e+00,
744,1.44e+00,3.04e+00,
745,1.20e+00,1.08e+00,
746,1.32e+00,3.04e+00,
747,1.08e+00,1.08e+00,
748,1.16e+00,2.96e+00,
749,9.20e-01,1.00e+00,
750,1.04e+00,9.60e-01,
751,8.40e-01,2.84e+00,
752,8.40e-01,9.20e-01,
753,7.20e-01,2.80e+00,
754,7.20e-01,2.76e+00,
755,5.20e-01,8.40e-01,
756,6.40e-01,2.80e+00,
757,4.80e-01,8.40e-01,
758,5.60e-01,2.76e+00,
759,4.00e-01,8.40e-01,
760,4.40e-01,2.68e+00,
761,2.80e-01,8.00e-01,
762,4.00e-01,8.40e-01,
763,2.40e-01,2.68e+00,
764,3.20e-01,8.00e-01,
765,1.60e-01,2.64e+00,
766,2.80e-01,2.68e+00,
767,1.60e-01,7.20e-01,
768,2.00e-01,2.60e+00,
769,8.00e-02,7.20e-01,
770,2.00e-01,7.20e-01,
771,1.20e-01,2.56e+00,
772,2.00e-01,6.80e-01,
773,8.00e-02,2.56e+00,
774,2.00e-01,6.80e-01,
775,4.00e-02,2.52e+00,
776,1.20e-01,2.52e+00,
777,2.80e-01,6.40e-01,
778,2.80e-01,2.52e+00,
779,1.60e-01,6.80e-01,
780,1.60e-01,2.60e+00,
781,3.20e-01,7.20e-01,
782,2.40e-01,7.20e-01,
783,4.40e-01,2.60e+00,
784,2.80e-01,7.20e-01,
785,5.20e-01,2.60e+00,
786,4.00e-01,2.60e+00,
787,5.60e-01,7.20e-01,
788,5.20e-01,2.64e+00,
789,6.80e-01,8.00e-01,
790,6.00e-01,2.72e+00,
791,8.00e-01,8.00e-01,
792,7.20e-01,8.00e-01,
793,9.20e-01,2.72e+00,
794,8.40e-01,8.80e-01,
795,1.08e+00,2.76e+00,
796,1.00e+00,8.40e-01,
797,1.20e+00,2.76e+00,
798,1.16e+00,2.76e+00,
799,1.40e+00,9.20e-01,
800,1.24e+00,2.84e+00,
801,1.52e+00,1.00e+00,
802,1.48e+00,9.60e-01,
803,1.68e+00,2.88e+00,
804,1.60e+00,1.00e+00,
805,1.88e+00,2.88e+00,
806,1.72e+00,1.04e+00,
807,2.04e+00,2.96e+00,
808,1.96e+00,1.12e+00,
809,2.24e+00,2.96e+00,
810,2.16e+00,3.04e+00,
811,2.40e+00,1.16e+00,
812,2.32e+00,1.20e+00,
813,2.60e+00,3.08e+00,
814,2.52e+00,1.24e+00,
815,2.76e+00,3.04e+00,
816,2.68e+00,1.28e+00,
817,2.96e+00,3.08e+00,
818,2.84e+00,3.16e+00,
819,3.12e+00,1.36e+00,
820,3.04e+00,3.16e+00,
821,3.32e+00,1.44e+00,
822,3.20e+00,3.12e+00,
823,3.48e+00,1.44e+00,
824,3.40e+00,3.20e+00,
825,3.64e+00,1.52e+00,
826,3.56e+00,1.56e+00,
827,3.80e+00,3.20e+00,
828,3.68e+00,3.28e+00,
829,3.96e+00,1.60e+00,
830,3.88e+00,3.28e+00,
831,4.08e+00,1.68e+00,
832,4.00e+00,3.32e+00,
833,4.24e+00,1.76e+00,
834,4.16e+00,3.32e+00,
835,4.36e+00,1.68e+00,
836,4.28e+00,1.88e+00,
837,4.48e+00,3.32e+00,
838,4.40e+00,1.84e+00,
839,4.56e+00,3.32e+00,
840,4.48e+00,3.40e+00,
841,4.68e+00,1.92e+00,
842,4.60e+00,3.40e+00,
843,4.72e+00,1.92e+00,
844,4.64e+00,3.44e+00,
845,4.80e+00,1.92e+00,
846,4.84e+00,3.44e+00,
847,4.72e+00,2.00e+00,
848,4.92e+00,2.00e+00,
849,4.76e+00,3.44e+00,
850,4.92e+00,3.44e+00,
851,4.80e+00,2.04e+00,
852,4.84e+00,3.52e+00,
853,4.96e+00,2.08e+00,
854,4.88e+00,3.44e+00,
855,5.00e+00,2.04e+00,
856,4.96e+00,3.44e+00,
857,4.84e+00,2.04e+00,
858,4.92e+00,2.04e+00,
859,4.80e+00,3.44e+00,
860,4.92e+00,2.04e+00,
861,4.76e+00,3.44e+00,
862,4.88e+00,3.48e+00,
863,4.72e+00,2.04e+00,
864,4.80e+00,3.52e+00,
865,4.64e+00,2.04e+00,
866,4.72e+00,3.44e+00,
867,4.52e+00,2.04e+00,
868,4.68e+00,2.00e+00,
869,4.48e+00,3.44e+00,
870,4.56e+00,3.52e+00,
