Code/Matlab/Analysis/BPA_OL_Bode_Analysis/Open_Loop_Frequency_Response_Signals_3/NewFile5.csv

X,CH3,CH4,Start,Increment,
Sequence,Volt,Volt,-1.210000e+01,2.000000e-02
0,3.08e+00,2.28e+00,
1,3.28e+00,2.64e+00,
2,3.20e+00,2.48e+00,
3,3.36e+00,2.80e+00,
4,3.28e+00,2.44e+00,
5,3.44e+00,2.80e+00,
6,3.40e+00,2.52e+00,
7,3.56e+00,2.96e+00,
8,3.44e+00,3.00e+00,
9,3.60e+00,2.68e+00,
10,3.56e+00,2.72e+00,
11,3.72e+00,3.04e+00,
12,3.64e+00,2.72e+00,
13,3.80e+00,3.12e+00,
14,3.72e+00,2.76e+00,
15,3.84e+00,3.12e+00,
16,3.80e+00,2.92e+00,
17,3.96e+00,3.32e+00,
18,3.88e+00,3.32e+00,
19,4.00e+00,2.96e+00,
20,3.92e+00,3.08e+00,
21,4.08e+00,3.48e+00,
22,4.00e+00,3.48e+00,
23,4.12e+00,3.16e+00,
24,4.04e+00,3.12e+00,
25,4.20e+00,3.48e+00,
26,4.16e+00,3.28e+00,
27,4.28e+00,3.64e+00,
28,4.16e+00,3.64e+00,
29,4.32e+00,3.32e+00,
30,4.24e+00,3.44e+00,
31,4.40e+00,3.68e+00,
32,4.28e+00,3.72e+00,
33,4.44e+00,3.44e+00,
34,4.36e+00,3.48e+00,
35,4.48e+00,3.72e+00,
36,4.52e+00,3.60e+00,
37,4.40e+00,3.76e+00,
38,4.40e+00,3.64e+00,
39,4.56e+00,3.84e+00,
40,4.56e+00,3.72e+00,
41,4.48e+00,3.84e+00,
42,4.48e+00,3.72e+00,
43,4.64e+00,3.84e+00,
44,4.64e+00,3.72e+00,
45,4.52e+00,3.84e+00,
46,4.52e+00,3.88e+00,
47,4.64e+00,3.76e+00,
48,4.52e+00,3.72e+00,
49,4.64e+00,3.88e+00,
50,4.60e+00,3.88e+00,
51,4.68e+00,3.76e+00,
52,4.64e+00,3.80e+00,
53,4.68e+00,3.92e+00,
54,4.64e+00,3.80e+00,
55,4.68e+00,3.88e+00,
56,4.68e+00,3.88e+00,
57,4.52e+00,3.80e+00,
58,4.68e+00,3.96e+00,
59,4.52e+00,3.80e+00,
60,4.68e+00,3.96e+00,
61,4.52e+00,3.80e+00,
62,4.52e+00,3.80e+00,
63,4.64e+00,3.96e+00,
64,4.60e+00,3.92e+00,
65,4.52e+00,3.60e+00,
66,4.56e+00,3.56e+00,
67,4.48e+00,3.88e+00,
68,4.56e+00,3.88e+00,
69,4.48e+00,3.60e+00,
70,4.40e+00,3.76e+00,
71,4.52e+00,3.52e+00,
72,4.52e+00,3.84e+00,
73,4.36e+00,3.56e+00,
74,4.44e+00,3.76e+00,
75,4.28e+00,3.40e+00,
76,4.28e+00,3.44e+00,
77,4.36e+00,3.76e+00,
78,4.32e+00,3.76e+00,
79,4.24e+00,3.44e+00,
80,4.32e+00,3.32e+00,
81,4.16e+00,3.64e+00,
82,4.28e+00,3.60e+00,
83,4.12e+00,3.20e+00,
84,4.20e+00,3.52e+00,
85,4.04e+00,3.20e+00,
86,4.12e+00,3.48e+00,
87,3.92e+00,3.16e+00,
88,4.04e+00,3.48e+00,
89,3.88e+00,3.20e+00,
90,3.96e+00,3.40e+00,
91,3.80e+00,3.08e+00,
92,3.92e+00,3.40e+00,
93,3.68e+00,3.08e+00,
94,3.84e+00,3.40e+00,
95,3.68e+00,3.00e+00,
96,3.72e+00,3.24e+00,
97,3.56e+00,2.84e+00,
98,3.68e+00,3.24e+00,
99,3.52e+00,2.88e+00,
100,3.60e+00,3.12e+00,
101,3.40e+00,2.72e+00,
102,3.48e+00,2.92e+00,
103,3.32e+00,2.60e+00,
104,3.44e+00,3.00e+00,
105,3.20e+00,2.60e+00,
106,3.32e+00,2.92e+00,
107,3.16e+00,2.52e+00,
108,3.20e+00,2.84e+00,
109,3.04e+00,2.40e+00,
110,3.12e+00,2.68e+00,
111,2.96e+00,2.36e+00,
112,3.00e+00,2.60e+00,
113,2.80e+00,2.24e+00,
114,2.96e+00,2.52e+00,
115,2.72e+00,2.20e+00,
116,2.84e+00,2.52e+00,
117,2.68e+00,2.12e+00,
118,2.76e+00,2.44e+00,
119,2.56e+00,2.08e+00,
120,2.64e+00,2.36e+00,
121,2.48e+00,2.08e+00,
122,2.52e+00,2.24e+00,
123,2.36e+00,1.88e+00,
124,2.48e+00,2.12e+00,
125,2.28e+00,1.80e+00,
126,2.36e+00,1.76e+00,
127,2.20e+00,2.08e+00,
128,2.28e+00,2.04e+00,
129,2.08e+00,1.68e+00,
130,2.16e+00,2.00e+00,
131,2.04e+00,1.68e+00,
132,2.04e+00,2.04e+00,
133,1.88e+00,1.68e+00,
134,2.00e+00,1.96e+00,
135,1.84e+00,1.52e+00,
136,1.92e+00,1.40e+00,
137,1.72e+00,1.72e+00,
138,1.80e+00,1.72e+00,
139,1.68e+00,1.32e+00,
140,1.68e+00,1.44e+00,
141,1.56e+00,1.20e+00,
142,1.64e+00,1.20e+00,
143,1.48e+00,1.52e+00,
144,1.56e+00,1.32e+00,
145,1.44e+00,1.08e+00,
146,1.44e+00,1.08e+00,
147,1.32e+00,1.44e+00,
148,1.40e+00,1.24e+00,
149,1.24e+00,1.00e+00,
150,1.32e+00,9.20e-01,
151,1.20e+00,1.24e+00,
152,1.20e+00,1.00e+00,
153,1.08e+00,8.00e-01,
154,1.16e+00,8.00e-01,
155,1.00e+00,1.08e+00,
156,1.12e+00,6.80e-01,
157,9.60e-01,9.20e-01,
158,1.04e+00,1.00e+00,
159,8.80e-01,6.80e-01,
160,9.60e-01,7.20e-01,
161,8.40e-01,5.60e-01,
162,8.40e-01,6.00e-01,
163,9.20e-01,8.80e-01,
164,8.80e-01,6.40e-01,
165,7.60e-01,4.80e-01,
166,8.80e-01,4.80e-01,
167,7.20e-01,7.60e-01,
168,8.00e-01,3.60e-01,
169,6.40e-01,6.00e-01,
170,6.00e-01,7.20e-01,
171,7.60e-01,4.40e-01,
172,7.20e-01,3.60e-01,
173,6.00e-01,5.20e-01,
174,6.00e-01,6.00e-01,
175,6.80e-01,3.60e-01,
176,6.80e-01,2.80e-01,
177,5.20e-01,5.60e-01,
178,5.20e-01,5.20e-01,
179,6.00e-01,3.20e-01,
180,5.20e-01,4.00e-01,
181,6.40e-01,2.40e-01,
182,6.40e-01,3.20e-01,
183,4.80e-01,6.00e-01,
184,4.80e-01,4.00e-01,
185,6.40e-01,2.00e-01,
186,6.40e-01,3.20e-01,
187,5.20e-01,5.20e-01,
188,6.00e-01,2.40e-01,
189,5.20e-01,4.80e-01,
190,4.80e-01,3.20e-01,
191,6.40e-01,5.20e-01,
192,6.00e-01,3.20e-01,
193,5.20e-01,5.20e-01,
194,6.40e-01,3.20e-01,
195,5.20e-01,6.00e-01,
196,5.60e-01,5.20e-01,
197,6.80e-01,3.20e-01,
198,6.80e-01,3.20e-01,
199,6.00e-01,5.20e-01,
200,6.00e-01,4.00e-01,
201,7.20e-01,6.40e-01,
202,6.00e-01,4.00e-01,
203,7.60e-01,6.40e-01,
204,6.40e-01,3.60e-01,
205,8.00e-01,7.20e-01,
206,7.20e-01,4.40e-01,
207,8.40e-01,6.40e-01,
208,8.80e-01,4.80e-01,
209,7.60e-01,7.60e-01,
210,8.40e-01,6.40e-01,
211,9.20e-01,4.40e-01,
212,8.40e-01,4.80e-01,
213,1.00e+00,8.80e-01,
214,8.80e-01,9.20e-01,
215,1.04e+00,6.00e-01,
216,1.00e+00,6.40e-01,
217,1.12e+00,8.80e-01,
218,1.00e+00,7.20e-01,
219,1.16e+00,1.00e+00,
220,1.12e+00,1.08e+00,
221,1.28e+00,8.40e-01,
222,1.20e+00,1.12e+00,
223,1.32e+00,8.40e-01,
224,1.24e+00,8.40e-01,
225,1.40e+00,1.08e+00,
226,1.32e+00,1.08e+00,
227,1.52e+00,8.40e-01,
228,1.44e+00,1.00e+00,
229,1.56e+00,8.00e-01,
230,1.48e+00,8.00e-01,
231,1.64e+00,1.00e+00,
232,1.56e+00,8.00e-01,
233,1.76e+00,1.24e+00,
234,1.64e+00,1.04e+00,
235,1.80e+00,1.32e+00,
236,1.72e+00,1.32e+00,
237,1.88e+00,1.08e+00,
238,1.84e+00,1.12e+00,
239,2.00e+00,1.48e+00,
240,1.92e+00,1.24e+00,
241,2.12e+00,1.68e+00,
242,2.00e+00,1.36e+00,
243,2.16e+00,1.68e+00,
244,2.12e+00,1.72e+00,
245,2.28e+00,1.40e+00,
246,2.20e+00,1.44e+00,
247,2.36e+00,1.84e+00,
248,2.32e+00,1.64e+00,
249,2.48e+00,2.04e+00,
250,2.40e+00,2.04e+00,
251,2.56e+00,1.76e+00,
252,2.48e+00,1.72e+00,
253,2.64e+00,2.08e+00,
254,2.60e+00,1.84e+00,
255,2.76e+00,2.20e+00,
256,2.68e+00,2.00e+00,
257,2.88e+00,2.32e+00,
258,2.80e+00,2.40e+00,
259,2.96e+00,2.08e+00,
260,2.84e+00,2.12e+00,
261,3.08e+00,2.56e+00,
262,2.96e+00,2.24e+00,
263,3.12e+00,2.56e+00,
264,3.08e+00,2.32e+00,
265,3.24e+00,2.68e+00,
266,3.16e+00,2.40e+00,
267,3.32e+00,2.80e+00,
268,3.28e+00,2.52e+00,
269,3.44e+00,2.88e+00,
270,3.32e+00,2.48e+00,
271,3.48e+00,2.92e+00,
272,3.40e+00,2.64e+00,
273,3.60e+00,3.00e+00,
274,3.52e+00,2.68e+00,
275,3.68e+00,3.04e+00,
276,3.56e+00,3.04e+00,
277,3.72e+00,2.76e+00,
278,3.68e+00,2.80e+00,
279,3.84e+00,3.16e+00,
280,3.76e+00,2.80e+00,
281,3.92e+00,3.16e+00,
282,3.80e+00,3.08e+00,
283,3.96e+00,3.36e+00,
284,3.92e+00,3.36e+00,
285,4.04e+00,3.00e+00,
286,4.00e+00,3.16e+00,
287,4.12e+00,3.52e+00,
288,4.04e+00,3.48e+00,
289,4.20e+00,3.20e+00,
290,4.12e+00,3.16e+00,
291,4.28e+00,3.48e+00,
292,4.16e+00,3.64e+00,
293,4.32e+00,3.36e+00,
294,4.32e+00,3.64e+00,
295,4.24e+00,3.32e+00,
296,4.40e+00,3.44e+00,
297,4.28e+00,3.72e+00,
298,4.44e+00,3.72e+00,
299,4.28e+00,3.52e+00,
300,4.36e+00,3.36e+00,
301,4.48e+00,3.68e+00,
302,4.40e+00,3.56e+00,
303,4.48e+00,3.76e+00,
304,4.48e+00,3.68e+00,
305,4.56e+00,3.76e+00,
306,4.56e+00,3.72e+00,
307,4.48e+00,3.84e+00,
308,4.52e+00,3.84e+00,
309,4.60e+00,3.72e+00,
310,4.48e+00,3.72e+00,
311,4.64e+00,3.88e+00,
312,4.52e+00,3.88e+00,
313,4.64e+00,3.80e+00,
314,4.64e+00,3.88e+00,
315,4.52e+00,3.80e+00,
316,4.60e+00,3.80e+00,
317,4.68e+00,3.88e+00,
318,4.68e+00,3.80e+00,
319,4.60e+00,3.88e+00,
320,4.68e+00,3.80e+00,
321,4.60e+00,3.92e+00,
322,4.60e+00,3.88e+00,
323,4.68e+00,3.80e+00,
324,4.60e+00,3.96e+00,
325,4.52e+00,3.84e+00,
326,4.52e+00,3.96e+00,
327,4.64e+00,3.80e+00,
328,4.52e+00,3.92e+00,
329,4.64e+00,3.64e+00,
330,4.60e+00,3.60e+00,
331,4.48e+00,3.88e+00,
332,4.48e+00,3.88e+00,
333,4.56e+00,3.60e+00,
334,4.56e+00,3.56e+00,
335,4.40e+00,3.88e+00,
336,4.40e+00,3.88e+00,
337,4.52e+00,3.56e+00,
338,4.44e+00,3.76e+00,
339,4.36e+00,3.44e+00,
340,4.44e+00,3.80e+00,
341,4.28e+00,3.48e+00,
342,4.36e+00,3.72e+00,
343,4.20e+00,3.40e+00,
344,4.32e+00,3.32e+00,
345,4.16e+00,3.64e+00,
346,4.28e+00,3.64e+00,
347,4.12e+00,3.32e+00,
348,4.20e+00,3.60e+00,
349,4.04e+00,3.28e+00,
350,4.16e+00,3.52e+00,
351,4.00e+00,3.20e+00,
352,4.08e+00,3.52e+00,
353,3.92e+00,3.24e+00,
354,4.04e+00,3.12e+00,
355,3.88e+00,3.44e+00,
356,3.96e+00,3.40e+00,
357,3.80e+00,3.08e+00,
358,3.84e+00,3.36e+00,
359,3.68e+00,2.96e+00,
360,3.80e+00,3.28e+00,
361,3.60e+00,2.96e+00,
362,3.72e+00,3.28e+00,
363,3.52e+00,2.96e+00,
364,3.60e+00,3.16e+00,
365,3.44e+00,2.80e+00,
366,3.56e+00,3.08e+00,
367,3.36e+00,2.60e+00,
368,3.44e+00,2.92e+00,
369,3.28e+00,2.64e+00,
370,3.36e+00,2.64e+00,
371,3.20e+00,3.00e+00,
372,3.24e+00,2.92e+00,
373,3.08e+00,2.60e+00,
374,3.16e+00,2.88e+00,
375,3.04e+00,2.48e+00,
376,3.04e+00,2.72e+00,
377,2.92e+00,2.36e+00,
378,3.00e+00,2.64e+00,
379,2.80e+00,2.32e+00,
380,2.88e+00,2.24e+00,
381,2.72e+00,2.56e+00,
382,2.76e+00,2.56e+00,
383,2.60e+00,2.16e+00,
384,2.72e+00,2.48e+00,
385,2.48e+00,2.16e+00,
386,2.60e+00,2.44e+00,
387,2.44e+00,2.12e+00,
388,2.48e+00,2.40e+00,
389,2.32e+00,2.04e+00,
390,2.40e+00,2.32e+00,
391,2.24e+00,2.00e+00,
392,2.28e+00,2.32e+00,
393,2.12e+00,1.76e+00,
394,2.24e+00,2.04e+00,
395,2.04e+00,1.72e+00,
396,2.08e+00,1.68e+00,
397,1.96e+00,2.04e+00,
398,2.04e+00,2.00e+00,
399,1.84e+00,1.52e+00,
400,1.92e+00,1.48e+00,
401,1.76e+00,1.72e+00,
402,1.84e+00,1.84e+00,
403,1.68e+00,1.40e+00,
404,1.76e+00,1.60e+00,
405,1.60e+00,1.32e+00,
406,1.68e+00,1.60e+00,
407,1.56e+00,1.24e+00,
408,1.56e+00,1.16e+00,
409,1.40e+00,1.44e+00,
410,1.52e+00,1.52e+00,
411,1.32e+00,1.12e+00,
412,1.40e+00,1.12e+00,
413,1.24e+00,9.20e-01,
414,1.32e+00,9.20e-01,
415,1.20e+00,1.24e+00,
416,1.12e+00,1.12e+00,
417,1.28e+00,8.80e-01,
418,1.20e+00,1.12e+00,
419,1.08e+00,8.00e-01,
420,1.16e+00,1.08e+00,
421,1.00e+00,7.60e-01,
422,1.08e+00,8.80e-01,
423,9.60e-01,6.80e-01,
424,1.04e+00,6.40e-01,
425,8.80e-01,8.40e-01,
426,9.60e-01,9.20e-01,
427,8.40e-01,6.00e-01,
428,9.20e-01,5.60e-01,
429,7.20e-01,7.60e-01,
430,8.80e-01,8.40e-01,
431,7.20e-01,5.20e-01,
432,7.20e-01,4.40e-01,
433,8.00e-01,6.40e-01,
434,6.40e-01,4.40e-01,
435,7.60e-01,7.20e-01,
436,6.40e-01,6.00e-01,
437,7.60e-01,4.00e-01,
438,6.00e-01,5.60e-01,
439,6.80e-01,3.60e-01,
440,6.00e-01,3.20e-01,
441,6.80e-01,5.60e-01,
442,5.20e-01,4.40e-01,
443,6.40e-01,3.20e-01,
444,4.80e-01,3.20e-01,
445,6.40e-01,5.20e-01,
446,5.20e-01,3.20e-01,
447,6.40e-01,5.20e-01,
448,6.40e-01,4.00e-01,
449,5.20e-01,2.80e-01,
450,6.40e-01,4.80e-01,
451,5.20e-01,2.40e-01,
452,5.20e-01,2.40e-01,
453,6.40e-01,5.20e-01,
454,6.40e-01,4.80e-01,
455,4.80e-01,3.20e-01,
456,6.40e-01,3.20e-01,
457,5.20e-01,5.20e-01,
458,6.00e-01,2.80e-01,
459,5.20e-01,4.80e-01,
460,5.20e-01,3.20e-01,
461,6.40e-01,5.60e-01,
462,6.00e-01,5.20e-01,
463,6.80e-01,3.20e-01,
464,6.80e-01,3.20e-01,
465,6.00e-01,5.20e-01,
466,6.40e-01,6.40e-01,
467,7.60e-01,3.60e-01,
468,6.40e-01,3.60e-01,
469,7.60e-01,7.20e-01,
470,8.00e-01,6.40e-01,
471,7.20e-01,4.40e-01,
472,7.20e-01,7.20e-01,
473,8.40e-01,4.80e-01,
474,7.60e-01,5.20e-01,
475,9.20e-01,8.00e-01,
476,8.40e-01,7.20e-01,
477,1.00e+00,5.60e-01,
478,8.80e-01,6.40e-01,
479,1.04e+00,8.80e-01,
480,9.60e-01,6.00e-01,
481,1.12e+00,8.40e-01,
482,1.00e+00,6.00e-01,
483,1.16e+00,8.80e-01,
484,1.08e+00,7.60e-01,
485,1.20e+00,1.04e+00,
486,1.12e+00,6.80e-01,
487,1.28e+00,1.00e+00,
488,1.24e+00,7.20e-01,
489,1.32e+00,1.12e+00,
490,1.32e+00,9.20e-01,
491,1.44e+00,1.16e+00,
492,1.36e+00,9.60e-01,
493,1.52e+00,1.28e+00,
494,1.44e+00,1.00e+00,
495,1.56e+00,1.28e+00,
496,1.56e+00,1.04e+00,
497,1.68e+00,1.32e+00,
498,1.60e+00,1.08e+00,
499,1.76e+00,1.32e+00,
500,1.72e+00,1.36e+00,
501,1.88e+00,1.08e+00,
502,1.80e+00,1.36e+00,
503,1.92e+00,1.12e+00,
504,1.88e+00,1.16e+00,
505,2.04e+00,1.60e+00,
506,1.96e+00,1.44e+00,
507,2.12e+00,1.80e+00,
508,2.08e+00,1.52e+00,
509,2.24e+00,1.80e+00,
510,2.16e+00,1.80e+00,
511,2.28e+00,1.44e+00,
512,2.24e+00,1.60e+00,
513,2.40e+00,1.96e+00,
514,2.32e+00,1.68e+00,
515,2.52e+00,2.04e+00,
516,2.44e+00,1.72e+00,
517,2.60e+00,2.16e+00,
518,2.56e+00,2.16e+00,
519,2.72e+00,1.84e+00,
520,2.60e+00,1.88e+00,
521,2.80e+00,2.32e+00,
522,2.72e+00,2.00e+00,
523,2.88e+00,2.40e+00,
524,2.84e+00,2.04e+00,
525,3.00e+00,2.48e+00,
526,2.92e+00,2.56e+00,
527,3.08e+00,2.24e+00,
528,3.04e+00,2.24e+00,
529,3.20e+00,2.68e+00,
530,3.08e+00,2.36e+00,
531,3.32e+00,2.68e+00,
532,3.20e+00,2.36e+00,
533,3.36e+00,2.80e+00,
534,3.28e+00,2.80e+00,
535,3.48e+00,2.48e+00,
536,3.40e+00,2.60e+00,
537,3.52e+00,3.00e+00,
538,3.44e+00,2.64e+00,
539,3.64e+00,3.00e+00,
540,3.56e+00,2.68e+00,
541,3.72e+00,3.04e+00,
542,3.64e+00,2.76e+00,
543,3.80e+00,3.12e+00,
544,3.68e+00,2.88e+00,
545,3.92e+00,3.24e+00,
546,3.80e+00,3.20e+00,
547,3.96e+00,2.88e+00,
548,3.88e+00,3.04e+00,
549,4.04e+00,3.40e+00,
550,3.92e+00,3.48e+00,
551,4.08e+00,3.08e+00,
552,4.00e+00,3.08e+00,
553,4.16e+00,3.48e+00,
554,4.20e+00,3.52e+00,
555,4.04e+00,3.28e+00,
556,4.16e+00,3.16e+00,
557,4.28e+00,3.52e+00,
558,4.20e+00,3.32e+00,
559,4.32e+00,3.64e+00,
560,4.24e+00,3.68e+00,
561,4.40e+00,3.32e+00,
562,4.28e+00,3.32e+00,
563,4.44e+00,3.64e+00,
564,4.36e+00,3.56e+00,
565,4.48e+00,3.72e+00,
566,4.52e+00,3.68e+00,
567,4.36e+00,3.76e+00,
568,4.40e+00,3.68e+00,
569,4.56e+00,3.84e+00,
570,4.56e+00,3.84e+00,
571,4.48e+00,3.68e+00,
572,4.48e+00,3.84e+00,
573,4.60e+00,3.72e+00,
574,4.60e+00,3.88e+00,
575,4.48e+00,3.76e+00,
576,4.64e+00,3.88e+00,
577,4.52e+00,3.80e+00,
578,4.52e+00,3.88e+00,
579,4.68e+00,3.80e+00,
580,4.52e+00,3.88e+00,
581,4.68e+00,3.76e+00,
582,4.68e+00,3.80e+00,
583,4.52e+00,3.96e+00,
584,4.68e+00,3.84e+00,
585,4.60e+00,3.96e+00,
586,4.60e+00,3.84e+00,
587,4.68e+00,3.96e+00,
588,4.68e+00,3.96e+00,
589,4.52e+00,3.80e+00,
590,4.52e+00,3.96e+00,
591,4.64e+00,3.80e+00,
592,4.52e+00,3.96e+00,
593,4.64e+00,3.68e+00,
594,4.64e+00,3.88e+00,
595,4.48e+00,3.68e+00,
596,4.56e+00,3.96e+00,
597,4.48e+00,3.64e+00,
598,4.48e+00,3.84e+00,
599,4.56e+00,3.56e+00,
600,4.48e+00,3.88e+00,
601,4.40e+00,3.64e+00,
602,4.48e+00,3.80e+00,
603,4.36e+00,3.48e+00,
604,4.44e+00,3.56e+00,
605,4.28e+00,3.84e+00,
606,4.28e+00,3.76e+00,
607,4.40e+00,3.44e+00,
608,4.32e+00,3.68e+00,
609,4.20e+00,3.32e+00,
610,4.28e+00,3.64e+00,
611,4.16e+00,3.32e+00,
612,4.24e+00,3.60e+00,
613,4.12e+00,3.28e+00,
614,4.20e+00,3.60e+00,
615,4.04e+00,3.28e+00,
616,4.08e+00,3.20e+00,
617,4.00e+00,3.52e+00,
618,4.04e+00,3.48e+00,
619,3.88e+00,3.20e+00,
620,3.96e+00,3.48e+00,
621,3.80e+00,3.08e+00,
622,3.92e+00,3.00e+00,
623,3.76e+00,3.36e+00,
624,3.84e+00,3.36e+00,
625,3.64e+00,3.00e+00,
626,3.72e+00,3.20e+00,
627,3.56e+00,2.84e+00,
628,3.64e+00,2.84e+00,
629,3.52e+00,3.16e+00,
630,3.56e+00,3.12e+00,
631,3.40e+00,2.72e+00,
632,3.48e+00,3.00e+00,
633,3.32e+00,2.64e+00,
634,3.40e+00,3.00e+00,
635,3.24e+00,2.56e+00,
636,3.32e+00,2.84e+00,
637,3.16e+00,2.48e+00,
638,3.20e+00,2.68e+00,
639,3.04e+00,2.36e+00,
640,3.12e+00,2.40e+00,
641,2.96e+00,2.76e+00,
642,3.00e+00,2.72e+00,
643,2.84e+00,2.36e+00,
644,2.96e+00,2.68e+00,
645,2.72e+00,2.28e+00,
646,2.84e+00,2.56e+00,
647,2.68e+00,2.20e+00,
648,2.72e+00,2.48e+00,
649,2.56e+00,2.12e+00,
650,2.64e+00,2.44e+00,
651,2.48e+00,2.12e+00,
652,2.52e+00,2.08e+00,
653,2.40e+00,2.40e+00,
654,2.48e+00,2.28e+00,
655,2.28e+00,2.00e+00,
656,2.36e+00,2.28e+00,
657,2.20e+00,1.96e+00,
658,2.24e+00,2.20e+00,
659,2.08e+00,1.88e+00,
660,2.16e+00,1.64e+00,
661,1.96e+00,1.92e+00,
662,2.04e+00,1.64e+00,
663,1.88e+00,1.92e+00,
664,2.00e+00,1.60e+00,
665,1.84e+00,1.88e+00,
666,1.88e+00,1.88e+00,
667,1.72e+00,1.40e+00,
668,1.80e+00,1.56e+00,
669,1.60e+00,1.28e+00,
670,1.68e+00,1.32e+00,
671,1.56e+00,1.68e+00,
672,1.64e+00,1.44e+00,
673,1.48e+00,1.16e+00,
674,1.56e+00,1.12e+00,
675,1.36e+00,1.44e+00,
676,1.44e+00,1.40e+00,
677,1.32e+00,1.04e+00,
678,1.40e+00,1.00e+00,
679,1.24e+00,1.32e+00,
680,1.20e+00,1.12e+00,
681,1.28e+00,9.20e-01,
682,1.20e+00,1.16e+00,
683,1.08e+00,8.00e-01,
684,1.16e+00,8.00e-01,
685,1.00e+00,1.04e+00,
686,1.12e+00,7.20e-01,
687,9.60e-01,9.60e-01,
688,1.04e+00,6.80e-01,
689,8.80e-01,8.80e-01,
690,9.60e-01,6.40e-01,
691,8.40e-01,8.40e-01,
692,9.20e-01,7.20e-01,
693,7.60e-01,5.60e-01,
694,7.60e-01,8.00e-01,
695,8.80e-01,5.20e-01,
696,8.00e-01,4.40e-01,
697,7.20e-01,7.20e-01,
698,8.00e-01,4.40e-01,
699,6.40e-01,6.40e-01,
700,7.60e-01,6.40e-01,
701,6.00e-01,4.00e-01,
702,6.80e-01,5.20e-01,
703,6.00e-01,3.60e-01,
704,6.00e-01,3.60e-01,
705,6.80e-01,6.40e-01,
706,6.80e-01,2.80e-01,
707,5.20e-01,5.20e-01,
708,5.20e-01,4.80e-01,
709,6.00e-01,3.20e-01,
710,5.20e-01,2.40e-01,
711,6.40e-01,6.00e-01,
712,4.80e-01,5.20e-01,
713,6.40e-01,3.20e-01,
714,5.20e-01,2.80e-01,
715,6.40e-01,4.40e-01,
716,4.80e-01,4.00e-01,
717,6.40e-01,2.40e-01,
718,5.20e-01,3.20e-01,
719,6.40e-01,5.60e-01,
720,6.40e-01,4.40e-01,
721,4.80e-01,2.40e-01,
722,6.40e-01,2.80e-01,
723,4.80e-01,6.00e-01,
724,5.20e-01,5.20e-01,
725,6.00e-01,3.20e-01,
726,6.00e-01,2.40e-01,
727,6.80e-01,6.00e-01,
728,6.80e-01,5.20e-01,
729,6.00e-01,3.20e-01,
730,6.00e-01,3.20e-01,
731,7.20e-01,6.40e-01,
732,7.20e-01,3.60e-01,
733,6.00e-01,6.40e-01,
734,6.40e-01,6.40e-01,
735,8.00e-01,4.00e-01,
736,7.20e-01,6.40e-01,
737,8.40e-01,4.40e-01,
738,7.20e-01,4.80e-01,
739,8.80e-01,7.60e-01,
740,9.20e-01,5.20e-01,
741,8.40e-01,6.40e-01,
742,8.40e-01,5.60e-01,
743,1.00e+00,8.80e-01,
744,9.60e-01,5.60e-01,
745,1.04e+00,7.60e-01,
746,9.60e-01,6.00e-01,
747,1.08e+00,1.00e+00,
748,1.08e+00,7.60e-01,
749,1.16e+00,6.40e-01,
750,1.08e+00,6.00e-01,
751,1.28e+00,8.80e-01,
752,1.20e+00,7.20e-01,
753,1.32e+00,1.12e+00,
754,1.24e+00,9.20e-01,
755,1.40e+00,1.24e+00,
756,1.32e+00,9.60e-01,
757,1.44e+00,1.24e+00,
758,1.36e+00,1.32e+00,
759,1.56e+00,1.04e+00,
760,1.48e+00,1.08e+00,
761,1.64e+00,1.48e+00,
762,1.56e+00,1.20e+00,
763,1.76e+00,1.56e+00,
764,1.64e+00,1.32e+00,
765,1.80e+00,1.64e+00,
766,1.72e+00,1.40e+00,
767,1.92e+00,1.64e+00,
768,1.84e+00,1.64e+00,
769,2.00e+00,1.40e+00,
770,1.92e+00,1.40e+00,
771,2.12e+00,1.68e+00,
772,2.04e+00,1.68e+00,
773,2.16e+00,1.40e+00,
774,2.12e+00,1.40e+00,
775,2.28e+00,1.72e+00,
776,2.20e+00,1.44e+00,
777,2.36e+00,1.92e+00,
778,2.24e+00,1.56e+00,
779,2.48e+00,1.92e+00,
780,2.40e+00,2.00e+00,
781,2.60e+00,1.72e+00,
782,2.48e+00,1.76e+00,
783,2.64e+00,2.12e+00,
784,2.56e+00,1.84e+00,
785,2.76e+00,2.28e+00,
786,2.68e+00,2.32e+00,
787,2.88e+00,2.00e+00,
788,2.80e+00,2.00e+00,
789,2.96e+00,2.36e+00,
790,2.84e+00,2.44e+00,
791,3.04e+00,2.12e+00,
792,2.96e+00,2.20e+00,
793,3.12e+00,2.56e+00,
794,3.08e+00,2.28e+00,
795,3.24e+00,2.64e+00,
796,3.16e+00,2.32e+00,
797,3.32e+00,2.76e+00,
798,3.28e+00,2.80e+00,
799,3.44e+00,2.44e+00,
800,3.32e+00,2.48e+00,
801,3.48e+00,2.88e+00,
802,3.44e+00,2.60e+00,
803,3.60e+00,3.00e+00,
804,3.52e+00,2.64e+00,
805,3.68e+00,3.04e+00,
806,3.56e+00,3.12e+00,
807,3.76e+00,2.76e+00,
808,3.68e+00,3.12e+00,
809,3.84e+00,2.80e+00,
810,3.76e+00,2.84e+00,
811,3.92e+00,3.28e+00,
812,3.80e+00,3.28e+00,
813,3.96e+00,2.96e+00,
814,3.92e+00,2.96e+00,
815,4.04e+00,3.40e+00,
816,3.92e+00,3.44e+00,
817,4.16e+00,3.08e+00,
818,4.04e+00,3.08e+00,
819,4.20e+00,3.48e+00,
820,4.12e+00,3.32e+00,
821,4.24e+00,3.60e+00,
822,4.16e+00,3.28e+00,
823,4.32e+00,3.56e+00,
824,4.24e+00,3.48e+00,
825,4.36e+00,3.64e+00,
826,4.28e+00,3.72e+00,
827,4.40e+00,3.40e+00,
828,4.36e+00,3.52e+00,
829,4.44e+00,3.72e+00,
830,4.36e+00,3.68e+00,
831,4.52e+00,3.76e+00,
832,4.52e+00,3.76e+00,
833,4.40e+00,3.48e+00,
834,4.48e+00,3.68e+00,
835,4.56e+00,3.76e+00,
836,4.48e+00,3.84e+00,
837,4.56e+00,3.68e+00,
838,4.52e+00,3.72e+00,
839,4.64e+00,3.88e+00,
840,4.60e+00,3.72e+00,
841,4.52e+00,3.88e+00,
842,4.52e+00,3.88e+00,
843,4.64e+00,3.76e+00,
844,4.64e+00,3.80e+00,
845,4.52e+00,3.96e+00,
846,4.68e+00,3.80e+00,
847,4.56e+00,3.88e+00,
848,4.68e+00,3.88e+00,
849,4.60e+00,3.80e+00,
850,4.68e+00,3.80e+00,
851,4.52e+00,3.96e+00,
852,4.68e+00,3.96e+00,
853,4.52e+00,3.80e+00,
854,4.64e+00,3.96e+00,
855,4.52e+00,3.80e+00,
856,4.52e+00,3.96e+00,
857,4.60e+00,3.84e+00,
858,4.64e+00,3.92e+00,
859,4.48e+00,3.64e+00,
860,4.60e+00,3.72e+00,
861,4.48e+00,3.96e+00,
862,4.48e+00,3.88e+00,
863,4.56e+00,3.56e+00,
864,4.56e+00,3.68e+00,
865,4.40e+00,3.88e+00,
866,4.40e+00,3.88e+00,
867,4.52e+00,3.52e+00,
868,4.36e+00,3.44e+00,
869,4.44e+00,3.76e+00,
870,4.44e+00,3.76e+00,
